[
  {
    "model":"Star, type G0(v)",
    "name":"Star, type G0(v)",
    "type":"WB_REF",
    "dataQualityMarker":3,
    "dataSource":"https://www.eso.org/sci/facilities/paranal/decommissioned/isaac/tools/lib.html",
    "manufacturer":"A. Pickles (A.J. Pickles, PASP 110,863, 1998)",
    "version":1,
    "wavelength":{
      "value":[
        1150.0,
        1155.0,
        1160.0,
        1165.0,
        1170.0,
        1175.0,
        1180.0,
        1185.0,
        1190.0,
        1195.0,
        1200.0,
        1205.0,
        1210.0,
        1215.0,
        1220.0,
        1225.0,
        1230.0,
        1235.0,
        1240.0,
        1245.0,
        1250.0,
        1255.0,
        1260.0,
        1265.0,
        1270.0,
        1275.0,
        1280.0,
        1285.0,
        1290.0,
        1295.0,
        1300.0,
        1305.0,
        1310.0,
        1315.0,
        1320.0,
        1325.0,
        1330.0,
        1335.0,
        1340.0,
        1345.0,
        1350.0,
        1355.0,
        1360.0,
        1365.0,
        1370.0,
        1375.0,
        1380.0,
        1385.0,
        1390.0,
        1395.0,
        1400.0,
        1405.0,
        1410.0,
        1415.0,
        1420.0,
        1425.0,
        1430.0,
        1435.0,
        1440.0,
        1445.0,
        1450.0,
        1455.0,
        1460.0,
        1465.0,
        1470.0,
        1475.0,
        1480.0,
        1485.0,
        1490.0,
        1495.0,
        1500.0,
        1505.0,
        1510.0,
        1515.0,
        1520.0,
        1525.0,
        1530.0,
        1535.0,
        1540.0,
        1545.0,
        1550.0,
        1555.0,
        1560.0,
        1565.0,
        1570.0,
        1575.0,
        1580.0,
        1585.0,
        1590.0,
        1595.0,
        1600.0,
        1605.0,
        1610.0,
        1615.0,
        1620.0,
        1625.0,
        1630.0,
        1635.0,
        1640.0,
        1645.0,
        1650.0,
        1655.0,
        1660.0,
        1665.0,
        1670.0,
        1675.0,
        1680.0,
        1685.0,
        1690.0,
        1695.0,
        1700.0,
        1705.0,
        1710.0,
        1715.0,
        1720.0,
        1725.0,
        1730.0,
        1735.0,
        1740.0,
        1745.0,
        1750.0,
        1755.0,
        1760.0,
        1765.0,
        1770.0,
        1775.0,
        1780.0,
        1785.0,
        1790.0,
        1795.0,
        1800.0,
        1805.0,
        1810.0,
        1815.0,
        1820.0,
        1825.0,
        1830.0,
        1835.0,
        1840.0,
        1845.0,
        1850.0,
        1855.0,
        1860.0,
        1865.0,
        1870.0,
        1875.0,
        1880.0,
        1885.0,
        1890.0,
        1895.0,
        1900.0,
        1905.0,
        1910.0,
        1915.0,
        1920.0,
        1925.0,
        1930.0,
        1935.0,
        1940.0,
        1945.0,
        1950.0,
        1955.0,
        1960.0,
        1965.0,
        1970.0,
        1975.0,
        1980.0,
        1985.0,
        1990.0,
        1995.0,
        2000.0,
        2005.0,
        2010.0,
        2015.0,
        2020.0,
        2025.0,
        2030.0,
        2035.0,
        2040.0,
        2045.0,
        2050.0,
        2055.0,
        2060.0,
        2065.0,
        2070.0,
        2075.0,
        2080.0,
        2085.0,
        2090.0,
        2095.0,
        2100.0,
        2105.0,
        2110.0,
        2115.0,
        2120.0,
        2125.0,
        2130.0,
        2135.0,
        2140.0,
        2145.0,
        2150.0,
        2155.0,
        2160.0,
        2165.0,
        2170.0,
        2175.0,
        2180.0,
        2185.0,
        2190.0,
        2195.0,
        2200.0,
        2205.0,
        2210.0,
        2215.0,
        2220.0,
        2225.0,
        2230.0,
        2235.0,
        2240.0,
        2245.0,
        2250.0,
        2255.0,
        2260.0,
        2265.0,
        2270.0,
        2275.0,
        2280.0,
        2285.0,
        2290.0,
        2295.0,
        2300.0,
        2305.0,
        2310.0,
        2315.0,
        2320.0,
        2325.0,
        2330.0,
        2335.0,
        2340.0,
        2345.0,
        2350.0,
        2355.0,
        2360.0,
        2365.0,
        2370.0,
        2375.0,
        2380.0,
        2385.0,
        2390.0,
        2395.0,
        2400.0,
        2405.0,
        2410.0,
        2415.0,
        2420.0,
        2425.0,
        2430.0,
        2435.0,
        2440.0,
        2445.0,
        2450.0,
        2455.0,
        2460.0,
        2465.0,
        2470.0,
        2475.0,
        2480.0,
        2485.0,
        2490.0,
        2495.0,
        2500.0,
        2505.0,
        2510.0,
        2515.0,
        2520.0,
        2525.0,
        2530.0,
        2535.0,
        2540.0,
        2545.0,
        2550.0,
        2555.0,
        2560.0,
        2565.0,
        2570.0,
        2575.0,
        2580.0,
        2585.0,
        2590.0,
        2595.0,
        2600.0,
        2605.0,
        2610.0,
        2615.0,
        2620.0,
        2625.0,
        2630.0,
        2635.0,
        2640.0,
        2645.0,
        2650.0,
        2655.0,
        2660.0,
        2665.0,
        2670.0,
        2675.0,
        2680.0,
        2685.0,
        2690.0,
        2695.0,
        2700.0,
        2705.0,
        2710.0,
        2715.0,
        2720.0,
        2725.0,
        2730.0,
        2735.0,
        2740.0,
        2745.0,
        2750.0,
        2755.0,
        2760.0,
        2765.0,
        2770.0,
        2775.0,
        2780.0,
        2785.0,
        2790.0,
        2795.0,
        2800.0,
        2805.0,
        2810.0,
        2815.0,
        2820.0,
        2825.0,
        2830.0,
        2835.0,
        2840.0,
        2845.0,
        2850.0,
        2855.0,
        2860.0,
        2865.0,
        2870.0,
        2875.0,
        2880.0,
        2885.0,
        2890.0,
        2895.0,
        2900.0,
        2905.0,
        2910.0,
        2915.0,
        2920.0,
        2925.0,
        2930.0,
        2935.0,
        2940.0,
        2945.0,
        2950.0,
        2955.0,
        2960.0,
        2965.0,
        2970.0,
        2975.0,
        2980.0,
        2985.0,
        2990.0,
        2995.0,
        3000.0,
        3005.0,
        3010.0,
        3015.0,
        3020.0,
        3025.0,
        3030.0,
        3035.0,
        3040.0,
        3045.0,
        3050.0,
        3055.0,
        3060.0,
        3065.0,
        3070.0,
        3075.0,
        3080.0,
        3085.0,
        3090.0,
        3095.0,
        3100.0,
        3105.0,
        3110.0,
        3115.0,
        3120.0,
        3125.0,
        3130.0,
        3135.0,
        3140.0,
        3145.0,
        3150.0,
        3155.0,
        3160.0,
        3165.0,
        3170.0,
        3175.0,
        3180.0,
        3185.0,
        3190.0,
        3195.0,
        3200.0,
        3205.0,
        3210.0,
        3215.0,
        3220.0,
        3225.0,
        3230.0,
        3235.0,
        3240.0,
        3245.0,
        3250.0,
        3255.0,
        3260.0,
        3265.0,
        3270.0,
        3275.0,
        3280.0,
        3285.0,
        3290.0,
        3295.0,
        3300.0,
        3305.0,
        3310.0,
        3315.0,
        3320.0,
        3325.0,
        3330.0,
        3335.0,
        3340.0,
        3345.0,
        3350.0,
        3355.0,
        3360.0,
        3365.0,
        3370.0,
        3375.0,
        3380.0,
        3385.0,
        3390.0,
        3395.0,
        3400.0,
        3405.0,
        3410.0,
        3415.0,
        3420.0,
        3425.0,
        3430.0,
        3435.0,
        3440.0,
        3445.0,
        3450.0,
        3455.0,
        3460.0,
        3465.0,
        3470.0,
        3475.0,
        3480.0,
        3485.0,
        3490.0,
        3495.0,
        3500.0,
        3505.0,
        3510.0,
        3515.0,
        3520.0,
        3525.0,
        3530.0,
        3535.0,
        3540.0,
        3545.0,
        3550.0,
        3555.0,
        3560.0,
        3565.0,
        3570.0,
        3575.0,
        3580.0,
        3585.0,
        3590.0,
        3595.0,
        3600.0,
        3605.0,
        3610.0,
        3615.0,
        3620.0,
        3625.0,
        3630.0,
        3635.0,
        3640.0,
        3645.0,
        3650.0,
        3655.0,
        3660.0,
        3665.0,
        3670.0,
        3675.0,
        3680.0,
        3685.0,
        3690.0,
        3695.0,
        3700.0,
        3705.0,
        3710.0,
        3715.0,
        3720.0,
        3725.0,
        3730.0,
        3735.0,
        3740.0,
        3745.0,
        3750.0,
        3755.0,
        3760.0,
        3765.0,
        3770.0,
        3775.0,
        3780.0,
        3785.0,
        3790.0,
        3795.0,
        3800.0,
        3805.0,
        3810.0,
        3815.0,
        3820.0,
        3825.0,
        3830.0,
        3835.0,
        3840.0,
        3845.0,
        3850.0,
        3855.0,
        3860.0,
        3865.0,
        3870.0,
        3875.0,
        3880.0,
        3885.0,
        3890.0,
        3895.0,
        3900.0,
        3905.0,
        3910.0,
        3915.0,
        3920.0,
        3925.0,
        3930.0,
        3935.0,
        3940.0,
        3945.0,
        3950.0,
        3955.0,
        3960.0,
        3965.0,
        3970.0,
        3975.0,
        3980.0,
        3985.0,
        3990.0,
        3995.0,
        4000.0,
        4005.0,
        4010.0,
        4015.0,
        4020.0,
        4025.0,
        4030.0,
        4035.0,
        4040.0,
        4045.0,
        4050.0,
        4055.0,
        4060.0,
        4065.0,
        4070.0,
        4075.0,
        4080.0,
        4085.0,
        4090.0,
        4095.0,
        4100.0,
        4105.0,
        4110.0,
        4115.0,
        4120.0,
        4125.0,
        4130.0,
        4135.0,
        4140.0,
        4145.0,
        4150.0,
        4155.0,
        4160.0,
        4165.0,
        4170.0,
        4175.0,
        4180.0,
        4185.0,
        4190.0,
        4195.0,
        4200.0,
        4205.0,
        4210.0,
        4215.0,
        4220.0,
        4225.0,
        4230.0,
        4235.0,
        4240.0,
        4245.0,
        4250.0,
        4255.0,
        4260.0,
        4265.0,
        4270.0,
        4275.0,
        4280.0,
        4285.0,
        4290.0,
        4295.0,
        4300.0,
        4305.0,
        4310.0,
        4315.0,
        4320.0,
        4325.0,
        4330.0,
        4335.0,
        4340.0,
        4345.0,
        4350.0,
        4355.0,
        4360.0,
        4365.0,
        4370.0,
        4375.0,
        4380.0,
        4385.0,
        4390.0,
        4395.0,
        4400.0,
        4405.0,
        4410.0,
        4415.0,
        4420.0,
        4425.0,
        4430.0,
        4435.0,
        4440.0,
        4445.0,
        4450.0,
        4455.0,
        4460.0,
        4465.0,
        4470.0,
        4475.0,
        4480.0,
        4485.0,
        4490.0,
        4495.0,
        4500.0,
        4505.0,
        4510.0,
        4515.0,
        4520.0,
        4525.0,
        4530.0,
        4535.0,
        4540.0,
        4545.0,
        4550.0,
        4555.0,
        4560.0,
        4565.0,
        4570.0,
        4575.0,
        4580.0,
        4585.0,
        4590.0,
        4595.0,
        4600.0,
        4605.0,
        4610.0,
        4615.0,
        4620.0,
        4625.0,
        4630.0,
        4635.0,
        4640.0,
        4645.0,
        4650.0,
        4655.0,
        4660.0,
        4665.0,
        4670.0,
        4675.0,
        4680.0,
        4685.0,
        4690.0,
        4695.0,
        4700.0,
        4705.0,
        4710.0,
        4715.0,
        4720.0,
        4725.0,
        4730.0,
        4735.0,
        4740.0,
        4745.0,
        4750.0,
        4755.0,
        4760.0,
        4765.0,
        4770.0,
        4775.0,
        4780.0,
        4785.0,
        4790.0,
        4795.0,
        4800.0,
        4805.0,
        4810.0,
        4815.0,
        4820.0,
        4825.0,
        4830.0,
        4835.0,
        4840.0,
        4845.0,
        4850.0,
        4855.0,
        4860.0,
        4865.0,
        4870.0,
        4875.0,
        4880.0,
        4885.0,
        4890.0,
        4895.0,
        4900.0,
        4905.0,
        4910.0,
        4915.0,
        4920.0,
        4925.0,
        4930.0,
        4935.0,
        4940.0,
        4945.0,
        4950.0,
        4955.0,
        4960.0,
        4965.0,
        4970.0,
        4975.0,
        4980.0,
        4985.0,
        4990.0,
        4995.0,
        5000.0,
        5005.0,
        5010.0,
        5015.0,
        5020.0,
        5025.0,
        5030.0,
        5035.0,
        5040.0,
        5045.0,
        5050.0,
        5055.0,
        5060.0,
        5065.0,
        5070.0,
        5075.0,
        5080.0,
        5085.0,
        5090.0,
        5095.0,
        5100.0,
        5105.0,
        5110.0,
        5115.0,
        5120.0,
        5125.0,
        5130.0,
        5135.0,
        5140.0,
        5145.0,
        5150.0,
        5155.0,
        5160.0,
        5165.0,
        5170.0,
        5175.0,
        5180.0,
        5185.0,
        5190.0,
        5195.0,
        5200.0,
        5205.0,
        5210.0,
        5215.0,
        5220.0,
        5225.0,
        5230.0,
        5235.0,
        5240.0,
        5245.0,
        5250.0,
        5255.0,
        5260.0,
        5265.0,
        5270.0,
        5275.0,
        5280.0,
        5285.0,
        5290.0,
        5295.0,
        5300.0,
        5305.0,
        5310.0,
        5315.0,
        5320.0,
        5325.0,
        5330.0,
        5335.0,
        5340.0,
        5345.0,
        5350.0,
        5355.0,
        5360.0,
        5365.0,
        5370.0,
        5375.0,
        5380.0,
        5385.0,
        5390.0,
        5395.0,
        5400.0,
        5405.0,
        5410.0,
        5415.0,
        5420.0,
        5425.0,
        5430.0,
        5435.0,
        5440.0,
        5445.0,
        5450.0,
        5455.0,
        5460.0,
        5465.0,
        5470.0,
        5475.0,
        5480.0,
        5485.0,
        5490.0,
        5495.0,
        5500.0,
        5505.0,
        5510.0,
        5515.0,
        5520.0,
        5525.0,
        5530.0,
        5535.0,
        5540.0,
        5545.0,
        5550.0,
        5555.0,
        5560.0,
        5565.0,
        5570.0,
        5575.0,
        5580.0,
        5585.0,
        5590.0,
        5595.0,
        5600.0,
        5605.0,
        5610.0,
        5615.0,
        5620.0,
        5625.0,
        5630.0,
        5635.0,
        5640.0,
        5645.0,
        5650.0,
        5655.0,
        5660.0,
        5665.0,
        5670.0,
        5675.0,
        5680.0,
        5685.0,
        5690.0,
        5695.0,
        5700.0,
        5705.0,
        5710.0,
        5715.0,
        5720.0,
        5725.0,
        5730.0,
        5735.0,
        5740.0,
        5745.0,
        5750.0,
        5755.0,
        5760.0,
        5765.0,
        5770.0,
        5775.0,
        5780.0,
        5785.0,
        5790.0,
        5795.0,
        5800.0,
        5805.0,
        5810.0,
        5815.0,
        5820.0,
        5825.0,
        5830.0,
        5835.0,
        5840.0,
        5845.0,
        5850.0,
        5855.0,
        5860.0,
        5865.0,
        5870.0,
        5875.0,
        5880.0,
        5885.0,
        5890.0,
        5895.0,
        5900.0,
        5905.0,
        5910.0,
        5915.0,
        5920.0,
        5925.0,
        5930.0,
        5935.0,
        5940.0,
        5945.0,
        5950.0,
        5955.0,
        5960.0,
        5965.0,
        5970.0,
        5975.0,
        5980.0,
        5985.0,
        5990.0,
        5995.0,
        6000.0,
        6005.0,
        6010.0,
        6015.0,
        6020.0,
        6025.0,
        6030.0,
        6035.0,
        6040.0,
        6045.0,
        6050.0,
        6055.0,
        6060.0,
        6065.0,
        6070.0,
        6075.0,
        6080.0,
        6085.0,
        6090.0,
        6095.0,
        6100.0,
        6105.0,
        6110.0,
        6115.0,
        6120.0,
        6125.0,
        6130.0,
        6135.0,
        6140.0,
        6145.0,
        6150.0,
        6155.0,
        6160.0,
        6165.0,
        6170.0,
        6175.0,
        6180.0,
        6185.0,
        6190.0,
        6195.0,
        6200.0,
        6205.0,
        6210.0,
        6215.0,
        6220.0,
        6225.0,
        6230.0,
        6235.0,
        6240.0,
        6245.0,
        6250.0,
        6255.0,
        6260.0,
        6265.0,
        6270.0,
        6275.0,
        6280.0,
        6285.0,
        6290.0,
        6295.0,
        6300.0,
        6305.0,
        6310.0,
        6315.0,
        6320.0,
        6325.0,
        6330.0,
        6335.0,
        6340.0,
        6345.0,
        6350.0,
        6355.0,
        6360.0,
        6365.0,
        6370.0,
        6375.0,
        6380.0,
        6385.0,
        6390.0,
        6395.0,
        6400.0,
        6405.0,
        6410.0,
        6415.0,
        6420.0,
        6425.0,
        6430.0,
        6435.0,
        6440.0,
        6445.0,
        6450.0,
        6455.0,
        6460.0,
        6465.0,
        6470.0,
        6475.0,
        6480.0,
        6485.0,
        6490.0,
        6495.0,
        6500.0,
        6505.0,
        6510.0,
        6515.0,
        6520.0,
        6525.0,
        6530.0,
        6535.0,
        6540.0,
        6545.0,
        6550.0,
        6555.0,
        6560.0,
        6565.0,
        6570.0,
        6575.0,
        6580.0,
        6585.0,
        6590.0,
        6595.0,
        6600.0,
        6605.0,
        6610.0,
        6615.0,
        6620.0,
        6625.0,
        6630.0,
        6635.0,
        6640.0,
        6645.0,
        6650.0,
        6655.0,
        6660.0,
        6665.0,
        6670.0,
        6675.0,
        6680.0,
        6685.0,
        6690.0,
        6695.0,
        6700.0,
        6705.0,
        6710.0,
        6715.0,
        6720.0,
        6725.0,
        6730.0,
        6735.0,
        6740.0,
        6745.0,
        6750.0,
        6755.0,
        6760.0,
        6765.0,
        6770.0,
        6775.0,
        6780.0,
        6785.0,
        6790.0,
        6795.0,
        6800.0,
        6805.0,
        6810.0,
        6815.0,
        6820.0,
        6825.0,
        6830.0,
        6835.0,
        6840.0,
        6845.0,
        6850.0,
        6855.0,
        6860.0,
        6865.0,
        6870.0,
        6875.0,
        6880.0,
        6885.0,
        6890.0,
        6895.0,
        6900.0,
        6905.0,
        6910.0,
        6915.0,
        6920.0,
        6925.0,
        6930.0,
        6935.0,
        6940.0,
        6945.0,
        6950.0,
        6955.0,
        6960.0,
        6965.0,
        6970.0,
        6975.0,
        6980.0,
        6985.0,
        6990.0,
        6995.0,
        7000.0,
        7005.0,
        7010.0,
        7015.0,
        7020.0,
        7025.0,
        7030.0,
        7035.0,
        7040.0,
        7045.0,
        7050.0,
        7055.0,
        7060.0,
        7065.0,
        7070.0,
        7075.0,
        7080.0,
        7085.0,
        7090.0,
        7095.0,
        7100.0,
        7105.0,
        7110.0,
        7115.0,
        7120.0,
        7125.0,
        7130.0,
        7135.0,
        7140.0,
        7145.0,
        7150.0,
        7155.0,
        7160.0,
        7165.0,
        7170.0,
        7175.0,
        7180.0,
        7185.0,
        7190.0,
        7195.0,
        7200.0,
        7205.0,
        7210.0,
        7215.0,
        7220.0,
        7225.0,
        7230.0,
        7235.0,
        7240.0,
        7245.0,
        7250.0,
        7255.0,
        7260.0,
        7265.0,
        7270.0,
        7275.0,
        7280.0,
        7285.0,
        7290.0,
        7295.0,
        7300.0,
        7305.0,
        7310.0,
        7315.0,
        7320.0,
        7325.0,
        7330.0,
        7335.0,
        7340.0,
        7345.0,
        7350.0,
        7355.0,
        7360.0,
        7365.0,
        7370.0,
        7375.0,
        7380.0,
        7385.0,
        7390.0,
        7395.0,
        7400.0,
        7405.0,
        7410.0,
        7415.0,
        7420.0,
        7425.0,
        7430.0,
        7435.0,
        7440.0,
        7445.0,
        7450.0,
        7455.0,
        7460.0,
        7465.0,
        7470.0,
        7475.0,
        7480.0,
        7485.0,
        7490.0,
        7495.0,
        7500.0,
        7505.0,
        7510.0,
        7515.0,
        7520.0,
        7525.0,
        7530.0,
        7535.0,
        7540.0,
        7545.0,
        7550.0,
        7555.0,
        7560.0,
        7565.0,
        7570.0,
        7575.0,
        7580.0,
        7585.0,
        7590.0,
        7595.0,
        7600.0,
        7605.0,
        7610.0,
        7615.0,
        7620.0,
        7625.0,
        7630.0,
        7635.0,
        7640.0,
        7645.0,
        7650.0,
        7655.0,
        7660.0,
        7665.0,
        7670.0,
        7675.0,
        7680.0,
        7685.0,
        7690.0,
        7695.0,
        7700.0,
        7705.0,
        7710.0,
        7715.0,
        7720.0,
        7725.0,
        7730.0,
        7735.0,
        7740.0,
        7745.0,
        7750.0,
        7755.0,
        7760.0,
        7765.0,
        7770.0,
        7775.0,
        7780.0,
        7785.0,
        7790.0,
        7795.0,
        7800.0,
        7805.0,
        7810.0,
        7815.0,
        7820.0,
        7825.0,
        7830.0,
        7835.0,
        7840.0,
        7845.0,
        7850.0,
        7855.0,
        7860.0,
        7865.0,
        7870.0,
        7875.0,
        7880.0,
        7885.0,
        7890.0,
        7895.0,
        7900.0,
        7905.0,
        7910.0,
        7915.0,
        7920.0,
        7925.0,
        7930.0,
        7935.0,
        7940.0,
        7945.0,
        7950.0,
        7955.0,
        7960.0,
        7965.0,
        7970.0,
        7975.0,
        7980.0,
        7985.0,
        7990.0,
        7995.0,
        8000.0,
        8005.0,
        8010.0,
        8015.0,
        8020.0,
        8025.0,
        8030.0,
        8035.0,
        8040.0,
        8045.0,
        8050.0,
        8055.0,
        8060.0,
        8065.0,
        8070.0,
        8075.0,
        8080.0,
        8085.0,
        8090.0,
        8095.0,
        8100.0,
        8105.0,
        8110.0,
        8115.0,
        8120.0,
        8125.0,
        8130.0,
        8135.0,
        8140.0,
        8145.0,
        8150.0,
        8155.0,
        8160.0,
        8165.0,
        8170.0,
        8175.0,
        8180.0,
        8185.0,
        8190.0,
        8195.0,
        8200.0,
        8205.0,
        8210.0,
        8215.0,
        8220.0,
        8225.0,
        8230.0,
        8235.0,
        8240.0,
        8245.0,
        8250.0,
        8255.0,
        8260.0,
        8265.0,
        8270.0,
        8275.0,
        8280.0,
        8285.0,
        8290.0,
        8295.0,
        8300.0,
        8305.0,
        8310.0,
        8315.0,
        8320.0,
        8325.0,
        8330.0,
        8335.0,
        8340.0,
        8345.0,
        8350.0,
        8355.0,
        8360.0,
        8365.0,
        8370.0,
        8375.0,
        8380.0,
        8385.0,
        8390.0,
        8395.0,
        8400.0,
        8405.0,
        8410.0,
        8415.0,
        8420.0,
        8425.0,
        8430.0,
        8435.0,
        8440.0,
        8445.0,
        8450.0,
        8455.0,
        8460.0,
        8465.0,
        8470.0,
        8475.0,
        8480.0,
        8485.0,
        8490.0,
        8495.0,
        8500.0,
        8505.0,
        8510.0,
        8515.0,
        8520.0,
        8525.0,
        8530.0,
        8535.0,
        8540.0,
        8545.0,
        8550.0,
        8555.0,
        8560.0,
        8565.0,
        8570.0,
        8575.0,
        8580.0,
        8585.0,
        8590.0,
        8595.0,
        8600.0,
        8605.0,
        8610.0,
        8615.0,
        8620.0,
        8625.0,
        8630.0,
        8635.0,
        8640.0,
        8645.0,
        8650.0,
        8655.0,
        8660.0,
        8665.0,
        8670.0,
        8675.0,
        8680.0,
        8685.0,
        8690.0,
        8695.0,
        8700.0,
        8705.0,
        8710.0,
        8715.0,
        8720.0,
        8725.0,
        8730.0,
        8735.0,
        8740.0,
        8745.0,
        8750.0,
        8755.0,
        8760.0,
        8765.0,
        8770.0,
        8775.0,
        8780.0,
        8785.0,
        8790.0,
        8795.0,
        8800.0,
        8805.0,
        8810.0,
        8815.0,
        8820.0,
        8825.0,
        8830.0,
        8835.0,
        8840.0,
        8845.0,
        8850.0,
        8855.0,
        8860.0,
        8865.0,
        8870.0,
        8875.0,
        8880.0,
        8885.0,
        8890.0,
        8895.0,
        8900.0,
        8905.0,
        8910.0,
        8915.0,
        8920.0,
        8925.0,
        8930.0,
        8935.0,
        8940.0,
        8945.0,
        8950.0,
        8955.0,
        8960.0,
        8965.0,
        8970.0,
        8975.0,
        8980.0,
        8985.0,
        8990.0,
        8995.0,
        9000.0,
        9005.0,
        9010.0,
        9015.0,
        9020.0,
        9025.0,
        9030.0,
        9035.0,
        9040.0,
        9045.0,
        9050.0,
        9055.0,
        9060.0,
        9065.0,
        9070.0,
        9075.0,
        9080.0,
        9085.0,
        9090.0,
        9095.0,
        9100.0,
        9105.0,
        9110.0,
        9115.0,
        9120.0,
        9125.0,
        9130.0,
        9135.0,
        9140.0,
        9145.0,
        9150.0,
        9155.0,
        9160.0,
        9165.0,
        9170.0,
        9175.0,
        9180.0,
        9185.0,
        9190.0,
        9195.0,
        9200.0,
        9205.0,
        9210.0,
        9215.0,
        9220.0,
        9225.0,
        9230.0,
        9235.0,
        9240.0,
        9245.0,
        9250.0,
        9255.0,
        9260.0,
        9265.0,
        9270.0,
        9275.0,
        9280.0,
        9285.0,
        9290.0,
        9295.0,
        9300.0,
        9305.0,
        9310.0,
        9315.0,
        9320.0,
        9325.0,
        9330.0,
        9335.0,
        9340.0,
        9345.0,
        9350.0,
        9355.0,
        9360.0,
        9365.0,
        9370.0,
        9375.0,
        9380.0,
        9385.0,
        9390.0,
        9395.0,
        9400.0,
        9405.0,
        9410.0,
        9415.0,
        9420.0,
        9425.0,
        9430.0,
        9435.0,
        9440.0,
        9445.0,
        9450.0,
        9455.0,
        9460.0,
        9465.0,
        9470.0,
        9475.0,
        9480.0,
        9485.0,
        9490.0,
        9495.0,
        9500.0,
        9505.0,
        9510.0,
        9515.0,
        9520.0,
        9525.0,
        9530.0,
        9535.0,
        9540.0,
        9545.0,
        9550.0,
        9555.0,
        9560.0,
        9565.0,
        9570.0,
        9575.0,
        9580.0,
        9585.0,
        9590.0,
        9595.0,
        9600.0,
        9605.0,
        9610.0,
        9615.0,
        9620.0,
        9625.0,
        9630.0,
        9635.0,
        9640.0,
        9645.0,
        9650.0,
        9655.0,
        9660.0,
        9665.0,
        9670.0,
        9675.0,
        9680.0,
        9685.0,
        9690.0,
        9695.0,
        9700.0,
        9705.0,
        9710.0,
        9715.0,
        9720.0,
        9725.0,
        9730.0,
        9735.0,
        9740.0,
        9745.0,
        9750.0,
        9755.0,
        9760.0,
        9765.0,
        9770.0,
        9775.0,
        9780.0,
        9785.0,
        9790.0,
        9795.0,
        9800.0,
        9805.0,
        9810.0,
        9815.0,
        9820.0,
        9825.0,
        9830.0,
        9835.0,
        9840.0,
        9845.0,
        9850.0,
        9855.0,
        9860.0,
        9865.0,
        9870.0,
        9875.0,
        9880.0,
        9885.0,
        9890.0,
        9895.0,
        9900.0,
        9905.0,
        9910.0,
        9915.0,
        9920.0,
        9925.0,
        9930.0,
        9935.0,
        9940.0,
        9945.0,
        9950.0,
        9955.0,
        9960.0,
        9965.0,
        9970.0,
        9975.0,
        9980.0,
        9985.0,
        9990.0,
        9995.0,
        10000.0,
        10005.0,
        10010.0,
        10015.0,
        10020.0,
        10025.0,
        10030.0,
        10035.0,
        10040.0,
        10045.0,
        10050.0,
        10055.0,
        10060.0,
        10065.0,
        10070.0,
        10075.0,
        10080.0,
        10085.0,
        10090.0,
        10095.0,
        10100.0,
        10105.0,
        10110.0,
        10115.0,
        10120.0,
        10125.0,
        10130.0,
        10135.0,
        10140.0,
        10145.0,
        10150.0,
        10155.0,
        10160.0,
        10165.0,
        10170.0,
        10175.0,
        10180.0,
        10185.0,
        10190.0,
        10195.0,
        10200.0,
        10205.0,
        10210.0,
        10215.0,
        10220.0,
        10225.0,
        10230.0,
        10235.0,
        10240.0,
        10245.0,
        10250.0,
        10255.0,
        10260.0,
        10265.0,
        10270.0,
        10275.0,
        10280.0,
        10285.0,
        10290.0,
        10295.0,
        10300.0,
        10305.0,
        10310.0,
        10315.0,
        10320.0,
        10325.0,
        10330.0,
        10335.0,
        10340.0,
        10345.0,
        10350.0,
        10355.0,
        10360.0,
        10365.0,
        10370.0,
        10375.0,
        10380.0,
        10385.0,
        10390.0,
        10395.0,
        10400.0,
        10405.0,
        10410.0,
        10415.0,
        10420.0,
        10425.0,
        10430.0,
        10435.0,
        10440.0,
        10445.0,
        10450.0,
        10455.0,
        10460.0,
        10465.0,
        10470.0,
        10475.0,
        10480.0,
        10485.0,
        10490.0,
        10495.0,
        10500.0
      ],
      "units":"angstrom"
    },
    "values":{
      "value":[
        0.005568,
        0.006262,
        0.005137,
        0.000393,
        0.0,
        0.0,
        0.001373,
        0.000916,
        0.0,
        0.0,
        0.001071,
        0.003755,
        0.015969,
        0.028103,
        0.017298,
        0.002997,
        0.00039,
        0.00041,
        0.000359,
        0.000237,
        0.000183,
        0.000191,
        0.000184,
        0.0,
        0.0,
        9e-05,
        0.000333,
        0.000305,
        6.1e-05,
        5.9e-05,
        0.000183,
        0.0,
        0.000138,
        0.000287,
        0.000218,
        0.000136,
        0.00021,
        0.000178,
        6.4e-05,
        8e-06,
        8.6e-05,
        0.000169,
        0.000196,
        0.000253,
        0.000148,
        0.000233,
        0.000304,
        0.00027,
        7.4e-05,
        0.000224,
        0.000319,
        0.000432,
        0.000359,
        9.2e-05,
        0.0,
        0.000141,
        0.000302,
        0.000219,
        0.000376,
        0.000779,
        0.000619,
        0.000301,
        0.00014,
        0.000196,
        0.00036,
        0.000418,
        0.000417,
        0.000301,
        0.000321,
        0.00036,
        0.000356,
        0.000341,
        0.000338,
        0.000335,
        0.0003,
        0.000315,
        0.000385,
        0.000468,
        0.000508,
        0.000761,
        0.000739,
        0.00043,
        0.000547,
        0.000574,
        0.000571,
        0.000676,
        0.000515,
        0.000507,
        0.000536,
        0.000377,
        0.000307,
        0.000476,
        0.000453,
        0.000252,
        0.000205,
        0.000318,
        0.000498,
        0.000576,
        0.00035,
        0.000464,
        0.000585,
        0.000511,
        0.000742,
        0.000773,
        0.000642,
        0.000506,
        0.000727,
        0.000714,
        0.000683,
        0.000779,
        0.000911,
        0.000751,
        0.000623,
        0.000687,
        0.000818,
        0.000907,
        0.000893,
        0.001041,
        0.00109,
        0.001294,
        0.001299,
        0.001227,
        0.001337,
        0.001547,
        0.001632,
        0.001912,
        0.001688,
        0.001502,
        0.00106,
        0.001234,
        0.001607,
        0.001778,
        0.002067,
        0.002287,
        0.002464,
        0.002345,
        0.002334,
        0.002401,
        0.002359,
        0.002176,
        0.002165,
        0.00236,
        0.002684,
        0.002867,
        0.003029,
        0.003133,
        0.003246,
        0.00345,
        0.003609,
        0.00363,
        0.003279,
        0.003357,
        0.003703,
        0.003838,
        0.004118,
        0.003953,
        0.003675,
        0.003522,
        0.003972,
        0.005003,
        0.005491,
        0.009854,
        0.011015,
        0.00538,
        0.000323,
        0.0,
        0.003551,
        0.016503,
        0.017094,
        0.009922,
        0.008479,
        0.0,
        0.0,
        0.000767,
        0.0,
        0.0,
        0.0,
        0.0,
        0.0,
        0.000373,
        0.005816,
        0.007197,
        0.010819,
        0.00527,
        0.004503,
        0.013024,
        0.022061,
        0.017165,
        0.013358,
        0.009614,
        0.023675,
        0.034581,
        0.034888,
        0.028743,
        0.032316,
        0.032005,
        0.010763,
        0.027299,
        0.031674,
        0.033861,
        0.036645,
        0.031603,
        0.028944,
        0.010309,
        0.0,
        0.013487,
        0.034719,
        0.03725,
        0.027126,
        0.021704,
        0.032443,
        0.029835,
        0.038823,
        0.018809,
        0.02706,
        0.029675,
        0.02055,
        0.029067,
        0.037738,
        0.037,
        0.02031,
        0.038489,
        0.038941,
        0.023029,
        0.017175,
        0.017909,
        0.019181,
        0.014817,
        0.025586,
        0.02814,
        0.029322,
        0.026618,
        0.03107,
        0.02383,
        0.033672,
        0.048272,
        0.037628,
        0.02852,
        0.032935,
        0.027579,
        0.027517,
        0.030736,
        0.034547,
        0.032288,
        0.036801,
        0.032979,
        0.031603,
        0.027428,
        0.031485,
        0.030484,
        0.02613,
        0.025533,
        0.027365,
        0.03094,
        0.04413,
        0.054071,
        0.059264,
        0.059087,
        0.05864,
        0.049586,
        0.029322,
        0.020891,
        0.03071,
        0.035729,
        0.034178,
        0.034779,
        0.036509,
        0.029697,
        0.022669,
        0.035861,
        0.051847,
        0.052269,
        0.045548,
        0.03477,
        0.02899,
        0.028073,
        0.035563,
        0.039225,
        0.03829,
        0.041406,
        0.046537,
        0.055625,
        0.057817,
        0.067586,
        0.082034,
        0.086206,
        0.093775,
        0.088422,
        0.082902,
        0.068809,
        0.062508,
        0.060557,
        0.057619,
        0.06423,
        0.075573,
        0.070124,
        0.074676,
        0.126819,
        0.172825,
        0.169926,
        0.160393,
        0.182742,
        0.178673,
        0.165413,
        0.173931,
        0.16815,
        0.167933,
        0.168133,
        0.1563,
        0.150181,
        0.166547,
        0.17638,
        0.167305,
        0.156358,
        0.122404,
        0.13359,
        0.143249,
        0.122915,
        0.093631,
        0.083948,
        0.095076,
        0.106615,
        0.129156,
        0.153599,
        0.166201,
        0.145417,
        0.11995,
        0.103618,
        0.070346,
        0.049093,
        0.049771,
        0.063799,
        0.090759,
        0.144412,
        0.176345,
        0.188719,
        0.201244,
        0.199941,
        0.187501,
        0.152344,
        0.102288,
        0.120733,
        0.191419,
        0.216792,
        0.211284,
        0.209221,
        0.188852,
        0.22511,
        0.246785,
        0.251988,
        0.27322,
        0.28205,
        0.292369,
        0.300272,
        0.289217,
        0.275402,
        0.279604,
        0.288561,
        0.293069,
        0.298673,
        0.298728,
        0.310851,
        0.310574,
        0.282768,
        0.290084,
        0.313385,
        0.288678,
        0.269023,
        0.296222,
        0.298233,
        0.271526,
        0.282799,
        0.308869,
        0.29874,
        0.295041,
        0.332219,
        0.36847,
        0.36585,
        0.352478,
        0.363835,
        0.370972,
        0.344519,
        0.34066,
        0.360718,
        0.388657,
        0.391501,
        0.401776,
        0.418184,
        0.351214,
        0.316622,
        0.333154,
        0.39507,
        0.426091,
        0.40755,
        0.369228,
        0.373465,
        0.417637,
        0.417209,
        0.388024,
        0.360278,
        0.367326,
        0.353492,
        0.36254,
        0.389469,
        0.42406,
        0.423485,
        0.387392,
        0.376059,
        0.372622,
        0.387147,
        0.448019,
        0.461038,
        0.459252,
        0.447285,
        0.427595,
        0.40424,
        0.389809,
        0.394509,
        0.410469,
        0.427527,
        0.444437,
        0.463442,
        0.491824,
        0.530784,
        0.552139,
        0.533801,
        0.507433,
        0.507503,
        0.525929,
        0.545273,
        0.553203,
        0.543759,
        0.531371,
        0.530359,
        0.534235,
        0.533369,
        0.526375,
        0.516278,
        0.515499,
        0.531784,
        0.544798,
        0.535573,
        0.518725,
        0.511565,
        0.508607,
        0.50258,
        0.50186,
        0.51503,
        0.535843,
        0.555027,
        0.56606,
        0.565189,
        0.556986,
        0.548759,
        0.550415,
        0.565996,
        0.573467,
        0.553534,
        0.523949,
        0.507597,
        0.510849,
        0.531249,
        0.54756,
        0.54199,
        0.529327,
        0.526497,
        0.526418,
        0.520517,
        0.518282,
        0.529591,
        0.54784,
        0.562895,
        0.609416,
        0.582495,
        0.572505,
        0.557657,
        0.597805,
        0.630611,
        0.642856,
        0.644769,
        0.638829,
        0.628145,
        0.625595,
        0.576757,
        0.521381,
        0.529689,
        0.506145,
        0.473992,
        0.528528,
        0.61376,
        0.64431,
        0.597921,
        0.568421,
        0.584967,
        0.56802,
        0.607272,
        0.623025,
        0.596521,
        0.618668,
        0.621209,
        0.62287,
        0.685649,
        0.718694,
        0.716878,
        0.70575,
        0.706447,
        0.680284,
        0.669552,
        0.691695,
        0.712317,
        0.718768,
        0.692926,
        0.679275,
        0.716155,
        0.67011,
        0.64452,
        0.63784,
        0.574591,
        0.5946,
        0.610571,
        0.597213,
        0.672378,
        0.679494,
        0.676222,
        0.693636,
        0.762471,
        0.828209,
        0.833101,
        0.766068,
        0.702215,
        0.685614,
        0.762785,
        0.791941,
        0.741149,
        0.674114,
        0.600589,
        0.529918,
        0.50375,
        0.551216,
        0.653235,
        0.724502,
        0.737271,
        0.724377,
        0.755563,
        0.741151,
        0.733485,
        0.705552,
        0.659655,
        0.647641,
        0.713554,
        0.76028,
        0.7245,
        0.792062,
        0.815554,
        0.758655,
        0.647531,
        0.478491,
        0.402814,
        0.509812,
        0.637358,
        0.739544,
        0.760263,
        0.683491,
        0.52611,
        0.442419,
        0.557305,
        0.728125,
        0.848686,
        0.951137,
        1.005971,
        1.013685,
        1.007308,
        1.017449,
        1.045503,
        1.065638,
        1.070404,
        1.035609,
        1.025292,
        1.040209,
        1.008784,
        1.028027,
        1.010548,
        0.972773,
        0.951492,
        0.958357,
        0.967745,
        0.998547,
        1.041582,
        1.040886,
        0.972171,
        0.873314,
        0.886497,
        0.967773,
        1.030754,
        1.058795,
        1.063785,
        1.042245,
        1.039341,
        1.051877,
        1.041529,
        1.042037,
        1.030113,
        1.039251,
        1.050921,
        1.031409,
        1.003315,
        1.015107,
        1.016308,
        1.016517,
        1.007674,
        0.984579,
        1.017699,
        1.058301,
        1.06055,
        1.047615,
        0.993227,
        0.981905,
        0.999093,
        1.004547,
        1.035714,
        1.038147,
        1.044367,
        1.025799,
        1.017607,
        0.982285,
        0.963666,
        1.008319,
        1.005076,
        0.970156,
        0.921255,
        0.829759,
        0.777975,
        0.788151,
        0.900393,
        1.014618,
        1.002634,
        1.020015,
        0.995935,
        0.905359,
        0.927689,
        0.999854,
        1.03949,
        1.083088,
        1.113047,
        1.090442,
        1.052032,
        1.028671,
        0.979149,
        1.008329,
        1.039954,
        1.056632,
        1.050614,
        1.084628,
        1.106993,
        1.11862,
        1.143214,
        1.139138,
        1.134496,
        1.153768,
        1.149637,
        1.150061,
        1.097579,
        1.077826,
        1.107579,
        1.12737,
        1.161453,
        1.153133,
        1.166762,
        1.170473,
        1.176563,
        1.208707,
        1.251845,
        1.26732,
        1.231766,
        1.196352,
        1.140371,
        1.104848,
        1.127205,
        1.163286,
        1.171236,
        1.15593,
        1.163252,
        1.177508,
        1.173604,
        1.187192,
        1.198236,
        1.173677,
        1.156675,
        1.159335,
        1.156013,
        1.159833,
        1.16634,
        1.176406,
        1.190448,
        1.210731,
        1.214282,
        1.196706,
        1.178348,
        1.159961,
        1.136532,
        1.132796,
        1.151863,
        1.154312,
        1.117814,
        1.11348,
        1.127582,
        1.135522,
        1.147642,
        1.144088,
        1.132308,
        1.099933,
        1.084767,
        1.102082,
        1.125416,
        1.149631,
        1.163144,
        1.152892,
        1.152483,
        1.160086,
        1.173897,
        1.176366,
        1.16243,
        1.146407,
        1.127259,
        1.134103,
        1.168332,
        1.178307,
        1.169235,
        1.165435,
        1.175766,
        1.171554,
        1.164877,
        1.153734,
        1.166095,
        1.176961,
        1.152037,
        1.153152,
        1.150475,
        1.129039,
        1.11908,
        1.079234,
        0.997864,
        0.91477,
        0.94094,
        0.978955,
        1.016579,
        1.065578,
        1.072394,
        1.09237,
        1.133019,
        1.141143,
        1.127558,
        1.102811,
        1.09212,
        1.058081,
        1.070455,
        1.101217,
        1.098719,
        1.107051,
        1.139912,
        1.140384,
        1.121417,
        1.113479,
        1.123812,
        1.120589,
        1.119477,
        1.092578,
        1.065187,
        1.087794,
        1.085498,
        1.05609,
        1.028372,
        1.033473,
        1.025415,
        1.035773,
        1.05932,
        1.077359,
        1.068115,
        1.033955,
        1.048555,
        1.069173,
        1.083857,
        1.106486,
        1.095425,
        1.074727,
        1.061102,
        1.0458,
        1.059548,
        1.087775,
        1.091922,
        1.078383,
        1.082467,
        1.074985,
        1.096215,
        1.092309,
        1.055429,
        1.041375,
        1.036117,
        1.023933,
        1.03909,
        1.044472,
        1.039285,
        1.02032,
        0.948492,
        0.898313,
        0.935785,
        0.962065,
        0.946739,
        0.983844,
        1.000982,
        1.019038,
        1.014343,
        1.027292,
        1.039763,
        1.047221,
        1.018319,
        1.014001,
        1.035156,
        1.062371,
        1.070863,
        1.061899,
        1.058717,
        1.023201,
        0.95072,
        0.933969,
        0.977806,
        1.021283,
        1.044824,
        1.079353,
        1.065169,
        1.057424,
        1.073852,
        1.083525,
        1.076577,
        1.059611,
        1.020443,
        0.99776,
        1.019395,
        1.033365,
        1.05394,
        1.069061,
        1.083851,
        1.06876,
        1.034357,
        1.015556,
        1.036478,
        1.047942,
        1.046844,
        1.036182,
        1.014987,
        1.002398,
        0.983873,
        0.994129,
        1.01204,
        1.021926,
        1.027289,
        1.019786,
        1.016522,
        1.030337,
        1.025506,
        1.036769,
        1.036269,
        1.038646,
        1.025502,
        1.016206,
        0.996389,
        0.993368,
        1.015604,
        1.02303,
        1.024107,
        1.019751,
        1.009326,
        1.005249,
        1.006934,
        1.012559,
        1.002843,
        1.000546,
        1.014336,
        1.019905,
        1.025421,
        1.033542,
        1.027429,
        1.018458,
        1.006519,
        0.99578,
        0.992315,
        0.992727,
        0.973166,
        0.955928,
        0.966321,
        0.970112,
        0.986498,
        1.007785,
        0.988796,
        0.988231,
        0.993095,
        0.998662,
        0.999405,
        0.994377,
        0.993672,
        0.989497,
        0.975418,
        0.965405,
        0.971525,
        0.984644,
        0.993923,
        0.994105,
        0.981081,
        0.970163,
        0.962625,
        0.954145,
        0.94803,
        0.941775,
        0.95852,
        0.983652,
        1.002025,
        1.010321,
        1.011307,
        1.002892,
        0.991171,
        0.975023,
        0.968158,
        0.968485,
        0.97258,
        0.979722,
        0.984948,
        0.970691,
        0.953081,
        0.956816,
        0.966809,
        0.965591,
        0.966293,
        0.975764,
        0.976983,
        0.985463,
        0.993512,
        1.001167,
        0.996617,
        0.997991,
        0.978182,
        0.969246,
        0.958088,
        0.959549,
        0.966878,
        0.969131,
        0.964446,
        0.949122,
        0.911623,
        0.8762,
        0.890612,
        0.931781,
        0.945428,
        0.949856,
        0.950485,
        0.953245,
        0.950813,
        0.941779,
        0.940521,
        0.940519,
        0.936831,
        0.934767,
        0.937904,
        0.940676,
        0.943045,
        0.942433,
        0.934703,
        0.928825,
        0.923991,
        0.932389,
        0.934364,
        0.929124,
        0.922728,
        0.918481,
        0.914617,
        0.909835,
        0.917034,
        0.926914,
        0.933094,
        0.932562,
        0.932372,
        0.928913,
        0.925319,
        0.928304,
        0.92744,
        0.929407,
        0.923827,
        0.916967,
        0.915056,
        0.90854,
        0.901995,
        0.885867,
        0.893082,
        0.906533,
        0.911552,
        0.898875,
        0.896961,
        0.898216,
        0.882538,
        0.88372,
        0.885972,
        0.887401,
        0.878738,
        0.865601,
        0.863731,
        0.87162,
        0.887918,
        0.896682,
        0.898703,
        0.898603,
        0.899158,
        0.904905,
        0.901803,
        0.892565,
        0.884653,
        0.884994,
        0.879208,
        0.876018,
        0.875701,
        0.870607,
        0.866761,
        0.866165,
        0.860672,
        0.867042,
        0.86545,
        0.874492,
        0.857694,
        0.849835,
        0.864943,
        0.869082,
        0.864571,
        0.854055,
        0.860996,
        0.85715,
        0.844472,
        0.854609,
        0.863719,
        0.862679,
        0.853962,
        0.852849,
        0.856873,
        0.85593,
        0.851384,
        0.847894,
        0.853993,
        0.862271,
        0.862758,
        0.858124,
        0.860431,
        0.853968,
        0.844609,
        0.838944,
        0.839412,
        0.830886,
        0.83407,
        0.834561,
        0.84216,
        0.843445,
        0.83906,
        0.841165,
        0.843837,
        0.837389,
        0.835771,
        0.829716,
        0.82799,
        0.828906,
        0.829733,
        0.828255,
        0.822481,
        0.805121,
        0.793562,
        0.814709,
        0.834267,
        0.837735,
        0.829413,
        0.828272,
        0.824495,
        0.819018,
        0.82081,
        0.822928,
        0.80896,
        0.786666,
        0.741951,
        0.6708,
        0.687102,
        0.743526,
        0.781006,
        0.79674,
        0.804246,
        0.803271,
        0.795896,
        0.807305,
        0.812301,
        0.813856,
        0.821428,
        0.817005,
        0.808522,
        0.797471,
        0.791971,
        0.799049,
        0.802683,
        0.811086,
        0.81187,
        0.807826,
        0.807417,
        0.804207,
        0.797498,
        0.802655,
        0.80973,
        0.809585,
        0.800461,
        0.79999,
        0.799921,
        0.796574,
        0.786805,
        0.784858,
        0.792182,
        0.793048,
        0.794301,
        0.791951,
        0.793143,
        0.786043,
        0.787883,
        0.787661,
        0.788446,
        0.788188,
        0.792107,
        0.790975,
        0.789402,
        0.793049,
        0.792704,
        0.792793,
        0.789316,
        0.787412,
        0.786299,
        0.787806,
        0.788738,
        0.788537,
        0.78299,
        0.783317,
        0.77864,
        0.778152,
        0.780955,
        0.784395,
        0.785957,
        0.784493,
        0.780835,
        0.776517,
        0.773193,
        0.771935,
        0.773234,
        0.776298,
        0.779327,
        0.780252,
        0.778106,
        0.77308,
        0.767411,
        0.763395,
        0.762209,
        0.76355,
        0.765921,
        0.767822,
        0.768585,
        0.767989,
        0.766589,
        0.766085,
        0.753793,
        0.751119,
        0.756615,
        0.76245,
        0.762764,
        0.753659,
        0.74714,
        0.746495,
        0.741776,
        0.737869,
        0.740776,
        0.740943,
        0.734893,
        0.740879,
        0.749572,
        0.747748,
        0.743785,
        0.744819,
        0.739291,
        0.742547,
        0.746657,
        0.743092,
        0.737389,
        0.733946,
        0.736407,
        0.740149,
        0.736736,
        0.730888,
        0.732643,
        0.728697,
        0.729033,
        0.731667,
        0.744511,
        0.745576,
        0.738474,
        0.734524,
        0.739389,
        0.728387,
        0.714361,
        0.712412,
        0.705417,
        0.694584,
        0.682853,
        0.691301,
        0.697385,
        0.70692,
        0.711039,
        0.725921,
        0.728114,
        0.726959,
        0.731337,
        0.722955,
        0.716879,
        0.709245,
        0.708002,
        0.703439,
        0.709918,
        0.71044,
        0.712181,
        0.706133,
        0.692847,
        0.695137,
        0.690765,
        0.698116,
        0.72187,
        0.723667,
        0.719549,
        0.712632,
        0.704198,
        0.702782,
        0.707654,
        0.718064,
        0.727592,
        0.72635,
        0.720662,
        0.711991,
        0.711453,
        0.711881,
        0.716506,
        0.717312,
        0.71596,
        0.711428,
        0.702606,
        0.70543,
        0.705105,
        0.700943,
        0.69542,
        0.696275,
        0.705373,
        0.712525,
        0.721367,
        0.72114,
        0.713056,
        0.702377,
        0.69562,
        0.702489,
        0.704946,
        0.706292,
        0.710055,
        0.706266,
        0.699057,
        0.693741,
        0.692492,
        0.689359,
        0.694249,
        0.697794,
        0.693611,
        0.692273,
        0.694203,
        0.688268,
        0.682648,
        0.67875,
        0.678953,
        0.680067,
        0.68231,
        0.684663,
        0.681979,
        0.677592,
        0.676566,
        0.681779,
        0.69033,
        0.693854,
        0.684527,
        0.662965,
        0.639258,
        0.626127,
        0.62964,
        0.645051,
        0.660338,
        0.66548,
        0.659855,
        0.650795,
        0.646234,
        0.648055,
        0.651202,
        0.649371,
        0.641961,
        0.635107,
        0.636582,
        0.649184,
        0.667715,
        0.682422,
        0.685723,
        0.67703,
        0.662736,
        0.651393,
        0.648182,
        0.6528,
        0.66065,
        0.666625,
        0.668273,
        0.66692,
        0.663628,
        0.654528,
        0.64819,
        0.65005,
        0.651302,
        0.65097,
        0.650638,
        0.644855,
        0.644717,
        0.651796,
        0.655164,
        0.658373,
        0.656415,
        0.653339,
        0.647888,
        0.642599,
        0.641919,
        0.644783,
        0.647093,
        0.644718,
        0.641302,
        0.636203,
        0.628104,
        0.627603,
        0.634764,
        0.643264,
        0.646387,
        0.639796,
        0.627436,
        0.617537,
        0.612345,
        0.612585,
        0.618504,
        0.627202,
        0.631724,
        0.629085,
        0.627267,
        0.622162,
        0.617448,
        0.610394,
        0.611167,
        0.611065,
        0.616075,
        0.621156,
        0.618245,
        0.613527,
        0.610848,
        0.608526,
        0.607823,
        0.605586,
        0.60749,
        0.603269,
        0.596395,
        0.610193,
        0.613093,
        0.61265,
        0.613278,
        0.609848,
        0.602718,
        0.610664,
        0.609588,
        0.604241,
        0.598125,
        0.605266,
        0.610235,
        0.609656,
        0.606921,
        0.605792,
        0.602608,
        0.602266,
        0.597744,
        0.601157,
        0.597882,
        0.605497,
        0.608935,
        0.60747,
        0.608825,
        0.608441,
        0.608247,
        0.598917,
        0.598243,
        0.597841,
        0.589579,
        0.582508,
        0.582223,
        0.56892,
        0.572048,
        0.586353,
        0.572092,
        0.57121,
        0.578448,
        0.57182,
        0.569558,
        0.591239,
        0.602178,
        0.593461,
        0.586663,
        0.57626,
        0.545383,
        0.547744,
        0.582891,
        0.590164,
        0.591065,
        0.593103,
        0.585013,
        0.59152,
        0.593219,
        0.579149,
        0.569395,
        0.572952,
        0.571865,
        0.565931,
        0.574127,
        0.568913,
        0.568126,
        0.56866,
        0.566766,
        0.560549,
        0.562352,
        0.558846,
        0.555516,
        0.56123,
        0.563732,
        0.57161,
        0.568167,
        0.566163,
        0.568786,
        0.568647,
        0.565674,
        0.565191,
        0.55785,
        0.564144,
        0.563866,
        0.56097,
        0.559745,
        0.55808,
        0.555138,
        0.554169,
        0.553211,
        0.551232,
        0.547568,
        0.549096,
        0.5501,
        0.557642,
        0.553998,
        0.54947,
        0.543609,
        0.544773,
        0.550807,
        0.553223,
        0.551656,
        0.533875,
        0.498281,
        0.520467,
        0.538532,
        0.535096,
        0.535914,
        0.539264,
        0.528971,
        0.515852,
        0.471712,
        0.426339,
        0.488739,
        0.517962,
        0.528114,
        0.534707,
        0.538065,
        0.533511,
        0.536484,
        0.530452,
        0.534104,
        0.53005,
        0.526629,
        0.530579,
        0.529919,
        0.524599,
        0.525667,
        0.528649,
        0.53233,
        0.531428,
        0.532934,
        0.528041,
        0.520388,
        0.512081,
        0.473825,
        0.438284,
        0.478899,
        0.505681,
        0.515276,
        0.519044,
        0.512663,
        0.522117,
        0.525389,
        0.528059,
        0.527901,
        0.524765,
        0.526325,
        0.527372,
        0.520702,
        0.515992,
        0.514106,
        0.513928,
        0.512125,
        0.508842,
        0.509255,
        0.514826,
        0.516838,
        0.51509,
        0.518657,
        0.520916,
        0.513503,
        0.507404,
        0.511952,
        0.505127,
        0.496596,
        0.50989,
        0.513318,
        0.504997,
        0.50769,
        0.512504,
        0.512865,
        0.505864,
        0.508286,
        0.506065,
        0.497565,
        0.490269,
        0.490143,
        0.500276,
        0.502273,
        0.503489,
        0.503652,
        0.504805,
        0.503039,
        0.506512,
        0.50655,
        0.500908,
        0.506089,
        0.502806,
        0.498759,
        0.50617,
        0.511827,
        0.50585,
        0.500775,
        0.499709,
        0.500955,
        0.492088,
        0.488083,
        0.487698,
        0.491215,
        0.48596,
        0.459855,
        0.457865,
        0.472057,
        0.461778,
        0.462464,
        0.458797,
        0.455791,
        0.472918,
        0.483577,
        0.504955,
        0.515097,
        0.517145,
        0.514302,
        0.508012,
        0.504459,
        0.485104,
        0.48452,
        0.471856,
        0.46792,
        0.461781,
        0.454091,
        0.465221,
        0.469905,
        0.472009,
        0.477689,
        0.486449,
        0.475476,
        0.489024,
        0.483694,
        0.464731,
        0.466095,
        0.482693,
        0.482157,
        0.456006,
        0.454678,
        0.475505,
        0.480395,
        0.454311,
        0.457495,
        0.469474,
        0.480242,
        0.48281,
        0.479379,
        0.486967,
        0.476252,
        0.465342,
        0.463313,
        0.465352,
        0.459523,
        0.463445,
        0.466292,
        0.47059,
        0.472063,
        0.47828,
        0.478043,
        0.489909,
        0.503033,
        0.502159,
        0.485515,
        0.491674,
        0.493606,
        0.488787,
        0.476804,
        0.472756,
        0.46197,
        0.447872,
        0.417759,
        0.421626,
        0.407751,
        0.409434,
        0.381227,
        0.359435,
        0.383554,
        0.419438,
        0.387952,
        0.434401,
        0.416252,
        0.413129,
        0.427199,
        0.440115,
        0.47854,
        0.522376,
        0.528095,
        0.504749,
        0.488116,
        0.463975,
        0.475812,
        0.473115,
        0.42516,
        0.427523,
        0.426021,
        0.387222,
        0.43556,
        0.445745,
        0.415209,
        0.408744,
        0.454923,
        0.459095,
        0.446566,
        0.432775,
        0.471081,
        0.459468,
        0.409803,
        0.416625,
        0.467359,
        0.486757,
        0.429709,
        0.407792,
        0.428391,
        0.444373,
        0.442089,
        0.437727,
        0.406707,
        0.416572,
        0.413983,
        0.426272,
        0.417065,
        0.449231,
        0.449696,
        0.438378,
        0.43605,
        0.406447,
        0.425178,
        0.437769,
        0.420244,
        0.42815,
        0.412502,
        0.408156,
        0.412582,
        0.420105,
        0.411963,
        0.410384,
        0.40561,
        0.414492,
        0.408382,
        0.405424,
        0.413023,
        0.422441,
        0.432009,
        0.431344,
        0.431896,
        0.433684,
        0.435281,
        0.433295,
        0.432488,
        0.428905,
        0.424328,
        0.419486,
        0.416714,
        0.411405,
        0.404676,
        0.402138,
        0.399262,
        0.395528,
        0.391523,
        0.388885,
        0.40051,
        0.396049,
        0.393048,
        0.390981,
        0.392528,
        0.400954,
        0.400161,
        0.40273,
        0.400484,
        0.400261,
        0.400388,
        0.395165,
        0.396722,
        0.399149,
        0.399637,
        0.396438,
        0.395385,
        0.399903,
        0.393535,
        0.392804,
        0.397894,
        0.399331,
        0.395204,
        0.397795,
        0.398189,
        0.396878,
        0.39509,
        0.390276,
        0.394393,
        0.390867,
        0.393277,
        0.39731,
        0.389411,
        0.392159,
        0.39834,
        0.397373,
        0.387942,
        0.389606,
        0.393232,
        0.392578,
        0.390144,
        0.397616,
        0.383858,
        0.391039,
        0.391579,
        0.386207,
        0.381384,
        0.386374,
        0.392817,
        0.389623,
        0.381732,
        0.387303,
        0.397085,
        0.389185,
        0.375507,
        0.373774,
        0.353064,
        0.363768,
        0.371119,
        0.366973,
        0.366916,
        0.370565,
        0.381605,
        0.369964,
        0.372688,
        0.382075,
        0.383223,
        0.374972,
        0.359715,
        0.374028,
        0.374754,
        0.373591,
        0.372077,
        0.370237,
        0.370237,
        0.36935,
        0.369461,
        0.364465,
        0.372882,
        0.377186,
        0.3679,
        0.361753,
        0.365755,
        0.351961,
        0.349906,
        0.34797,
        0.346749,
        0.346839,
        0.348551,
        0.351032,
        0.353146,
        0.353752,
        0.352084,
        0.348865,
        0.34519,
        0.342156,
        0.340655,
        0.340767,
        0.34237,
        0.345341,
        0.349436,
        0.353922,
        0.357942,
        0.360644,
        0.361385,
        0.360384,
        0.358075,
        0.354891,
        0.355819,
        0.353859,
        0.352243,
        0.351253,
        0.351079,
        0.351539,
        0.352359,
        0.353264,
        0.354024,
        0.354584,
        0.354931,
        0.355054,
        0.354947,
        0.354634,
        0.354144,
        0.353504,
        0.35277,
        0.352095,
        0.351656,
        0.351632,
        0.352122,
        0.352906,
        0.353684,
        0.35416,
        0.354112,
        0.35364,
        0.352922,
        0.352139,
        0.351418,
        0.350689,
        0.349833,
        0.348729,
        0.347359,
        0.346111,
        0.345471,
        0.345928,
        0.347728,
        0.350155,
        0.352249,
        0.353051
      ],
      "range":1
    }
  }
]
