[
  {
    "model":"Star, type M9(iii)",
    "name":"Star, type M9(iii)",
    "type":"WB_REF",
    "dataQualityMarker":3,
    "dataSource":"https://www.eso.org/sci/facilities/paranal/decommissioned/isaac/tools/lib.html",
    "manufacturer":"A. Pickles (A.J. Pickles, PASP 110,863, 1998)",
    "version":1,
    "wavelength":{
      "value":[
        1150.0,
        1155.0,
        1160.0,
        1165.0,
        1170.0,
        1175.0,
        1180.0,
        1185.0,
        1190.0,
        1195.0,
        1200.0,
        1205.0,
        1210.0,
        1215.0,
        1220.0,
        1225.0,
        1230.0,
        1235.0,
        1240.0,
        1245.0,
        1250.0,
        1255.0,
        1260.0,
        1265.0,
        1270.0,
        1275.0,
        1280.0,
        1285.0,
        1290.0,
        1295.0,
        1300.0,
        1305.0,
        1310.0,
        1315.0,
        1320.0,
        1325.0,
        1330.0,
        1335.0,
        1340.0,
        1345.0,
        1350.0,
        1355.0,
        1360.0,
        1365.0,
        1370.0,
        1375.0,
        1380.0,
        1385.0,
        1390.0,
        1395.0,
        1400.0,
        1405.0,
        1410.0,
        1415.0,
        1420.0,
        1425.0,
        1430.0,
        1435.0,
        1440.0,
        1445.0,
        1450.0,
        1455.0,
        1460.0,
        1465.0,
        1470.0,
        1475.0,
        1480.0,
        1485.0,
        1490.0,
        1495.0,
        1500.0,
        1505.0,
        1510.0,
        1515.0,
        1520.0,
        1525.0,
        1530.0,
        1535.0,
        1540.0,
        1545.0,
        1550.0,
        1555.0,
        1560.0,
        1565.0,
        1570.0,
        1575.0,
        1580.0,
        1585.0,
        1590.0,
        1595.0,
        1600.0,
        1605.0,
        1610.0,
        1615.0,
        1620.0,
        1625.0,
        1630.0,
        1635.0,
        1640.0,
        1645.0,
        1650.0,
        1655.0,
        1660.0,
        1665.0,
        1670.0,
        1675.0,
        1680.0,
        1685.0,
        1690.0,
        1695.0,
        1700.0,
        1705.0,
        1710.0,
        1715.0,
        1720.0,
        1725.0,
        1730.0,
        1735.0,
        1740.0,
        1745.0,
        1750.0,
        1755.0,
        1760.0,
        1765.0,
        1770.0,
        1775.0,
        1780.0,
        1785.0,
        1790.0,
        1795.0,
        1800.0,
        1805.0,
        1810.0,
        1815.0,
        1820.0,
        1825.0,
        1830.0,
        1835.0,
        1840.0,
        1845.0,
        1850.0,
        1855.0,
        1860.0,
        1865.0,
        1870.0,
        1875.0,
        1880.0,
        1885.0,
        1890.0,
        1895.0,
        1900.0,
        1905.0,
        1910.0,
        1915.0,
        1920.0,
        1925.0,
        1930.0,
        1935.0,
        1940.0,
        1945.0,
        1950.0,
        1955.0,
        1960.0,
        1965.0,
        1970.0,
        1975.0,
        1980.0,
        1985.0,
        1990.0,
        1995.0,
        2000.0,
        2005.0,
        2010.0,
        2015.0,
        2020.0,
        2025.0,
        2030.0,
        2035.0,
        2040.0,
        2045.0,
        2050.0,
        2055.0,
        2060.0,
        2065.0,
        2070.0,
        2075.0,
        2080.0,
        2085.0,
        2090.0,
        2095.0,
        2100.0,
        2105.0,
        2110.0,
        2115.0,
        2120.0,
        2125.0,
        2130.0,
        2135.0,
        2140.0,
        2145.0,
        2150.0,
        2155.0,
        2160.0,
        2165.0,
        2170.0,
        2175.0,
        2180.0,
        2185.0,
        2190.0,
        2195.0,
        2200.0,
        2205.0,
        2210.0,
        2215.0,
        2220.0,
        2225.0,
        2230.0,
        2235.0,
        2240.0,
        2245.0,
        2250.0,
        2255.0,
        2260.0,
        2265.0,
        2270.0,
        2275.0,
        2280.0,
        2285.0,
        2290.0,
        2295.0,
        2300.0,
        2305.0,
        2310.0,
        2315.0,
        2320.0,
        2325.0,
        2330.0,
        2335.0,
        2340.0,
        2345.0,
        2350.0,
        2355.0,
        2360.0,
        2365.0,
        2370.0,
        2375.0,
        2380.0,
        2385.0,
        2390.0,
        2395.0,
        2400.0,
        2405.0,
        2410.0,
        2415.0,
        2420.0,
        2425.0,
        2430.0,
        2435.0,
        2440.0,
        2445.0,
        2450.0,
        2455.0,
        2460.0,
        2465.0,
        2470.0,
        2475.0,
        2480.0,
        2485.0,
        2490.0,
        2495.0,
        2500.0,
        2505.0,
        2510.0,
        2515.0,
        2520.0,
        2525.0,
        2530.0,
        2535.0,
        2540.0,
        2545.0,
        2550.0,
        2555.0,
        2560.0,
        2565.0,
        2570.0,
        2575.0,
        2580.0,
        2585.0,
        2590.0,
        2595.0,
        2600.0,
        2605.0,
        2610.0,
        2615.0,
        2620.0,
        2625.0,
        2630.0,
        2635.0,
        2640.0,
        2645.0,
        2650.0,
        2655.0,
        2660.0,
        2665.0,
        2670.0,
        2675.0,
        2680.0,
        2685.0,
        2690.0,
        2695.0,
        2700.0,
        2705.0,
        2710.0,
        2715.0,
        2720.0,
        2725.0,
        2730.0,
        2735.0,
        2740.0,
        2745.0,
        2750.0,
        2755.0,
        2760.0,
        2765.0,
        2770.0,
        2775.0,
        2780.0,
        2785.0,
        2790.0,
        2795.0,
        2800.0,
        2805.0,
        2810.0,
        2815.0,
        2820.0,
        2825.0,
        2830.0,
        2835.0,
        2840.0,
        2845.0,
        2850.0,
        2855.0,
        2860.0,
        2865.0,
        2870.0,
        2875.0,
        2880.0,
        2885.0,
        2890.0,
        2895.0,
        2900.0,
        2905.0,
        2910.0,
        2915.0,
        2920.0,
        2925.0,
        2930.0,
        2935.0,
        2940.0,
        2945.0,
        2950.0,
        2955.0,
        2960.0,
        2965.0,
        2970.0,
        2975.0,
        2980.0,
        2985.0,
        2990.0,
        2995.0,
        3000.0,
        3005.0,
        3010.0,
        3015.0,
        3020.0,
        3025.0,
        3030.0,
        3035.0,
        3040.0,
        3045.0,
        3050.0,
        3055.0,
        3060.0,
        3065.0,
        3070.0,
        3075.0,
        3080.0,
        3085.0,
        3090.0,
        3095.0,
        3100.0,
        3105.0,
        3110.0,
        3115.0,
        3120.0,
        3125.0,
        3130.0,
        3135.0,
        3140.0,
        3145.0,
        3150.0,
        3155.0,
        3160.0,
        3165.0,
        3170.0,
        3175.0,
        3180.0,
        3185.0,
        3190.0,
        3195.0,
        3200.0,
        3205.0,
        3210.0,
        3215.0,
        3220.0,
        3225.0,
        3230.0,
        3235.0,
        3240.0,
        3245.0,
        3250.0,
        3255.0,
        3260.0,
        3265.0,
        3270.0,
        3275.0,
        3280.0,
        3285.0,
        3290.0,
        3295.0,
        3300.0,
        3305.0,
        3310.0,
        3315.0,
        3320.0,
        3325.0,
        3330.0,
        3335.0,
        3340.0,
        3345.0,
        3350.0,
        3355.0,
        3360.0,
        3365.0,
        3370.0,
        3375.0,
        3380.0,
        3385.0,
        3390.0,
        3395.0,
        3400.0,
        3405.0,
        3410.0,
        3415.0,
        3420.0,
        3425.0,
        3430.0,
        3435.0,
        3440.0,
        3445.0,
        3450.0,
        3455.0,
        3460.0,
        3465.0,
        3470.0,
        3475.0,
        3480.0,
        3485.0,
        3490.0,
        3495.0,
        3500.0,
        3505.0,
        3510.0,
        3515.0,
        3520.0,
        3525.0,
        3530.0,
        3535.0,
        3540.0,
        3545.0,
        3550.0,
        3555.0,
        3560.0,
        3565.0,
        3570.0,
        3575.0,
        3580.0,
        3585.0,
        3590.0,
        3595.0,
        3600.0,
        3605.0,
        3610.0,
        3615.0,
        3620.0,
        3625.0,
        3630.0,
        3635.0,
        3640.0,
        3645.0,
        3650.0,
        3655.0,
        3660.0,
        3665.0,
        3670.0,
        3675.0,
        3680.0,
        3685.0,
        3690.0,
        3695.0,
        3700.0,
        3705.0,
        3710.0,
        3715.0,
        3720.0,
        3725.0,
        3730.0,
        3735.0,
        3740.0,
        3745.0,
        3750.0,
        3755.0,
        3760.0,
        3765.0,
        3770.0,
        3775.0,
        3780.0,
        3785.0,
        3790.0,
        3795.0,
        3800.0,
        3805.0,
        3810.0,
        3815.0,
        3820.0,
        3825.0,
        3830.0,
        3835.0,
        3840.0,
        3845.0,
        3850.0,
        3855.0,
        3860.0,
        3865.0,
        3870.0,
        3875.0,
        3880.0,
        3885.0,
        3890.0,
        3895.0,
        3900.0,
        3905.0,
        3910.0,
        3915.0,
        3920.0,
        3925.0,
        3930.0,
        3935.0,
        3940.0,
        3945.0,
        3950.0,
        3955.0,
        3960.0,
        3965.0,
        3970.0,
        3975.0,
        3980.0,
        3985.0,
        3990.0,
        3995.0,
        4000.0,
        4005.0,
        4010.0,
        4015.0,
        4020.0,
        4025.0,
        4030.0,
        4035.0,
        4040.0,
        4045.0,
        4050.0,
        4055.0,
        4060.0,
        4065.0,
        4070.0,
        4075.0,
        4080.0,
        4085.0,
        4090.0,
        4095.0,
        4100.0,
        4105.0,
        4110.0,
        4115.0,
        4120.0,
        4125.0,
        4130.0,
        4135.0,
        4140.0,
        4145.0,
        4150.0,
        4155.0,
        4160.0,
        4165.0,
        4170.0,
        4175.0,
        4180.0,
        4185.0,
        4190.0,
        4195.0,
        4200.0,
        4205.0,
        4210.0,
        4215.0,
        4220.0,
        4225.0,
        4230.0,
        4235.0,
        4240.0,
        4245.0,
        4250.0,
        4255.0,
        4260.0,
        4265.0,
        4270.0,
        4275.0,
        4280.0,
        4285.0,
        4290.0,
        4295.0,
        4300.0,
        4305.0,
        4310.0,
        4315.0,
        4320.0,
        4325.0,
        4330.0,
        4335.0,
        4340.0,
        4345.0,
        4350.0,
        4355.0,
        4360.0,
        4365.0,
        4370.0,
        4375.0,
        4380.0,
        4385.0,
        4390.0,
        4395.0,
        4400.0,
        4405.0,
        4410.0,
        4415.0,
        4420.0,
        4425.0,
        4430.0,
        4435.0,
        4440.0,
        4445.0,
        4450.0,
        4455.0,
        4460.0,
        4465.0,
        4470.0,
        4475.0,
        4480.0,
        4485.0,
        4490.0,
        4495.0,
        4500.0,
        4505.0,
        4510.0,
        4515.0,
        4520.0,
        4525.0,
        4530.0,
        4535.0,
        4540.0,
        4545.0,
        4550.0,
        4555.0,
        4560.0,
        4565.0,
        4570.0,
        4575.0,
        4580.0,
        4585.0,
        4590.0,
        4595.0,
        4600.0,
        4605.0,
        4610.0,
        4615.0,
        4620.0,
        4625.0,
        4630.0,
        4635.0,
        4640.0,
        4645.0,
        4650.0,
        4655.0,
        4660.0,
        4665.0,
        4670.0,
        4675.0,
        4680.0,
        4685.0,
        4690.0,
        4695.0,
        4700.0,
        4705.0,
        4710.0,
        4715.0,
        4720.0,
        4725.0,
        4730.0,
        4735.0,
        4740.0,
        4745.0,
        4750.0,
        4755.0,
        4760.0,
        4765.0,
        4770.0,
        4775.0,
        4780.0,
        4785.0,
        4790.0,
        4795.0,
        4800.0,
        4805.0,
        4810.0,
        4815.0,
        4820.0,
        4825.0,
        4830.0,
        4835.0,
        4840.0,
        4845.0,
        4850.0,
        4855.0,
        4860.0,
        4865.0,
        4870.0,
        4875.0,
        4880.0,
        4885.0,
        4890.0,
        4895.0,
        4900.0,
        4905.0,
        4910.0,
        4915.0,
        4920.0,
        4925.0,
        4930.0,
        4935.0,
        4940.0,
        4945.0,
        4950.0,
        4955.0,
        4960.0,
        4965.0,
        4970.0,
        4975.0,
        4980.0,
        4985.0,
        4990.0,
        4995.0,
        5000.0,
        5005.0,
        5010.0,
        5015.0,
        5020.0,
        5025.0,
        5030.0,
        5035.0,
        5040.0,
        5045.0,
        5050.0,
        5055.0,
        5060.0,
        5065.0,
        5070.0,
        5075.0,
        5080.0,
        5085.0,
        5090.0,
        5095.0,
        5100.0,
        5105.0,
        5110.0,
        5115.0,
        5120.0,
        5125.0,
        5130.0,
        5135.0,
        5140.0,
        5145.0,
        5150.0,
        5155.0,
        5160.0,
        5165.0,
        5170.0,
        5175.0,
        5180.0,
        5185.0,
        5190.0,
        5195.0,
        5200.0,
        5205.0,
        5210.0,
        5215.0,
        5220.0,
        5225.0,
        5230.0,
        5235.0,
        5240.0,
        5245.0,
        5250.0,
        5255.0,
        5260.0,
        5265.0,
        5270.0,
        5275.0,
        5280.0,
        5285.0,
        5290.0,
        5295.0,
        5300.0,
        5305.0,
        5310.0,
        5315.0,
        5320.0,
        5325.0,
        5330.0,
        5335.0,
        5340.0,
        5345.0,
        5350.0,
        5355.0,
        5360.0,
        5365.0,
        5370.0,
        5375.0,
        5380.0,
        5385.0,
        5390.0,
        5395.0,
        5400.0,
        5405.0,
        5410.0,
        5415.0,
        5420.0,
        5425.0,
        5430.0,
        5435.0,
        5440.0,
        5445.0,
        5450.0,
        5455.0,
        5460.0,
        5465.0,
        5470.0,
        5475.0,
        5480.0,
        5485.0,
        5490.0,
        5495.0,
        5500.0,
        5505.0,
        5510.0,
        5515.0,
        5520.0,
        5525.0,
        5530.0,
        5535.0,
        5540.0,
        5545.0,
        5550.0,
        5555.0,
        5560.0,
        5565.0,
        5570.0,
        5575.0,
        5580.0,
        5585.0,
        5590.0,
        5595.0,
        5600.0,
        5605.0,
        5610.0,
        5615.0,
        5620.0,
        5625.0,
        5630.0,
        5635.0,
        5640.0,
        5645.0,
        5650.0,
        5655.0,
        5660.0,
        5665.0,
        5670.0,
        5675.0,
        5680.0,
        5685.0,
        5690.0,
        5695.0,
        5700.0,
        5705.0,
        5710.0,
        5715.0,
        5720.0,
        5725.0,
        5730.0,
        5735.0,
        5740.0,
        5745.0,
        5750.0,
        5755.0,
        5760.0,
        5765.0,
        5770.0,
        5775.0,
        5780.0,
        5785.0,
        5790.0,
        5795.0,
        5800.0,
        5805.0,
        5810.0,
        5815.0,
        5820.0,
        5825.0,
        5830.0,
        5835.0,
        5840.0,
        5845.0,
        5850.0,
        5855.0,
        5860.0,
        5865.0,
        5870.0,
        5875.0,
        5880.0,
        5885.0,
        5890.0,
        5895.0,
        5900.0,
        5905.0,
        5910.0,
        5915.0,
        5920.0,
        5925.0,
        5930.0,
        5935.0,
        5940.0,
        5945.0,
        5950.0,
        5955.0,
        5960.0,
        5965.0,
        5970.0,
        5975.0,
        5980.0,
        5985.0,
        5990.0,
        5995.0,
        6000.0,
        6005.0,
        6010.0,
        6015.0,
        6020.0,
        6025.0,
        6030.0,
        6035.0,
        6040.0,
        6045.0,
        6050.0,
        6055.0,
        6060.0,
        6065.0,
        6070.0,
        6075.0,
        6080.0,
        6085.0,
        6090.0,
        6095.0,
        6100.0,
        6105.0,
        6110.0,
        6115.0,
        6120.0,
        6125.0,
        6130.0,
        6135.0,
        6140.0,
        6145.0,
        6150.0,
        6155.0,
        6160.0,
        6165.0,
        6170.0,
        6175.0,
        6180.0,
        6185.0,
        6190.0,
        6195.0,
        6200.0,
        6205.0,
        6210.0,
        6215.0,
        6220.0,
        6225.0,
        6230.0,
        6235.0,
        6240.0,
        6245.0,
        6250.0,
        6255.0,
        6260.0,
        6265.0,
        6270.0,
        6275.0,
        6280.0,
        6285.0,
        6290.0,
        6295.0,
        6300.0,
        6305.0,
        6310.0,
        6315.0,
        6320.0,
        6325.0,
        6330.0,
        6335.0,
        6340.0,
        6345.0,
        6350.0,
        6355.0,
        6360.0,
        6365.0,
        6370.0,
        6375.0,
        6380.0,
        6385.0,
        6390.0,
        6395.0,
        6400.0,
        6405.0,
        6410.0,
        6415.0,
        6420.0,
        6425.0,
        6430.0,
        6435.0,
        6440.0,
        6445.0,
        6450.0,
        6455.0,
        6460.0,
        6465.0,
        6470.0,
        6475.0,
        6480.0,
        6485.0,
        6490.0,
        6495.0,
        6500.0,
        6505.0,
        6510.0,
        6515.0,
        6520.0,
        6525.0,
        6530.0,
        6535.0,
        6540.0,
        6545.0,
        6550.0,
        6555.0,
        6560.0,
        6565.0,
        6570.0,
        6575.0,
        6580.0,
        6585.0,
        6590.0,
        6595.0,
        6600.0,
        6605.0,
        6610.0,
        6615.0,
        6620.0,
        6625.0,
        6630.0,
        6635.0,
        6640.0,
        6645.0,
        6650.0,
        6655.0,
        6660.0,
        6665.0,
        6670.0,
        6675.0,
        6680.0,
        6685.0,
        6690.0,
        6695.0,
        6700.0,
        6705.0,
        6710.0,
        6715.0,
        6720.0,
        6725.0,
        6730.0,
        6735.0,
        6740.0,
        6745.0,
        6750.0,
        6755.0,
        6760.0,
        6765.0,
        6770.0,
        6775.0,
        6780.0,
        6785.0,
        6790.0,
        6795.0,
        6800.0,
        6805.0,
        6810.0,
        6815.0,
        6820.0,
        6825.0,
        6830.0,
        6835.0,
        6840.0,
        6845.0,
        6850.0,
        6855.0,
        6860.0,
        6865.0,
        6870.0,
        6875.0,
        6880.0,
        6885.0,
        6890.0,
        6895.0,
        6900.0,
        6905.0,
        6910.0,
        6915.0,
        6920.0,
        6925.0,
        6930.0,
        6935.0,
        6940.0,
        6945.0,
        6950.0,
        6955.0,
        6960.0,
        6965.0,
        6970.0,
        6975.0,
        6980.0,
        6985.0,
        6990.0,
        6995.0,
        7000.0,
        7005.0,
        7010.0,
        7015.0,
        7020.0,
        7025.0,
        7030.0,
        7035.0,
        7040.0,
        7045.0,
        7050.0,
        7055.0,
        7060.0,
        7065.0,
        7070.0,
        7075.0,
        7080.0,
        7085.0,
        7090.0,
        7095.0,
        7100.0,
        7105.0,
        7110.0,
        7115.0,
        7120.0,
        7125.0,
        7130.0,
        7135.0,
        7140.0,
        7145.0,
        7150.0,
        7155.0,
        7160.0,
        7165.0,
        7170.0,
        7175.0,
        7180.0,
        7185.0,
        7190.0,
        7195.0,
        7200.0,
        7205.0,
        7210.0,
        7215.0,
        7220.0,
        7225.0,
        7230.0,
        7235.0,
        7240.0,
        7245.0,
        7250.0,
        7255.0,
        7260.0,
        7265.0,
        7270.0,
        7275.0,
        7280.0,
        7285.0,
        7290.0,
        7295.0,
        7300.0,
        7305.0,
        7310.0,
        7315.0,
        7320.0,
        7325.0,
        7330.0,
        7335.0,
        7340.0,
        7345.0,
        7350.0,
        7355.0,
        7360.0,
        7365.0,
        7370.0,
        7375.0,
        7380.0,
        7385.0,
        7390.0,
        7395.0,
        7400.0,
        7405.0,
        7410.0,
        7415.0,
        7420.0,
        7425.0,
        7430.0,
        7435.0,
        7440.0,
        7445.0,
        7450.0,
        7455.0,
        7460.0,
        7465.0,
        7470.0,
        7475.0,
        7480.0,
        7485.0,
        7490.0,
        7495.0,
        7500.0,
        7505.0,
        7510.0,
        7515.0,
        7520.0,
        7525.0,
        7530.0,
        7535.0,
        7540.0,
        7545.0,
        7550.0,
        7555.0,
        7560.0,
        7565.0,
        7570.0,
        7575.0,
        7580.0,
        7585.0,
        7590.0,
        7595.0,
        7600.0,
        7605.0,
        7610.0,
        7615.0,
        7620.0,
        7625.0,
        7630.0,
        7635.0,
        7640.0,
        7645.0,
        7650.0,
        7655.0,
        7660.0,
        7665.0,
        7670.0,
        7675.0,
        7680.0,
        7685.0,
        7690.0,
        7695.0,
        7700.0,
        7705.0,
        7710.0,
        7715.0,
        7720.0,
        7725.0,
        7730.0,
        7735.0,
        7740.0,
        7745.0,
        7750.0,
        7755.0,
        7760.0,
        7765.0,
        7770.0,
        7775.0,
        7780.0,
        7785.0,
        7790.0,
        7795.0,
        7800.0,
        7805.0,
        7810.0,
        7815.0,
        7820.0,
        7825.0,
        7830.0,
        7835.0,
        7840.0,
        7845.0,
        7850.0,
        7855.0,
        7860.0,
        7865.0,
        7870.0,
        7875.0,
        7880.0,
        7885.0,
        7890.0,
        7895.0,
        7900.0,
        7905.0,
        7910.0,
        7915.0,
        7920.0,
        7925.0,
        7930.0,
        7935.0,
        7940.0,
        7945.0,
        7950.0,
        7955.0,
        7960.0,
        7965.0,
        7970.0,
        7975.0,
        7980.0,
        7985.0,
        7990.0,
        7995.0,
        8000.0,
        8005.0,
        8010.0,
        8015.0,
        8020.0,
        8025.0,
        8030.0,
        8035.0,
        8040.0,
        8045.0,
        8050.0,
        8055.0,
        8060.0,
        8065.0,
        8070.0,
        8075.0,
        8080.0,
        8085.0,
        8090.0,
        8095.0,
        8100.0,
        8105.0,
        8110.0,
        8115.0,
        8120.0,
        8125.0,
        8130.0,
        8135.0,
        8140.0,
        8145.0,
        8150.0,
        8155.0,
        8160.0,
        8165.0,
        8170.0,
        8175.0,
        8180.0,
        8185.0,
        8190.0,
        8195.0,
        8200.0,
        8205.0,
        8210.0,
        8215.0,
        8220.0,
        8225.0,
        8230.0,
        8235.0,
        8240.0,
        8245.0,
        8250.0,
        8255.0,
        8260.0,
        8265.0,
        8270.0,
        8275.0,
        8280.0,
        8285.0,
        8290.0,
        8295.0,
        8300.0,
        8305.0,
        8310.0,
        8315.0,
        8320.0,
        8325.0,
        8330.0,
        8335.0,
        8340.0,
        8345.0,
        8350.0,
        8355.0,
        8360.0,
        8365.0,
        8370.0,
        8375.0,
        8380.0,
        8385.0,
        8390.0,
        8395.0,
        8400.0,
        8405.0,
        8410.0,
        8415.0,
        8420.0,
        8425.0,
        8430.0,
        8435.0,
        8440.0,
        8445.0,
        8450.0,
        8455.0,
        8460.0,
        8465.0,
        8470.0,
        8475.0,
        8480.0,
        8485.0,
        8490.0,
        8495.0,
        8500.0,
        8505.0,
        8510.0,
        8515.0,
        8520.0,
        8525.0,
        8530.0,
        8535.0,
        8540.0,
        8545.0,
        8550.0,
        8555.0,
        8560.0,
        8565.0,
        8570.0,
        8575.0,
        8580.0,
        8585.0,
        8590.0,
        8595.0,
        8600.0,
        8605.0,
        8610.0,
        8615.0,
        8620.0,
        8625.0,
        8630.0,
        8635.0,
        8640.0,
        8645.0,
        8650.0,
        8655.0,
        8660.0,
        8665.0,
        8670.0,
        8675.0,
        8680.0,
        8685.0,
        8690.0,
        8695.0,
        8700.0,
        8705.0,
        8710.0,
        8715.0,
        8720.0,
        8725.0,
        8730.0,
        8735.0,
        8740.0,
        8745.0,
        8750.0,
        8755.0,
        8760.0,
        8765.0,
        8770.0,
        8775.0,
        8780.0,
        8785.0,
        8790.0,
        8795.0,
        8800.0,
        8805.0,
        8810.0,
        8815.0,
        8820.0,
        8825.0,
        8830.0,
        8835.0,
        8840.0,
        8845.0,
        8850.0,
        8855.0,
        8860.0,
        8865.0,
        8870.0,
        8875.0,
        8880.0,
        8885.0,
        8890.0,
        8895.0,
        8900.0,
        8905.0,
        8910.0,
        8915.0,
        8920.0,
        8925.0,
        8930.0,
        8935.0,
        8940.0,
        8945.0,
        8950.0,
        8955.0,
        8960.0,
        8965.0,
        8970.0,
        8975.0,
        8980.0,
        8985.0,
        8990.0,
        8995.0,
        9000.0,
        9005.0,
        9010.0,
        9015.0,
        9020.0,
        9025.0,
        9030.0,
        9035.0,
        9040.0,
        9045.0,
        9050.0,
        9055.0,
        9060.0,
        9065.0,
        9070.0,
        9075.0,
        9080.0,
        9085.0,
        9090.0,
        9095.0,
        9100.0,
        9105.0,
        9110.0,
        9115.0,
        9120.0,
        9125.0,
        9130.0,
        9135.0,
        9140.0,
        9145.0,
        9150.0,
        9155.0,
        9160.0,
        9165.0,
        9170.0,
        9175.0,
        9180.0,
        9185.0,
        9190.0,
        9195.0,
        9200.0,
        9205.0,
        9210.0,
        9215.0,
        9220.0,
        9225.0,
        9230.0,
        9235.0,
        9240.0,
        9245.0,
        9250.0,
        9255.0,
        9260.0,
        9265.0,
        9270.0,
        9275.0,
        9280.0,
        9285.0,
        9290.0,
        9295.0,
        9300.0,
        9305.0,
        9310.0,
        9315.0,
        9320.0,
        9325.0,
        9330.0,
        9335.0,
        9340.0,
        9345.0,
        9350.0,
        9355.0,
        9360.0,
        9365.0,
        9370.0,
        9375.0,
        9380.0,
        9385.0,
        9390.0,
        9395.0,
        9400.0,
        9405.0,
        9410.0,
        9415.0,
        9420.0,
        9425.0,
        9430.0,
        9435.0,
        9440.0,
        9445.0,
        9450.0,
        9455.0,
        9460.0,
        9465.0,
        9470.0,
        9475.0,
        9480.0,
        9485.0,
        9490.0,
        9495.0,
        9500.0,
        9505.0,
        9510.0,
        9515.0,
        9520.0,
        9525.0,
        9530.0,
        9535.0,
        9540.0,
        9545.0,
        9550.0,
        9555.0,
        9560.0,
        9565.0,
        9570.0,
        9575.0,
        9580.0,
        9585.0,
        9590.0,
        9595.0,
        9600.0,
        9605.0,
        9610.0,
        9615.0,
        9620.0,
        9625.0,
        9630.0,
        9635.0,
        9640.0,
        9645.0,
        9650.0,
        9655.0,
        9660.0,
        9665.0,
        9670.0,
        9675.0,
        9680.0,
        9685.0,
        9690.0,
        9695.0,
        9700.0,
        9705.0,
        9710.0,
        9715.0,
        9720.0,
        9725.0,
        9730.0,
        9735.0,
        9740.0,
        9745.0,
        9750.0,
        9755.0,
        9760.0,
        9765.0,
        9770.0,
        9775.0,
        9780.0,
        9785.0,
        9790.0,
        9795.0,
        9800.0,
        9805.0,
        9810.0,
        9815.0,
        9820.0,
        9825.0,
        9830.0,
        9835.0,
        9840.0,
        9845.0,
        9850.0,
        9855.0,
        9860.0,
        9865.0,
        9870.0,
        9875.0,
        9880.0,
        9885.0,
        9890.0,
        9895.0,
        9900.0,
        9905.0,
        9910.0,
        9915.0,
        9920.0,
        9925.0,
        9930.0,
        9935.0,
        9940.0,
        9945.0,
        9950.0,
        9955.0,
        9960.0,
        9965.0,
        9970.0,
        9975.0,
        9980.0,
        9985.0,
        9990.0,
        9995.0,
        10000.0,
        10005.0,
        10010.0,
        10015.0,
        10020.0,
        10025.0,
        10030.0,
        10035.0,
        10040.0,
        10045.0,
        10050.0,
        10055.0,
        10060.0,
        10065.0,
        10070.0,
        10075.0,
        10080.0,
        10085.0,
        10090.0,
        10095.0,
        10100.0,
        10105.0,
        10110.0,
        10115.0,
        10120.0,
        10125.0,
        10130.0,
        10135.0,
        10140.0,
        10145.0,
        10150.0,
        10155.0,
        10160.0,
        10165.0,
        10170.0,
        10175.0,
        10180.0,
        10185.0,
        10190.0,
        10195.0,
        10200.0,
        10205.0,
        10210.0,
        10215.0,
        10220.0,
        10225.0,
        10230.0,
        10235.0,
        10240.0,
        10245.0,
        10250.0,
        10255.0,
        10260.0,
        10265.0,
        10270.0,
        10275.0,
        10280.0,
        10285.0,
        10290.0,
        10295.0,
        10300.0,
        10305.0,
        10310.0,
        10315.0,
        10320.0,
        10325.0,
        10330.0,
        10335.0,
        10340.0,
        10345.0,
        10350.0,
        10355.0,
        10360.0,
        10365.0,
        10370.0,
        10375.0,
        10380.0,
        10385.0,
        10390.0,
        10395.0,
        10400.0,
        10405.0,
        10410.0,
        10415.0,
        10420.0,
        10425.0,
        10430.0,
        10435.0,
        10440.0,
        10445.0,
        10450.0,
        10455.0,
        10460.0,
        10465.0,
        10470.0,
        10475.0,
        10480.0,
        10485.0,
        10490.0,
        10495.0,
        10500.0
      ],
      "units":"angstrom"
    },
    "values":{
      "value":[
        0.0,
        0.0,
        0.0,
        0.0,
        0.0,
        0.0,
        0.0,
        0.0,
        0.0,
        0.0,
        0.0,
        0.0,
        0.0,
        0.0,
        -0.0,
        -0.0,
        -0.0,
        -0.0,
        -0.0,
        -0.0,
        -0.0,
        0.0,
        0.0,
        0.0,
        0.0,
        0.0,
        0.0,
        0.0,
        0.0,
        0.0,
        0.0,
        -0.0,
        -0.0,
        -0.0,
        -0.0,
        -0.0,
        -0.0,
        -0.0,
        -0.0,
        -0.0,
        0.0,
        0.0,
        0.0,
        0.0,
        0.0,
        0.0,
        0.0,
        0.0,
        0.0,
        0.0,
        0.0,
        -0.0,
        -0.0,
        -0.0,
        -0.0,
        -0.0,
        -0.0,
        -0.0,
        -0.0,
        -0.0,
        -0.0,
        -0.0,
        0.0,
        0.0,
        0.0,
        0.0,
        0.0,
        0.0,
        0.0,
        0.0,
        0.0,
        0.0,
        0.0,
        0.0,
        0.0,
        -0.0,
        -0.0,
        -0.0,
        -0.0,
        -0.0,
        -0.0,
        -0.0,
        -0.0,
        -0.0,
        0.0,
        0.0,
        0.0,
        0.0,
        0.0,
        0.0,
        0.0,
        0.0,
        0.0,
        0.0,
        -0.0,
        -0.0,
        -0.0,
        -0.0,
        -0.0,
        -0.0,
        -0.0,
        -0.0,
        -0.0,
        -0.0,
        0.0,
        0.0,
        0.0,
        0.0,
        0.0,
        0.0,
        0.0,
        0.0,
        0.0,
        0.0,
        0.0,
        -0.0,
        -0.0,
        -0.0,
        -0.0,
        -0.0,
        -0.0,
        -0.0,
        -0.0,
        -0.0,
        -0.0,
        -0.0,
        -0.0,
        0.0,
        0.0,
        0.0,
        0.0,
        0.0,
        0.0,
        0.0,
        0.0,
        0.0,
        0.0,
        0.0,
        0.0,
        0.0,
        -0.0,
        -0.0,
        -0.0,
        -0.0,
        -0.0,
        -0.0,
        -0.0,
        -0.0,
        -0.0,
        -0.0,
        -0.0,
        -0.0,
        -0.0,
        -0.0,
        0.0,
        0.0,
        0.0,
        0.0,
        0.0,
        0.0,
        0.0,
        0.0,
        0.0,
        0.0,
        0.0,
        0.0,
        0.0,
        0.0,
        -0.0,
        -0.0,
        -0.0,
        -0.0,
        -0.0,
        -0.0,
        -0.0,
        -1e-06,
        -1e-06,
        -1e-06,
        -1e-06,
        -1e-06,
        -0.0,
        -0.0,
        -0.0,
        -0.0,
        0.0,
        0.0,
        1e-06,
        1e-06,
        1e-06,
        2e-06,
        2e-06,
        2e-06,
        2e-06,
        3e-06,
        3e-06,
        3e-06,
        3e-06,
        2e-06,
        2e-06,
        1e-06,
        1e-06,
        0.0,
        -1e-06,
        -2e-06,
        -3e-06,
        -4e-06,
        -5e-06,
        -6e-06,
        -7e-06,
        -8e-06,
        -8e-06,
        -8e-06,
        -8e-06,
        -8e-06,
        -7e-06,
        -5e-06,
        -4e-06,
        -1e-06,
        2e-06,
        5e-06,
        9e-06,
        1.4e-05,
        1.9e-05,
        2.5e-05,
        3.1e-05,
        3.6e-05,
        4.2e-05,
        4.7e-05,
        5.2e-05,
        5.6e-05,
        6e-05,
        6.2e-05,
        6.4e-05,
        6.5e-05,
        6.5e-05,
        6.3e-05,
        5.9e-05,
        5.4e-05,
        4.8e-05,
        3.9e-05,
        2.8e-05,
        1.6e-05,
        4e-06,
        -9e-06,
        -2e-05,
        -2.9e-05,
        -3.5e-05,
        -3.7e-05,
        -3.5e-05,
        -2.6e-05,
        -1.1e-05,
        1.2e-05,
        4.3e-05,
        8e-05,
        0.000106,
        0.000102,
        6.3e-05,
        6.8e-05,
        0.000155,
        0.000129,
        3.2e-05,
        1.5e-05,
        2.6e-05,
        1.5e-05,
        5e-06,
        3e-06,
        1e-06,
        -0.0,
        1e-06,
        5e-06,
        1.1e-05,
        1.6e-05,
        1.6e-05,
        1.1e-05,
        2e-06,
        3e-06,
        1.8e-05,
        2.4e-05,
        1e-06,
        -9e-06,
        0.000119,
        0.000322,
        0.000459,
        0.000497,
        0.000452,
        0.000392,
        0.000575,
        0.001076,
        0.001214,
        0.000959,
        0.000968,
        0.001333,
        0.001823,
        0.001958,
        0.001758,
        0.001725,
        0.002287,
        0.003024,
        0.002881,
        0.001847,
        0.001014,
        0.002314,
        0.003581,
        0.002131,
        0.001013,
        0.001578,
        0.002487,
        0.002793,
        0.002365,
        0.002105,
        0.002124,
        0.001935,
        0.001335,
        0.000529,
        0.000186,
        0.000384,
        0.000743,
        0.000672,
        0.000312,
        0.000389,
        0.00062,
        0.000778,
        0.00125,
        0.001645,
        0.001528,
        0.00174,
        0.002155,
        0.001713,
        0.00081,
        0.000159,
        8.2e-05,
        0.000389,
        0.000535,
        0.000567,
        0.000582,
        0.000443,
        0.000242,
        0.000144,
        7.9e-05,
        1.7e-05,
        -1e-06,
        1e-06,
        1.6e-05,
        0.000101,
        0.000205,
        0.000268,
        0.000399,
        0.000705,
        0.001231,
        0.001848,
        0.00222,
        0.001839,
        0.001791,
        0.003744,
        0.004394,
        0.002393,
        0.002104,
        0.003331,
        0.003738,
        0.003359,
        0.003545,
        0.004934,
        0.004562,
        0.002656,
        0.002815,
        0.003429,
        0.001924,
        0.00202,
        0.003589,
        0.002648,
        0.001524,
        0.002279,
        0.002859,
        0.001984,
        0.000191,
        0.002053,
        0.006515,
        0.006327,
        0.00374,
        0.002419,
        0.002714,
        0.004213,
        0.006202,
        0.007895,
        0.009782,
        0.013095,
        0.01612,
        0.016086,
        0.011159,
        0.009894,
        0.021769,
        0.032342,
        0.037712,
        0.059492,
        0.078051,
        0.066781,
        0.054201,
        0.051723,
        0.048412,
        0.060021,
        0.079872,
        0.056498,
        0.029852,
        0.061748,
        0.110694,
        0.127791,
        0.089722,
        0.047074,
        0.037361,
        0.037484,
        0.056046,
        0.106271,
        0.11995,
        0.069168,
        0.030042,
        0.038601,
        0.079865,
        0.080846,
        0.076888,
        0.175485,
        0.232787,
        0.170574,
        0.150485,
        0.165073,
        0.146324,
        0.179823,
        0.257809,
        0.276848,
        0.275358,
        0.292329,
        0.284866,
        0.231767,
        0.148896,
        0.102417,
        0.141622,
        0.249273,
        0.303325,
        0.210022,
        0.127736,
        0.139419,
        0.197351,
        0.208693,
        0.134792,
        0.051948,
        0.046881,
        0.153202,
        0.250943,
        0.260994,
        0.193597,
        0.166289,
        0.226462,
        0.250047,
        0.210359,
        0.178284,
        0.274714,
        0.45933,
        0.426345,
        0.215718,
        0.059906,
        0.099699,
        0.249776,
        0.279574,
        0.299065,
        0.356097,
        0.235152,
        0.131234,
        0.290934,
        0.361982,
        0.254766,
        0.216342,
        0.291199,
        0.396875,
        0.371469,
        0.213243,
        0.068749,
        0.183126,
        0.57095,
        0.84686,
        0.904506,
        0.827332,
        0.776238,
        0.74591,
        0.644449,
        0.433032,
        0.182159,
        0.039528,
        0.032809,
        0.096477,
        0.088554,
        0.04035,
        0.090532,
        0.156229,
        0.19117,
        0.319817,
        0.468507,
        0.48428,
        0.364127,
        0.299928,
        0.527551,
        0.62519,
        0.478257,
        0.764852,
        1.10315,
        0.891817,
        0.838792,
        0.941316,
        0.504131,
        0.239903,
        0.688788,
        1.275308,
        1.401211,
        0.780715,
        0.248411,
        0.290204,
        0.336545,
        0.235849,
        0.13366,
        0.135027,
        0.180899,
        0.121631,
        0.157462,
        0.363895,
        0.443805,
        0.514252,
        0.864954,
        1.48733,
        1.909439,
        1.499662,
        0.960148,
        0.908315,
        1.054995,
        1.143283,
        1.025214,
        0.67544,
        0.251492,
        0.135059,
        0.265639,
        0.427898,
        0.746463,
        1.011426,
        0.768822,
        0.394385,
        0.297794,
        0.446907,
        0.619075,
        0.574447,
        0.296876,
        0.143228,
        0.589246,
        0.961277,
        0.675543,
        0.540374,
        0.733368,
        0.664862,
        0.398935,
        0.18031,
        0.112754,
        0.123067,
        0.134891,
        0.322716,
        0.528664,
        0.349276,
        0.099307,
        0.095592,
        0.244316,
        0.479885,
        0.724922,
        0.755901,
        0.661758,
        0.903669,
        1.239644,
        1.245299,
        1.220338,
        1.297897,
        1.300245,
        1.003768,
        0.555175,
        0.646716,
        0.964087,
        0.891304,
        0.767331,
        0.753016,
        0.705038,
        0.758061,
        0.889991,
        0.7185,
        0.590965,
        0.961176,
        1.179331,
        0.888321,
        0.578367,
        0.553472,
        0.793847,
        0.816506,
        0.656643,
        0.783985,
        0.761433,
        0.35559,
        0.166622,
        0.387507,
        0.876076,
        1.350111,
        1.414572,
        0.783639,
        0.229023,
        0.328282,
        0.722359,
        0.979581,
        0.817927,
        0.551404,
        0.441214,
        0.391584,
        0.333176,
        0.243368,
        0.132944,
        0.066462,
        0.129961,
        0.268172,
        0.412936,
        0.54483,
        0.532311,
        0.32415,
        0.293034,
        0.41592,
        0.317731,
        0.280211,
        0.477408,
        0.544978,
        0.404374,
        0.238814,
        0.389529,
        0.669037,
        0.504619,
        0.254801,
        0.335733,
        0.39501,
        0.299685,
        0.249604,
        0.288181,
        0.354383,
        0.32616,
        0.260954,
        0.277487,
        0.349983,
        0.427953,
        0.463612,
        0.412536,
        0.310495,
        0.304227,
        0.309048,
        0.200226,
        0.158091,
        0.314004,
        0.629868,
        0.733694,
        0.362064,
        0.115494,
        0.167938,
        0.189127,
        0.292117,
        0.515108,
        0.534598,
        0.343518,
        0.14937,
        0.173198,
        0.421919,
        0.618567,
        0.641984,
        0.512566,
        0.357729,
        0.256047,
        0.213079,
        0.209357,
        0.226522,
        0.265708,
        0.238744,
        0.0797,
        0.333273,
        0.948388,
        0.690375,
        0.07815,
        0.160997,
        0.302314,
        0.247603,
        0.342916,
        0.417856,
        0.293737,
        0.101426,
        0.108097,
        0.412302,
        0.452366,
        0.193039,
        0.151885,
        0.328127,
        0.515324,
        0.467923,
        0.229483,
        0.087366,
        0.056476,
        0.122085,
        0.363322,
        0.672824,
        0.82526,
        0.607504,
        0.223062,
        0.166632,
        0.270291,
        0.302006,
        0.322753,
        0.547118,
        0.988304,
        0.882098,
        0.277656,
        0.027723,
        0.15243,
        0.274353,
        -0.020694,
        0.273064,
        2.144099,
        3.627274,
        3.277366,
        1.676833,
        0.216184,
        -0.023516,
        0.076573,
        0.087615,
        0.305928,
        0.538183,
        0.568117,
        0.459649,
        0.310446,
        0.190919,
        0.005708,
        -0.087492,
        0.525164,
        1.227229,
        0.753484,
        0.35622,
        0.828256,
        0.854195,
        0.322456,
        -0.003197,
        0.688843,
        1.566677,
        0.870699,
        0.718,
        2.096717,
        2.147476,
        1.075343,
        0.590348,
        0.799549,
        1.094372,
        0.729247,
        0.449191,
        0.759484,
        0.966676,
        1.012524,
        1.070516,
        0.722199,
        0.432403,
        1.179225,
        1.364628,
        0.277291,
        -0.021211,
        0.375728,
        0.454246,
        0.719827,
        1.223409,
        1.096364,
        0.528751,
        0.183807,
        0.142502,
        0.196264,
        0.104356,
        0.424001,
        1.297105,
        1.396468,
        0.678994,
        0.341137,
        0.284057,
        0.228907,
        0.349705,
        0.663457,
        1.002363,
        1.019453,
        0.701489,
        0.447076,
        0.88709,
        1.754318,
        1.391855,
        0.698257,
        1.272395,
        2.08235,
        2.268746,
        1.776492,
        1.310846,
        1.330562,
        1.415241,
        1.449242,
        1.596216,
        1.398975,
        1.083755,
        2.092907,
        2.787874,
        1.224185,
        0.069911,
        0.197531,
        0.171082,
        0.406084,
        1.068864,
        0.895389,
        0.471112,
        1.398368,
        1.96029,
        1.108588,
        0.676164,
        0.873884,
        0.944779,
        0.880348,
        0.810349,
        0.750158,
        0.983346,
        1.591726,
        1.622845,
        1.250749,
        1.500875,
        1.414717,
        0.771937,
        1.291628,
        2.304228,
        2.280408,
        1.660659,
        0.891953,
        0.273082,
        1.226106,
        3.253972,
        2.493573,
        0.4155,
        0.246925,
        0.528364,
        0.471409,
        0.670349,
        0.842315,
        0.701396,
        0.491445,
        0.444128,
        0.686175,
        1.141611,
        1.550606,
        1.500305,
        1.230033,
        1.18496,
        1.25398,
        1.253679,
        1.099003,
        1.064196,
        1.314348,
        1.600561,
        1.719105,
        1.554944,
        0.998153,
        0.288414,
        0.162845,
        0.414372,
        0.5576,
        0.995785,
        1.54092,
        1.467698,
        1.238381,
        1.281054,
        0.851525,
        0.316354,
        0.949161,
        1.847984,
        1.973517,
        1.3647,
        0.711139,
        0.894237,
        1.407153,
        1.550447,
        1.153181,
        0.644333,
        0.533986,
        0.613929,
        0.718862,
        0.855218,
        1.002959,
        1.072122,
        0.903427,
        0.639165,
        0.505583,
        0.438049,
        0.3843,
        0.357181,
        0.361437,
        0.388957,
        0.413017,
        0.374123,
        0.297815,
        0.496307,
        0.862286,
        0.91585,
        0.717856,
        0.507515,
        0.484316,
        0.600154,
        0.636141,
        0.747984,
        0.978044,
        0.978631,
        0.793805,
        0.762529,
        0.783986,
        0.767851,
        0.88759,
        1.123386,
        1.280759,
        1.195918,
        0.908613,
        0.793241,
        0.944256,
        1.126271,
        1.023915,
        0.657985,
        0.588395,
        0.700262,
        0.650547,
        0.685702,
        0.84795,
        0.925986,
        1.034173,
        1.190194,
        1.092943,
        0.821532,
        0.659733,
        0.76091,
        0.931073,
        0.774384,
        0.546381,
        0.568911,
        0.854481,
        0.965693,
        0.562317,
        0.303803,
        0.365139,
        0.339617,
        0.295818,
        0.33935,
        0.360592,
        0.339083,
        0.306306,
        0.255287,
        0.207787,
        0.218492,
        0.230176,
        0.184825,
        0.21467,
        0.316834,
        0.346646,
        0.314301,
        0.27929,
        0.287587,
        0.338141,
        0.3922,
        0.385413,
        0.383277,
        0.533867,
        0.705241,
        0.737381,
        0.603248,
        0.462792,
        0.48596,
        0.569065,
        0.63755,
        0.688487,
        0.675011,
        0.625046,
        0.711003,
        0.915011,
        1.060018,
        1.140028,
        1.164387,
        1.088803,
        1.093186,
        1.31775,
        1.387928,
        1.237942,
        1.334774,
        1.484561,
        1.350337,
        1.390872,
        1.618083,
        1.42038,
        1.218225,
        1.576703,
        1.633668,
        1.240357,
        1.452603,
        1.784536,
        1.301431,
        0.837506,
        0.886361,
        0.787309,
        0.546375,
        0.471442,
        0.403514,
        0.280152,
        0.214253,
        0.281028,
        0.425993,
        0.494594,
        0.433374,
        0.295339,
        0.236279,
        0.242142,
        0.230471,
        0.240522,
        0.291934,
        0.334413,
        0.363333,
        0.386393,
        0.360047,
        0.335176,
        0.423208,
        0.50233,
        0.495024,
        0.52128,
        0.576026,
        0.596698,
        0.641516,
        0.764319,
        0.948465,
        1.097263,
        1.111359,
        1.014224,
        0.940789,
        1.109293,
        1.247187,
        1.037216,
        0.89902,
        1.080901,
        1.361213,
        1.364994,
        1.044279,
        1.457968,
        2.315991,
        2.172987,
        1.729151,
        1.67671,
        1.47685,
        1.498001,
        2.616587,
        3.285394,
        2.51015,
        1.577233,
        1.277306,
        1.756908,
        2.411512,
        2.705787,
        2.552645,
        2.501166,
        2.931416,
        2.74849,
        2.232845,
        2.960651,
        3.871907,
        3.491218,
        2.693065,
        2.378091,
        2.848431,
        3.38995,
        3.48006,
        3.44005,
        3.121377,
        2.631738,
        3.694447,
        5.631238,
        5.660312,
        4.231599,
        2.846224,
        2.726681,
        3.149622,
        2.146533,
        1.266263,
        1.652278,
        1.850825,
        1.741567,
        1.807824,
        1.566494,
        1.107306,
        1.125057,
        1.50973,
        1.830149,
        1.657193,
        1.267184,
        1.132613,
        1.078873,
        1.103613,
        1.370265,
        1.362563,
        0.931869,
        0.851103,
        0.950464,
        0.774322,
        0.807385,
        1.046943,
        0.9772,
        0.887606,
        1.024961,
        1.107603,
        1.027176,
        0.884979,
        0.96978,
        1.117606,
        1.029555,
        0.977267,
        1.029934,
        1.007225,
        1.048049,
        1.177934,
        1.088107,
        0.941738,
        1.098553,
        1.597654,
        2.053487,
        1.875535,
        1.336644,
        0.921957,
        0.910606,
        1.112356,
        1.066021,
        1.220955,
        1.836181,
        2.345167,
        2.418543,
        2.067729,
        1.746772,
        1.730776,
        1.995453,
        2.123815,
        1.844572,
        1.940271,
        2.361327,
        2.353964,
        2.912305,
        4.520604,
        4.502291,
        2.961607,
        2.777041,
        3.630446,
        4.241997,
        3.87006,
        3.065029,
        3.282438,
        4.004152,
        4.310081,
        4.583725,
        5.127553,
        5.848795,
        5.91797,
        4.944296,
        5.072438,
        6.572974,
        6.207905,
        5.245224,
        6.1777,
        6.702691,
        6.024951,
        5.580604,
        5.859823,
        6.253776,
        5.809054,
        6.00425,
        7.186481,
        6.753011,
        5.820826,
        6.431698,
        6.4352,
        5.614656,
        5.900663,
        6.167185,
        5.107251,
        3.045901,
        1.70653,
        2.469915,
        3.560299,
        3.711667,
        2.882231,
        2.041527,
        2.118418,
        2.561766,
        3.016334,
        3.643042,
        4.030171,
        3.597031,
        2.465023,
        1.228634,
        0.90765,
        1.07123,
        0.626083,
        1.112265,
        3.226625,
        3.654356,
        2.072582,
        1.480314,
        2.133503,
        2.779347,
        2.784754,
        2.316163,
        2.053901,
        2.493626,
        3.033535,
        2.481819,
        2.171572,
        2.891377,
        3.198254,
        3.151911,
        3.530427,
        4.213608,
        4.822589,
        4.947516,
        4.502628,
        3.827892,
        3.719983,
        4.199491,
        4.798983,
        5.195688,
        5.428266,
        5.588332,
        5.766582,
        6.017809,
        6.350178,
        6.768733,
        7.27638,
        7.836686,
        8.378692,
        8.83027,
        9.125842,
        9.261866,
        9.268998,
        9.178256,
        9.024042,
        8.860519,
        8.749001,
        8.750815,
        8.902021,
        9.129739,
        9.331732,
        9.405813,
        9.314894,
        9.215308,
        9.299153,
        9.758036,
        10.637291,
        11.632086,
        12.386277,
        12.545229,
        11.991211,
        11.099486,
        10.306828,
        10.045942,
        10.434896,
        11.058417,
        11.449571,
        11.146151,
        10.051852,
        8.6906,
        7.646401,
        7.497733,
        8.395835,
        9.767734,
        10.970298,
        11.364537,
        10.706405,
        9.468246,
        8.198058,
        7.44265,
        7.497082,
        8.094728,
        8.892962,
        9.549418,
        9.839211,
        9.839452,
        9.675116,
        9.471173,
        9.321009,
        9.209218,
        9.096992,
        8.945524,
        8.722694,
        8.427463,
        8.067819,
        7.651753,
        7.187383,
        6.683784,
        6.150464,
        5.596929,
        5.038625,
        4.564349,
        4.312376,
        4.421907,
        5.025009,
        6.04361,
        7.160201,
        8.044251,
        8.366881,
        7.999372,
        7.201748,
        6.278698,
        5.53491,
        5.199823,
        5.223627,
        5.491741,
        5.88959,
        6.316218,
        6.771369,
        7.299918,
        7.946953,
        8.751694,
        9.618419,
        10.316462,
        10.609289,
        10.261263,
        9.226413,
        7.881949,
        6.662337,
        6.002047,
        6.243265,
        7.189311,
        8.448451,
        9.628689,
        10.352372,
        10.505638,
        10.206137,
        9.57937,
        8.750853,
        7.849889,
        7.015525,
        6.38835,
        6.108952,
        6.294764,
        6.861674,
        7.621794,
        8.386379,
        8.968179,
        9.259718,
        9.271804,
        9.024817,
        8.539134,
        7.854259,
        7.105577,
        6.458449,
        6.078249,
        6.124661,
        6.565809,
        7.136776,
        7.558567,
        7.552284,
        6.971093,
        6.060561,
        5.138807,
        4.52395,
        4.448685,
        4.777396,
        5.275223,
        5.707305,
        5.874013,
        5.816186,
        5.675106,
        5.592392,
        5.694552,
        5.95209,
        6.24348,
        6.446005,
        6.44276,
        6.236081,
        5.940006,
        5.672883,
        5.552132,
        5.636145,
        5.889759,
        6.269514,
        6.731971,
        7.245972,
        7.814299,
        8.445544,
        9.148303,
        9.919458,
        10.687505,
        11.356188,
        11.829217,
        12.018205,
        11.952987,
        11.754416,
        11.545684,
        11.448647,
        11.500154,
        11.602326,
        11.645334,
        11.519352,
        11.223595,
        11.161949,
        11.832155,
        13.731954,
        17.269121,
        21.922678,
        26.623728,
        30.296293,
        31.878389,
        31.055149,
        28.619429,
        25.453718,
        22.440506,
        20.307024,
        19.058743,
        18.491592,
        18.401482,
        18.594687,
        19.032824,
        19.797075,
        20.971699,
        22.640554,
        24.711086,
        26.637178,
        27.800859,
        27.584135,
        25.479685,
        22.028053,
        18.347507,
        15.562345,
        14.792431,
        16.460304,
        19.537424,
        22.814184,
        25.080982,
        25.297684,
        23.782324,
        21.505621,
        19.442444,
        18.56439,
        19.329395,
        21.126501,
        23.211367,
        24.839661,
        25.328394,
        24.686659,
        23.360203,
        21.801613,
        20.463297,
        19.660889,
        19.332123,
        19.350035,
        19.587656,
        19.917274,
        20.195932,
        20.266394,
        19.970863,
        19.15155,
        17.715912,
        15.924296,
        14.155819,
        12.789683,
        12.201514,
        12.489862,
        13.283628,
        14.166219,
        14.721035,
        14.565814,
        13.78432,
        12.796188,
        12.028463,
        11.908191,
        12.755572,
        14.312893,
        16.127945,
        17.748371,
        18.722948,
        18.839027,
        18.416271,
        17.846371,
        17.521011,
        17.815554,
        18.729744,
        19.887718,
        20.897285,
        21.366255,
        20.950209,
        19.798059,
        18.349726,
        17.048906,
        16.339287,
        16.568188,
        17.56168,
        18.970415,
        20.444906,
        21.635742,
        22.293436,
        22.465374,
        22.25383,
        21.761091,
        21.089302,
        20.338242,
        19.605597,
        18.989014,
        18.609766,
        18.65436,
        19.32048,
        20.742018,
        22.497635,
        23.880127,
        24.195246,
        23.443575,
        22.589808,
        22.669641,
        24.307209,
        26.352085,
        27.175671,
        25.260906,
        21.14131,
        17.149994,
        15.679636,
        17.992542,
        22.228086,
        25.990873,
        27.107061,
        25.690107,
        23.202852,
        21.12068,
        20.326471,
        20.552368,
        21.398302,
        22.478926,
        23.536903,
        24.380817,
        24.82217,
        24.855497,
        24.785583,
        24.947275,
        25.589737,
        26.377367,
        26.730305,
        26.073874,
        24.297695,
        22.078421,
        20.168945,
        19.274073,
        19.713354,
        21.621181,
        25.125629,
        29.732296,
        33.737827,
        35.299976,
        32.817963,
        27.183937,
        20.760731,
        15.929055,
        14.248366,
        15.009191,
        17.11351,
        19.489212,
        21.540243,
        23.088362,
        23.969501,
        24.124674,
        23.98325,
        24.1164,
        25.084753,
        26.885504,
        28.680439,
        29.563761,
        28.791725,
        27.031179,
        25.675287,
        26.122677,
        29.072374,
        33.144619,
        36.575306,
        37.654819,
        36.278343,
        34.169636,
        33.151928,
        34.777824,
        38.431149,
        42.453499,
        45.180332,
        45.606438,
        44.685719,
        43.734272,
        44.037449,
        45.844334,
        48.143425,
        49.847027,
        49.972054,
        48.61507,
        46.509567,
        44.397285,
        42.909061,
        42.197639,
        42.286945,
        43.200111,
        44.83923,
        46.854492,
        48.864651,
        50.494503,
        51.507671,
        51.806641,
        51.299915,
        49.923023,
        47.890438,
        45.5812,
        43.376476,
        41.589378,
        40.191826,
        39.049072,
        38.026329,
        37.016922,
        36.078388,
        35.327682,
        34.881863,
        34.857967,
        35.364307,
        36.329876,
        37.51572,
        38.676388,
        39.566437,
        39.94043,
        39.637466,
        38.834877,
        37.794533,
        36.778305,
        36.048073,
        35.859833,
        36.240963,
        36.92186,
        37.613075,
        38.025169,
        37.868683,
        36.917809,
        35.417011,
        33.821537,
        32.587627,
        32.171524,
        33.028049,
        35.309402,
        38.49263,
        41.963432,
        45.10751,
        47.310543,
        47.988895,
        47.122322,
        45.185081,
        42.668198,
        40.062714,
        37.859665,
        36.477818,
        35.91394,
        36.012047,
        36.615952,
        37.569447,
        38.716408,
        39.940414,
        41.234791,
        42.611652,
        44.083126,
        45.66132,
        47.357491,
        49.13665,
        50.895248,
        52.524204,
        53.914417,
        54.956806,
        55.549408,
        55.708679,
        55.548325,
        55.184975,
        54.735249,
        54.315762,
        54.029385,
        53.848866,
        53.675163,
        53.408527,
        52.949188,
        52.197372,
        51.079998,
        49.706032,
        48.260506,
        46.928703,
        45.895908,
        45.347397,
        45.417721,
        46.005604,
        46.941299,
        48.055046,
        49.177094,
        50.137691,
        50.810951,
        51.246498,
        51.537811,
        51.7784,
        52.061741,
        52.481327,
        53.09687,
        53.851738,
        54.664272,
        55.452808,
        56.135693,
        56.63126,
        56.874016,
        56.863091,
        56.613796,
        56.141418,
        55.461266,
        54.588623,
        53.539856,
        52.33662,
        51.002235,
        49.560013,
        48.033272,
        46.445343,
        44.84396,
        43.419624,
        42.414459,
        42.070694,
        42.630527,
        44.336174,
        47.373116,
        51.389717,
        55.738182,
        59.767635,
        62.827209,
        64.266022,
        63.47715,
        60.661568,
        56.729332,
        52.614532,
        49.251289,
        47.573708,
        48.501759,
        52.20071,
        57.716843,
        64.005898,
        70.023613,
        74.725723,
        77.0681,
        76.421738,
        73.485161,
        69.221741,
        64.594818,
        60.567745,
        58.103889,
        58.024784,
        60.10392,
        63.645035,
        67.949646,
        72.319275,
        76.05545,
        78.469719,
        79.263199,
        78.64312,
        76.850517,
        74.126457,
        70.71196,
        66.848083,
        62.800972,
        58.929962,
        55.615997,
        53.240017,
        52.182961,
        52.825779,
        55.510654,
        59.999962,
        65.609711,
        71.644447,
        77.408691,
        82.207008,
        85.345421,
        86.452477,
        85.876099,
        84.0616,
        81.454269,
        78.499428,
        75.642342,
        73.294159,
        71.568474,
        70.425713,
        69.82505,
        69.725647,
        70.086662,
        70.867142,
        72.000229,
        73.361343,
        74.818039,
        76.237892,
        77.488503,
        78.437447,
        78.961975,
        79.070641,
        78.866676,
        78.455376,
        77.942024,
        77.431931,
        77.030388,
        76.817642,
        76.773682,
        76.853462,
        77.011909,
        77.203964,
        77.384567,
        77.516296,
        77.702187,
        78.16851,
        79.14576,
        80.864403,
        83.538101,
        86.993912,
        90.672272,
        93.996796,
        96.391129,
        97.319229,
        96.792763,
        95.218094,
        93.010323,
        90.584518,
        88.31781,
        86.195107,
        83.969994,
        81.393082,
        78.214943,
        74.343071,
        70.533646,
        67.828423,
        67.269417,
        69.89859,
        76.21727,
        84.720268,
        93.437027,
        100.396988,
        103.630264,
        102.052322,
        97.209381,
        91.13401,
        85.85881,
        83.413086,
        84.849991,
        88.885666,
        93.89389,
        98.248383,
        100.328621,
        99.415451,
        96.665314,
        93.468719,
        91.216171,
        91.29113,
        94.224876,
        98.893654,
        103.98349,
        108.180504,
        110.175056,
        109.335724,
        106.442352,
        102.45089,
        98.317276,
        94.995674,
        93.063477,
        92.257385,
        92.200386,
        92.51545,
        92.826004,
        92.893433,
        92.809242,
        92.713402
      ],
      "range":1
    }
  }
]
