[
  {
    "model":"Star, type A7(iii)",
    "name":"Star, type A7(iii)",
    "type":"WB_REF",
    "dataQualityMarker":3,
    "dataSource":"https://www.eso.org/sci/facilities/paranal/decommissioned/isaac/tools/lib.html",
    "manufacturer":"A. Pickles (A.J. Pickles, PASP 110,863, 1998)",
    "version":1,
    "wavelength":{
      "value":[
        1150.0,
        1155.0,
        1160.0,
        1165.0,
        1170.0,
        1175.0,
        1180.0,
        1185.0,
        1190.0,
        1195.0,
        1200.0,
        1205.0,
        1210.0,
        1215.0,
        1220.0,
        1225.0,
        1230.0,
        1235.0,
        1240.0,
        1245.0,
        1250.0,
        1255.0,
        1260.0,
        1265.0,
        1270.0,
        1275.0,
        1280.0,
        1285.0,
        1290.0,
        1295.0,
        1300.0,
        1305.0,
        1310.0,
        1315.0,
        1320.0,
        1325.0,
        1330.0,
        1335.0,
        1340.0,
        1345.0,
        1350.0,
        1355.0,
        1360.0,
        1365.0,
        1370.0,
        1375.0,
        1380.0,
        1385.0,
        1390.0,
        1395.0,
        1400.0,
        1405.0,
        1410.0,
        1415.0,
        1420.0,
        1425.0,
        1430.0,
        1435.0,
        1440.0,
        1445.0,
        1450.0,
        1455.0,
        1460.0,
        1465.0,
        1470.0,
        1475.0,
        1480.0,
        1485.0,
        1490.0,
        1495.0,
        1500.0,
        1505.0,
        1510.0,
        1515.0,
        1520.0,
        1525.0,
        1530.0,
        1535.0,
        1540.0,
        1545.0,
        1550.0,
        1555.0,
        1560.0,
        1565.0,
        1570.0,
        1575.0,
        1580.0,
        1585.0,
        1590.0,
        1595.0,
        1600.0,
        1605.0,
        1610.0,
        1615.0,
        1620.0,
        1625.0,
        1630.0,
        1635.0,
        1640.0,
        1645.0,
        1650.0,
        1655.0,
        1660.0,
        1665.0,
        1670.0,
        1675.0,
        1680.0,
        1685.0,
        1690.0,
        1695.0,
        1700.0,
        1705.0,
        1710.0,
        1715.0,
        1720.0,
        1725.0,
        1730.0,
        1735.0,
        1740.0,
        1745.0,
        1750.0,
        1755.0,
        1760.0,
        1765.0,
        1770.0,
        1775.0,
        1780.0,
        1785.0,
        1790.0,
        1795.0,
        1800.0,
        1805.0,
        1810.0,
        1815.0,
        1820.0,
        1825.0,
        1830.0,
        1835.0,
        1840.0,
        1845.0,
        1850.0,
        1855.0,
        1860.0,
        1865.0,
        1870.0,
        1875.0,
        1880.0,
        1885.0,
        1890.0,
        1895.0,
        1900.0,
        1905.0,
        1910.0,
        1915.0,
        1920.0,
        1925.0,
        1930.0,
        1935.0,
        1940.0,
        1945.0,
        1950.0,
        1955.0,
        1960.0,
        1965.0,
        1970.0,
        1975.0,
        1980.0,
        1985.0,
        1990.0,
        1995.0,
        2000.0,
        2005.0,
        2010.0,
        2015.0,
        2020.0,
        2025.0,
        2030.0,
        2035.0,
        2040.0,
        2045.0,
        2050.0,
        2055.0,
        2060.0,
        2065.0,
        2070.0,
        2075.0,
        2080.0,
        2085.0,
        2090.0,
        2095.0,
        2100.0,
        2105.0,
        2110.0,
        2115.0,
        2120.0,
        2125.0,
        2130.0,
        2135.0,
        2140.0,
        2145.0,
        2150.0,
        2155.0,
        2160.0,
        2165.0,
        2170.0,
        2175.0,
        2180.0,
        2185.0,
        2190.0,
        2195.0,
        2200.0,
        2205.0,
        2210.0,
        2215.0,
        2220.0,
        2225.0,
        2230.0,
        2235.0,
        2240.0,
        2245.0,
        2250.0,
        2255.0,
        2260.0,
        2265.0,
        2270.0,
        2275.0,
        2280.0,
        2285.0,
        2290.0,
        2295.0,
        2300.0,
        2305.0,
        2310.0,
        2315.0,
        2320.0,
        2325.0,
        2330.0,
        2335.0,
        2340.0,
        2345.0,
        2350.0,
        2355.0,
        2360.0,
        2365.0,
        2370.0,
        2375.0,
        2380.0,
        2385.0,
        2390.0,
        2395.0,
        2400.0,
        2405.0,
        2410.0,
        2415.0,
        2420.0,
        2425.0,
        2430.0,
        2435.0,
        2440.0,
        2445.0,
        2450.0,
        2455.0,
        2460.0,
        2465.0,
        2470.0,
        2475.0,
        2480.0,
        2485.0,
        2490.0,
        2495.0,
        2500.0,
        2505.0,
        2510.0,
        2515.0,
        2520.0,
        2525.0,
        2530.0,
        2535.0,
        2540.0,
        2545.0,
        2550.0,
        2555.0,
        2560.0,
        2565.0,
        2570.0,
        2575.0,
        2580.0,
        2585.0,
        2590.0,
        2595.0,
        2600.0,
        2605.0,
        2610.0,
        2615.0,
        2620.0,
        2625.0,
        2630.0,
        2635.0,
        2640.0,
        2645.0,
        2650.0,
        2655.0,
        2660.0,
        2665.0,
        2670.0,
        2675.0,
        2680.0,
        2685.0,
        2690.0,
        2695.0,
        2700.0,
        2705.0,
        2710.0,
        2715.0,
        2720.0,
        2725.0,
        2730.0,
        2735.0,
        2740.0,
        2745.0,
        2750.0,
        2755.0,
        2760.0,
        2765.0,
        2770.0,
        2775.0,
        2780.0,
        2785.0,
        2790.0,
        2795.0,
        2800.0,
        2805.0,
        2810.0,
        2815.0,
        2820.0,
        2825.0,
        2830.0,
        2835.0,
        2840.0,
        2845.0,
        2850.0,
        2855.0,
        2860.0,
        2865.0,
        2870.0,
        2875.0,
        2880.0,
        2885.0,
        2890.0,
        2895.0,
        2900.0,
        2905.0,
        2910.0,
        2915.0,
        2920.0,
        2925.0,
        2930.0,
        2935.0,
        2940.0,
        2945.0,
        2950.0,
        2955.0,
        2960.0,
        2965.0,
        2970.0,
        2975.0,
        2980.0,
        2985.0,
        2990.0,
        2995.0,
        3000.0,
        3005.0,
        3010.0,
        3015.0,
        3020.0,
        3025.0,
        3030.0,
        3035.0,
        3040.0,
        3045.0,
        3050.0,
        3055.0,
        3060.0,
        3065.0,
        3070.0,
        3075.0,
        3080.0,
        3085.0,
        3090.0,
        3095.0,
        3100.0,
        3105.0,
        3110.0,
        3115.0,
        3120.0,
        3125.0,
        3130.0,
        3135.0,
        3140.0,
        3145.0,
        3150.0,
        3155.0,
        3160.0,
        3165.0,
        3170.0,
        3175.0,
        3180.0,
        3185.0,
        3190.0,
        3195.0,
        3200.0,
        3205.0,
        3210.0,
        3215.0,
        3220.0,
        3225.0,
        3230.0,
        3235.0,
        3240.0,
        3245.0,
        3250.0,
        3255.0,
        3260.0,
        3265.0,
        3270.0,
        3275.0,
        3280.0,
        3285.0,
        3290.0,
        3295.0,
        3300.0,
        3305.0,
        3310.0,
        3315.0,
        3320.0,
        3325.0,
        3330.0,
        3335.0,
        3340.0,
        3345.0,
        3350.0,
        3355.0,
        3360.0,
        3365.0,
        3370.0,
        3375.0,
        3380.0,
        3385.0,
        3390.0,
        3395.0,
        3400.0,
        3405.0,
        3410.0,
        3415.0,
        3420.0,
        3425.0,
        3430.0,
        3435.0,
        3440.0,
        3445.0,
        3450.0,
        3455.0,
        3460.0,
        3465.0,
        3470.0,
        3475.0,
        3480.0,
        3485.0,
        3490.0,
        3495.0,
        3500.0,
        3505.0,
        3510.0,
        3515.0,
        3520.0,
        3525.0,
        3530.0,
        3535.0,
        3540.0,
        3545.0,
        3550.0,
        3555.0,
        3560.0,
        3565.0,
        3570.0,
        3575.0,
        3580.0,
        3585.0,
        3590.0,
        3595.0,
        3600.0,
        3605.0,
        3610.0,
        3615.0,
        3620.0,
        3625.0,
        3630.0,
        3635.0,
        3640.0,
        3645.0,
        3650.0,
        3655.0,
        3660.0,
        3665.0,
        3670.0,
        3675.0,
        3680.0,
        3685.0,
        3690.0,
        3695.0,
        3700.0,
        3705.0,
        3710.0,
        3715.0,
        3720.0,
        3725.0,
        3730.0,
        3735.0,
        3740.0,
        3745.0,
        3750.0,
        3755.0,
        3760.0,
        3765.0,
        3770.0,
        3775.0,
        3780.0,
        3785.0,
        3790.0,
        3795.0,
        3800.0,
        3805.0,
        3810.0,
        3815.0,
        3820.0,
        3825.0,
        3830.0,
        3835.0,
        3840.0,
        3845.0,
        3850.0,
        3855.0,
        3860.0,
        3865.0,
        3870.0,
        3875.0,
        3880.0,
        3885.0,
        3890.0,
        3895.0,
        3900.0,
        3905.0,
        3910.0,
        3915.0,
        3920.0,
        3925.0,
        3930.0,
        3935.0,
        3940.0,
        3945.0,
        3950.0,
        3955.0,
        3960.0,
        3965.0,
        3970.0,
        3975.0,
        3980.0,
        3985.0,
        3990.0,
        3995.0,
        4000.0,
        4005.0,
        4010.0,
        4015.0,
        4020.0,
        4025.0,
        4030.0,
        4035.0,
        4040.0,
        4045.0,
        4050.0,
        4055.0,
        4060.0,
        4065.0,
        4070.0,
        4075.0,
        4080.0,
        4085.0,
        4090.0,
        4095.0,
        4100.0,
        4105.0,
        4110.0,
        4115.0,
        4120.0,
        4125.0,
        4130.0,
        4135.0,
        4140.0,
        4145.0,
        4150.0,
        4155.0,
        4160.0,
        4165.0,
        4170.0,
        4175.0,
        4180.0,
        4185.0,
        4190.0,
        4195.0,
        4200.0,
        4205.0,
        4210.0,
        4215.0,
        4220.0,
        4225.0,
        4230.0,
        4235.0,
        4240.0,
        4245.0,
        4250.0,
        4255.0,
        4260.0,
        4265.0,
        4270.0,
        4275.0,
        4280.0,
        4285.0,
        4290.0,
        4295.0,
        4300.0,
        4305.0,
        4310.0,
        4315.0,
        4320.0,
        4325.0,
        4330.0,
        4335.0,
        4340.0,
        4345.0,
        4350.0,
        4355.0,
        4360.0,
        4365.0,
        4370.0,
        4375.0,
        4380.0,
        4385.0,
        4390.0,
        4395.0,
        4400.0,
        4405.0,
        4410.0,
        4415.0,
        4420.0,
        4425.0,
        4430.0,
        4435.0,
        4440.0,
        4445.0,
        4450.0,
        4455.0,
        4460.0,
        4465.0,
        4470.0,
        4475.0,
        4480.0,
        4485.0,
        4490.0,
        4495.0,
        4500.0,
        4505.0,
        4510.0,
        4515.0,
        4520.0,
        4525.0,
        4530.0,
        4535.0,
        4540.0,
        4545.0,
        4550.0,
        4555.0,
        4560.0,
        4565.0,
        4570.0,
        4575.0,
        4580.0,
        4585.0,
        4590.0,
        4595.0,
        4600.0,
        4605.0,
        4610.0,
        4615.0,
        4620.0,
        4625.0,
        4630.0,
        4635.0,
        4640.0,
        4645.0,
        4650.0,
        4655.0,
        4660.0,
        4665.0,
        4670.0,
        4675.0,
        4680.0,
        4685.0,
        4690.0,
        4695.0,
        4700.0,
        4705.0,
        4710.0,
        4715.0,
        4720.0,
        4725.0,
        4730.0,
        4735.0,
        4740.0,
        4745.0,
        4750.0,
        4755.0,
        4760.0,
        4765.0,
        4770.0,
        4775.0,
        4780.0,
        4785.0,
        4790.0,
        4795.0,
        4800.0,
        4805.0,
        4810.0,
        4815.0,
        4820.0,
        4825.0,
        4830.0,
        4835.0,
        4840.0,
        4845.0,
        4850.0,
        4855.0,
        4860.0,
        4865.0,
        4870.0,
        4875.0,
        4880.0,
        4885.0,
        4890.0,
        4895.0,
        4900.0,
        4905.0,
        4910.0,
        4915.0,
        4920.0,
        4925.0,
        4930.0,
        4935.0,
        4940.0,
        4945.0,
        4950.0,
        4955.0,
        4960.0,
        4965.0,
        4970.0,
        4975.0,
        4980.0,
        4985.0,
        4990.0,
        4995.0,
        5000.0,
        5005.0,
        5010.0,
        5015.0,
        5020.0,
        5025.0,
        5030.0,
        5035.0,
        5040.0,
        5045.0,
        5050.0,
        5055.0,
        5060.0,
        5065.0,
        5070.0,
        5075.0,
        5080.0,
        5085.0,
        5090.0,
        5095.0,
        5100.0,
        5105.0,
        5110.0,
        5115.0,
        5120.0,
        5125.0,
        5130.0,
        5135.0,
        5140.0,
        5145.0,
        5150.0,
        5155.0,
        5160.0,
        5165.0,
        5170.0,
        5175.0,
        5180.0,
        5185.0,
        5190.0,
        5195.0,
        5200.0,
        5205.0,
        5210.0,
        5215.0,
        5220.0,
        5225.0,
        5230.0,
        5235.0,
        5240.0,
        5245.0,
        5250.0,
        5255.0,
        5260.0,
        5265.0,
        5270.0,
        5275.0,
        5280.0,
        5285.0,
        5290.0,
        5295.0,
        5300.0,
        5305.0,
        5310.0,
        5315.0,
        5320.0,
        5325.0,
        5330.0,
        5335.0,
        5340.0,
        5345.0,
        5350.0,
        5355.0,
        5360.0,
        5365.0,
        5370.0,
        5375.0,
        5380.0,
        5385.0,
        5390.0,
        5395.0,
        5400.0,
        5405.0,
        5410.0,
        5415.0,
        5420.0,
        5425.0,
        5430.0,
        5435.0,
        5440.0,
        5445.0,
        5450.0,
        5455.0,
        5460.0,
        5465.0,
        5470.0,
        5475.0,
        5480.0,
        5485.0,
        5490.0,
        5495.0,
        5500.0,
        5505.0,
        5510.0,
        5515.0,
        5520.0,
        5525.0,
        5530.0,
        5535.0,
        5540.0,
        5545.0,
        5550.0,
        5555.0,
        5560.0,
        5565.0,
        5570.0,
        5575.0,
        5580.0,
        5585.0,
        5590.0,
        5595.0,
        5600.0,
        5605.0,
        5610.0,
        5615.0,
        5620.0,
        5625.0,
        5630.0,
        5635.0,
        5640.0,
        5645.0,
        5650.0,
        5655.0,
        5660.0,
        5665.0,
        5670.0,
        5675.0,
        5680.0,
        5685.0,
        5690.0,
        5695.0,
        5700.0,
        5705.0,
        5710.0,
        5715.0,
        5720.0,
        5725.0,
        5730.0,
        5735.0,
        5740.0,
        5745.0,
        5750.0,
        5755.0,
        5760.0,
        5765.0,
        5770.0,
        5775.0,
        5780.0,
        5785.0,
        5790.0,
        5795.0,
        5800.0,
        5805.0,
        5810.0,
        5815.0,
        5820.0,
        5825.0,
        5830.0,
        5835.0,
        5840.0,
        5845.0,
        5850.0,
        5855.0,
        5860.0,
        5865.0,
        5870.0,
        5875.0,
        5880.0,
        5885.0,
        5890.0,
        5895.0,
        5900.0,
        5905.0,
        5910.0,
        5915.0,
        5920.0,
        5925.0,
        5930.0,
        5935.0,
        5940.0,
        5945.0,
        5950.0,
        5955.0,
        5960.0,
        5965.0,
        5970.0,
        5975.0,
        5980.0,
        5985.0,
        5990.0,
        5995.0,
        6000.0,
        6005.0,
        6010.0,
        6015.0,
        6020.0,
        6025.0,
        6030.0,
        6035.0,
        6040.0,
        6045.0,
        6050.0,
        6055.0,
        6060.0,
        6065.0,
        6070.0,
        6075.0,
        6080.0,
        6085.0,
        6090.0,
        6095.0,
        6100.0,
        6105.0,
        6110.0,
        6115.0,
        6120.0,
        6125.0,
        6130.0,
        6135.0,
        6140.0,
        6145.0,
        6150.0,
        6155.0,
        6160.0,
        6165.0,
        6170.0,
        6175.0,
        6180.0,
        6185.0,
        6190.0,
        6195.0,
        6200.0,
        6205.0,
        6210.0,
        6215.0,
        6220.0,
        6225.0,
        6230.0,
        6235.0,
        6240.0,
        6245.0,
        6250.0,
        6255.0,
        6260.0,
        6265.0,
        6270.0,
        6275.0,
        6280.0,
        6285.0,
        6290.0,
        6295.0,
        6300.0,
        6305.0,
        6310.0,
        6315.0,
        6320.0,
        6325.0,
        6330.0,
        6335.0,
        6340.0,
        6345.0,
        6350.0,
        6355.0,
        6360.0,
        6365.0,
        6370.0,
        6375.0,
        6380.0,
        6385.0,
        6390.0,
        6395.0,
        6400.0,
        6405.0,
        6410.0,
        6415.0,
        6420.0,
        6425.0,
        6430.0,
        6435.0,
        6440.0,
        6445.0,
        6450.0,
        6455.0,
        6460.0,
        6465.0,
        6470.0,
        6475.0,
        6480.0,
        6485.0,
        6490.0,
        6495.0,
        6500.0,
        6505.0,
        6510.0,
        6515.0,
        6520.0,
        6525.0,
        6530.0,
        6535.0,
        6540.0,
        6545.0,
        6550.0,
        6555.0,
        6560.0,
        6565.0,
        6570.0,
        6575.0,
        6580.0,
        6585.0,
        6590.0,
        6595.0,
        6600.0,
        6605.0,
        6610.0,
        6615.0,
        6620.0,
        6625.0,
        6630.0,
        6635.0,
        6640.0,
        6645.0,
        6650.0,
        6655.0,
        6660.0,
        6665.0,
        6670.0,
        6675.0,
        6680.0,
        6685.0,
        6690.0,
        6695.0,
        6700.0,
        6705.0,
        6710.0,
        6715.0,
        6720.0,
        6725.0,
        6730.0,
        6735.0,
        6740.0,
        6745.0,
        6750.0,
        6755.0,
        6760.0,
        6765.0,
        6770.0,
        6775.0,
        6780.0,
        6785.0,
        6790.0,
        6795.0,
        6800.0,
        6805.0,
        6810.0,
        6815.0,
        6820.0,
        6825.0,
        6830.0,
        6835.0,
        6840.0,
        6845.0,
        6850.0,
        6855.0,
        6860.0,
        6865.0,
        6870.0,
        6875.0,
        6880.0,
        6885.0,
        6890.0,
        6895.0,
        6900.0,
        6905.0,
        6910.0,
        6915.0,
        6920.0,
        6925.0,
        6930.0,
        6935.0,
        6940.0,
        6945.0,
        6950.0,
        6955.0,
        6960.0,
        6965.0,
        6970.0,
        6975.0,
        6980.0,
        6985.0,
        6990.0,
        6995.0,
        7000.0,
        7005.0,
        7010.0,
        7015.0,
        7020.0,
        7025.0,
        7030.0,
        7035.0,
        7040.0,
        7045.0,
        7050.0,
        7055.0,
        7060.0,
        7065.0,
        7070.0,
        7075.0,
        7080.0,
        7085.0,
        7090.0,
        7095.0,
        7100.0,
        7105.0,
        7110.0,
        7115.0,
        7120.0,
        7125.0,
        7130.0,
        7135.0,
        7140.0,
        7145.0,
        7150.0,
        7155.0,
        7160.0,
        7165.0,
        7170.0,
        7175.0,
        7180.0,
        7185.0,
        7190.0,
        7195.0,
        7200.0,
        7205.0,
        7210.0,
        7215.0,
        7220.0,
        7225.0,
        7230.0,
        7235.0,
        7240.0,
        7245.0,
        7250.0,
        7255.0,
        7260.0,
        7265.0,
        7270.0,
        7275.0,
        7280.0,
        7285.0,
        7290.0,
        7295.0,
        7300.0,
        7305.0,
        7310.0,
        7315.0,
        7320.0,
        7325.0,
        7330.0,
        7335.0,
        7340.0,
        7345.0,
        7350.0,
        7355.0,
        7360.0,
        7365.0,
        7370.0,
        7375.0,
        7380.0,
        7385.0,
        7390.0,
        7395.0,
        7400.0,
        7405.0,
        7410.0,
        7415.0,
        7420.0,
        7425.0,
        7430.0,
        7435.0,
        7440.0,
        7445.0,
        7450.0,
        7455.0,
        7460.0,
        7465.0,
        7470.0,
        7475.0,
        7480.0,
        7485.0,
        7490.0,
        7495.0,
        7500.0,
        7505.0,
        7510.0,
        7515.0,
        7520.0,
        7525.0,
        7530.0,
        7535.0,
        7540.0,
        7545.0,
        7550.0,
        7555.0,
        7560.0,
        7565.0,
        7570.0,
        7575.0,
        7580.0,
        7585.0,
        7590.0,
        7595.0,
        7600.0,
        7605.0,
        7610.0,
        7615.0,
        7620.0,
        7625.0,
        7630.0,
        7635.0,
        7640.0,
        7645.0,
        7650.0,
        7655.0,
        7660.0,
        7665.0,
        7670.0,
        7675.0,
        7680.0,
        7685.0,
        7690.0,
        7695.0,
        7700.0,
        7705.0,
        7710.0,
        7715.0,
        7720.0,
        7725.0,
        7730.0,
        7735.0,
        7740.0,
        7745.0,
        7750.0,
        7755.0,
        7760.0,
        7765.0,
        7770.0,
        7775.0,
        7780.0,
        7785.0,
        7790.0,
        7795.0,
        7800.0,
        7805.0,
        7810.0,
        7815.0,
        7820.0,
        7825.0,
        7830.0,
        7835.0,
        7840.0,
        7845.0,
        7850.0,
        7855.0,
        7860.0,
        7865.0,
        7870.0,
        7875.0,
        7880.0,
        7885.0,
        7890.0,
        7895.0,
        7900.0,
        7905.0,
        7910.0,
        7915.0,
        7920.0,
        7925.0,
        7930.0,
        7935.0,
        7940.0,
        7945.0,
        7950.0,
        7955.0,
        7960.0,
        7965.0,
        7970.0,
        7975.0,
        7980.0,
        7985.0,
        7990.0,
        7995.0,
        8000.0,
        8005.0,
        8010.0,
        8015.0,
        8020.0,
        8025.0,
        8030.0,
        8035.0,
        8040.0,
        8045.0,
        8050.0,
        8055.0,
        8060.0,
        8065.0,
        8070.0,
        8075.0,
        8080.0,
        8085.0,
        8090.0,
        8095.0,
        8100.0,
        8105.0,
        8110.0,
        8115.0,
        8120.0,
        8125.0,
        8130.0,
        8135.0,
        8140.0,
        8145.0,
        8150.0,
        8155.0,
        8160.0,
        8165.0,
        8170.0,
        8175.0,
        8180.0,
        8185.0,
        8190.0,
        8195.0,
        8200.0,
        8205.0,
        8210.0,
        8215.0,
        8220.0,
        8225.0,
        8230.0,
        8235.0,
        8240.0,
        8245.0,
        8250.0,
        8255.0,
        8260.0,
        8265.0,
        8270.0,
        8275.0,
        8280.0,
        8285.0,
        8290.0,
        8295.0,
        8300.0,
        8305.0,
        8310.0,
        8315.0,
        8320.0,
        8325.0,
        8330.0,
        8335.0,
        8340.0,
        8345.0,
        8350.0,
        8355.0,
        8360.0,
        8365.0,
        8370.0,
        8375.0,
        8380.0,
        8385.0,
        8390.0,
        8395.0,
        8400.0,
        8405.0,
        8410.0,
        8415.0,
        8420.0,
        8425.0,
        8430.0,
        8435.0,
        8440.0,
        8445.0,
        8450.0,
        8455.0,
        8460.0,
        8465.0,
        8470.0,
        8475.0,
        8480.0,
        8485.0,
        8490.0,
        8495.0,
        8500.0,
        8505.0,
        8510.0,
        8515.0,
        8520.0,
        8525.0,
        8530.0,
        8535.0,
        8540.0,
        8545.0,
        8550.0,
        8555.0,
        8560.0,
        8565.0,
        8570.0,
        8575.0,
        8580.0,
        8585.0,
        8590.0,
        8595.0,
        8600.0,
        8605.0,
        8610.0,
        8615.0,
        8620.0,
        8625.0,
        8630.0,
        8635.0,
        8640.0,
        8645.0,
        8650.0,
        8655.0,
        8660.0,
        8665.0,
        8670.0,
        8675.0,
        8680.0,
        8685.0,
        8690.0,
        8695.0,
        8700.0,
        8705.0,
        8710.0,
        8715.0,
        8720.0,
        8725.0,
        8730.0,
        8735.0,
        8740.0,
        8745.0,
        8750.0,
        8755.0,
        8760.0,
        8765.0,
        8770.0,
        8775.0,
        8780.0,
        8785.0,
        8790.0,
        8795.0,
        8800.0,
        8805.0,
        8810.0,
        8815.0,
        8820.0,
        8825.0,
        8830.0,
        8835.0,
        8840.0,
        8845.0,
        8850.0,
        8855.0,
        8860.0,
        8865.0,
        8870.0,
        8875.0,
        8880.0,
        8885.0,
        8890.0,
        8895.0,
        8900.0,
        8905.0,
        8910.0,
        8915.0,
        8920.0,
        8925.0,
        8930.0,
        8935.0,
        8940.0,
        8945.0,
        8950.0,
        8955.0,
        8960.0,
        8965.0,
        8970.0,
        8975.0,
        8980.0,
        8985.0,
        8990.0,
        8995.0,
        9000.0,
        9005.0,
        9010.0,
        9015.0,
        9020.0,
        9025.0,
        9030.0,
        9035.0,
        9040.0,
        9045.0,
        9050.0,
        9055.0,
        9060.0,
        9065.0,
        9070.0,
        9075.0,
        9080.0,
        9085.0,
        9090.0,
        9095.0,
        9100.0,
        9105.0,
        9110.0,
        9115.0,
        9120.0,
        9125.0,
        9130.0,
        9135.0,
        9140.0,
        9145.0,
        9150.0,
        9155.0,
        9160.0,
        9165.0,
        9170.0,
        9175.0,
        9180.0,
        9185.0,
        9190.0,
        9195.0,
        9200.0,
        9205.0,
        9210.0,
        9215.0,
        9220.0,
        9225.0,
        9230.0,
        9235.0,
        9240.0,
        9245.0,
        9250.0,
        9255.0,
        9260.0,
        9265.0,
        9270.0,
        9275.0,
        9280.0,
        9285.0,
        9290.0,
        9295.0,
        9300.0,
        9305.0,
        9310.0,
        9315.0,
        9320.0,
        9325.0,
        9330.0,
        9335.0,
        9340.0,
        9345.0,
        9350.0,
        9355.0,
        9360.0,
        9365.0,
        9370.0,
        9375.0,
        9380.0,
        9385.0,
        9390.0,
        9395.0,
        9400.0,
        9405.0,
        9410.0,
        9415.0,
        9420.0,
        9425.0,
        9430.0,
        9435.0,
        9440.0,
        9445.0,
        9450.0,
        9455.0,
        9460.0,
        9465.0,
        9470.0,
        9475.0,
        9480.0,
        9485.0,
        9490.0,
        9495.0,
        9500.0,
        9505.0,
        9510.0,
        9515.0,
        9520.0,
        9525.0,
        9530.0,
        9535.0,
        9540.0,
        9545.0,
        9550.0,
        9555.0,
        9560.0,
        9565.0,
        9570.0,
        9575.0,
        9580.0,
        9585.0,
        9590.0,
        9595.0,
        9600.0,
        9605.0,
        9610.0,
        9615.0,
        9620.0,
        9625.0,
        9630.0,
        9635.0,
        9640.0,
        9645.0,
        9650.0,
        9655.0,
        9660.0,
        9665.0,
        9670.0,
        9675.0,
        9680.0,
        9685.0,
        9690.0,
        9695.0,
        9700.0,
        9705.0,
        9710.0,
        9715.0,
        9720.0,
        9725.0,
        9730.0,
        9735.0,
        9740.0,
        9745.0,
        9750.0,
        9755.0,
        9760.0,
        9765.0,
        9770.0,
        9775.0,
        9780.0,
        9785.0,
        9790.0,
        9795.0,
        9800.0,
        9805.0,
        9810.0,
        9815.0,
        9820.0,
        9825.0,
        9830.0,
        9835.0,
        9840.0,
        9845.0,
        9850.0,
        9855.0,
        9860.0,
        9865.0,
        9870.0,
        9875.0,
        9880.0,
        9885.0,
        9890.0,
        9895.0,
        9900.0,
        9905.0,
        9910.0,
        9915.0,
        9920.0,
        9925.0,
        9930.0,
        9935.0,
        9940.0,
        9945.0,
        9950.0,
        9955.0,
        9960.0,
        9965.0,
        9970.0,
        9975.0,
        9980.0,
        9985.0,
        9990.0,
        9995.0,
        10000.0,
        10005.0,
        10010.0,
        10015.0,
        10020.0,
        10025.0,
        10030.0,
        10035.0,
        10040.0,
        10045.0,
        10050.0,
        10055.0,
        10060.0,
        10065.0,
        10070.0,
        10075.0,
        10080.0,
        10085.0,
        10090.0,
        10095.0,
        10100.0,
        10105.0,
        10110.0,
        10115.0,
        10120.0,
        10125.0,
        10130.0,
        10135.0,
        10140.0,
        10145.0,
        10150.0,
        10155.0,
        10160.0,
        10165.0,
        10170.0,
        10175.0,
        10180.0,
        10185.0,
        10190.0,
        10195.0,
        10200.0,
        10205.0,
        10210.0,
        10215.0,
        10220.0,
        10225.0,
        10230.0,
        10235.0,
        10240.0,
        10245.0,
        10250.0,
        10255.0,
        10260.0,
        10265.0,
        10270.0,
        10275.0,
        10280.0,
        10285.0,
        10290.0,
        10295.0,
        10300.0,
        10305.0,
        10310.0,
        10315.0,
        10320.0,
        10325.0,
        10330.0,
        10335.0,
        10340.0,
        10345.0,
        10350.0,
        10355.0,
        10360.0,
        10365.0,
        10370.0,
        10375.0,
        10380.0,
        10385.0,
        10390.0,
        10395.0,
        10400.0,
        10405.0,
        10410.0,
        10415.0,
        10420.0,
        10425.0,
        10430.0,
        10435.0,
        10440.0,
        10445.0,
        10450.0,
        10455.0,
        10460.0,
        10465.0,
        10470.0,
        10475.0,
        10480.0,
        10485.0,
        10490.0,
        10495.0,
        10500.0
      ],
      "units":"angstrom"
    },
    "values":{
      "value":[
        0.07209,
        0.049768,
        0.024678,
        0.0,
        0.001894,
        0.008262,
        0.004035,
        0.0,
        0.0,
        0.0,
        0.00065,
        0.01654,
        0.036657,
        0.045319,
        0.03241,
        0.01227,
        0.010155,
        0.011228,
        0.006018,
        0.000616,
        0.004854,
        0.003179,
        0.002374,
        7.1e-05,
        0.001833,
        0.002104,
        0.0,
        0.0,
        0.0,
        0.0,
        0.0,
        0.001102,
        0.0,
        0.0,
        0.0,
        0.0,
        0.0,
        0.0,
        0.000335,
        0.000802,
        0.0,
        0.001385,
        0.002301,
        0.0,
        0.0,
        0.001392,
        0.002505,
        0.0,
        0.0,
        0.0,
        0.0,
        0.001429,
        0.0,
        0.0,
        0.001755,
        0.003649,
        0.004839,
        0.002419,
        0.003789,
        0.006257,
        0.004623,
        0.002833,
        0.001768,
        0.000151,
        0.001198,
        0.003189,
        0.003325,
        0.001648,
        0.003179,
        0.009593,
        0.008847,
        0.008609,
        0.007349,
        0.003637,
        0.003549,
        0.002573,
        0.004133,
        0.007087,
        0.008022,
        0.015716,
        0.018695,
        0.01364,
        0.01414,
        0.018028,
        0.020848,
        0.025884,
        0.032029,
        0.02619,
        0.021596,
        0.029445,
        0.035214,
        0.036085,
        0.033626,
        0.036463,
        0.036392,
        0.035421,
        0.040291,
        0.042803,
        0.051269,
        0.059848,
        0.062887,
        0.047864,
        0.05624,
        0.071388,
        0.056832,
        0.062967,
        0.081299,
        0.084478,
        0.090806,
        0.100251,
        0.122108,
        0.152406,
        0.184939,
        0.208045,
        0.210025,
        0.198333,
        0.237228,
        0.243423,
        0.242302,
        0.251619,
        0.2832,
        0.314411,
        0.292366,
        0.263867,
        0.291513,
        0.335759,
        0.355306,
        0.321587,
        0.31669,
        0.396889,
        0.402949,
        0.365818,
        0.344586,
        0.377169,
        0.385966,
        0.383101,
        0.353644,
        0.338315,
        0.311954,
        0.295483,
        0.290748,
        0.291913,
        0.302369,
        0.318858,
        0.349256,
        0.352764,
        0.364974,
        0.381916,
        0.376526,
        0.364053,
        0.338794,
        0.339146,
        0.345257,
        0.366308,
        0.378525,
        0.347083,
        0.300375,
        0.304373,
        0.372202,
        0.418678,
        0.427642,
        0.430768,
        0.413532,
        0.395589,
        0.411834,
        0.4486,
        0.451611,
        0.445326,
        0.403109,
        0.363907,
        0.369271,
        0.395345,
        0.387468,
        0.393471,
        0.375228,
        0.36534,
        0.354421,
        0.371132,
        0.371727,
        0.389383,
        0.446505,
        0.490969,
        0.446268,
        0.397092,
        0.393031,
        0.418871,
        0.453693,
        0.492684,
        0.503597,
        0.486353,
        0.462368,
        0.444477,
        0.41625,
        0.386447,
        0.405582,
        0.436903,
        0.422202,
        0.361888,
        0.325975,
        0.370223,
        0.385298,
        0.406295,
        0.400188,
        0.358424,
        0.344655,
        0.344203,
        0.347843,
        0.370799,
        0.386415,
        0.403702,
        0.414465,
        0.418247,
        0.391327,
        0.354786,
        0.332049,
        0.345078,
        0.362453,
        0.374742,
        0.378353,
        0.342087,
        0.336554,
        0.351256,
        0.345008,
        0.330859,
        0.32437,
        0.340997,
        0.356512,
        0.364897,
        0.377967,
        0.363848,
        0.335012,
        0.340345,
        0.354987,
        0.348656,
        0.33469,
        0.351853,
        0.351181,
        0.312924,
        0.276398,
        0.271963,
        0.258824,
        0.259547,
        0.285836,
        0.269234,
        0.271963,
        0.308945,
        0.295377,
        0.252762,
        0.228379,
        0.243477,
        0.246558,
        0.221627,
        0.20798,
        0.218184,
        0.270899,
        0.323093,
        0.335864,
        0.327493,
        0.325591,
        0.354979,
        0.354261,
        0.354964,
        0.362863,
        0.345449,
        0.311217,
        0.313098,
        0.314189,
        0.312243,
        0.291926,
        0.302397,
        0.360169,
        0.374719,
        0.361276,
        0.338859,
        0.307562,
        0.278142,
        0.267573,
        0.272414,
        0.272218,
        0.279345,
        0.296103,
        0.314478,
        0.329617,
        0.356081,
        0.391883,
        0.381697,
        0.313706,
        0.308423,
        0.358448,
        0.382932,
        0.349334,
        0.32769,
        0.316725,
        0.301502,
        0.348441,
        0.372454,
        0.36642,
        0.380961,
        0.44104,
        0.51876,
        0.555597,
        0.538572,
        0.513388,
        0.470964,
        0.446196,
        0.455791,
        0.468591,
        0.462916,
        0.446581,
        0.422678,
        0.428705,
        0.449892,
        0.447065,
        0.42905,
        0.421965,
        0.424423,
        0.437433,
        0.454356,
        0.423107,
        0.360104,
        0.33328,
        0.330766,
        0.363036,
        0.400828,
        0.399569,
        0.43031,
        0.438021,
        0.399018,
        0.356331,
        0.274866,
        0.189156,
        0.204755,
        0.306595,
        0.424175,
        0.510425,
        0.528013,
        0.516844,
        0.506368,
        0.483411,
        0.454504,
        0.45007,
        0.424937,
        0.443374,
        0.485443,
        0.487394,
        0.467089,
        0.472266,
        0.498734,
        0.498985,
        0.482534,
        0.507851,
        0.552573,
        0.585761,
        0.587299,
        0.577576,
        0.546269,
        0.519629,
        0.526982,
        0.541302,
        0.552192,
        0.546869,
        0.570202,
        0.593171,
        0.57786,
        0.562081,
        0.568864,
        0.600892,
        0.582862,
        0.577785,
        0.6073,
        0.601316,
        0.569563,
        0.596174,
        0.606339,
        0.590764,
        0.578639,
        0.595313,
        0.593298,
        0.592219,
        0.593715,
        0.584949,
        0.581689,
        0.560425,
        0.548531,
        0.581841,
        0.612791,
        0.632878,
        0.635126,
        0.63157,
        0.615062,
        0.60118,
        0.618732,
        0.634195,
        0.636048,
        0.597124,
        0.596327,
        0.610695,
        0.617049,
        0.648255,
        0.646644,
        0.650872,
        0.674468,
        0.618804,
        0.596489,
        0.649497,
        0.68148,
        0.652357,
        0.641344,
        0.664396,
        0.645677,
        0.638189,
        0.639147,
        0.640109,
        0.641081,
        0.642064,
        0.643063,
        0.64408,
        0.64512,
        0.646184,
        0.647276,
        0.6484,
        0.649558,
        0.650745,
        0.651956,
        0.653186,
        0.654429,
        0.655679,
        0.656933,
        0.658183,
        0.659425,
        0.660654,
        0.661861,
        0.66303,
        0.664144,
        0.665183,
        0.666129,
        0.666964,
        0.667669,
        0.668226,
        0.668617,
        0.668822,
        0.668831,
        0.668661,
        0.668335,
        0.667878,
        0.667313,
        0.666665,
        0.665957,
        0.665214,
        0.664459,
        0.663717,
        0.663007,
        0.662337,
        0.661706,
        0.661119,
        0.660577,
        0.660081,
        0.659635,
        0.65924,
        0.658898,
        0.658611,
        0.658387,
        0.658249,
        0.658226,
        0.658347,
        0.658641,
        0.659137,
        0.659864,
        0.66085,
        0.662125,
        0.663717,
        0.66563,
        0.728611,
        0.725663,
        0.713116,
        0.696153,
        0.692791,
        0.672577,
        0.684653,
        0.679889,
        0.682013,
        0.726716,
        0.711817,
        0.674904,
        0.644561,
        0.653646,
        0.652753,
        0.630058,
        0.614787,
        0.628192,
        0.643782,
        0.640827,
        0.637711,
        0.653454,
        0.663919,
        0.655756,
        0.644628,
        0.652009,
        0.67862,
        0.684862,
        0.6841,
        0.760523,
        0.76724,
        0.768587,
        0.764578,
        0.710465,
        0.685023,
        0.679726,
        0.690251,
        0.707286,
        0.711521,
        0.700727,
        0.746339,
        0.799773,
        0.776897,
        0.809832,
        0.793996,
        0.75015,
        0.850286,
        0.833162,
        0.80637,
        0.940661,
        0.978974,
        0.93207,
        0.874954,
        1.024055,
        1.210757,
        1.208016,
        1.059974,
        0.882561,
        0.939978,
        1.172527,
        1.320387,
        1.345539,
        1.31108,
        1.167096,
        0.975513,
        0.859599,
        1.034281,
        1.296095,
        1.450561,
        1.491909,
        1.526884,
        1.576212,
        1.537158,
        1.390712,
        1.206624,
        0.966689,
        0.910002,
        1.112919,
        1.327765,
        1.481641,
        1.593426,
        1.581117,
        1.574003,
        1.464904,
        1.161051,
        1.098345,
        1.400407,
        1.513482,
        1.489937,
        1.421689,
        1.23314,
        0.928944,
        0.798074,
        1.025464,
        1.296629,
        1.477964,
        1.598851,
        1.657392,
        1.676918,
        1.705636,
        1.758037,
        1.801619,
        1.839639,
        1.803569,
        1.810085,
        1.815056,
        1.840987,
        1.796193,
        1.796499,
        1.740345,
        1.694861,
        1.676547,
        1.671606,
        1.619925,
        1.551133,
        1.493088,
        1.383023,
        1.185663,
        0.968957,
        1.033231,
        1.291404,
        1.494509,
        1.583286,
        1.640209,
        1.658113,
        1.740398,
        1.767369,
        1.770111,
        1.754299,
        1.740198,
        1.770702,
        1.777731,
        1.743243,
        1.691478,
        1.68889,
        1.707951,
        1.742877,
        1.704615,
        1.678623,
        1.719779,
        1.752769,
        1.743873,
        1.706832,
        1.67517,
        1.689322,
        1.670736,
        1.711805,
        1.702416,
        1.691284,
        1.702816,
        1.712414,
        1.734888,
        1.697483,
        1.699442,
        1.741246,
        1.670251,
        1.595434,
        1.565073,
        1.50207,
        1.485493,
        1.475934,
        1.462988,
        1.450173,
        1.379624,
        1.285784,
        1.09389,
        0.906358,
        1.013105,
        1.226155,
        1.376618,
        1.504558,
        1.564427,
        1.558496,
        1.575677,
        1.592097,
        1.577176,
        1.596662,
        1.586208,
        1.567894,
        1.57724,
        1.573716,
        1.535876,
        1.538277,
        1.557981,
        1.554698,
        1.547274,
        1.550974,
        1.52916,
        1.534943,
        1.502291,
        1.501949,
        1.511815,
        1.513627,
        1.543387,
        1.516306,
        1.521957,
        1.519632,
        1.528975,
        1.551637,
        1.576517,
        1.576546,
        1.548105,
        1.503524,
        1.472823,
        1.453702,
        1.489177,
        1.515885,
        1.495316,
        1.454895,
        1.463529,
        1.482918,
        1.492095,
        1.487553,
        1.480601,
        1.455071,
        1.449342,
        1.459272,
        1.473261,
        1.479329,
        1.486153,
        1.493168,
        1.494452,
        1.486034,
        1.484745,
        1.447152,
        1.440193,
        1.456039,
        1.429392,
        1.433057,
        1.444285,
        1.467819,
        1.433143,
        1.413214,
        1.436183,
        1.43896,
        1.440042,
        1.442514,
        1.440644,
        1.415695,
        1.389523,
        1.386241,
        1.389629,
        1.396876,
        1.398155,
        1.395677,
        1.400218,
        1.398224,
        1.404825,
        1.411161,
        1.375436,
        1.353056,
        1.354565,
        1.361817,
        1.352661,
        1.355421,
        1.345301,
        1.353619,
        1.371502,
        1.339051,
        1.325863,
        1.330001,
        1.331277,
        1.322668,
        1.296095,
        1.286998,
        1.252008,
        1.214314,
        1.157371,
        1.053549,
        0.899588,
        0.744571,
        0.783862,
        0.943044,
        1.046731,
        1.115826,
        1.149338,
        1.186133,
        1.232488,
        1.233666,
        1.233588,
        1.257353,
        1.253774,
        1.21294,
        1.231745,
        1.252356,
        1.250686,
        1.274402,
        1.301447,
        1.29668,
        1.270384,
        1.265903,
        1.269868,
        1.258582,
        1.258053,
        1.225195,
        1.209575,
        1.234195,
        1.247777,
        1.214341,
        1.182723,
        1.175382,
        1.149618,
        1.169726,
        1.190164,
        1.203792,
        1.200052,
        1.1789,
        1.206553,
        1.210401,
        1.215191,
        1.214395,
        1.206024,
        1.19312,
        1.171543,
        1.174702,
        1.192982,
        1.202456,
        1.192021,
        1.186575,
        1.194051,
        1.198932,
        1.204432,
        1.182289,
        1.156722,
        1.144106,
        1.134778,
        1.135652,
        1.149665,
        1.162781,
        1.159293,
        1.136371,
        1.079155,
        1.066954,
        1.112566,
        1.12098,
        1.09298,
        1.097713,
        1.108155,
        1.113041,
        1.11094,
        1.121962,
        1.13264,
        1.125361,
        1.086602,
        1.083487,
        1.095953,
        1.121117,
        1.138344,
        1.130309,
        1.120423,
        1.090384,
        1.040804,
        1.042163,
        1.063576,
        1.081711,
        1.100117,
        1.120896,
        1.105081,
        1.09959,
        1.111234,
        1.106673,
        1.086864,
        1.077497,
        1.054791,
        1.05302,
        1.067271,
        1.071573,
        1.081214,
        1.087953,
        1.100872,
        1.087519,
        1.053483,
        1.054366,
        1.080616,
        1.07791,
        1.064767,
        1.070878,
        1.056956,
        1.043993,
        1.030358,
        1.031828,
        1.03866,
        1.042144,
        1.029883,
        1.033392,
        1.049967,
        1.059436,
        1.046034,
        1.043371,
        1.034944,
        1.039051,
        1.032902,
        1.037523,
        1.025205,
        1.030733,
        1.039258,
        1.034448,
        1.025617,
        1.023942,
        1.026637,
        1.025763,
        1.028644,
        1.028873,
        1.009545,
        0.991709,
        1.004903,
        1.013369,
        1.013279,
        1.016468,
        1.016664,
        1.011394,
        1.00411,
        0.995657,
        0.990604,
        0.998079,
        0.976259,
        0.955463,
        0.9613,
        0.965128,
        0.980374,
        0.991281,
        0.976794,
        0.979376,
        0.983298,
        0.987536,
        0.985655,
        0.978716,
        0.981128,
        0.974501,
        0.952505,
        0.941576,
        0.945163,
        0.955813,
        0.965239,
        0.959003,
        0.953617,
        0.950541,
        0.947968,
        0.940426,
        0.93198,
        0.932974,
        0.944228,
        0.951344,
        0.948619,
        0.939895,
        0.940201,
        0.936913,
        0.930806,
        0.924396,
        0.923405,
        0.9295,
        0.928848,
        0.930685,
        0.932338,
        0.919459,
        0.912574,
        0.919335,
        0.913133,
        0.913249,
        0.920081,
        0.923437,
        0.92548,
        0.920734,
        0.912951,
        0.911681,
        0.91028,
        0.909685,
        0.910854,
        0.908223,
        0.899253,
        0.909243,
        0.916884,
        0.918282,
        0.907717,
        0.904099,
        0.880297,
        0.842442,
        0.824906,
        0.842538,
        0.873885,
        0.884063,
        0.882406,
        0.886263,
        0.886103,
        0.876776,
        0.873403,
        0.872644,
        0.869767,
        0.867563,
        0.867156,
        0.865364,
        0.861874,
        0.861555,
        0.859631,
        0.856134,
        0.853984,
        0.852873,
        0.851242,
        0.848165,
        0.839112,
        0.840124,
        0.833565,
        0.827835,
        0.831159,
        0.835809,
        0.837809,
        0.827333,
        0.826618,
        0.82402,
        0.825198,
        0.824183,
        0.822239,
        0.822388,
        0.816074,
        0.813355,
        0.810703,
        0.810001,
        0.797866,
        0.798583,
        0.802685,
        0.806261,
        0.803253,
        0.797629,
        0.797654,
        0.796027,
        0.783265,
        0.774076,
        0.778424,
        0.783128,
        0.779885,
        0.773141,
        0.777567,
        0.778466,
        0.780252,
        0.788572,
        0.788835,
        0.781115,
        0.78295,
        0.787021,
        0.788035,
        0.780914,
        0.777084,
        0.774025,
        0.77428,
        0.76547,
        0.752363,
        0.752243,
        0.750708,
        0.753671,
        0.759658,
        0.762268,
        0.761433,
        0.754027,
        0.742097,
        0.731723,
        0.749317,
        0.755062,
        0.745926,
        0.737599,
        0.738442,
        0.74098,
        0.740337,
        0.739409,
        0.743175,
        0.742883,
        0.737307,
        0.734841,
        0.725966,
        0.733395,
        0.741703,
        0.737,
        0.728846,
        0.722186,
        0.727546,
        0.729706,
        0.72952,
        0.727229,
        0.724182,
        0.723382,
        0.71979,
        0.715853,
        0.712412,
        0.714993,
        0.717055,
        0.713044,
        0.711662,
        0.709928,
        0.714966,
        0.709352,
        0.699029,
        0.696763,
        0.695992,
        0.697374,
        0.695323,
        0.69718,
        0.692848,
        0.684328,
        0.680393,
        0.696936,
        0.702307,
        0.70114,
        0.693609,
        0.694082,
        0.694097,
        0.688438,
        0.678738,
        0.66468,
        0.640924,
        0.606293,
        0.543432,
        0.463832,
        0.47657,
        0.555859,
        0.608636,
        0.635526,
        0.644653,
        0.653929,
        0.659899,
        0.665257,
        0.668476,
        0.670371,
        0.673079,
        0.671766,
        0.671618,
        0.666828,
        0.664429,
        0.663748,
        0.662228,
        0.662044,
        0.66244,
        0.657156,
        0.655042,
        0.654266,
        0.648998,
        0.649321,
        0.651865,
        0.648407,
        0.648651,
        0.653646,
        0.654614,
        0.65211,
        0.646606,
        0.644169,
        0.645507,
        0.64357,
        0.642878,
        0.639219,
        0.636379,
        0.635823,
        0.632825,
        0.633654,
        0.635487,
        0.634886,
        0.633284,
        0.632781,
        0.633909,
        0.633173,
        0.631067,
        0.628959,
        0.624424,
        0.626002,
        0.626004,
        0.622519,
        0.6175,
        0.618079,
        0.616881,
        0.61298,
        0.611957,
        0.610918,
        0.609875,
        0.608856,
        0.607801,
        0.606707,
        0.605677,
        0.604652,
        0.603619,
        0.602539,
        0.601509,
        0.600487,
        0.599469,
        0.598451,
        0.597462,
        0.596505,
        0.595532,
        0.5946,
        0.593683,
        0.592853,
        0.591973,
        0.591036,
        0.590078,
        0.589131,
        0.588161,
        0.587233,
        0.593896,
        0.591895,
        0.587983,
        0.582457,
        0.580866,
        0.575438,
        0.573633,
        0.577704,
        0.575907,
        0.574458,
        0.570662,
        0.573579,
        0.573511,
        0.576376,
        0.576802,
        0.574759,
        0.575392,
        0.576458,
        0.573121,
        0.573141,
        0.574643,
        0.571269,
        0.569565,
        0.573032,
        0.571905,
        0.566168,
        0.562914,
        0.56049,
        0.553648,
        0.554713,
        0.562037,
        0.564513,
        0.565617,
        0.562621,
        0.557727,
        0.556457,
        0.560746,
        0.556527,
        0.547928,
        0.54638,
        0.541513,
        0.537369,
        0.525984,
        0.530167,
        0.52921,
        0.529201,
        0.531282,
        0.540121,
        0.548727,
        0.547158,
        0.543353,
        0.538155,
        0.533747,
        0.529634,
        0.529799,
        0.526442,
        0.522825,
        0.527127,
        0.527478,
        0.528897,
        0.523113,
        0.523365,
        0.516525,
        0.51057,
        0.517843,
        0.522326,
        0.516497,
        0.516446,
        0.515528,
        0.516343,
        0.51383,
        0.512883,
        0.513683,
        0.51738,
        0.512398,
        0.507556,
        0.508223,
        0.507283,
        0.506892,
        0.505775,
        0.507127,
        0.506612,
        0.502325,
        0.502533,
        0.501751,
        0.504004,
        0.507774,
        0.498814,
        0.499717,
        0.504802,
        0.496951,
        0.498651,
        0.499102,
        0.495599,
        0.492766,
        0.494839,
        0.496749,
        0.492671,
        0.491711,
        0.494137,
        0.492796,
        0.493055,
        0.491521,
        0.488956,
        0.487602,
        0.488012,
        0.484723,
        0.481941,
        0.483781,
        0.486725,
        0.4855,
        0.483099,
        0.484156,
        0.485488,
        0.483411,
        0.480123,
        0.479294,
        0.478379,
        0.477464,
        0.476495,
        0.47551,
        0.474576,
        0.4737,
        0.472815,
        0.471915,
        0.471074,
        0.470236,
        0.469369,
        0.46849,
        0.467618,
        0.466753,
        0.465894,
        0.465042,
        0.464197,
        0.463359,
        0.462528,
        0.461704,
        0.460886,
        0.460071,
        0.459284,
        0.458476,
        0.457668,
        0.456862,
        0.456077,
        0.45528,
        0.454481,
        0.453856,
        0.453609,
        0.453294,
        0.452686,
        0.45195,
        0.450289,
        0.451858,
        0.448964,
        0.448168,
        0.448624,
        0.448501,
        0.447169,
        0.438489,
        0.419588,
        0.420532,
        0.43572,
        0.443349,
        0.444448,
        0.442808,
        0.44108,
        0.440445,
        0.442323,
        0.442088,
        0.441615,
        0.439014,
        0.43352,
        0.432501,
        0.43299,
        0.432333,
        0.434043,
        0.433224,
        0.431478,
        0.431165,
        0.430157,
        0.426057,
        0.426772,
        0.428167,
        0.42306,
        0.419423,
        0.42153,
        0.42418,
        0.424352,
        0.424062,
        0.420158,
        0.416853,
        0.415294,
        0.415006,
        0.413608,
        0.412384,
        0.414605,
        0.416085,
        0.416298,
        0.415953,
        0.415079,
        0.415316,
        0.414709,
        0.413058,
        0.413386,
        0.409806,
        0.40815,
        0.407647,
        0.407659,
        0.407388,
        0.406839,
        0.406423,
        0.404863,
        0.404783,
        0.402586,
        0.401273,
        0.401988,
        0.402913,
        0.403466,
        0.40222,
        0.402126,
        0.400977,
        0.399423,
        0.398065,
        0.399635,
        0.398858,
        0.398052,
        0.399007,
        0.398728,
        0.395674,
        0.395552,
        0.39674,
        0.394374,
        0.393047,
        0.392457,
        0.390685,
        0.388781,
        0.386843,
        0.383822,
        0.384326,
        0.38691,
        0.384385,
        0.381438,
        0.382957,
        0.383672,
        0.383818,
        0.3857,
        0.389313,
        0.386594,
        0.384094,
        0.379119,
        0.372073,
        0.372068,
        0.380049,
        0.381241,
        0.380807,
        0.381332,
        0.379314,
        0.381129,
        0.381687,
        0.377958,
        0.376626,
        0.37672,
        0.375389,
        0.374933,
        0.374467,
        0.375009,
        0.373612,
        0.373204,
        0.372217,
        0.370589,
        0.370519,
        0.368536,
        0.368278,
        0.368726,
        0.372119,
        0.371469,
        0.37003,
        0.371352,
        0.369756,
        0.36909,
        0.369059,
        0.369831,
        0.367562,
        0.365596,
        0.368522,
        0.369784,
        0.366263,
        0.363246,
        0.365131,
        0.370287,
        0.372411,
        0.364794,
        0.356325,
        0.354067,
        0.355098,
        0.364092,
        0.366517,
        0.35957,
        0.354007,
        0.356793,
        0.364347,
        0.369407,
        0.36853,
        0.358395,
        0.333398,
        0.327105,
        0.344141,
        0.358538,
        0.362383,
        0.364836,
        0.363438,
        0.355194,
        0.327235,
        0.294131,
        0.30518,
        0.336614,
        0.352864,
        0.360212,
        0.36301,
        0.363051,
        0.362422,
        0.357096,
        0.348023,
        0.331708,
        0.318958,
        0.325975,
        0.338767,
        0.350924,
        0.358672,
        0.361496,
        0.36318,
        0.364755,
        0.364457,
        0.35921,
        0.352308,
        0.341125,
        0.315637,
        0.281833,
        0.286811,
        0.312045,
        0.327542,
        0.335674,
        0.343765,
        0.35091,
        0.355843,
        0.361393,
        0.361681,
        0.359309,
        0.358994,
        0.357138,
        0.351625,
        0.344492,
        0.333759,
        0.317839,
        0.30116,
        0.292482,
        0.309328,
        0.329731,
        0.340441,
        0.345546,
        0.348185,
        0.349259,
        0.34852,
        0.347425,
        0.34933,
        0.348215,
        0.345299,
        0.346822,
        0.347519,
        0.347119,
        0.346978,
        0.345005,
        0.337281,
        0.329315,
        0.322705,
        0.310856,
        0.29211,
        0.273715,
        0.281994,
        0.300348,
        0.314094,
        0.323811,
        0.331804,
        0.334217,
        0.334917,
        0.33903,
        0.336815,
        0.333786,
        0.337841,
        0.337444,
        0.326291,
        0.342329,
        0.347894,
        0.347024,
        0.345664,
        0.342173,
        0.345208,
        0.343236,
        0.340097,
        0.336763,
        0.3355,
        0.330918,
        0.316556,
        0.310053,
        0.314482,
        0.301692,
        0.286198,
        0.26134,
        0.261661,
        0.282823,
        0.304201,
        0.326246,
        0.338764,
        0.343256,
        0.346994,
        0.350697,
        0.336969,
        0.327375,
        0.328953,
        0.326025,
        0.318483,
        0.317694,
        0.313419,
        0.315255,
        0.319515,
        0.324659,
        0.328052,
        0.328987,
        0.329495,
        0.332532,
        0.330691,
        0.320534,
        0.324862,
        0.331629,
        0.330416,
        0.319436,
        0.318648,
        0.326126,
        0.327731,
        0.321173,
        0.320969,
        0.323593,
        0.328771,
        0.327418,
        0.328267,
        0.325639,
        0.310254,
        0.294491,
        0.280655,
        0.270912,
        0.248714,
        0.253019,
        0.271347,
        0.283489,
        0.298548,
        0.307803,
        0.31193,
        0.313825,
        0.322524,
        0.330666,
        0.331372,
        0.33271,
        0.340187,
        0.324989,
        0.319779,
        0.316986,
        0.302465,
        0.293717,
        0.280779,
        0.278451,
        0.27851,
        0.278267,
        0.265136,
        0.246742,
        0.271876,
        0.281254,
        0.266483,
        0.284085,
        0.28038,
        0.286572,
        0.28686,
        0.296194,
        0.318847,
        0.337033,
        0.342381,
        0.328521,
        0.314763,
        0.308868,
        0.313563,
        0.304226,
        0.278724,
        0.285204,
        0.282771,
        0.272457,
        0.289528,
        0.293854,
        0.276771,
        0.282902,
        0.29405,
        0.301272,
        0.290614,
        0.287295,
        0.311285,
        0.297726,
        0.271219,
        0.280237,
        0.306681,
        0.31051,
        0.285755,
        0.265711,
        0.266192,
        0.268074,
        0.256699,
        0.225321,
        0.224369,
        0.228584,
        0.235206,
        0.262991,
        0.261273,
        0.282505,
        0.291136,
        0.278593,
        0.268843,
        0.266946,
        0.267897,
        0.277815,
        0.285179,
        0.288366,
        0.275375,
        0.26836,
        0.27891,
        0.279862,
        0.270074,
        0.277252,
        0.274579,
        0.277189,
        0.262677,
        0.271316,
        0.270211,
        0.275777,
        0.290433,
        0.282941,
        0.278232,
        0.282303,
        0.281795,
        0.278416,
        0.286134,
        0.275201,
        0.273498,
        0.27445,
        0.271872,
        0.273087,
        0.260347,
        0.259882,
        0.259142,
        0.261664,
        0.256324,
        0.259537,
        0.271031,
        0.26808,
        0.272214,
        0.267642,
        0.262736,
        0.267326,
        0.263769,
        0.258428,
        0.261633,
        0.260227,
        0.26253,
        0.266389,
        0.263409,
        0.261863,
        0.260854,
        0.262516,
        0.259865,
        0.261032,
        0.252808,
        0.255468,
        0.259198,
        0.262919,
        0.259325,
        0.254563,
        0.261951,
        0.262397,
        0.250539,
        0.272445,
        0.261283,
        0.265019,
        0.261713,
        0.255365,
        0.255092,
        0.244654,
        0.254838,
        0.25081,
        0.253957,
        0.238923,
        0.253504,
        0.261877,
        0.246829,
        0.242709,
        0.254024,
        0.2229,
        0.242735,
        0.244013,
        0.261105,
        0.251238,
        0.237135,
        0.245594,
        0.215555,
        0.228812,
        0.23952,
        0.234383,
        0.211097,
        0.207356,
        0.20695,
        0.192886,
        0.206458,
        0.242737,
        0.24061,
        0.215086,
        0.21871,
        0.236566,
        0.238553,
        0.233442,
        0.254747,
        0.243972,
        0.239146,
        0.240271,
        0.241376,
        0.243422,
        0.24931,
        0.251469,
        0.240207,
        0.220634,
        0.229622,
        0.242001,
        0.241186,
        0.240568,
        0.240116,
        0.239798,
        0.239583,
        0.239439,
        0.239334,
        0.239237,
        0.239115,
        0.238938,
        0.238681,
        0.238351,
        0.237963,
        0.237531,
        0.237071,
        0.236596,
        0.236123,
        0.235665,
        0.235237,
        0.234854,
        0.234526,
        0.23425,
        0.234015,
        0.233814,
        0.233637,
        0.233476,
        0.233321,
        0.233165,
        0.232998,
        0.232811,
        0.231542,
        0.231297,
        0.23104,
        0.230771,
        0.230493,
        0.230205,
        0.229909,
        0.229606,
        0.229297,
        0.228983,
        0.228666,
        0.228344,
        0.228019,
        0.227691,
        0.22736,
        0.227026,
        0.22669,
        0.226352,
        0.226013,
        0.225672,
        0.22533,
        0.224987,
        0.224646,
        0.224306,
        0.223968,
        0.223634,
        0.223304,
        0.222979,
        0.22266,
        0.222347,
        0.222043,
        0.221745,
        0.221453,
        0.221167,
        0.220886,
        0.220608,
        0.220334,
        0.220062,
        0.219791,
        0.219522
      ],
      "range":1
    }
  }
]
