[
  {
    "model":"Star, type F8(iv)",
    "name":"Star, type F8(iv)",
    "type":"WB_REF",
    "dataQualityMarker":3,
    "dataSource":"https://www.eso.org/sci/facilities/paranal/decommissioned/isaac/tools/lib.html",
    "manufacturer":"A. Pickles (A.J. Pickles, PASP 110,863, 1998)",
    "version":1,
    "wavelength":{
      "value":[
        1150.0,
        1155.0,
        1160.0,
        1165.0,
        1170.0,
        1175.0,
        1180.0,
        1185.0,
        1190.0,
        1195.0,
        1200.0,
        1205.0,
        1210.0,
        1215.0,
        1220.0,
        1225.0,
        1230.0,
        1235.0,
        1240.0,
        1245.0,
        1250.0,
        1255.0,
        1260.0,
        1265.0,
        1270.0,
        1275.0,
        1280.0,
        1285.0,
        1290.0,
        1295.0,
        1300.0,
        1305.0,
        1310.0,
        1315.0,
        1320.0,
        1325.0,
        1330.0,
        1335.0,
        1340.0,
        1345.0,
        1350.0,
        1355.0,
        1360.0,
        1365.0,
        1370.0,
        1375.0,
        1380.0,
        1385.0,
        1390.0,
        1395.0,
        1400.0,
        1405.0,
        1410.0,
        1415.0,
        1420.0,
        1425.0,
        1430.0,
        1435.0,
        1440.0,
        1445.0,
        1450.0,
        1455.0,
        1460.0,
        1465.0,
        1470.0,
        1475.0,
        1480.0,
        1485.0,
        1490.0,
        1495.0,
        1500.0,
        1505.0,
        1510.0,
        1515.0,
        1520.0,
        1525.0,
        1530.0,
        1535.0,
        1540.0,
        1545.0,
        1550.0,
        1555.0,
        1560.0,
        1565.0,
        1570.0,
        1575.0,
        1580.0,
        1585.0,
        1590.0,
        1595.0,
        1600.0,
        1605.0,
        1610.0,
        1615.0,
        1620.0,
        1625.0,
        1630.0,
        1635.0,
        1640.0,
        1645.0,
        1650.0,
        1655.0,
        1660.0,
        1665.0,
        1670.0,
        1675.0,
        1680.0,
        1685.0,
        1690.0,
        1695.0,
        1700.0,
        1705.0,
        1710.0,
        1715.0,
        1720.0,
        1725.0,
        1730.0,
        1735.0,
        1740.0,
        1745.0,
        1750.0,
        1755.0,
        1760.0,
        1765.0,
        1770.0,
        1775.0,
        1780.0,
        1785.0,
        1790.0,
        1795.0,
        1800.0,
        1805.0,
        1810.0,
        1815.0,
        1820.0,
        1825.0,
        1830.0,
        1835.0,
        1840.0,
        1845.0,
        1850.0,
        1855.0,
        1860.0,
        1865.0,
        1870.0,
        1875.0,
        1880.0,
        1885.0,
        1890.0,
        1895.0,
        1900.0,
        1905.0,
        1910.0,
        1915.0,
        1920.0,
        1925.0,
        1930.0,
        1935.0,
        1940.0,
        1945.0,
        1950.0,
        1955.0,
        1960.0,
        1965.0,
        1970.0,
        1975.0,
        1980.0,
        1985.0,
        1990.0,
        1995.0,
        2000.0,
        2005.0,
        2010.0,
        2015.0,
        2020.0,
        2025.0,
        2030.0,
        2035.0,
        2040.0,
        2045.0,
        2050.0,
        2055.0,
        2060.0,
        2065.0,
        2070.0,
        2075.0,
        2080.0,
        2085.0,
        2090.0,
        2095.0,
        2100.0,
        2105.0,
        2110.0,
        2115.0,
        2120.0,
        2125.0,
        2130.0,
        2135.0,
        2140.0,
        2145.0,
        2150.0,
        2155.0,
        2160.0,
        2165.0,
        2170.0,
        2175.0,
        2180.0,
        2185.0,
        2190.0,
        2195.0,
        2200.0,
        2205.0,
        2210.0,
        2215.0,
        2220.0,
        2225.0,
        2230.0,
        2235.0,
        2240.0,
        2245.0,
        2250.0,
        2255.0,
        2260.0,
        2265.0,
        2270.0,
        2275.0,
        2280.0,
        2285.0,
        2290.0,
        2295.0,
        2300.0,
        2305.0,
        2310.0,
        2315.0,
        2320.0,
        2325.0,
        2330.0,
        2335.0,
        2340.0,
        2345.0,
        2350.0,
        2355.0,
        2360.0,
        2365.0,
        2370.0,
        2375.0,
        2380.0,
        2385.0,
        2390.0,
        2395.0,
        2400.0,
        2405.0,
        2410.0,
        2415.0,
        2420.0,
        2425.0,
        2430.0,
        2435.0,
        2440.0,
        2445.0,
        2450.0,
        2455.0,
        2460.0,
        2465.0,
        2470.0,
        2475.0,
        2480.0,
        2485.0,
        2490.0,
        2495.0,
        2500.0,
        2505.0,
        2510.0,
        2515.0,
        2520.0,
        2525.0,
        2530.0,
        2535.0,
        2540.0,
        2545.0,
        2550.0,
        2555.0,
        2560.0,
        2565.0,
        2570.0,
        2575.0,
        2580.0,
        2585.0,
        2590.0,
        2595.0,
        2600.0,
        2605.0,
        2610.0,
        2615.0,
        2620.0,
        2625.0,
        2630.0,
        2635.0,
        2640.0,
        2645.0,
        2650.0,
        2655.0,
        2660.0,
        2665.0,
        2670.0,
        2675.0,
        2680.0,
        2685.0,
        2690.0,
        2695.0,
        2700.0,
        2705.0,
        2710.0,
        2715.0,
        2720.0,
        2725.0,
        2730.0,
        2735.0,
        2740.0,
        2745.0,
        2750.0,
        2755.0,
        2760.0,
        2765.0,
        2770.0,
        2775.0,
        2780.0,
        2785.0,
        2790.0,
        2795.0,
        2800.0,
        2805.0,
        2810.0,
        2815.0,
        2820.0,
        2825.0,
        2830.0,
        2835.0,
        2840.0,
        2845.0,
        2850.0,
        2855.0,
        2860.0,
        2865.0,
        2870.0,
        2875.0,
        2880.0,
        2885.0,
        2890.0,
        2895.0,
        2900.0,
        2905.0,
        2910.0,
        2915.0,
        2920.0,
        2925.0,
        2930.0,
        2935.0,
        2940.0,
        2945.0,
        2950.0,
        2955.0,
        2960.0,
        2965.0,
        2970.0,
        2975.0,
        2980.0,
        2985.0,
        2990.0,
        2995.0,
        3000.0,
        3005.0,
        3010.0,
        3015.0,
        3020.0,
        3025.0,
        3030.0,
        3035.0,
        3040.0,
        3045.0,
        3050.0,
        3055.0,
        3060.0,
        3065.0,
        3070.0,
        3075.0,
        3080.0,
        3085.0,
        3090.0,
        3095.0,
        3100.0,
        3105.0,
        3110.0,
        3115.0,
        3120.0,
        3125.0,
        3130.0,
        3135.0,
        3140.0,
        3145.0,
        3150.0,
        3155.0,
        3160.0,
        3165.0,
        3170.0,
        3175.0,
        3180.0,
        3185.0,
        3190.0,
        3195.0,
        3200.0,
        3205.0,
        3210.0,
        3215.0,
        3220.0,
        3225.0,
        3230.0,
        3235.0,
        3240.0,
        3245.0,
        3250.0,
        3255.0,
        3260.0,
        3265.0,
        3270.0,
        3275.0,
        3280.0,
        3285.0,
        3290.0,
        3295.0,
        3300.0,
        3305.0,
        3310.0,
        3315.0,
        3320.0,
        3325.0,
        3330.0,
        3335.0,
        3340.0,
        3345.0,
        3350.0,
        3355.0,
        3360.0,
        3365.0,
        3370.0,
        3375.0,
        3380.0,
        3385.0,
        3390.0,
        3395.0,
        3400.0,
        3405.0,
        3410.0,
        3415.0,
        3420.0,
        3425.0,
        3430.0,
        3435.0,
        3440.0,
        3445.0,
        3450.0,
        3455.0,
        3460.0,
        3465.0,
        3470.0,
        3475.0,
        3480.0,
        3485.0,
        3490.0,
        3495.0,
        3500.0,
        3505.0,
        3510.0,
        3515.0,
        3520.0,
        3525.0,
        3530.0,
        3535.0,
        3540.0,
        3545.0,
        3550.0,
        3555.0,
        3560.0,
        3565.0,
        3570.0,
        3575.0,
        3580.0,
        3585.0,
        3590.0,
        3595.0,
        3600.0,
        3605.0,
        3610.0,
        3615.0,
        3620.0,
        3625.0,
        3630.0,
        3635.0,
        3640.0,
        3645.0,
        3650.0,
        3655.0,
        3660.0,
        3665.0,
        3670.0,
        3675.0,
        3680.0,
        3685.0,
        3690.0,
        3695.0,
        3700.0,
        3705.0,
        3710.0,
        3715.0,
        3720.0,
        3725.0,
        3730.0,
        3735.0,
        3740.0,
        3745.0,
        3750.0,
        3755.0,
        3760.0,
        3765.0,
        3770.0,
        3775.0,
        3780.0,
        3785.0,
        3790.0,
        3795.0,
        3800.0,
        3805.0,
        3810.0,
        3815.0,
        3820.0,
        3825.0,
        3830.0,
        3835.0,
        3840.0,
        3845.0,
        3850.0,
        3855.0,
        3860.0,
        3865.0,
        3870.0,
        3875.0,
        3880.0,
        3885.0,
        3890.0,
        3895.0,
        3900.0,
        3905.0,
        3910.0,
        3915.0,
        3920.0,
        3925.0,
        3930.0,
        3935.0,
        3940.0,
        3945.0,
        3950.0,
        3955.0,
        3960.0,
        3965.0,
        3970.0,
        3975.0,
        3980.0,
        3985.0,
        3990.0,
        3995.0,
        4000.0,
        4005.0,
        4010.0,
        4015.0,
        4020.0,
        4025.0,
        4030.0,
        4035.0,
        4040.0,
        4045.0,
        4050.0,
        4055.0,
        4060.0,
        4065.0,
        4070.0,
        4075.0,
        4080.0,
        4085.0,
        4090.0,
        4095.0,
        4100.0,
        4105.0,
        4110.0,
        4115.0,
        4120.0,
        4125.0,
        4130.0,
        4135.0,
        4140.0,
        4145.0,
        4150.0,
        4155.0,
        4160.0,
        4165.0,
        4170.0,
        4175.0,
        4180.0,
        4185.0,
        4190.0,
        4195.0,
        4200.0,
        4205.0,
        4210.0,
        4215.0,
        4220.0,
        4225.0,
        4230.0,
        4235.0,
        4240.0,
        4245.0,
        4250.0,
        4255.0,
        4260.0,
        4265.0,
        4270.0,
        4275.0,
        4280.0,
        4285.0,
        4290.0,
        4295.0,
        4300.0,
        4305.0,
        4310.0,
        4315.0,
        4320.0,
        4325.0,
        4330.0,
        4335.0,
        4340.0,
        4345.0,
        4350.0,
        4355.0,
        4360.0,
        4365.0,
        4370.0,
        4375.0,
        4380.0,
        4385.0,
        4390.0,
        4395.0,
        4400.0,
        4405.0,
        4410.0,
        4415.0,
        4420.0,
        4425.0,
        4430.0,
        4435.0,
        4440.0,
        4445.0,
        4450.0,
        4455.0,
        4460.0,
        4465.0,
        4470.0,
        4475.0,
        4480.0,
        4485.0,
        4490.0,
        4495.0,
        4500.0,
        4505.0,
        4510.0,
        4515.0,
        4520.0,
        4525.0,
        4530.0,
        4535.0,
        4540.0,
        4545.0,
        4550.0,
        4555.0,
        4560.0,
        4565.0,
        4570.0,
        4575.0,
        4580.0,
        4585.0,
        4590.0,
        4595.0,
        4600.0,
        4605.0,
        4610.0,
        4615.0,
        4620.0,
        4625.0,
        4630.0,
        4635.0,
        4640.0,
        4645.0,
        4650.0,
        4655.0,
        4660.0,
        4665.0,
        4670.0,
        4675.0,
        4680.0,
        4685.0,
        4690.0,
        4695.0,
        4700.0,
        4705.0,
        4710.0,
        4715.0,
        4720.0,
        4725.0,
        4730.0,
        4735.0,
        4740.0,
        4745.0,
        4750.0,
        4755.0,
        4760.0,
        4765.0,
        4770.0,
        4775.0,
        4780.0,
        4785.0,
        4790.0,
        4795.0,
        4800.0,
        4805.0,
        4810.0,
        4815.0,
        4820.0,
        4825.0,
        4830.0,
        4835.0,
        4840.0,
        4845.0,
        4850.0,
        4855.0,
        4860.0,
        4865.0,
        4870.0,
        4875.0,
        4880.0,
        4885.0,
        4890.0,
        4895.0,
        4900.0,
        4905.0,
        4910.0,
        4915.0,
        4920.0,
        4925.0,
        4930.0,
        4935.0,
        4940.0,
        4945.0,
        4950.0,
        4955.0,
        4960.0,
        4965.0,
        4970.0,
        4975.0,
        4980.0,
        4985.0,
        4990.0,
        4995.0,
        5000.0,
        5005.0,
        5010.0,
        5015.0,
        5020.0,
        5025.0,
        5030.0,
        5035.0,
        5040.0,
        5045.0,
        5050.0,
        5055.0,
        5060.0,
        5065.0,
        5070.0,
        5075.0,
        5080.0,
        5085.0,
        5090.0,
        5095.0,
        5100.0,
        5105.0,
        5110.0,
        5115.0,
        5120.0,
        5125.0,
        5130.0,
        5135.0,
        5140.0,
        5145.0,
        5150.0,
        5155.0,
        5160.0,
        5165.0,
        5170.0,
        5175.0,
        5180.0,
        5185.0,
        5190.0,
        5195.0,
        5200.0,
        5205.0,
        5210.0,
        5215.0,
        5220.0,
        5225.0,
        5230.0,
        5235.0,
        5240.0,
        5245.0,
        5250.0,
        5255.0,
        5260.0,
        5265.0,
        5270.0,
        5275.0,
        5280.0,
        5285.0,
        5290.0,
        5295.0,
        5300.0,
        5305.0,
        5310.0,
        5315.0,
        5320.0,
        5325.0,
        5330.0,
        5335.0,
        5340.0,
        5345.0,
        5350.0,
        5355.0,
        5360.0,
        5365.0,
        5370.0,
        5375.0,
        5380.0,
        5385.0,
        5390.0,
        5395.0,
        5400.0,
        5405.0,
        5410.0,
        5415.0,
        5420.0,
        5425.0,
        5430.0,
        5435.0,
        5440.0,
        5445.0,
        5450.0,
        5455.0,
        5460.0,
        5465.0,
        5470.0,
        5475.0,
        5480.0,
        5485.0,
        5490.0,
        5495.0,
        5500.0,
        5505.0,
        5510.0,
        5515.0,
        5520.0,
        5525.0,
        5530.0,
        5535.0,
        5540.0,
        5545.0,
        5550.0,
        5555.0,
        5560.0,
        5565.0,
        5570.0,
        5575.0,
        5580.0,
        5585.0,
        5590.0,
        5595.0,
        5600.0,
        5605.0,
        5610.0,
        5615.0,
        5620.0,
        5625.0,
        5630.0,
        5635.0,
        5640.0,
        5645.0,
        5650.0,
        5655.0,
        5660.0,
        5665.0,
        5670.0,
        5675.0,
        5680.0,
        5685.0,
        5690.0,
        5695.0,
        5700.0,
        5705.0,
        5710.0,
        5715.0,
        5720.0,
        5725.0,
        5730.0,
        5735.0,
        5740.0,
        5745.0,
        5750.0,
        5755.0,
        5760.0,
        5765.0,
        5770.0,
        5775.0,
        5780.0,
        5785.0,
        5790.0,
        5795.0,
        5800.0,
        5805.0,
        5810.0,
        5815.0,
        5820.0,
        5825.0,
        5830.0,
        5835.0,
        5840.0,
        5845.0,
        5850.0,
        5855.0,
        5860.0,
        5865.0,
        5870.0,
        5875.0,
        5880.0,
        5885.0,
        5890.0,
        5895.0,
        5900.0,
        5905.0,
        5910.0,
        5915.0,
        5920.0,
        5925.0,
        5930.0,
        5935.0,
        5940.0,
        5945.0,
        5950.0,
        5955.0,
        5960.0,
        5965.0,
        5970.0,
        5975.0,
        5980.0,
        5985.0,
        5990.0,
        5995.0,
        6000.0,
        6005.0,
        6010.0,
        6015.0,
        6020.0,
        6025.0,
        6030.0,
        6035.0,
        6040.0,
        6045.0,
        6050.0,
        6055.0,
        6060.0,
        6065.0,
        6070.0,
        6075.0,
        6080.0,
        6085.0,
        6090.0,
        6095.0,
        6100.0,
        6105.0,
        6110.0,
        6115.0,
        6120.0,
        6125.0,
        6130.0,
        6135.0,
        6140.0,
        6145.0,
        6150.0,
        6155.0,
        6160.0,
        6165.0,
        6170.0,
        6175.0,
        6180.0,
        6185.0,
        6190.0,
        6195.0,
        6200.0,
        6205.0,
        6210.0,
        6215.0,
        6220.0,
        6225.0,
        6230.0,
        6235.0,
        6240.0,
        6245.0,
        6250.0,
        6255.0,
        6260.0,
        6265.0,
        6270.0,
        6275.0,
        6280.0,
        6285.0,
        6290.0,
        6295.0,
        6300.0,
        6305.0,
        6310.0,
        6315.0,
        6320.0,
        6325.0,
        6330.0,
        6335.0,
        6340.0,
        6345.0,
        6350.0,
        6355.0,
        6360.0,
        6365.0,
        6370.0,
        6375.0,
        6380.0,
        6385.0,
        6390.0,
        6395.0,
        6400.0,
        6405.0,
        6410.0,
        6415.0,
        6420.0,
        6425.0,
        6430.0,
        6435.0,
        6440.0,
        6445.0,
        6450.0,
        6455.0,
        6460.0,
        6465.0,
        6470.0,
        6475.0,
        6480.0,
        6485.0,
        6490.0,
        6495.0,
        6500.0,
        6505.0,
        6510.0,
        6515.0,
        6520.0,
        6525.0,
        6530.0,
        6535.0,
        6540.0,
        6545.0,
        6550.0,
        6555.0,
        6560.0,
        6565.0,
        6570.0,
        6575.0,
        6580.0,
        6585.0,
        6590.0,
        6595.0,
        6600.0,
        6605.0,
        6610.0,
        6615.0,
        6620.0,
        6625.0,
        6630.0,
        6635.0,
        6640.0,
        6645.0,
        6650.0,
        6655.0,
        6660.0,
        6665.0,
        6670.0,
        6675.0,
        6680.0,
        6685.0,
        6690.0,
        6695.0,
        6700.0,
        6705.0,
        6710.0,
        6715.0,
        6720.0,
        6725.0,
        6730.0,
        6735.0,
        6740.0,
        6745.0,
        6750.0,
        6755.0,
        6760.0,
        6765.0,
        6770.0,
        6775.0,
        6780.0,
        6785.0,
        6790.0,
        6795.0,
        6800.0,
        6805.0,
        6810.0,
        6815.0,
        6820.0,
        6825.0,
        6830.0,
        6835.0,
        6840.0,
        6845.0,
        6850.0,
        6855.0,
        6860.0,
        6865.0,
        6870.0,
        6875.0,
        6880.0,
        6885.0,
        6890.0,
        6895.0,
        6900.0,
        6905.0,
        6910.0,
        6915.0,
        6920.0,
        6925.0,
        6930.0,
        6935.0,
        6940.0,
        6945.0,
        6950.0,
        6955.0,
        6960.0,
        6965.0,
        6970.0,
        6975.0,
        6980.0,
        6985.0,
        6990.0,
        6995.0,
        7000.0,
        7005.0,
        7010.0,
        7015.0,
        7020.0,
        7025.0,
        7030.0,
        7035.0,
        7040.0,
        7045.0,
        7050.0,
        7055.0,
        7060.0,
        7065.0,
        7070.0,
        7075.0,
        7080.0,
        7085.0,
        7090.0,
        7095.0,
        7100.0,
        7105.0,
        7110.0,
        7115.0,
        7120.0,
        7125.0,
        7130.0,
        7135.0,
        7140.0,
        7145.0,
        7150.0,
        7155.0,
        7160.0,
        7165.0,
        7170.0,
        7175.0,
        7180.0,
        7185.0,
        7190.0,
        7195.0,
        7200.0,
        7205.0,
        7210.0,
        7215.0,
        7220.0,
        7225.0,
        7230.0,
        7235.0,
        7240.0,
        7245.0,
        7250.0,
        7255.0,
        7260.0,
        7265.0,
        7270.0,
        7275.0,
        7280.0,
        7285.0,
        7290.0,
        7295.0,
        7300.0,
        7305.0,
        7310.0,
        7315.0,
        7320.0,
        7325.0,
        7330.0,
        7335.0,
        7340.0,
        7345.0,
        7350.0,
        7355.0,
        7360.0,
        7365.0,
        7370.0,
        7375.0,
        7380.0,
        7385.0,
        7390.0,
        7395.0,
        7400.0,
        7405.0,
        7410.0,
        7415.0,
        7420.0,
        7425.0,
        7430.0,
        7435.0,
        7440.0,
        7445.0,
        7450.0,
        7455.0,
        7460.0,
        7465.0,
        7470.0,
        7475.0,
        7480.0,
        7485.0,
        7490.0,
        7495.0,
        7500.0,
        7505.0,
        7510.0,
        7515.0,
        7520.0,
        7525.0,
        7530.0,
        7535.0,
        7540.0,
        7545.0,
        7550.0,
        7555.0,
        7560.0,
        7565.0,
        7570.0,
        7575.0,
        7580.0,
        7585.0,
        7590.0,
        7595.0,
        7600.0,
        7605.0,
        7610.0,
        7615.0,
        7620.0,
        7625.0,
        7630.0,
        7635.0,
        7640.0,
        7645.0,
        7650.0,
        7655.0,
        7660.0,
        7665.0,
        7670.0,
        7675.0,
        7680.0,
        7685.0,
        7690.0,
        7695.0,
        7700.0,
        7705.0,
        7710.0,
        7715.0,
        7720.0,
        7725.0,
        7730.0,
        7735.0,
        7740.0,
        7745.0,
        7750.0,
        7755.0,
        7760.0,
        7765.0,
        7770.0,
        7775.0,
        7780.0,
        7785.0,
        7790.0,
        7795.0,
        7800.0,
        7805.0,
        7810.0,
        7815.0,
        7820.0,
        7825.0,
        7830.0,
        7835.0,
        7840.0,
        7845.0,
        7850.0,
        7855.0,
        7860.0,
        7865.0,
        7870.0,
        7875.0,
        7880.0,
        7885.0,
        7890.0,
        7895.0,
        7900.0,
        7905.0,
        7910.0,
        7915.0,
        7920.0,
        7925.0,
        7930.0,
        7935.0,
        7940.0,
        7945.0,
        7950.0,
        7955.0,
        7960.0,
        7965.0,
        7970.0,
        7975.0,
        7980.0,
        7985.0,
        7990.0,
        7995.0,
        8000.0,
        8005.0,
        8010.0,
        8015.0,
        8020.0,
        8025.0,
        8030.0,
        8035.0,
        8040.0,
        8045.0,
        8050.0,
        8055.0,
        8060.0,
        8065.0,
        8070.0,
        8075.0,
        8080.0,
        8085.0,
        8090.0,
        8095.0,
        8100.0,
        8105.0,
        8110.0,
        8115.0,
        8120.0,
        8125.0,
        8130.0,
        8135.0,
        8140.0,
        8145.0,
        8150.0,
        8155.0,
        8160.0,
        8165.0,
        8170.0,
        8175.0,
        8180.0,
        8185.0,
        8190.0,
        8195.0,
        8200.0,
        8205.0,
        8210.0,
        8215.0,
        8220.0,
        8225.0,
        8230.0,
        8235.0,
        8240.0,
        8245.0,
        8250.0,
        8255.0,
        8260.0,
        8265.0,
        8270.0,
        8275.0,
        8280.0,
        8285.0,
        8290.0,
        8295.0,
        8300.0,
        8305.0,
        8310.0,
        8315.0,
        8320.0,
        8325.0,
        8330.0,
        8335.0,
        8340.0,
        8345.0,
        8350.0,
        8355.0,
        8360.0,
        8365.0,
        8370.0,
        8375.0,
        8380.0,
        8385.0,
        8390.0,
        8395.0,
        8400.0,
        8405.0,
        8410.0,
        8415.0,
        8420.0,
        8425.0,
        8430.0,
        8435.0,
        8440.0,
        8445.0,
        8450.0,
        8455.0,
        8460.0,
        8465.0,
        8470.0,
        8475.0,
        8480.0,
        8485.0,
        8490.0,
        8495.0,
        8500.0,
        8505.0,
        8510.0,
        8515.0,
        8520.0,
        8525.0,
        8530.0,
        8535.0,
        8540.0,
        8545.0,
        8550.0,
        8555.0,
        8560.0,
        8565.0,
        8570.0,
        8575.0,
        8580.0,
        8585.0,
        8590.0,
        8595.0,
        8600.0,
        8605.0,
        8610.0,
        8615.0,
        8620.0,
        8625.0,
        8630.0,
        8635.0,
        8640.0,
        8645.0,
        8650.0,
        8655.0,
        8660.0,
        8665.0,
        8670.0,
        8675.0,
        8680.0,
        8685.0,
        8690.0,
        8695.0,
        8700.0,
        8705.0,
        8710.0,
        8715.0,
        8720.0,
        8725.0,
        8730.0,
        8735.0,
        8740.0,
        8745.0,
        8750.0,
        8755.0,
        8760.0,
        8765.0,
        8770.0,
        8775.0,
        8780.0,
        8785.0,
        8790.0,
        8795.0,
        8800.0,
        8805.0,
        8810.0,
        8815.0,
        8820.0,
        8825.0,
        8830.0,
        8835.0,
        8840.0,
        8845.0,
        8850.0,
        8855.0,
        8860.0,
        8865.0,
        8870.0,
        8875.0,
        8880.0,
        8885.0,
        8890.0,
        8895.0,
        8900.0,
        8905.0,
        8910.0,
        8915.0,
        8920.0,
        8925.0,
        8930.0,
        8935.0,
        8940.0,
        8945.0,
        8950.0,
        8955.0,
        8960.0,
        8965.0,
        8970.0,
        8975.0,
        8980.0,
        8985.0,
        8990.0,
        8995.0,
        9000.0,
        9005.0,
        9010.0,
        9015.0,
        9020.0,
        9025.0,
        9030.0,
        9035.0,
        9040.0,
        9045.0,
        9050.0,
        9055.0,
        9060.0,
        9065.0,
        9070.0,
        9075.0,
        9080.0,
        9085.0,
        9090.0,
        9095.0,
        9100.0,
        9105.0,
        9110.0,
        9115.0,
        9120.0,
        9125.0,
        9130.0,
        9135.0,
        9140.0,
        9145.0,
        9150.0,
        9155.0,
        9160.0,
        9165.0,
        9170.0,
        9175.0,
        9180.0,
        9185.0,
        9190.0,
        9195.0,
        9200.0,
        9205.0,
        9210.0,
        9215.0,
        9220.0,
        9225.0,
        9230.0,
        9235.0,
        9240.0,
        9245.0,
        9250.0,
        9255.0,
        9260.0,
        9265.0,
        9270.0,
        9275.0,
        9280.0,
        9285.0,
        9290.0,
        9295.0,
        9300.0,
        9305.0,
        9310.0,
        9315.0,
        9320.0,
        9325.0,
        9330.0,
        9335.0,
        9340.0,
        9345.0,
        9350.0,
        9355.0,
        9360.0,
        9365.0,
        9370.0,
        9375.0,
        9380.0,
        9385.0,
        9390.0,
        9395.0,
        9400.0,
        9405.0,
        9410.0,
        9415.0,
        9420.0,
        9425.0,
        9430.0,
        9435.0,
        9440.0,
        9445.0,
        9450.0,
        9455.0,
        9460.0,
        9465.0,
        9470.0,
        9475.0,
        9480.0,
        9485.0,
        9490.0,
        9495.0,
        9500.0,
        9505.0,
        9510.0,
        9515.0,
        9520.0,
        9525.0,
        9530.0,
        9535.0,
        9540.0,
        9545.0,
        9550.0,
        9555.0,
        9560.0,
        9565.0,
        9570.0,
        9575.0,
        9580.0,
        9585.0,
        9590.0,
        9595.0,
        9600.0,
        9605.0,
        9610.0,
        9615.0,
        9620.0,
        9625.0,
        9630.0,
        9635.0,
        9640.0,
        9645.0,
        9650.0,
        9655.0,
        9660.0,
        9665.0,
        9670.0,
        9675.0,
        9680.0,
        9685.0,
        9690.0,
        9695.0,
        9700.0,
        9705.0,
        9710.0,
        9715.0,
        9720.0,
        9725.0,
        9730.0,
        9735.0,
        9740.0,
        9745.0,
        9750.0,
        9755.0,
        9760.0,
        9765.0,
        9770.0,
        9775.0,
        9780.0,
        9785.0,
        9790.0,
        9795.0,
        9800.0,
        9805.0,
        9810.0,
        9815.0,
        9820.0,
        9825.0,
        9830.0,
        9835.0,
        9840.0,
        9845.0,
        9850.0,
        9855.0,
        9860.0,
        9865.0,
        9870.0,
        9875.0,
        9880.0,
        9885.0,
        9890.0,
        9895.0,
        9900.0,
        9905.0,
        9910.0,
        9915.0,
        9920.0,
        9925.0,
        9930.0,
        9935.0,
        9940.0,
        9945.0,
        9950.0,
        9955.0,
        9960.0,
        9965.0,
        9970.0,
        9975.0,
        9980.0,
        9985.0,
        9990.0,
        9995.0,
        10000.0,
        10005.0,
        10010.0,
        10015.0,
        10020.0,
        10025.0,
        10030.0,
        10035.0,
        10040.0,
        10045.0,
        10050.0,
        10055.0,
        10060.0,
        10065.0,
        10070.0,
        10075.0,
        10080.0,
        10085.0,
        10090.0,
        10095.0,
        10100.0,
        10105.0,
        10110.0,
        10115.0,
        10120.0,
        10125.0,
        10130.0,
        10135.0,
        10140.0,
        10145.0,
        10150.0,
        10155.0,
        10160.0,
        10165.0,
        10170.0,
        10175.0,
        10180.0,
        10185.0,
        10190.0,
        10195.0,
        10200.0,
        10205.0,
        10210.0,
        10215.0,
        10220.0,
        10225.0,
        10230.0,
        10235.0,
        10240.0,
        10245.0,
        10250.0,
        10255.0,
        10260.0,
        10265.0,
        10270.0,
        10275.0,
        10280.0,
        10285.0,
        10290.0,
        10295.0,
        10300.0,
        10305.0,
        10310.0,
        10315.0,
        10320.0,
        10325.0,
        10330.0,
        10335.0,
        10340.0,
        10345.0,
        10350.0,
        10355.0,
        10360.0,
        10365.0,
        10370.0,
        10375.0,
        10380.0,
        10385.0,
        10390.0,
        10395.0,
        10400.0,
        10405.0,
        10410.0,
        10415.0,
        10420.0,
        10425.0,
        10430.0,
        10435.0,
        10440.0,
        10445.0,
        10450.0,
        10455.0,
        10460.0,
        10465.0,
        10470.0,
        10475.0,
        10480.0,
        10485.0,
        10490.0,
        10495.0,
        10500.0
      ],
      "units":"angstrom"
    },
    "values":{
      "value":[
        0.0,
        0.0,
        0.0,
        0.0,
        0.0,
        0.0,
        0.0,
        0.0,
        0.0,
        0.0,
        0.0,
        0.0,
        0.0,
        0.0,
        0.0,
        0.0,
        0.0,
        0.0,
        0.0,
        0.0,
        0.0,
        0.0,
        0.0,
        0.0,
        0.0,
        0.0,
        0.0,
        0.0,
        0.0,
        0.0,
        0.0,
        0.0,
        0.0,
        0.0,
        0.0,
        0.0,
        0.0,
        0.0,
        0.0,
        0.0,
        0.0,
        0.0,
        0.0,
        0.0,
        0.0,
        0.0,
        0.0,
        0.0,
        0.0,
        0.0,
        0.0,
        0.0,
        0.0,
        0.0,
        0.0,
        0.0,
        0.0,
        0.0,
        0.0,
        0.0,
        0.0,
        0.0,
        0.0,
        0.0,
        0.0,
        0.0,
        0.0,
        0.0,
        0.0,
        0.0,
        0.0,
        1e-06,
        2e-06,
        3e-06,
        4e-06,
        5e-06,
        5e-06,
        5e-06,
        4e-06,
        2e-06,
        0.0,
        0.0,
        0.0,
        0.0,
        0.0,
        0.0,
        0.0,
        0.0,
        0.0,
        0.0,
        0.0,
        1.2e-05,
        2.7e-05,
        4.1e-05,
        5.4e-05,
        6.4e-05,
        6.8e-05,
        6.6e-05,
        5.5e-05,
        3.4e-05,
        0.0,
        0.0,
        0.0,
        0.0,
        0.0,
        0.0,
        0.0,
        0.0,
        0.0,
        0.0,
        0.0,
        0.000175,
        0.000396,
        0.000656,
        0.000948,
        0.001266,
        0.001604,
        0.001956,
        0.002313,
        0.002671,
        0.003023,
        0.003364,
        0.0037,
        0.004037,
        0.004384,
        0.004746,
        0.005132,
        0.005548,
        0.006003,
        0.006502,
        0.007054,
        0.007663,
        0.008321,
        0.009017,
        0.009742,
        0.010486,
        0.011236,
        0.011984,
        0.012719,
        0.013431,
        0.014108,
        0.014744,
        0.015339,
        0.015898,
        0.016425,
        0.016925,
        0.0174,
        0.017856,
        0.018296,
        0.018725,
        0.019147,
        0.019565,
        0.019987,
        0.020417,
        0.020862,
        0.021328,
        0.021822,
        0.022348,
        0.022913,
        0.023524,
        0.024185,
        0.024903,
        0.025673,
        0.026493,
        0.027357,
        0.028262,
        0.029204,
        0.030178,
        0.031181,
        0.032208,
        0.033255,
        0.034327,
        0.035461,
        0.036705,
        0.038105,
        0.039708,
        0.041561,
        0.04371,
        0.046202,
        0.049084,
        0.052402,
        0.056174,
        0.060301,
        0.064654,
        0.069106,
        0.073527,
        0.077791,
        0.081768,
        0.085329,
        0.088348,
        0.090695,
        0.092287,
        0.093212,
        0.093605,
        0.093601,
        0.093332,
        0.092932,
        0.092537,
        0.092279,
        0.092292,
        0.092711,
        0.093631,
        0.094997,
        0.096717,
        0.098697,
        0.100845,
        0.103068,
        0.105273,
        0.107366,
        0.109257,
        0.11085,
        0.112071,
        0.112917,
        0.113401,
        0.113538,
        0.11334,
        0.112822,
        0.111998,
        0.110881,
        0.109486,
        0.107827,
        0.105921,
        0.103808,
        0.101532,
        0.099134,
        0.09666,
        0.094152,
        0.091653,
        0.089208,
        0.086858,
        0.084649,
        0.082613,
        0.080749,
        0.079044,
        0.077485,
        0.076061,
        0.07476,
        0.07357,
        0.072478,
        0.071472,
        0.070541,
        0.069678,
        0.0689,
        0.06823,
        0.067693,
        0.06731,
        0.067105,
        0.0671,
        0.06732,
        0.067788,
        0.068525,
        0.069543,
        0.070799,
        0.072235,
        0.073796,
        0.075426,
        0.077067,
        0.078665,
        0.080163,
        0.081505,
        0.082634,
        0.083505,
        0.084122,
        0.084499,
        0.084651,
        0.084591,
        0.084334,
        0.083895,
        0.083287,
        0.082526,
        0.081626,
        0.080604,
        0.079492,
        0.078325,
        0.077138,
        0.075966,
        0.074843,
        0.073805,
        0.072887,
        0.072123,
        0.071549,
        0.071197,
        0.071098,
        0.071277,
        0.071762,
        0.072581,
        0.073761,
        0.075329,
        0.077312,
        0.079738,
        0.082634,
        0.086016,
        0.08986,
        0.094132,
        0.098794,
        0.103813,
        0.109153,
        0.114779,
        0.120656,
        0.126748,
        0.13302,
        0.139418,
        0.145815,
        0.152064,
        0.15802,
        0.163534,
        0.168462,
        0.172656,
        0.17597,
        0.178259,
        0.179375,
        0.179222,
        0.177899,
        0.175555,
        0.17234,
        0.168403,
        0.163892,
        0.158957,
        0.153747,
        0.14841,
        0.143097,
        0.137951,
        0.133095,
        0.128648,
        0.124729,
        0.121455,
        0.118945,
        0.117317,
        0.11669,
        0.117182,
        0.118912,
        0.121959,
        0.126254,
        0.131687,
        0.138151,
        0.145535,
        0.153732,
        0.162634,
        0.172131,
        0.182114,
        0.192476,
        0.203108,
        0.213909,
        0.224777,
        0.235612,
        0.246312,
        0.256776,
        0.266904,
        0.276594,
        0.285745,
        0.294256,
        0.302045,
        0.309104,
        0.315444,
        0.321075,
        0.32601,
        0.330259,
        0.333832,
        0.336742,
        0.338998,
        0.340611,
        0.341616,
        0.34213,
        0.342297,
        0.342259,
        0.342156,
        0.342132,
        0.342327,
        0.342884,
        0.343944,
        0.34565,
        0.348103,
        0.351241,
        0.354966,
        0.359176,
        0.36377,
        0.368648,
        0.373709,
        0.378852,
        0.383977,
        0.388982,
        0.393786,
        0.398376,
        0.402761,
        0.406947,
        0.410941,
        0.414751,
        0.418383,
        0.421844,
        0.425142,
        0.428284,
        0.431276,
        0.434132,
        0.436862,
        0.439479,
        0.441994,
        0.444421,
        0.44677,
        0.449055,
        0.451286,
        0.453477,
        0.455636,
        0.457766,
        0.459866,
        0.461933,
        0.463969,
        0.465971,
        0.46794,
        0.469873,
        0.47177,
        0.473631,
        0.475473,
        0.47739,
        0.479494,
        0.481898,
        0.484713,
        0.488053,
        0.492029,
        0.496754,
        0.502341,
        0.508902,
        0.516486,
        0.524895,
        0.533869,
        0.543145,
        0.552462,
        0.561559,
        0.570176,
        0.57805,
        0.584921,
        0.590527,
        0.594676,
        0.597445,
        0.598982,
        0.599431,
        0.598941,
        0.597656,
        0.595724,
        0.59329,
        0.590501,
        0.587504,
        0.584435,
        0.58139,
        0.578457,
        0.575723,
        0.573274,
        0.571198,
        0.569581,
        0.568511,
        0.568074,
        0.568357,
        0.5694,
        0.571046,
        0.573091,
        0.575332,
        0.577564,
        0.579583,
        0.581187,
        0.582169,
        0.582328,
        0.581458,
        0.579436,
        0.576464,
        0.572823,
        0.568793,
        0.564657,
        0.560696,
        0.557192,
        0.554426,
        0.552679,
        0.552234,
        0.553284,
        0.609432,
        0.60931,
        0.60563,
        0.601233,
        0.615208,
        0.635924,
        0.651365,
        0.658313,
        0.657198,
        0.652532,
        0.643669,
        0.622111,
        0.605593,
        0.602574,
        0.591262,
        0.586453,
        0.614886,
        0.648758,
        0.650979,
        0.618765,
        0.573877,
        0.560167,
        0.578645,
        0.611787,
        0.62837,
        0.633103,
        0.632345,
        0.619189,
        0.59905,
        0.65722,
        0.704287,
        0.702686,
        0.68478,
        0.672181,
        0.659483,
        0.652444,
        0.667719,
        0.701584,
        0.71088,
        0.679223,
        0.664719,
        0.674602,
        0.669462,
        0.685557,
        0.665875,
        0.636864,
        0.626092,
        0.596583,
        0.60138,
        0.669276,
        0.711787,
        0.702161,
        0.706914,
        0.783283,
        0.850399,
        0.817316,
        0.725487,
        0.662621,
        0.685344,
        0.766672,
        0.798506,
        0.739596,
        0.649212,
        0.56681,
        0.50221,
        0.485007,
        0.551002,
        0.663984,
        0.729554,
        0.715372,
        0.691296,
        0.696381,
        0.695946,
        0.689563,
        0.66963,
        0.638477,
        0.652785,
        0.724733,
        0.783775,
        0.805933,
        0.826086,
        0.835723,
        0.783714,
        0.629352,
        0.445473,
        0.397445,
        0.512571,
        0.681977,
        0.808239,
        0.831931,
        0.716093,
        0.504581,
        0.430686,
        0.61198,
        0.83955,
        0.950495,
        0.990523,
        1.014861,
        1.031074,
        1.036844,
        1.054533,
        1.060555,
        1.0799,
        1.06463,
        1.042876,
        1.05949,
        1.074713,
        1.048404,
        1.018805,
        1.025962,
        1.020145,
        1.021681,
        0.994573,
        0.986374,
        1.00537,
        1.053678,
        1.057099,
        0.984199,
        0.890911,
        0.927791,
        1.006145,
        1.066498,
        1.073472,
        1.05098,
        1.038566,
        1.065399,
        1.091165,
        1.081826,
        1.065211,
        1.067662,
        1.087056,
        1.087484,
        1.05551,
        1.027167,
        1.029636,
        1.054505,
        1.069329,
        1.041453,
        1.017189,
        1.054539,
        1.105933,
        1.112855,
        1.077224,
        1.024677,
        1.004673,
        1.019012,
        1.041064,
        1.052282,
        1.050618,
        1.042495,
        1.034814,
        1.032549,
        1.02474,
        1.029378,
        1.033009,
        1.006305,
        0.964327,
        0.910856,
        0.84043,
        0.792671,
        0.833242,
        0.973619,
        1.077879,
        1.0685,
        1.012283,
        0.95131,
        0.90103,
        0.958044,
        1.022317,
        1.074249,
        1.109064,
        1.124116,
        1.112325,
        1.085045,
        1.04593,
        1.010086,
        1.015464,
        1.055084,
        1.086841,
        1.093913,
        1.099933,
        1.115908,
        1.136418,
        1.148269,
        1.143309,
        1.131262,
        1.133815,
        1.156107,
        1.17788,
        1.121155,
        1.082432,
        1.112641,
        1.144104,
        1.19153,
        1.187662,
        1.189051,
        1.194314,
        1.200455,
        1.218588,
        1.252464,
        1.266118,
        1.24754,
        1.204861,
        1.141955,
        1.107958,
        1.143776,
        1.183603,
        1.167215,
        1.143779,
        1.16819,
        1.204455,
        1.211312,
        1.208003,
        1.198054,
        1.176791,
        1.170224,
        1.171757,
        1.16559,
        1.163519,
        1.189273,
        1.209248,
        1.208395,
        1.212043,
        1.214864,
        1.211416,
        1.196184,
        1.175941,
        1.150898,
        1.148602,
        1.172074,
        1.175612,
        1.13142,
        1.112941,
        1.141342,
        1.160892,
        1.171624,
        1.168699,
        1.150543,
        1.123873,
        1.112045,
        1.129953,
        1.169805,
        1.197906,
        1.176966,
        1.145385,
        1.14916,
        1.169168,
        1.180333,
        1.173752,
        1.158107,
        1.137923,
        1.125468,
        1.146191,
        1.183293,
        1.194069,
        1.170692,
        1.158869,
        1.17508,
        1.180644,
        1.169617,
        1.16689,
        1.183349,
        1.187269,
        1.170569,
        1.151654,
        1.13155,
        1.123456,
        1.132144,
        1.095778,
        0.963062,
        0.855379,
        0.899578,
        1.001943,
        1.07114,
        1.094691,
        1.069167,
        1.065073,
        1.116143,
        1.155426,
        1.146247,
        1.113243,
        1.074749,
        1.057535,
        1.094397,
        1.124347,
        1.107824,
        1.1063,
        1.135842,
        1.151055,
        1.135627,
        1.127244,
        1.132816,
        1.135194,
        1.114072,
        1.078918,
        1.083539,
        1.111051,
        1.108194,
        1.082652,
        1.060863,
        1.044128,
        1.031577,
        1.044805,
        1.080584,
        1.099476,
        1.071781,
        1.044571,
        1.059858,
        1.093232,
        1.126878,
        1.140378,
        1.119138,
        1.086609,
        1.056993,
        1.05138,
        1.086437,
        1.113284,
        1.092059,
        1.065856,
        1.06847,
        1.087284,
        1.101024,
        1.088759,
        1.062068,
        1.046147,
        1.038097,
        1.030937,
        1.029856,
        1.042233,
        1.068519,
        1.04984,
        0.953742,
        0.895389,
        0.949171,
        1.003196,
        0.995551,
        0.989295,
        1.013293,
        1.036071,
        1.034437,
        1.03042,
        1.044483,
        1.044996,
        1.013202,
        0.998679,
        1.030009,
        1.065422,
        1.064949,
        1.053934,
        1.054207,
        1.027408,
        0.966825,
        0.940684,
        0.974627,
        1.028,
        1.074108,
        1.089013,
        1.060824,
        1.042133,
        1.065822,
        1.090443,
        1.083708,
        1.052606,
        1.014784,
        1.00357,
        1.022559,
        1.039068,
        1.040989,
        1.050832,
        1.077128,
        1.079046,
        1.039457,
        1.013331,
        1.030097,
        1.05088,
        1.04998,
        1.03416,
        1.015424,
        0.997544,
        0.984335,
        0.988948,
        1.012513,
        1.027089,
        1.021142,
        1.014807,
        1.027356,
        1.040176,
        1.038347,
        1.031011,
        1.026943,
        1.027537,
        1.035446,
        1.031711,
        1.006301,
        0.993553,
        1.009751,
        1.027608,
        1.028036,
        1.016665,
        1.006628,
        1.007052,
        1.019489,
        1.025491,
        1.011984,
        1.002141,
        1.008289,
        1.017477,
        1.024577,
        1.02763,
        1.022149,
        1.009608,
        0.994179,
        0.988401,
        0.99768,
        0.999393,
        0.975053,
        0.95227,
        0.948833,
        0.964977,
        1.003076,
        1.020913,
        0.996243,
        0.975323,
        0.985946,
        0.999593,
        0.988292,
        0.977193,
        0.989235,
        0.991039,
        0.962278,
        0.944052,
        0.962588,
        0.98972,
        0.993059,
        0.976673,
        0.961647,
        0.962389,
        0.971751,
        0.966631,
        0.940761,
        0.930414,
        0.959484,
        0.991631,
        0.996041,
        0.989292,
        0.989956,
        0.990395,
        0.980874,
        0.966789,
        0.962086,
        0.966402,
        0.976315,
        0.979649,
        0.968347,
        0.952019,
        0.946977,
        0.953161,
        0.963928,
        0.969986,
        0.965373,
        0.960406,
        0.963198,
        0.970611,
        0.974955,
        0.974467,
        0.972696,
        0.97104,
        0.966887,
        0.954608,
        0.937394,
        0.931764,
        0.941997,
        0.955309,
        0.961995,
        0.949097,
        0.9071,
        0.867375,
        0.869515,
        0.899797,
        0.925758,
        0.93624,
        0.935721,
        0.933269,
        0.929864,
        0.928233,
        0.932718,
        0.933287,
        0.926256,
        0.920588,
        0.922911,
        0.928496,
        0.932003,
        0.92958,
        0.921227,
        0.912077,
        0.90768,
        0.908649,
        0.909328,
        0.906158,
        0.900109,
        0.894207,
        0.887543,
        0.884633,
        0.889679,
        0.904492,
        0.909881,
        0.906808,
        0.905812,
        0.904299,
        0.900843,
        0.898333,
        0.897673,
        0.901928,
        0.894195,
        0.886993,
        0.884977,
        0.884514,
        0.881157,
        0.874368,
        0.876734,
        0.885219,
        0.881014,
        0.875129,
        0.874572,
        0.872396,
        0.855659,
        0.848031,
        0.860842,
        0.867123,
        0.857037,
        0.835911,
        0.834266,
        0.846179,
        0.859036,
        0.868056,
        0.863723,
        0.856088,
        0.859988,
        0.870099,
        0.873512,
        0.868304,
        0.857238,
        0.852647,
        0.852855,
        0.844611,
        0.84373,
        0.844151,
        0.834901,
        0.831854,
        0.83137,
        0.839267,
        0.851223,
        0.852909,
        0.832331,
        0.820113,
        0.83782,
        0.840494,
        0.827075,
        0.820275,
        0.826608,
        0.832816,
        0.819918,
        0.816059,
        0.830297,
        0.835155,
        0.823523,
        0.821202,
        0.82828,
        0.834574,
        0.82515,
        0.81652,
        0.821527,
        0.83113,
        0.829607,
        0.829503,
        0.831172,
        0.827659,
        0.818634,
        0.815542,
        0.810533,
        0.807462,
        0.804475,
        0.805228,
        0.812059,
        0.817828,
        0.814627,
        0.813977,
        0.81529,
        0.80905,
        0.802739,
        0.800134,
        0.803404,
        0.80704,
        0.805366,
        0.802415,
        0.802248,
        0.788096,
        0.767753,
        0.777343,
        0.803511,
        0.810141,
        0.799562,
        0.792885,
        0.794891,
        0.796788,
        0.799121,
        0.794629,
        0.787889,
        0.763535,
        0.701265,
        0.615815,
        0.630381,
        0.718543,
        0.760052,
        0.77166,
        0.77338,
        0.772025,
        0.775581,
        0.783331,
        0.783503,
        0.783038,
        0.789787,
        0.792075,
        0.785968,
        0.777913,
        0.77387,
        0.776949,
        0.777538,
        0.780782,
        0.781223,
        0.774651,
        0.773226,
        0.774763,
        0.770546,
        0.771722,
        0.778779,
        0.7812,
        0.775352,
        0.771604,
        0.768491,
        0.766194,
        0.758483,
        0.755127,
        0.764769,
        0.766582,
        0.764977,
        0.761663,
        0.75473,
        0.751189,
        0.757425,
        0.760077,
        0.756608,
        0.752853,
        0.758573,
        0.760151,
        0.756325,
        0.754041,
        0.751173,
        0.751124,
        0.750855,
        0.750717,
        0.75175,
        0.751223,
        0.751638,
        0.747588,
        0.744265,
        0.744014,
        0.743603,
        0.743075,
        0.742562,
        0.742044,
        0.741576,
        0.741076,
        0.740475,
        0.739871,
        0.739324,
        0.738847,
        0.738197,
        0.737473,
        0.736779,
        0.736129,
        0.735616,
        0.735065,
        0.734385,
        0.733715,
        0.733148,
        0.732723,
        0.73236,
        0.731696,
        0.730884,
        0.73071,
        0.731229,
        0.729859,
        0.721255,
        0.716369,
        0.720007,
        0.723285,
        0.722726,
        0.716583,
        0.708811,
        0.710527,
        0.705205,
        0.70312,
        0.707396,
        0.711835,
        0.710447,
        0.714806,
        0.720271,
        0.721351,
        0.716166,
        0.712709,
        0.711739,
        0.712551,
        0.717652,
        0.716966,
        0.709585,
        0.705344,
        0.707333,
        0.710802,
        0.712801,
        0.70567,
        0.702624,
        0.702439,
        0.702973,
        0.702658,
        0.707331,
        0.710087,
        0.705723,
        0.702117,
        0.704651,
        0.704554,
        0.693386,
        0.687257,
        0.682193,
        0.674488,
        0.661166,
        0.656045,
        0.660828,
        0.665349,
        0.669516,
        0.679148,
        0.687286,
        0.689867,
        0.690023,
        0.686861,
        0.674917,
        0.671107,
        0.672192,
        0.675192,
        0.678051,
        0.677875,
        0.676447,
        0.675156,
        0.668653,
        0.665676,
        0.660405,
        0.653248,
        0.665917,
        0.674623,
        0.667343,
        0.662179,
        0.666401,
        0.667662,
        0.66884,
        0.667787,
        0.673219,
        0.676813,
        0.673081,
        0.668249,
        0.66245,
        0.661697,
        0.661603,
        0.665406,
        0.665195,
        0.662062,
        0.648963,
        0.641319,
        0.649488,
        0.654671,
        0.648532,
        0.639424,
        0.636917,
        0.640248,
        0.643786,
        0.652731,
        0.654786,
        0.650664,
        0.643163,
        0.643301,
        0.647569,
        0.646779,
        0.646461,
        0.64895,
        0.644775,
        0.641984,
        0.641744,
        0.640251,
        0.634883,
        0.637319,
        0.633871,
        0.627875,
        0.631527,
        0.635253,
        0.631327,
        0.629763,
        0.633462,
        0.639411,
        0.63549,
        0.631567,
        0.630234,
        0.629813,
        0.629072,
        0.628001,
        0.626969,
        0.626098,
        0.625261,
        0.624452,
        0.623757,
        0.623078,
        0.622363,
        0.621559,
        0.6208,
        0.620111,
        0.619485,
        0.618853,
        0.618162,
        0.61747,
        0.616844,
        0.616252,
        0.615638,
        0.614941,
        0.614133,
        0.613298,
        0.612513,
        0.61176,
        0.611085,
        0.610475,
        0.609804,
        0.609068,
        0.60826,
        0.607606,
        0.607126,
        0.606432,
        0.605478,
        0.605696,
        0.607562,
        0.605535,
        0.595691,
        0.590868,
        0.597976,
        0.602646,
        0.603231,
        0.594207,
        0.586272,
        0.590736,
        0.59449,
        0.596115,
        0.59244,
        0.586293,
        0.589503,
        0.590198,
        0.595126,
        0.598978,
        0.597551,
        0.591353,
        0.584843,
        0.586973,
        0.589613,
        0.588223,
        0.588033,
        0.5913,
        0.58899,
        0.589846,
        0.584526,
        0.582404,
        0.585355,
        0.586691,
        0.583459,
        0.5808,
        0.582717,
        0.581724,
        0.576768,
        0.57253,
        0.571421,
        0.567956,
        0.566266,
        0.567439,
        0.564469,
        0.567523,
        0.574995,
        0.573005,
        0.574131,
        0.574854,
        0.574553,
        0.575765,
        0.576049,
        0.574076,
        0.566946,
        0.560228,
        0.564377,
        0.566824,
        0.570608,
        0.569137,
        0.562308,
        0.558628,
        0.564763,
        0.566149,
        0.556867,
        0.552741,
        0.558837,
        0.565498,
        0.565389,
        0.562394,
        0.562466,
        0.561267,
        0.557863,
        0.556753,
        0.553648,
        0.553674,
        0.558038,
        0.557932,
        0.555574,
        0.555697,
        0.555238,
        0.553618,
        0.547589,
        0.545093,
        0.541709,
        0.539906,
        0.539709,
        0.534782,
        0.529372,
        0.531031,
        0.53095,
        0.528758,
        0.528874,
        0.530177,
        0.522185,
        0.522699,
        0.536976,
        0.546393,
        0.543816,
        0.5316,
        0.517007,
        0.505044,
        0.520352,
        0.534974,
        0.538006,
        0.536091,
        0.532834,
        0.535981,
        0.53922,
        0.537589,
        0.529368,
        0.522793,
        0.524422,
        0.524554,
        0.526173,
        0.525229,
        0.521697,
        0.520905,
        0.522432,
        0.521997,
        0.520686,
        0.517023,
        0.512604,
        0.513755,
        0.516651,
        0.520694,
        0.523332,
        0.521657,
        0.520451,
        0.518707,
        0.518815,
        0.519161,
        0.514475,
        0.510825,
        0.514995,
        0.517867,
        0.518734,
        0.516549,
        0.514539,
        0.512631,
        0.514458,
        0.513396,
        0.505905,
        0.501699,
        0.500926,
        0.506164,
        0.51239,
        0.512168,
        0.506269,
        0.502721,
        0.503912,
        0.508251,
        0.511726,
        0.503678,
        0.468442,
        0.444104,
        0.472421,
        0.491843,
        0.489899,
        0.488122,
        0.486886,
        0.483372,
        0.464402,
        0.415551,
        0.396379,
        0.430474,
        0.457397,
        0.47696,
        0.486992,
        0.485351,
        0.483183,
        0.481812,
        0.4792,
        0.477462,
        0.470352,
        0.469038,
        0.479869,
        0.485818,
        0.488434,
        0.488514,
        0.492249,
        0.496335,
        0.497548,
        0.495423,
        0.492144,
        0.487256,
        0.47726,
        0.436794,
        0.411183,
        0.43082,
        0.456252,
        0.480138,
        0.48503,
        0.480176,
        0.480515,
        0.482769,
        0.485315,
        0.482268,
        0.480196,
        0.484927,
        0.481989,
        0.478826,
        0.475176,
        0.468121,
        0.463126,
        0.456206,
        0.456136,
        0.463896,
        0.469251,
        0.470546,
        0.471206,
        0.474254,
        0.473592,
        0.469105,
        0.468273,
        0.47092,
        0.45555,
        0.457936,
        0.469809,
        0.468088,
        0.465962,
        0.467455,
        0.467724,
        0.462502,
        0.464071,
        0.459904,
        0.454117,
        0.4406,
        0.433723,
        0.445272,
        0.453538,
        0.457808,
        0.464274,
        0.462175,
        0.462813,
        0.461448,
        0.463937,
        0.461401,
        0.460375,
        0.461039,
        0.454646,
        0.452888,
        0.460398,
        0.462224,
        0.458099,
        0.457053,
        0.458049,
        0.459555,
        0.448261,
        0.443238,
        0.438828,
        0.442691,
        0.431117,
        0.413609,
        0.430312,
        0.421324,
        0.421628,
        0.415973,
        0.404859,
        0.420695,
        0.434052,
        0.448343,
        0.461358,
        0.45626,
        0.466154,
        0.459919,
        0.45978,
        0.442577,
        0.436084,
        0.435544,
        0.431048,
        0.425021,
        0.421484,
        0.415372,
        0.420355,
        0.422854,
        0.431147,
        0.434831,
        0.435146,
        0.441002,
        0.4443,
        0.428803,
        0.421711,
        0.438432,
        0.43481,
        0.419474,
        0.412196,
        0.42448,
        0.434763,
        0.430867,
        0.423369,
        0.429991,
        0.437741,
        0.436162,
        0.435239,
        0.435721,
        0.435741,
        0.425601,
        0.41608,
        0.415144,
        0.405159,
        0.399479,
        0.412394,
        0.417307,
        0.423106,
        0.427474,
        0.429734,
        0.442192,
        0.448466,
        0.450629,
        0.448534,
        0.43904,
        0.45303,
        0.446147,
        0.436655,
        0.430353,
        0.422881,
        0.413782,
        0.401512,
        0.397053,
        0.394266,
        0.398769,
        0.382923,
        0.378227,
        0.373262,
        0.403318,
        0.384891,
        0.397956,
        0.398656,
        0.391197,
        0.403021,
        0.393031,
        0.417287,
        0.431746,
        0.439529,
        0.435144,
        0.425407,
        0.419771,
        0.417676,
        0.413633,
        0.399998,
        0.386254,
        0.394198,
        0.369903,
        0.392806,
        0.405469,
        0.389382,
        0.392324,
        0.40269,
        0.408752,
        0.402516,
        0.393978,
        0.403893,
        0.409699,
        0.388042,
        0.376123,
        0.406919,
        0.41974,
        0.403255,
        0.38183,
        0.382501,
        0.393326,
        0.395716,
        0.385992,
        0.370055,
        0.377306,
        0.377397,
        0.384254,
        0.37605,
        0.387444,
        0.401007,
        0.390204,
        0.400353,
        0.382266,
        0.38128,
        0.388613,
        0.391142,
        0.39119,
        0.381759,
        0.382422,
        0.381985,
        0.38879,
        0.383944,
        0.381986,
        0.38475,
        0.381725,
        0.38086,
        0.370781,
        0.366573,
        0.381483,
        0.387921,
        0.387201,
        0.383268,
        0.387022,
        0.391377,
        0.381893,
        0.385551,
        0.385988,
        0.38621,
        0.378381,
        0.378872,
        0.378128,
        0.370753,
        0.359026,
        0.375501,
        0.378561,
        0.370104,
        0.372626,
        0.373736,
        0.379382,
        0.371295,
        0.364338,
        0.37133,
        0.369984,
        0.366412,
        0.36814,
        0.36936,
        0.372274,
        0.371729,
        0.378151,
        0.361755,
        0.367539,
        0.370189,
        0.375533,
        0.367659,
        0.363454,
        0.368257,
        0.368863,
        0.369657,
        0.365611,
        0.365831,
        0.361775,
        0.364494,
        0.360569,
        0.362615,
        0.362236,
        0.361366,
        0.367466,
        0.35981,
        0.353334,
        0.369013,
        0.364338,
        0.358369,
        0.357815,
        0.360199,
        0.358564,
        0.357868,
        0.353301,
        0.359,
        0.34997,
        0.357513,
        0.35565,
        0.348868,
        0.353324,
        0.358041,
        0.353712,
        0.352942,
        0.352084,
        0.351166,
        0.35022,
        0.349276,
        0.348364,
        0.347515,
        0.346759,
        0.346128,
        0.34565,
        0.345347,
        0.345196,
        0.345166,
        0.345225,
        0.34534,
        0.34548,
        0.345614,
        0.345707,
        0.34573,
        0.34565,
        0.345443,
        0.34512,
        0.344699,
        0.3442,
        0.343642,
        0.343042,
        0.34242,
        0.341795,
        0.341186,
        0.340611,
        0.340086,
        0.339606,
        0.339166,
        0.338757,
        0.338374,
        0.338008,
        0.337653,
        0.337301,
        0.336946,
        0.33658,
        0.336199,
        0.335803,
        0.335396,
        0.334982,
        0.334565,
        0.334147,
        0.333734,
        0.333327,
        0.332931,
        0.33255,
        0.332185,
        0.331837,
        0.331505,
        0.331188,
        0.330884,
        0.330592,
        0.330312,
        0.330041,
        0.32978,
        0.329526,
        0.328945,
        0.328646,
        0.328345,
        0.32804,
        0.327729,
        0.327408,
        0.327076,
        0.326729,
        0.326365,
        0.325981,
        0.325577,
        0.325155,
        0.324721,
        0.324279,
        0.323835,
        0.323393,
        0.322957,
        0.322534,
        0.322127,
        0.321743,
        0.321383,
        0.321044,
        0.320723,
        0.320414,
        0.320112,
        0.319813,
        0.319511,
        0.319202,
        0.318882,
        0.318544,
        0.318186,
        0.317809,
        0.317415,
        0.317006,
        0.316584,
        0.316153,
        0.315714,
        0.315268,
        0.31482,
        0.314371
      ],
      "range":1
    }
  }
]
