[
  {
    "model":"Star, type B6(iv)",
    "name":"Star, type B6(iv)",
    "type":"WB_REF",
    "dataQualityMarker":3,
    "dataSource":"https://www.eso.org/sci/facilities/paranal/decommissioned/isaac/tools/lib.html",
    "manufacturer":"A. Pickles (A.J. Pickles, PASP 110,863, 1998)",
    "version":1,
    "wavelength":{
      "value":[
        1150.0,
        1155.0,
        1160.0,
        1165.0,
        1170.0,
        1175.0,
        1180.0,
        1185.0,
        1190.0,
        1195.0,
        1200.0,
        1205.0,
        1210.0,
        1215.0,
        1220.0,
        1225.0,
        1230.0,
        1235.0,
        1240.0,
        1245.0,
        1250.0,
        1255.0,
        1260.0,
        1265.0,
        1270.0,
        1275.0,
        1280.0,
        1285.0,
        1290.0,
        1295.0,
        1300.0,
        1305.0,
        1310.0,
        1315.0,
        1320.0,
        1325.0,
        1330.0,
        1335.0,
        1340.0,
        1345.0,
        1350.0,
        1355.0,
        1360.0,
        1365.0,
        1370.0,
        1375.0,
        1380.0,
        1385.0,
        1390.0,
        1395.0,
        1400.0,
        1405.0,
        1410.0,
        1415.0,
        1420.0,
        1425.0,
        1430.0,
        1435.0,
        1440.0,
        1445.0,
        1450.0,
        1455.0,
        1460.0,
        1465.0,
        1470.0,
        1475.0,
        1480.0,
        1485.0,
        1490.0,
        1495.0,
        1500.0,
        1505.0,
        1510.0,
        1515.0,
        1520.0,
        1525.0,
        1530.0,
        1535.0,
        1540.0,
        1545.0,
        1550.0,
        1555.0,
        1560.0,
        1565.0,
        1570.0,
        1575.0,
        1580.0,
        1585.0,
        1590.0,
        1595.0,
        1600.0,
        1605.0,
        1610.0,
        1615.0,
        1620.0,
        1625.0,
        1630.0,
        1635.0,
        1640.0,
        1645.0,
        1650.0,
        1655.0,
        1660.0,
        1665.0,
        1670.0,
        1675.0,
        1680.0,
        1685.0,
        1690.0,
        1695.0,
        1700.0,
        1705.0,
        1710.0,
        1715.0,
        1720.0,
        1725.0,
        1730.0,
        1735.0,
        1740.0,
        1745.0,
        1750.0,
        1755.0,
        1760.0,
        1765.0,
        1770.0,
        1775.0,
        1780.0,
        1785.0,
        1790.0,
        1795.0,
        1800.0,
        1805.0,
        1810.0,
        1815.0,
        1820.0,
        1825.0,
        1830.0,
        1835.0,
        1840.0,
        1845.0,
        1850.0,
        1855.0,
        1860.0,
        1865.0,
        1870.0,
        1875.0,
        1880.0,
        1885.0,
        1890.0,
        1895.0,
        1900.0,
        1905.0,
        1910.0,
        1915.0,
        1920.0,
        1925.0,
        1930.0,
        1935.0,
        1940.0,
        1945.0,
        1950.0,
        1955.0,
        1960.0,
        1965.0,
        1970.0,
        1975.0,
        1980.0,
        1985.0,
        1990.0,
        1995.0,
        2000.0,
        2005.0,
        2010.0,
        2015.0,
        2020.0,
        2025.0,
        2030.0,
        2035.0,
        2040.0,
        2045.0,
        2050.0,
        2055.0,
        2060.0,
        2065.0,
        2070.0,
        2075.0,
        2080.0,
        2085.0,
        2090.0,
        2095.0,
        2100.0,
        2105.0,
        2110.0,
        2115.0,
        2120.0,
        2125.0,
        2130.0,
        2135.0,
        2140.0,
        2145.0,
        2150.0,
        2155.0,
        2160.0,
        2165.0,
        2170.0,
        2175.0,
        2180.0,
        2185.0,
        2190.0,
        2195.0,
        2200.0,
        2205.0,
        2210.0,
        2215.0,
        2220.0,
        2225.0,
        2230.0,
        2235.0,
        2240.0,
        2245.0,
        2250.0,
        2255.0,
        2260.0,
        2265.0,
        2270.0,
        2275.0,
        2280.0,
        2285.0,
        2290.0,
        2295.0,
        2300.0,
        2305.0,
        2310.0,
        2315.0,
        2320.0,
        2325.0,
        2330.0,
        2335.0,
        2340.0,
        2345.0,
        2350.0,
        2355.0,
        2360.0,
        2365.0,
        2370.0,
        2375.0,
        2380.0,
        2385.0,
        2390.0,
        2395.0,
        2400.0,
        2405.0,
        2410.0,
        2415.0,
        2420.0,
        2425.0,
        2430.0,
        2435.0,
        2440.0,
        2445.0,
        2450.0,
        2455.0,
        2460.0,
        2465.0,
        2470.0,
        2475.0,
        2480.0,
        2485.0,
        2490.0,
        2495.0,
        2500.0,
        2505.0,
        2510.0,
        2515.0,
        2520.0,
        2525.0,
        2530.0,
        2535.0,
        2540.0,
        2545.0,
        2550.0,
        2555.0,
        2560.0,
        2565.0,
        2570.0,
        2575.0,
        2580.0,
        2585.0,
        2590.0,
        2595.0,
        2600.0,
        2605.0,
        2610.0,
        2615.0,
        2620.0,
        2625.0,
        2630.0,
        2635.0,
        2640.0,
        2645.0,
        2650.0,
        2655.0,
        2660.0,
        2665.0,
        2670.0,
        2675.0,
        2680.0,
        2685.0,
        2690.0,
        2695.0,
        2700.0,
        2705.0,
        2710.0,
        2715.0,
        2720.0,
        2725.0,
        2730.0,
        2735.0,
        2740.0,
        2745.0,
        2750.0,
        2755.0,
        2760.0,
        2765.0,
        2770.0,
        2775.0,
        2780.0,
        2785.0,
        2790.0,
        2795.0,
        2800.0,
        2805.0,
        2810.0,
        2815.0,
        2820.0,
        2825.0,
        2830.0,
        2835.0,
        2840.0,
        2845.0,
        2850.0,
        2855.0,
        2860.0,
        2865.0,
        2870.0,
        2875.0,
        2880.0,
        2885.0,
        2890.0,
        2895.0,
        2900.0,
        2905.0,
        2910.0,
        2915.0,
        2920.0,
        2925.0,
        2930.0,
        2935.0,
        2940.0,
        2945.0,
        2950.0,
        2955.0,
        2960.0,
        2965.0,
        2970.0,
        2975.0,
        2980.0,
        2985.0,
        2990.0,
        2995.0,
        3000.0,
        3005.0,
        3010.0,
        3015.0,
        3020.0,
        3025.0,
        3030.0,
        3035.0,
        3040.0,
        3045.0,
        3050.0,
        3055.0,
        3060.0,
        3065.0,
        3070.0,
        3075.0,
        3080.0,
        3085.0,
        3090.0,
        3095.0,
        3100.0,
        3105.0,
        3110.0,
        3115.0,
        3120.0,
        3125.0,
        3130.0,
        3135.0,
        3140.0,
        3145.0,
        3150.0,
        3155.0,
        3160.0,
        3165.0,
        3170.0,
        3175.0,
        3180.0,
        3185.0,
        3190.0,
        3195.0,
        3200.0,
        3205.0,
        3210.0,
        3215.0,
        3220.0,
        3225.0,
        3230.0,
        3235.0,
        3240.0,
        3245.0,
        3250.0,
        3255.0,
        3260.0,
        3265.0,
        3270.0,
        3275.0,
        3280.0,
        3285.0,
        3290.0,
        3295.0,
        3300.0,
        3305.0,
        3310.0,
        3315.0,
        3320.0,
        3325.0,
        3330.0,
        3335.0,
        3340.0,
        3345.0,
        3350.0,
        3355.0,
        3360.0,
        3365.0,
        3370.0,
        3375.0,
        3380.0,
        3385.0,
        3390.0,
        3395.0,
        3400.0,
        3405.0,
        3410.0,
        3415.0,
        3420.0,
        3425.0,
        3430.0,
        3435.0,
        3440.0,
        3445.0,
        3450.0,
        3455.0,
        3460.0,
        3465.0,
        3470.0,
        3475.0,
        3480.0,
        3485.0,
        3490.0,
        3495.0,
        3500.0,
        3505.0,
        3510.0,
        3515.0,
        3520.0,
        3525.0,
        3530.0,
        3535.0,
        3540.0,
        3545.0,
        3550.0,
        3555.0,
        3560.0,
        3565.0,
        3570.0,
        3575.0,
        3580.0,
        3585.0,
        3590.0,
        3595.0,
        3600.0,
        3605.0,
        3610.0,
        3615.0,
        3620.0,
        3625.0,
        3630.0,
        3635.0,
        3640.0,
        3645.0,
        3650.0,
        3655.0,
        3660.0,
        3665.0,
        3670.0,
        3675.0,
        3680.0,
        3685.0,
        3690.0,
        3695.0,
        3700.0,
        3705.0,
        3710.0,
        3715.0,
        3720.0,
        3725.0,
        3730.0,
        3735.0,
        3740.0,
        3745.0,
        3750.0,
        3755.0,
        3760.0,
        3765.0,
        3770.0,
        3775.0,
        3780.0,
        3785.0,
        3790.0,
        3795.0,
        3800.0,
        3805.0,
        3810.0,
        3815.0,
        3820.0,
        3825.0,
        3830.0,
        3835.0,
        3840.0,
        3845.0,
        3850.0,
        3855.0,
        3860.0,
        3865.0,
        3870.0,
        3875.0,
        3880.0,
        3885.0,
        3890.0,
        3895.0,
        3900.0,
        3905.0,
        3910.0,
        3915.0,
        3920.0,
        3925.0,
        3930.0,
        3935.0,
        3940.0,
        3945.0,
        3950.0,
        3955.0,
        3960.0,
        3965.0,
        3970.0,
        3975.0,
        3980.0,
        3985.0,
        3990.0,
        3995.0,
        4000.0,
        4005.0,
        4010.0,
        4015.0,
        4020.0,
        4025.0,
        4030.0,
        4035.0,
        4040.0,
        4045.0,
        4050.0,
        4055.0,
        4060.0,
        4065.0,
        4070.0,
        4075.0,
        4080.0,
        4085.0,
        4090.0,
        4095.0,
        4100.0,
        4105.0,
        4110.0,
        4115.0,
        4120.0,
        4125.0,
        4130.0,
        4135.0,
        4140.0,
        4145.0,
        4150.0,
        4155.0,
        4160.0,
        4165.0,
        4170.0,
        4175.0,
        4180.0,
        4185.0,
        4190.0,
        4195.0,
        4200.0,
        4205.0,
        4210.0,
        4215.0,
        4220.0,
        4225.0,
        4230.0,
        4235.0,
        4240.0,
        4245.0,
        4250.0,
        4255.0,
        4260.0,
        4265.0,
        4270.0,
        4275.0,
        4280.0,
        4285.0,
        4290.0,
        4295.0,
        4300.0,
        4305.0,
        4310.0,
        4315.0,
        4320.0,
        4325.0,
        4330.0,
        4335.0,
        4340.0,
        4345.0,
        4350.0,
        4355.0,
        4360.0,
        4365.0,
        4370.0,
        4375.0,
        4380.0,
        4385.0,
        4390.0,
        4395.0,
        4400.0,
        4405.0,
        4410.0,
        4415.0,
        4420.0,
        4425.0,
        4430.0,
        4435.0,
        4440.0,
        4445.0,
        4450.0,
        4455.0,
        4460.0,
        4465.0,
        4470.0,
        4475.0,
        4480.0,
        4485.0,
        4490.0,
        4495.0,
        4500.0,
        4505.0,
        4510.0,
        4515.0,
        4520.0,
        4525.0,
        4530.0,
        4535.0,
        4540.0,
        4545.0,
        4550.0,
        4555.0,
        4560.0,
        4565.0,
        4570.0,
        4575.0,
        4580.0,
        4585.0,
        4590.0,
        4595.0,
        4600.0,
        4605.0,
        4610.0,
        4615.0,
        4620.0,
        4625.0,
        4630.0,
        4635.0,
        4640.0,
        4645.0,
        4650.0,
        4655.0,
        4660.0,
        4665.0,
        4670.0,
        4675.0,
        4680.0,
        4685.0,
        4690.0,
        4695.0,
        4700.0,
        4705.0,
        4710.0,
        4715.0,
        4720.0,
        4725.0,
        4730.0,
        4735.0,
        4740.0,
        4745.0,
        4750.0,
        4755.0,
        4760.0,
        4765.0,
        4770.0,
        4775.0,
        4780.0,
        4785.0,
        4790.0,
        4795.0,
        4800.0,
        4805.0,
        4810.0,
        4815.0,
        4820.0,
        4825.0,
        4830.0,
        4835.0,
        4840.0,
        4845.0,
        4850.0,
        4855.0,
        4860.0,
        4865.0,
        4870.0,
        4875.0,
        4880.0,
        4885.0,
        4890.0,
        4895.0,
        4900.0,
        4905.0,
        4910.0,
        4915.0,
        4920.0,
        4925.0,
        4930.0,
        4935.0,
        4940.0,
        4945.0,
        4950.0,
        4955.0,
        4960.0,
        4965.0,
        4970.0,
        4975.0,
        4980.0,
        4985.0,
        4990.0,
        4995.0,
        5000.0,
        5005.0,
        5010.0,
        5015.0,
        5020.0,
        5025.0,
        5030.0,
        5035.0,
        5040.0,
        5045.0,
        5050.0,
        5055.0,
        5060.0,
        5065.0,
        5070.0,
        5075.0,
        5080.0,
        5085.0,
        5090.0,
        5095.0,
        5100.0,
        5105.0,
        5110.0,
        5115.0,
        5120.0,
        5125.0,
        5130.0,
        5135.0,
        5140.0,
        5145.0,
        5150.0,
        5155.0,
        5160.0,
        5165.0,
        5170.0,
        5175.0,
        5180.0,
        5185.0,
        5190.0,
        5195.0,
        5200.0,
        5205.0,
        5210.0,
        5215.0,
        5220.0,
        5225.0,
        5230.0,
        5235.0,
        5240.0,
        5245.0,
        5250.0,
        5255.0,
        5260.0,
        5265.0,
        5270.0,
        5275.0,
        5280.0,
        5285.0,
        5290.0,
        5295.0,
        5300.0,
        5305.0,
        5310.0,
        5315.0,
        5320.0,
        5325.0,
        5330.0,
        5335.0,
        5340.0,
        5345.0,
        5350.0,
        5355.0,
        5360.0,
        5365.0,
        5370.0,
        5375.0,
        5380.0,
        5385.0,
        5390.0,
        5395.0,
        5400.0,
        5405.0,
        5410.0,
        5415.0,
        5420.0,
        5425.0,
        5430.0,
        5435.0,
        5440.0,
        5445.0,
        5450.0,
        5455.0,
        5460.0,
        5465.0,
        5470.0,
        5475.0,
        5480.0,
        5485.0,
        5490.0,
        5495.0,
        5500.0,
        5505.0,
        5510.0,
        5515.0,
        5520.0,
        5525.0,
        5530.0,
        5535.0,
        5540.0,
        5545.0,
        5550.0,
        5555.0,
        5560.0,
        5565.0,
        5570.0,
        5575.0,
        5580.0,
        5585.0,
        5590.0,
        5595.0,
        5600.0,
        5605.0,
        5610.0,
        5615.0,
        5620.0,
        5625.0,
        5630.0,
        5635.0,
        5640.0,
        5645.0,
        5650.0,
        5655.0,
        5660.0,
        5665.0,
        5670.0,
        5675.0,
        5680.0,
        5685.0,
        5690.0,
        5695.0,
        5700.0,
        5705.0,
        5710.0,
        5715.0,
        5720.0,
        5725.0,
        5730.0,
        5735.0,
        5740.0,
        5745.0,
        5750.0,
        5755.0,
        5760.0,
        5765.0,
        5770.0,
        5775.0,
        5780.0,
        5785.0,
        5790.0,
        5795.0,
        5800.0,
        5805.0,
        5810.0,
        5815.0,
        5820.0,
        5825.0,
        5830.0,
        5835.0,
        5840.0,
        5845.0,
        5850.0,
        5855.0,
        5860.0,
        5865.0,
        5870.0,
        5875.0,
        5880.0,
        5885.0,
        5890.0,
        5895.0,
        5900.0,
        5905.0,
        5910.0,
        5915.0,
        5920.0,
        5925.0,
        5930.0,
        5935.0,
        5940.0,
        5945.0,
        5950.0,
        5955.0,
        5960.0,
        5965.0,
        5970.0,
        5975.0,
        5980.0,
        5985.0,
        5990.0,
        5995.0,
        6000.0,
        6005.0,
        6010.0,
        6015.0,
        6020.0,
        6025.0,
        6030.0,
        6035.0,
        6040.0,
        6045.0,
        6050.0,
        6055.0,
        6060.0,
        6065.0,
        6070.0,
        6075.0,
        6080.0,
        6085.0,
        6090.0,
        6095.0,
        6100.0,
        6105.0,
        6110.0,
        6115.0,
        6120.0,
        6125.0,
        6130.0,
        6135.0,
        6140.0,
        6145.0,
        6150.0,
        6155.0,
        6160.0,
        6165.0,
        6170.0,
        6175.0,
        6180.0,
        6185.0,
        6190.0,
        6195.0,
        6200.0,
        6205.0,
        6210.0,
        6215.0,
        6220.0,
        6225.0,
        6230.0,
        6235.0,
        6240.0,
        6245.0,
        6250.0,
        6255.0,
        6260.0,
        6265.0,
        6270.0,
        6275.0,
        6280.0,
        6285.0,
        6290.0,
        6295.0,
        6300.0,
        6305.0,
        6310.0,
        6315.0,
        6320.0,
        6325.0,
        6330.0,
        6335.0,
        6340.0,
        6345.0,
        6350.0,
        6355.0,
        6360.0,
        6365.0,
        6370.0,
        6375.0,
        6380.0,
        6385.0,
        6390.0,
        6395.0,
        6400.0,
        6405.0,
        6410.0,
        6415.0,
        6420.0,
        6425.0,
        6430.0,
        6435.0,
        6440.0,
        6445.0,
        6450.0,
        6455.0,
        6460.0,
        6465.0,
        6470.0,
        6475.0,
        6480.0,
        6485.0,
        6490.0,
        6495.0,
        6500.0,
        6505.0,
        6510.0,
        6515.0,
        6520.0,
        6525.0,
        6530.0,
        6535.0,
        6540.0,
        6545.0,
        6550.0,
        6555.0,
        6560.0,
        6565.0,
        6570.0,
        6575.0,
        6580.0,
        6585.0,
        6590.0,
        6595.0,
        6600.0,
        6605.0,
        6610.0,
        6615.0,
        6620.0,
        6625.0,
        6630.0,
        6635.0,
        6640.0,
        6645.0,
        6650.0,
        6655.0,
        6660.0,
        6665.0,
        6670.0,
        6675.0,
        6680.0,
        6685.0,
        6690.0,
        6695.0,
        6700.0,
        6705.0,
        6710.0,
        6715.0,
        6720.0,
        6725.0,
        6730.0,
        6735.0,
        6740.0,
        6745.0,
        6750.0,
        6755.0,
        6760.0,
        6765.0,
        6770.0,
        6775.0,
        6780.0,
        6785.0,
        6790.0,
        6795.0,
        6800.0,
        6805.0,
        6810.0,
        6815.0,
        6820.0,
        6825.0,
        6830.0,
        6835.0,
        6840.0,
        6845.0,
        6850.0,
        6855.0,
        6860.0,
        6865.0,
        6870.0,
        6875.0,
        6880.0,
        6885.0,
        6890.0,
        6895.0,
        6900.0,
        6905.0,
        6910.0,
        6915.0,
        6920.0,
        6925.0,
        6930.0,
        6935.0,
        6940.0,
        6945.0,
        6950.0,
        6955.0,
        6960.0,
        6965.0,
        6970.0,
        6975.0,
        6980.0,
        6985.0,
        6990.0,
        6995.0,
        7000.0,
        7005.0,
        7010.0,
        7015.0,
        7020.0,
        7025.0,
        7030.0,
        7035.0,
        7040.0,
        7045.0,
        7050.0,
        7055.0,
        7060.0,
        7065.0,
        7070.0,
        7075.0,
        7080.0,
        7085.0,
        7090.0,
        7095.0,
        7100.0,
        7105.0,
        7110.0,
        7115.0,
        7120.0,
        7125.0,
        7130.0,
        7135.0,
        7140.0,
        7145.0,
        7150.0,
        7155.0,
        7160.0,
        7165.0,
        7170.0,
        7175.0,
        7180.0,
        7185.0,
        7190.0,
        7195.0,
        7200.0,
        7205.0,
        7210.0,
        7215.0,
        7220.0,
        7225.0,
        7230.0,
        7235.0,
        7240.0,
        7245.0,
        7250.0,
        7255.0,
        7260.0,
        7265.0,
        7270.0,
        7275.0,
        7280.0,
        7285.0,
        7290.0,
        7295.0,
        7300.0,
        7305.0,
        7310.0,
        7315.0,
        7320.0,
        7325.0,
        7330.0,
        7335.0,
        7340.0,
        7345.0,
        7350.0,
        7355.0,
        7360.0,
        7365.0,
        7370.0,
        7375.0,
        7380.0,
        7385.0,
        7390.0,
        7395.0,
        7400.0,
        7405.0,
        7410.0,
        7415.0,
        7420.0,
        7425.0,
        7430.0,
        7435.0,
        7440.0,
        7445.0,
        7450.0,
        7455.0,
        7460.0,
        7465.0,
        7470.0,
        7475.0,
        7480.0,
        7485.0,
        7490.0,
        7495.0,
        7500.0,
        7505.0,
        7510.0,
        7515.0,
        7520.0,
        7525.0,
        7530.0,
        7535.0,
        7540.0,
        7545.0,
        7550.0,
        7555.0,
        7560.0,
        7565.0,
        7570.0,
        7575.0,
        7580.0,
        7585.0,
        7590.0,
        7595.0,
        7600.0,
        7605.0,
        7610.0,
        7615.0,
        7620.0,
        7625.0,
        7630.0,
        7635.0,
        7640.0,
        7645.0,
        7650.0,
        7655.0,
        7660.0,
        7665.0,
        7670.0,
        7675.0,
        7680.0,
        7685.0,
        7690.0,
        7695.0,
        7700.0,
        7705.0,
        7710.0,
        7715.0,
        7720.0,
        7725.0,
        7730.0,
        7735.0,
        7740.0,
        7745.0,
        7750.0,
        7755.0,
        7760.0,
        7765.0,
        7770.0,
        7775.0,
        7780.0,
        7785.0,
        7790.0,
        7795.0,
        7800.0,
        7805.0,
        7810.0,
        7815.0,
        7820.0,
        7825.0,
        7830.0,
        7835.0,
        7840.0,
        7845.0,
        7850.0,
        7855.0,
        7860.0,
        7865.0,
        7870.0,
        7875.0,
        7880.0,
        7885.0,
        7890.0,
        7895.0,
        7900.0,
        7905.0,
        7910.0,
        7915.0,
        7920.0,
        7925.0,
        7930.0,
        7935.0,
        7940.0,
        7945.0,
        7950.0,
        7955.0,
        7960.0,
        7965.0,
        7970.0,
        7975.0,
        7980.0,
        7985.0,
        7990.0,
        7995.0,
        8000.0,
        8005.0,
        8010.0,
        8015.0,
        8020.0,
        8025.0,
        8030.0,
        8035.0,
        8040.0,
        8045.0,
        8050.0,
        8055.0,
        8060.0,
        8065.0,
        8070.0,
        8075.0,
        8080.0,
        8085.0,
        8090.0,
        8095.0,
        8100.0,
        8105.0,
        8110.0,
        8115.0,
        8120.0,
        8125.0,
        8130.0,
        8135.0,
        8140.0,
        8145.0,
        8150.0,
        8155.0,
        8160.0,
        8165.0,
        8170.0,
        8175.0,
        8180.0,
        8185.0,
        8190.0,
        8195.0,
        8200.0,
        8205.0,
        8210.0,
        8215.0,
        8220.0,
        8225.0,
        8230.0,
        8235.0,
        8240.0,
        8245.0,
        8250.0,
        8255.0,
        8260.0,
        8265.0,
        8270.0,
        8275.0,
        8280.0,
        8285.0,
        8290.0,
        8295.0,
        8300.0,
        8305.0,
        8310.0,
        8315.0,
        8320.0,
        8325.0,
        8330.0,
        8335.0,
        8340.0,
        8345.0,
        8350.0,
        8355.0,
        8360.0,
        8365.0,
        8370.0,
        8375.0,
        8380.0,
        8385.0,
        8390.0,
        8395.0,
        8400.0,
        8405.0,
        8410.0,
        8415.0,
        8420.0,
        8425.0,
        8430.0,
        8435.0,
        8440.0,
        8445.0,
        8450.0,
        8455.0,
        8460.0,
        8465.0,
        8470.0,
        8475.0,
        8480.0,
        8485.0,
        8490.0,
        8495.0,
        8500.0,
        8505.0,
        8510.0,
        8515.0,
        8520.0,
        8525.0,
        8530.0,
        8535.0,
        8540.0,
        8545.0,
        8550.0,
        8555.0,
        8560.0,
        8565.0,
        8570.0,
        8575.0,
        8580.0,
        8585.0,
        8590.0,
        8595.0,
        8600.0,
        8605.0,
        8610.0,
        8615.0,
        8620.0,
        8625.0,
        8630.0,
        8635.0,
        8640.0,
        8645.0,
        8650.0,
        8655.0,
        8660.0,
        8665.0,
        8670.0,
        8675.0,
        8680.0,
        8685.0,
        8690.0,
        8695.0,
        8700.0,
        8705.0,
        8710.0,
        8715.0,
        8720.0,
        8725.0,
        8730.0,
        8735.0,
        8740.0,
        8745.0,
        8750.0,
        8755.0,
        8760.0,
        8765.0,
        8770.0,
        8775.0,
        8780.0,
        8785.0,
        8790.0,
        8795.0,
        8800.0,
        8805.0,
        8810.0,
        8815.0,
        8820.0,
        8825.0,
        8830.0,
        8835.0,
        8840.0,
        8845.0,
        8850.0,
        8855.0,
        8860.0,
        8865.0,
        8870.0,
        8875.0,
        8880.0,
        8885.0,
        8890.0,
        8895.0,
        8900.0,
        8905.0,
        8910.0,
        8915.0,
        8920.0,
        8925.0,
        8930.0,
        8935.0,
        8940.0,
        8945.0,
        8950.0,
        8955.0,
        8960.0,
        8965.0,
        8970.0,
        8975.0,
        8980.0,
        8985.0,
        8990.0,
        8995.0,
        9000.0,
        9005.0,
        9010.0,
        9015.0,
        9020.0,
        9025.0,
        9030.0,
        9035.0,
        9040.0,
        9045.0,
        9050.0,
        9055.0,
        9060.0,
        9065.0,
        9070.0,
        9075.0,
        9080.0,
        9085.0,
        9090.0,
        9095.0,
        9100.0,
        9105.0,
        9110.0,
        9115.0,
        9120.0,
        9125.0,
        9130.0,
        9135.0,
        9140.0,
        9145.0,
        9150.0,
        9155.0,
        9160.0,
        9165.0,
        9170.0,
        9175.0,
        9180.0,
        9185.0,
        9190.0,
        9195.0,
        9200.0,
        9205.0,
        9210.0,
        9215.0,
        9220.0,
        9225.0,
        9230.0,
        9235.0,
        9240.0,
        9245.0,
        9250.0,
        9255.0,
        9260.0,
        9265.0,
        9270.0,
        9275.0,
        9280.0,
        9285.0,
        9290.0,
        9295.0,
        9300.0,
        9305.0,
        9310.0,
        9315.0,
        9320.0,
        9325.0,
        9330.0,
        9335.0,
        9340.0,
        9345.0,
        9350.0,
        9355.0,
        9360.0,
        9365.0,
        9370.0,
        9375.0,
        9380.0,
        9385.0,
        9390.0,
        9395.0,
        9400.0,
        9405.0,
        9410.0,
        9415.0,
        9420.0,
        9425.0,
        9430.0,
        9435.0,
        9440.0,
        9445.0,
        9450.0,
        9455.0,
        9460.0,
        9465.0,
        9470.0,
        9475.0,
        9480.0,
        9485.0,
        9490.0,
        9495.0,
        9500.0,
        9505.0,
        9510.0,
        9515.0,
        9520.0,
        9525.0,
        9530.0,
        9535.0,
        9540.0,
        9545.0,
        9550.0,
        9555.0,
        9560.0,
        9565.0,
        9570.0,
        9575.0,
        9580.0,
        9585.0,
        9590.0,
        9595.0,
        9600.0,
        9605.0,
        9610.0,
        9615.0,
        9620.0,
        9625.0,
        9630.0,
        9635.0,
        9640.0,
        9645.0,
        9650.0,
        9655.0,
        9660.0,
        9665.0,
        9670.0,
        9675.0,
        9680.0,
        9685.0,
        9690.0,
        9695.0,
        9700.0,
        9705.0,
        9710.0,
        9715.0,
        9720.0,
        9725.0,
        9730.0,
        9735.0,
        9740.0,
        9745.0,
        9750.0,
        9755.0,
        9760.0,
        9765.0,
        9770.0,
        9775.0,
        9780.0,
        9785.0,
        9790.0,
        9795.0,
        9800.0,
        9805.0,
        9810.0,
        9815.0,
        9820.0,
        9825.0,
        9830.0,
        9835.0,
        9840.0,
        9845.0,
        9850.0,
        9855.0,
        9860.0,
        9865.0,
        9870.0,
        9875.0,
        9880.0,
        9885.0,
        9890.0,
        9895.0,
        9900.0,
        9905.0,
        9910.0,
        9915.0,
        9920.0,
        9925.0,
        9930.0,
        9935.0,
        9940.0,
        9945.0,
        9950.0,
        9955.0,
        9960.0,
        9965.0,
        9970.0,
        9975.0,
        9980.0,
        9985.0,
        9990.0,
        9995.0,
        10000.0,
        10005.0,
        10010.0,
        10015.0,
        10020.0,
        10025.0,
        10030.0,
        10035.0,
        10040.0,
        10045.0,
        10050.0,
        10055.0,
        10060.0,
        10065.0,
        10070.0,
        10075.0,
        10080.0,
        10085.0,
        10090.0,
        10095.0,
        10100.0,
        10105.0,
        10110.0,
        10115.0,
        10120.0,
        10125.0,
        10130.0,
        10135.0,
        10140.0,
        10145.0,
        10150.0,
        10155.0,
        10160.0,
        10165.0,
        10170.0,
        10175.0,
        10180.0,
        10185.0,
        10190.0,
        10195.0,
        10200.0,
        10205.0,
        10210.0,
        10215.0,
        10220.0,
        10225.0,
        10230.0,
        10235.0,
        10240.0,
        10245.0,
        10250.0,
        10255.0,
        10260.0,
        10265.0,
        10270.0,
        10275.0,
        10280.0,
        10285.0,
        10290.0,
        10295.0,
        10300.0,
        10305.0,
        10310.0,
        10315.0,
        10320.0,
        10325.0,
        10330.0,
        10335.0,
        10340.0,
        10345.0,
        10350.0,
        10355.0,
        10360.0,
        10365.0,
        10370.0,
        10375.0,
        10380.0,
        10385.0,
        10390.0,
        10395.0,
        10400.0,
        10405.0,
        10410.0,
        10415.0,
        10420.0,
        10425.0,
        10430.0,
        10435.0,
        10440.0,
        10445.0,
        10450.0,
        10455.0,
        10460.0,
        10465.0,
        10470.0,
        10475.0,
        10480.0,
        10485.0,
        10490.0,
        10495.0,
        10500.0
      ],
      "units":"angstrom"
    },
    "values":{
      "value":[
        18.509659,
        12.548846,
        9.8574,
        10.857321,
        9.055951,
        7.657356,
        8.748858,
        7.730671,
        5.943404,
        4.988496,
        4.105004,
        2.045101,
        0.774134,
        1.017639,
        2.125201,
        3.74234,
        5.777863,
        7.543119,
        8.560764,
        8.76181,
        8.930081,
        8.456956,
        7.458289,
        8.021891,
        8.959655,
        8.995112,
        9.43601,
        9.376376,
        8.533734,
        7.28231,
        6.343729,
        6.117345,
        7.557652,
        9.432969,
        9.524662,
        8.603067,
        7.934414,
        7.610141,
        8.76181,
        9.199364,
        9.042075,
        8.916147,
        8.537318,
        8.084936,
        8.35303,
        8.361147,
        8.122998,
        8.010047,
        7.78207,
        7.762035,
        7.783846,
        7.627935,
        7.594646,
        7.714478,
        7.679324,
        7.794544,
        7.838313,
        7.72748,
        8.006009,
        8.247594,
        8.213481,
        8.273888,
        8.378939,
        8.060495,
        7.89561,
        7.873312,
        7.898009,
        7.981312,
        8.298858,
        7.950192,
        7.601722,
        7.370292,
        7.256972,
        7.238935,
        7.306488,
        6.996245,
        6.820767,
        6.970931,
        7.081628,
        7.06049,
        7.02224,
        7.064052,
        6.79704,
        6.807832,
        6.887621,
        6.636851,
        6.557715,
        6.928606,
        6.852242,
        6.678206,
        6.53942,
        6.364519,
        6.270168,
        6.320884,
        6.351457,
        6.364018,
        6.206809,
        6.138709,
        6.149868,
        6.072753,
        5.926076,
        5.716138,
        5.756933,
        5.987097,
        5.875975,
        5.889421,
        5.940453,
        5.90027,
        5.897727,
        5.975757,
        5.879805,
        5.638693,
        5.36185,
        5.357283,
        5.213732,
        5.233992,
        5.454011,
        5.515223,
        5.555739,
        5.540062,
        5.50432,
        5.637328,
        5.443652,
        5.430201,
        5.386956,
        5.308934,
        5.276059,
        4.761302,
        4.825357,
        5.338511,
        5.516786,
        5.457668,
        5.430882,
        5.430898,
        5.307406,
        5.230242,
        5.143746,
        5.069918,
        4.941768,
        4.811052,
        4.634512,
        4.479667,
        4.583064,
        4.713234,
        4.851003,
        4.968969,
        4.875566,
        4.637527,
        4.464973,
        4.393677,
        4.454948,
        4.551492,
        4.563527,
        4.420928,
        4.323461,
        4.217034,
        4.288687,
        4.380273,
        4.402369,
        4.411505,
        4.315741,
        4.106464,
        3.990463,
        4.170524,
        4.392726,
        4.390033,
        4.292762,
        4.052582,
        3.851161,
        3.775777,
        3.77614,
        3.813841,
        3.822905,
        3.911969,
        3.968067,
        3.944948,
        3.834737,
        3.867314,
        3.818155,
        3.819541,
        3.979099,
        3.943011,
        3.683839,
        3.650717,
        3.764014,
        3.705879,
        3.794678,
        3.822973,
        3.602658,
        3.444048,
        3.506267,
        3.585332,
        3.489845,
        3.560958,
        3.571565,
        3.440834,
        3.421585,
        3.336914,
        3.25255,
        3.428239,
        3.391374,
        3.319342,
        3.339772,
        3.242615,
        3.126371,
        3.179778,
        3.14786,
        3.142054,
        3.138308,
        3.138175,
        3.150204,
        3.036855,
        2.869474,
        2.870238,
        2.929992,
        2.854074,
        2.875191,
        2.831373,
        2.893796,
        2.939674,
        2.869252,
        2.827939,
        2.863563,
        2.950299,
        2.965385,
        2.916877,
        2.931146,
        2.946537,
        2.9743,
        3.021209,
        2.914103,
        2.781762,
        2.832473,
        2.845446,
        2.790742,
        2.799812,
        2.779406,
        2.795678,
        2.802375,
        2.724458,
        2.687243,
        2.739823,
        2.732254,
        2.759193,
        2.706527,
        2.65787,
        2.615404,
        2.597157,
        2.660095,
        2.599084,
        2.500561,
        2.517648,
        2.565784,
        2.653216,
        2.662897,
        2.623683,
        2.587489,
        2.667712,
        2.729287,
        2.774653,
        2.79892,
        2.804912,
        2.737549,
        2.66844,
        2.611563,
        2.551702,
        2.528644,
        2.544816,
        2.669276,
        2.680449,
        2.673188,
        2.662627,
        2.63038,
        2.572073,
        2.541747,
        2.544367,
        2.554581,
        2.613675,
        2.507937,
        2.476212,
        2.524439,
        2.554289,
        2.632551,
        2.699545,
        2.582784,
        2.592191,
        2.469597,
        2.467422,
        2.678456,
        2.704578,
        2.636487,
        2.588201,
        2.578968,
        2.575088,
        2.612516,
        2.668061,
        2.616983,
        2.605234,
        2.68767,
        2.691261,
        2.655394,
        2.623346,
        2.569907,
        2.525002,
        2.596678,
        2.585146,
        2.573571,
        2.561166,
        2.519426,
        2.550287,
        2.513392,
        2.454032,
        2.433172,
        2.410996,
        2.436155,
        2.428045,
        2.395638,
        2.379712,
        2.365586,
        2.340673,
        2.320383,
        2.30752,
        2.2935,
        2.395341,
        2.444533,
        2.381052,
        2.397182,
        2.346942,
        2.189023,
        2.220188,
        2.257556,
        2.28184,
        2.385988,
        2.39232,
        2.314741,
        2.283743,
        2.221944,
        2.200679,
        2.273818,
        2.308302,
        2.234145,
        2.263231,
        2.254438,
        2.284092,
        2.278631,
        2.248931,
        2.230942,
        2.25714,
        2.205633,
        2.216019,
        2.203234,
        2.229002,
        2.278099,
        2.256117,
        2.236223,
        2.223503,
        2.168239,
        2.245124,
        2.17467,
        2.158906,
        2.212875,
        2.162975,
        2.146367,
        2.172496,
        2.173223,
        2.123727,
        2.153585,
        2.10032,
        2.10305,
        2.127423,
        2.142803,
        2.104054,
        2.118853,
        2.082693,
        2.013759,
        1.983934,
        2.028,
        2.042347,
        2.056972,
        2.09092,
        2.025142,
        2.014729,
        1.991302,
        1.874625,
        1.937506,
        1.946871,
        1.948813,
        1.96046,
        1.933924,
        1.936102,
        1.944506,
        1.922682,
        1.854866,
        1.939441,
        2.010592,
        2.021611,
        1.972648,
        1.978033,
        2.10212,
        1.988973,
        1.821688,
        1.913736,
        2.002565,
        1.977644,
        1.921175,
        1.919004,
        1.903349,
        1.92921,
        1.838846,
        1.806749,
        1.946686,
        1.964702,
        1.979008,
        2.003677,
        2.005484,
        1.960516,
        1.9294,
        1.964334,
        1.999232,
        1.966502,
        1.910802,
        1.888539,
        1.890852,
        1.894651,
        1.885179,
        1.856058,
        1.826078,
        1.814405,
        1.816536,
        1.821659,
        1.817406,
        1.797109,
        1.778467,
        1.778402,
        1.786357,
        1.787925,
        1.78078,
        1.768543,
        1.766535,
        1.784386,
        1.797242,
        1.782107,
        1.757879,
        1.746699,
        1.74177,
        1.733321,
        1.728614,
        1.734624,
        1.740151,
        1.733455,
        1.718821,
        1.704665,
        1.699914,
        1.708131,
        1.71092,
        1.691982,
        1.665377,
        1.649294,
        1.648064,
        1.65983,
        1.671829,
        1.672625,
        1.666998,
        1.661569,
        1.654107,
        1.641912,
        1.629264,
        1.621373,
        1.620175,
        1.625044,
        1.628374,
        1.624258,
        1.620583,
        1.623881,
        1.621462,
        1.603958,
        1.594492,
        1.611971,
        1.625927,
        1.607396,
        1.582806,
        1.581512,
        1.589215,
        1.586288,
        1.575475,
        1.563645,
        1.551797,
        1.540473,
        1.534248,
        1.535528,
        1.534012,
        1.521446,
        1.510467,
        1.513368,
        1.520165,
        1.518749,
        1.510784,
        1.5009,
        1.491819,
        1.485469,
        1.482516,
        1.482596,
        1.482497,
        1.478391,
        1.466841,
        1.447703,
        1.433619,
        1.436078,
        1.44917,
        1.463775,
        1.475356,
        1.482888,
        1.494833,
        1.518532,
        1.547346,
        1.574156,
        1.603885,
        1.641734,
        1.681988,
        1.719723,
        1.764113,
        1.819189,
        1.854317,
        1.852838,
        1.888667,
        2.019352,
        2.146402,
        2.163529,
        2.089296,
        1.986959,
        1.973707,
        2.132653,
        2.356689,
        2.503744,
        2.482111,
        2.261844,
        2.009666,
        1.906776,
        1.995602,
        2.252954,
        2.531938,
        2.693289,
        2.751956,
        2.745587,
        2.648419,
        2.438786,
        2.174819,
        1.940125,
        1.84041,
        1.948054,
        2.180032,
        2.424241,
        2.607671,
        2.687423,
        2.701961,
        2.70131,
        2.700397,
        2.703278,
        2.705623,
        2.692177,
        2.612352,
        2.426289,
        2.172357,
        1.924401,
        1.819931,
        1.958815,
        2.226688,
        2.478003,
        2.656709,
        2.742507,
        2.768618,
        2.773183,
        2.760518,
        2.730962,
        2.702784,
        2.693676,
        2.701076,
        2.716186,
        2.725487,
        2.718508,
        2.701681,
        2.683062,
        2.660294,
        2.63,
        2.595126,
        2.551828,
        2.462765,
        2.296297,
        2.077082,
        1.856789,
        1.738852,
        1.803628,
        1.987402,
        2.197131,
        2.36652,
        2.453301,
        2.484567,
        2.498107,
        2.505161,
        2.509376,
        2.510607,
        2.507493,
        2.497621,
        2.481528,
        2.472598,
        2.480824,
        2.48977,
        2.483341,
        2.473225,
        2.47219,
        2.469556,
        2.454422,
        2.438461,
        2.433148,
        2.426601,
        2.407316,
        2.388649,
        2.384303,
        2.384511,
        2.377485,
        2.366836,
        2.358223,
        2.350097,
        2.340111,
        2.329919,
        2.321759,
        2.316207,
        2.311524,
        2.298371,
        2.269765,
        2.235758,
        2.205786,
        2.169787,
        2.11182,
        2.01194,
        1.859593,
        1.685801,
        1.538813,
        1.49422,
        1.602075,
        1.782938,
        1.942997,
        2.060429,
        2.131191,
        2.150345,
        2.122454,
        2.09098,
        2.094037,
        2.109457,
        2.108817,
        2.098967,
        2.092545,
        2.090087,
        2.088883,
        2.085347,
        2.076825,
        2.065281,
        2.053859,
        2.045826,
        2.042347,
        2.036064,
        2.019072,
        1.9898,
        1.950979,
        1.916205,
        1.89879,
        1.900021,
        1.916122,
        1.935095,
        1.945563,
        1.946862,
        1.940895,
        1.929106,
        1.914073,
        1.903354,
        1.901917,
        1.899374,
        1.885931,
        1.869516,
        1.85979,
        1.855617,
        1.853599,
        1.852099,
        1.849926,
        1.845931,
        1.839659,
        1.833397,
        1.829257,
        1.825904,
        1.821597,
        1.816405,
        1.811482,
        1.810511,
        1.815077,
        1.815857,
        1.805256,
        1.793511,
        1.790851,
        1.789632,
        1.781525,
        1.773334,
        1.771885,
        1.768969,
        1.756869,
        1.744889,
        1.742948,
        1.746398,
        1.747041,
        1.73703,
        1.714091,
        1.697861,
        1.704603,
        1.715145,
        1.709193,
        1.697379,
        1.693779,
        1.695334,
        1.695625,
        1.691961,
        1.683584,
        1.673744,
        1.665653,
        1.658361,
        1.65095,
        1.646793,
        1.647971,
        1.647117,
        1.637561,
        1.624884,
        1.615657,
        1.608165,
        1.599898,
        1.593452,
        1.59047,
        1.583669,
        1.566157,
        1.541539,
        1.510804,
        1.453987,
        1.354403,
        1.229448,
        1.110961,
        1.054478,
        1.101087,
        1.21039,
        1.326965,
        1.416794,
        1.460681,
        1.477315,
        1.489063,
        1.495123,
        1.490809,
        1.479078,
        1.465161,
        1.455737,
        1.456136,
        1.46483,
        1.477206,
        1.483165,
        1.475459,
        1.46373,
        1.45828,
        1.455167,
        1.449348,
        1.445614,
        1.448275,
        1.449878,
        1.443195,
        1.433679,
        1.427577,
        1.421651,
        1.412342,
        1.404305,
        1.402097,
        1.40169,
        1.398303,
        1.392738,
        1.386849,
        1.381111,
        1.375413,
        1.368675,
        1.360569,
        1.354746,
        1.353911,
        1.353012,
        1.346875,
        1.337611,
        1.328504,
        1.320269,
        1.313127,
        1.307908,
        1.305215,
        1.304125,
        1.303516,
        1.302986,
        1.302578,
        1.303404,
        1.305841,
        1.306265,
        1.301204,
        1.291787,
        1.280607,
        1.271526,
        1.26721,
        1.264302,
        1.258937,
        1.251271,
        1.242845,
        1.236735,
        1.235023,
        1.23429,
        1.230727,
        1.224483,
        1.216816,
        1.209482,
        1.203792,
        1.198804,
        1.19341,
        1.18811,
        1.183842,
        1.181702,
        1.182004,
        1.181785,
        1.178377,
        1.173566,
        1.169588,
        1.166031,
        1.16255,
        1.161712,
        1.164674,
        1.164037,
        1.153818,
        1.142268,
        1.137854,
        1.135664,
        1.129936,
        1.124889,
        1.124862,
        1.1247,
        1.11942,
        1.114227,
        1.114021,
        1.112289,
        1.103031,
        1.093706,
        1.091979,
        1.092877,
        1.090087,
        1.084571,
        1.079029,
        1.075833,
        1.076154,
        1.076686,
        1.074124,
        1.069659,
        1.065394,
        1.062587,
        1.061491,
        1.059185,
        1.053356,
        1.047292,
        1.044385,
        1.042856,
        1.04028,
        1.036817,
        1.033394,
        1.03141,
        1.031703,
        1.032382,
        1.031215,
        1.027329,
        1.020874,
        1.01472,
        1.011535,
        1.010438,
        1.010058,
        1.010596,
        1.01213,
        1.012672,
        1.010485,
        1.006894,
        1.003534,
        1.000209,
        0.996636,
        0.994003,
        0.993247,
        0.992801,
        0.990675,
        0.985695,
        0.977975,
        0.971971,
        0.971183,
        0.970952,
        0.966099,
        0.957536,
        0.948068,
        0.941988,
        0.941896,
        0.942134,
        0.937387,
        0.931971,
        0.930735,
        0.931021,
        0.929273,
        0.925843,
        0.922284,
        0.921055,
        0.923322,
        0.924204,
        0.91948,
        0.913637,
        0.911482,
        0.910411,
        0.907479,
        0.905786,
        0.908069,
        0.909564,
        0.905398,
        0.897765,
        0.890057,
        0.883392,
        0.878319,
        0.875388,
        0.874871,
        0.875926,
        0.877435,
        0.878279,
        0.877617,
        0.875719,
        0.873135,
        0.870413,
        0.868004,
        0.865964,
        0.864255,
        0.862835,
        0.86159,
        0.860105,
        0.85789,
        0.854457,
        0.849546,
        0.843818,
        0.838164,
        0.833474,
        0.830385,
        0.828508,
        0.827198,
        0.825813,
        0.823891,
        0.821701,
        0.819694,
        0.818321,
        0.817866,
        0.817935,
        0.817967,
        0.817401,
        0.815834,
        0.8135,
        0.81079,
        0.808097,
        0.805738,
        0.803736,
        0.802036,
        0.800587,
        0.799316,
        0.798074,
        0.796696,
        0.795012,
        0.792917,
        0.790547,
        0.788098,
        0.785768,
        0.783702,
        0.781851,
        0.780114,
        0.778391,
        0.776572,
        0.774503,
        0.772023,
        0.768969,
        0.765309,
        0.761533,
        0.758262,
        0.756115,
        0.755506,
        0.756021,
        0.757041,
        0.757947,
        0.758222,
        0.757771,
        0.7566,
        0.754719,
        0.752158,
        0.74905,
        0.74555,
        0.741812,
        0.738005,
        0.734334,
        0.73102,
        0.728281,
        0.726243,
        0.724662,
        0.723201,
        0.721523,
        0.719387,
        0.716926,
        0.714372,
        0.711952,
        0.70985,
        0.708056,
        0.706513,
        0.705164,
        0.703954,
        0.702836,
        0.701762,
        0.700686,
        0.699532,
        0.698099,
        0.696156,
        0.693472,
        0.689939,
        0.685933,
        0.681957,
        0.678509,
        0.675991,
        0.674403,
        0.673646,
        0.673619,
        0.674149,
        0.674761,
        0.674904,
        0.674028,
        0.671788,
        0.668654,
        0.665302,
        0.662407,
        0.660454,
        0.659164,
        0.658065,
        0.656689,
        0.654702,
        0.652317,
        0.649886,
        0.64776,
        0.646197,
        0.645079,
        0.644197,
        0.643338,
        0.642337,
        0.641208,
        0.640009,
        0.638797,
        0.637616,
        0.636446,
        0.635253,
        0.634004,
        0.632666,
        0.631209,
        0.629606,
        0.627829,
        0.625864,
        0.623753,
        0.621556,
        0.619328,
        0.617167,
        0.615324,
        0.61409,
        0.613756,
        0.614464,
        0.615757,
        0.617031,
        0.617682,
        0.617088,
        0.614561,
        0.609399,
        0.600898,
        0.588767,
        0.574367,
        0.559472,
        0.545855,
        0.535077,
        0.527844,
        0.524649,
        0.525984,
        0.53201,
        0.541562,
        0.553145,
        0.565261,
        0.576563,
        0.586293,
        0.593841,
        0.598599,
        0.600256,
        0.599696,
        0.598102,
        0.596659,
        0.596206,
        0.596218,
        0.595825,
        0.594158,
        0.590681,
        0.586183,
        0.581785,
        0.57861,
        0.577433,
        0.577648,
        0.578305,
        0.578452,
        0.577385,
        0.575392,
        0.573006,
        0.570763,
        0.569072,
        0.567842,
        0.566856,
        0.565898,
        0.56479,
        0.563516,
        0.5621,
        0.560563,
        0.558901,
        0.556993,
        0.554691,
        0.551847,
        0.548438,
        0.544943,
        0.541969,
        0.540121,
        0.539768,
        0.540334,
        0.541007,
        0.540972,
        0.539707,
        0.537853,
        0.53634,
        0.536099,
        0.537651,
        0.539881,
        0.541265,
        0.540279,
        0.53591,
        0.529204,
        0.521715,
        0.515002,
        0.510295,
        0.507526,
        0.506303,
        0.506232,
        0.506947,
        0.508201,
        0.50977,
        0.511434,
        0.512954,
        0.51402,
        0.514306,
        0.513483,
        0.511393,
        0.508544,
        0.505612,
        0.503273,
        0.501999,
        0.501451,
        0.501083,
        0.500351,
        0.498848,
        0.496712,
        0.494216,
        0.491634,
        0.489214,
        0.487091,
        0.485375,
        0.484173,
        0.483515,
        0.483108,
        0.482578,
        0.481552,
        0.479785,
        0.477538,
        0.475202,
        0.473164,
        0.471737,
        0.470916,
        0.470621,
        0.470772,
        0.471253,
        0.471823,
        0.472208,
        0.472132,
        0.47139,
        0.470051,
        0.468256,
        0.466144,
        0.463843,
        0.461445,
        0.459029,
        0.456678,
        0.454473,
        0.452506,
        0.450873,
        0.449669,
        0.448946,
        0.44859,
        0.448445,
        0.448356,
        0.448181,
        0.447838,
        0.447256,
        0.446366,
        0.445145,
        0.443752,
        0.442388,
        0.441259,
        0.440474,
        0.439767,
        0.43878,
        0.437153,
        0.43468,
        0.431758,
        0.428938,
        0.426769,
        0.42565,
        0.425371,
        0.425571,
        0.42589,
        0.426044,
        0.426069,
        0.426077,
        0.426181,
        0.426462,
        0.426859,
        0.427281,
        0.427635,
        0.42781,
        0.42762,
        0.426862,
        0.425331,
        0.422961,
        0.42023,
        0.417754,
        0.416148,
        0.415813,
        0.416277,
        0.416856,
        0.416863,
        0.415828,
        0.414144,
        0.412422,
        0.411269,
        0.411091,
        0.411475,
        0.411806,
        0.411467,
        0.410034,
        0.407856,
        0.405475,
        0.403433,
        0.402131,
        0.401413,
        0.400984,
        0.400546,
        0.399846,
        0.3988,
        0.397366,
        0.395501,
        0.39321,
        0.39069,
        0.388183,
        0.385932,
        0.384157,
        0.382986,
        0.382522,
        0.382868,
        0.384044,
        0.385724,
        0.387499,
        0.388957,
        0.389803,
        0.390205,
        0.390443,
        0.3908,
        0.391372,
        0.391513,
        0.390391,
        0.387175,
        0.381183,
        0.372329,
        0.360678,
        0.346295,
        0.329917,
        0.314981,
        0.305596,
        0.305872,
        0.318213,
        0.33819,
        0.35967,
        0.376518,
        0.384169,
        0.384334,
        0.380291,
        0.375319,
        0.371912,
        0.369424,
        0.366424,
        0.361479,
        0.353765,
        0.344876,
        0.337012,
        0.332373,
        0.332464,
        0.336012,
        0.34105,
        0.345611,
        0.348164,
        0.348918,
        0.348518,
        0.347611,
        0.346734,
        0.345985,
        0.345358,
        0.344844,
        0.344401,
        0.343864,
        0.343033,
        0.341708,
        0.3398,
        0.337659,
        0.335742,
        0.334509,
        0.334266,
        0.334707,
        0.335376,
        0.335816,
        0.335648,
        0.334819,
        0.33335,
        0.331267,
        0.328655,
        0.325851,
        0.32325,
        0.321249,
        0.320114,
        0.31958,
        0.31925,
        0.318725,
        0.317722,
        0.316398,
        0.315022,
        0.313865,
        0.313141,
        0.312842,
        0.312903,
        0.313262,
        0.313827,
        0.314403,
        0.314768,
        0.314698,
        0.314068,
        0.313132,
        0.31224,
        0.311742,
        0.311859,
        0.31229,
        0.312601,
        0.312363,
        0.311297,
        0.309746,
        0.308203,
        0.307165,
        0.306971,
        0.307335,
        0.307815,
        0.307967,
        0.307473,
        0.306498,
        0.305334,
        0.304268,
        0.303532,
        0.303123,
        0.302981,
        0.303043,
        0.303246,
        0.303513,
        0.303763,
        0.303916,
        0.303869,
        0.30342,
        0.302347,
        0.300423,
        0.297591,
        0.294446,
        0.29175,
        0.290263,
        0.290502,
        0.292002,
        0.294053,
        0.295944,
        0.297074,
        0.297266,
        0.296451,
        0.29456,
        0.291647,
        0.288261,
        0.285072,
        0.282752,
        0.281801,
        0.282029,
        0.283075,
        0.284577,
        0.28617,
        0.287472,
        0.288096,
        0.287654,
        0.285982,
        0.283795,
        0.282032,
        0.28163,
        0.283156,
        0.285693,
        0.287955,
        0.288657,
        0.286914,
        0.283453,
        0.279404,
        0.275898,
        0.273803,
        0.272942,
        0.272874,
        0.273162,
        0.273479,
        0.27395,
        0.274813,
        0.276307,
        0.278512,
        0.280882,
        0.282711,
        0.283296,
        0.282173,
        0.279847,
        0.277061,
        0.274562,
        0.272923,
        0.27204,
        0.271639,
        0.271443,
        0.271256,
        0.271194,
        0.271451,
        0.272221,
        0.273562,
        0.27499,
        0.275885,
        0.275628,
        0.273829,
        0.27102,
        0.267962,
        0.265418,
        0.263973,
        0.263514,
        0.263751,
        0.264396,
        0.265166,
        0.26581,
        0.266083,
        0.265739,
        0.264666,
        0.26327,
        0.262091,
        0.261667,
        0.262337,
        0.263649,
        0.264949,
        0.265586,
        0.265098,
        0.263794,
        0.262175,
        0.26074,
        0.259868,
        0.259451,
        0.259258,
        0.259059,
        0.258643,
        0.257874,
        0.256636,
        0.254813,
        0.252401,
        0.249849,
        0.247721,
        0.246579,
        0.246852,
        0.248439,
        0.251105,
        0.254617,
        0.258654,
        0.26256,
        0.265595,
        0.267017,
        0.266306,
        0.263825,
        0.260155,
        0.255878,
        0.251627,
        0.248229,
        0.246562,
        0.247501,
        0.251516,
        0.257436,
        0.263686,
        0.268686,
        0.27122,
        0.271522,
        0.270184,
        0.267802,
        0.264874,
        0.261515,
        0.257748,
        0.253593,
        0.249181,
        0.245091,
        0.24201,
        0.240627,
        0.241402,
        0.243889,
        0.247413,
        0.2513,
        0.254974,
        0.258251,
        0.261044,
        0.263269,
        0.264896,
        0.266122,
        0.267199,
        0.26838,
        0.269722,
        0.270496,
        0.269776,
        0.266637,
        0.260529,
        0.252411,
        0.24362,
        0.23549,
        0.229142,
        0.224834,
        0.222611,
        0.222517,
        0.224481,
        0.227981,
        0.232383,
        0.23705,
        0.241411,
        0.24514,
        0.247977,
        0.24966,
        0.250068,
        0.249629,
        0.248912,
        0.248485,
        0.248733,
        0.2493,
        0.249646,
        0.249232,
        0.247671,
        0.245185,
        0.242151,
        0.238944,
        0.235799,
        0.232388,
        0.22824,
        0.222885,
        0.216174,
        0.209241,
        0.203543,
        0.200537,
        0.201282,
        0.205255,
        0.211539,
        0.219214,
        0.227329,
        0.234801,
        0.240512,
        0.243347,
        0.24264,
        0.239536,
        0.235633,
        0.232527,
        0.231428,
        0.231996,
        0.233504,
        0.235223,
        0.236589,
        0.237681,
        0.238742,
        0.240012,
        0.241583,
        0.242938,
        0.243412,
        0.242335,
        0.239309,
        0.234998,
        0.230332,
        0.226244,
        0.223501,
        0.22222,
        0.222357,
        0.223865,
        0.226493,
        0.22916,
        0.230578,
        0.229459,
        0.224986,
        0.21822,
        0.210693,
        0.203934,
        0.199167,
        0.19637,
        0.195216,
        0.195373,
        0.196505,
        0.198245,
        0.200216,
        0.202042,
        0.203505,
        0.205013,
        0.207127,
        0.210414,
        0.215137,
        0.220375,
        0.224905,
        0.227507,
        0.227314,
        0.224878,
        0.221104,
        0.216899,
        0.213103,
        0.210296,
        0.20899,
        0.209698,
        0.21262,
        0.216698,
        0.220559,
        0.22283,
        0.222531,
        0.220245,
        0.216946,
        0.213606,
        0.211103,
        0.209922,
        0.21045,
        0.213073,
        0.217805,
        0.223155,
        0.227256,
        0.228244,
        0.224853,
        0.218226,
        0.210107,
        0.20224,
        0.196093,
        0.192032,
        0.19015,
        0.190538,
        0.19311,
        0.197064,
        0.201421,
        0.205202,
        0.207591,
        0.208436,
        0.20775,
        0.205545,
        0.201929,
        0.197387,
        0.1925,
        0.18785,
        0.183892,
        0.180586,
        0.177768,
        0.175272,
        0.173022,
        0.171299,
        0.17047,
        0.170906,
        0.172845,
        0.176003,
        0.179964,
        0.184316,
        0.188655,
        0.192623,
        0.195873,
        0.198058,
        0.198941,
        0.198721,
        0.197708,
        0.196212,
        0.194529,
        0.192905,
        0.191574,
        0.190769,
        0.190635,
        0.190958,
        0.19144,
        0.191778,
        0.191766,
        0.191573,
        0.191465,
        0.191705,
        0.192434,
        0.193292,
        0.193796,
        0.193463,
        0.192013,
        0.189985,
        0.18812,
        0.187159,
        0.187602,
        0.188971,
        0.190548,
        0.191613,
        0.191654,
        0.190991,
        0.190151,
        0.189663,
        0.189894,
        0.19057,
        0.191257,
        0.191524,
        0.191056,
        0.190023,
        0.188714,
        0.18742,
        0.186361,
        0.185486,
        0.184674,
        0.183805,
        0.182811,
        0.181838,
        0.181086,
        0.180754,
        0.180953,
        0.181445,
        0.181905,
        0.182004,
        0.181517,
        0.180613,
        0.17956,
        0.178626,
        0.178021,
        0.177716,
        0.177626,
        0.177665,
        0.177761,
        0.177902,
        0.178093,
        0.178337,
        0.178633,
        0.178951,
        0.179259,
        0.179522,
        0.179686,
        0.17963,
        0.17921,
        0.178286,
        0.176818,
        0.175183,
        0.173859,
        0.173324,
        0.173866,
        0.175,
        0.176049,
        0.176337,
        0.175348,
        0.173214,
        0.170231,
        0.166692,
        0.162865,
        0.158918,
        0.154993,
        0.151233,
        0.147811,
        0.145028,
        0.143215,
        0.142704,
        0.143701,
        0.145909,
        0.148902,
        0.152258,
        0.155565,
        0.158464,
        0.16061,
        0.161657,
        0.161431,
        0.160435,
        0.159347,
        0.158842,
        0.159405,
        0.160755,
        0.16242,
        0.163928,
        0.164915,
        0.165439,
        0.165666,
        0.165763,
        0.165841,
        0.165795,
        0.165468,
        0.164699,
        0.163433,
        0.162024,
        0.160928,
        0.160601,
        0.161326,
        0.162682,
        0.164073,
        0.164905,
        0.164736,
        0.163735,
        0.162224,
        0.160527,
        0.158945,
        0.157709,
        0.157028,
        0.157112,
        0.158057,
        0.159505,
        0.160983,
        0.16202,
        0.162268,
        0.161873,
        0.161108,
        0.160243,
        0.159489,
        0.158817,
        0.158134,
        0.157351,
        0.154856,
        0.154273,
        0.153734,
        0.153308,
        0.153038,
        0.152856,
        0.152666,
        0.152373,
        0.15192,
        0.151401,
        0.150947,
        0.15069,
        0.150719,
        0.150946,
        0.151241,
        0.151472,
        0.151535,
        0.151429,
        0.151181,
        0.150816,
        0.150352,
        0.149771,
        0.149046,
        0.14815,
        0.147095,
        0.146044,
        0.145199,
        0.144762,
        0.144875,
        0.145444,
        0.146313,
        0.147327,
        0.148328,
        0.149131,
        0.149552,
        0.149402,
        0.14857,
        0.147249,
        0.145706,
        0.144209
      ],
      "range":1
    }
  }
]
