[
  {
    "model":"Star, type B12(iii)",
    "name":"Star, type B12(iii)",
    "type":"WB_REF",
    "dataQualityMarker":3,
    "dataSource":"https://www.eso.org/sci/facilities/paranal/decommissioned/isaac/tools/lib.html",
    "manufacturer":"A. Pickles (A.J. Pickles, PASP 110,863, 1998)",
    "version":1,
    "wavelength":{
      "value":[
        1150.0,
        1155.0,
        1160.0,
        1165.0,
        1170.0,
        1175.0,
        1180.0,
        1185.0,
        1190.0,
        1195.0,
        1200.0,
        1205.0,
        1210.0,
        1215.0,
        1220.0,
        1225.0,
        1230.0,
        1235.0,
        1240.0,
        1245.0,
        1250.0,
        1255.0,
        1260.0,
        1265.0,
        1270.0,
        1275.0,
        1280.0,
        1285.0,
        1290.0,
        1295.0,
        1300.0,
        1305.0,
        1310.0,
        1315.0,
        1320.0,
        1325.0,
        1330.0,
        1335.0,
        1340.0,
        1345.0,
        1350.0,
        1355.0,
        1360.0,
        1365.0,
        1370.0,
        1375.0,
        1380.0,
        1385.0,
        1390.0,
        1395.0,
        1400.0,
        1405.0,
        1410.0,
        1415.0,
        1420.0,
        1425.0,
        1430.0,
        1435.0,
        1440.0,
        1445.0,
        1450.0,
        1455.0,
        1460.0,
        1465.0,
        1470.0,
        1475.0,
        1480.0,
        1485.0,
        1490.0,
        1495.0,
        1500.0,
        1505.0,
        1510.0,
        1515.0,
        1520.0,
        1525.0,
        1530.0,
        1535.0,
        1540.0,
        1545.0,
        1550.0,
        1555.0,
        1560.0,
        1565.0,
        1570.0,
        1575.0,
        1580.0,
        1585.0,
        1590.0,
        1595.0,
        1600.0,
        1605.0,
        1610.0,
        1615.0,
        1620.0,
        1625.0,
        1630.0,
        1635.0,
        1640.0,
        1645.0,
        1650.0,
        1655.0,
        1660.0,
        1665.0,
        1670.0,
        1675.0,
        1680.0,
        1685.0,
        1690.0,
        1695.0,
        1700.0,
        1705.0,
        1710.0,
        1715.0,
        1720.0,
        1725.0,
        1730.0,
        1735.0,
        1740.0,
        1745.0,
        1750.0,
        1755.0,
        1760.0,
        1765.0,
        1770.0,
        1775.0,
        1780.0,
        1785.0,
        1790.0,
        1795.0,
        1800.0,
        1805.0,
        1810.0,
        1815.0,
        1820.0,
        1825.0,
        1830.0,
        1835.0,
        1840.0,
        1845.0,
        1850.0,
        1855.0,
        1860.0,
        1865.0,
        1870.0,
        1875.0,
        1880.0,
        1885.0,
        1890.0,
        1895.0,
        1900.0,
        1905.0,
        1910.0,
        1915.0,
        1920.0,
        1925.0,
        1930.0,
        1935.0,
        1940.0,
        1945.0,
        1950.0,
        1955.0,
        1960.0,
        1965.0,
        1970.0,
        1975.0,
        1980.0,
        1985.0,
        1990.0,
        1995.0,
        2000.0,
        2005.0,
        2010.0,
        2015.0,
        2020.0,
        2025.0,
        2030.0,
        2035.0,
        2040.0,
        2045.0,
        2050.0,
        2055.0,
        2060.0,
        2065.0,
        2070.0,
        2075.0,
        2080.0,
        2085.0,
        2090.0,
        2095.0,
        2100.0,
        2105.0,
        2110.0,
        2115.0,
        2120.0,
        2125.0,
        2130.0,
        2135.0,
        2140.0,
        2145.0,
        2150.0,
        2155.0,
        2160.0,
        2165.0,
        2170.0,
        2175.0,
        2180.0,
        2185.0,
        2190.0,
        2195.0,
        2200.0,
        2205.0,
        2210.0,
        2215.0,
        2220.0,
        2225.0,
        2230.0,
        2235.0,
        2240.0,
        2245.0,
        2250.0,
        2255.0,
        2260.0,
        2265.0,
        2270.0,
        2275.0,
        2280.0,
        2285.0,
        2290.0,
        2295.0,
        2300.0,
        2305.0,
        2310.0,
        2315.0,
        2320.0,
        2325.0,
        2330.0,
        2335.0,
        2340.0,
        2345.0,
        2350.0,
        2355.0,
        2360.0,
        2365.0,
        2370.0,
        2375.0,
        2380.0,
        2385.0,
        2390.0,
        2395.0,
        2400.0,
        2405.0,
        2410.0,
        2415.0,
        2420.0,
        2425.0,
        2430.0,
        2435.0,
        2440.0,
        2445.0,
        2450.0,
        2455.0,
        2460.0,
        2465.0,
        2470.0,
        2475.0,
        2480.0,
        2485.0,
        2490.0,
        2495.0,
        2500.0,
        2505.0,
        2510.0,
        2515.0,
        2520.0,
        2525.0,
        2530.0,
        2535.0,
        2540.0,
        2545.0,
        2550.0,
        2555.0,
        2560.0,
        2565.0,
        2570.0,
        2575.0,
        2580.0,
        2585.0,
        2590.0,
        2595.0,
        2600.0,
        2605.0,
        2610.0,
        2615.0,
        2620.0,
        2625.0,
        2630.0,
        2635.0,
        2640.0,
        2645.0,
        2650.0,
        2655.0,
        2660.0,
        2665.0,
        2670.0,
        2675.0,
        2680.0,
        2685.0,
        2690.0,
        2695.0,
        2700.0,
        2705.0,
        2710.0,
        2715.0,
        2720.0,
        2725.0,
        2730.0,
        2735.0,
        2740.0,
        2745.0,
        2750.0,
        2755.0,
        2760.0,
        2765.0,
        2770.0,
        2775.0,
        2780.0,
        2785.0,
        2790.0,
        2795.0,
        2800.0,
        2805.0,
        2810.0,
        2815.0,
        2820.0,
        2825.0,
        2830.0,
        2835.0,
        2840.0,
        2845.0,
        2850.0,
        2855.0,
        2860.0,
        2865.0,
        2870.0,
        2875.0,
        2880.0,
        2885.0,
        2890.0,
        2895.0,
        2900.0,
        2905.0,
        2910.0,
        2915.0,
        2920.0,
        2925.0,
        2930.0,
        2935.0,
        2940.0,
        2945.0,
        2950.0,
        2955.0,
        2960.0,
        2965.0,
        2970.0,
        2975.0,
        2980.0,
        2985.0,
        2990.0,
        2995.0,
        3000.0,
        3005.0,
        3010.0,
        3015.0,
        3020.0,
        3025.0,
        3030.0,
        3035.0,
        3040.0,
        3045.0,
        3050.0,
        3055.0,
        3060.0,
        3065.0,
        3070.0,
        3075.0,
        3080.0,
        3085.0,
        3090.0,
        3095.0,
        3100.0,
        3105.0,
        3110.0,
        3115.0,
        3120.0,
        3125.0,
        3130.0,
        3135.0,
        3140.0,
        3145.0,
        3150.0,
        3155.0,
        3160.0,
        3165.0,
        3170.0,
        3175.0,
        3180.0,
        3185.0,
        3190.0,
        3195.0,
        3200.0,
        3205.0,
        3210.0,
        3215.0,
        3220.0,
        3225.0,
        3230.0,
        3235.0,
        3240.0,
        3245.0,
        3250.0,
        3255.0,
        3260.0,
        3265.0,
        3270.0,
        3275.0,
        3280.0,
        3285.0,
        3290.0,
        3295.0,
        3300.0,
        3305.0,
        3310.0,
        3315.0,
        3320.0,
        3325.0,
        3330.0,
        3335.0,
        3340.0,
        3345.0,
        3350.0,
        3355.0,
        3360.0,
        3365.0,
        3370.0,
        3375.0,
        3380.0,
        3385.0,
        3390.0,
        3395.0,
        3400.0,
        3405.0,
        3410.0,
        3415.0,
        3420.0,
        3425.0,
        3430.0,
        3435.0,
        3440.0,
        3445.0,
        3450.0,
        3455.0,
        3460.0,
        3465.0,
        3470.0,
        3475.0,
        3480.0,
        3485.0,
        3490.0,
        3495.0,
        3500.0,
        3505.0,
        3510.0,
        3515.0,
        3520.0,
        3525.0,
        3530.0,
        3535.0,
        3540.0,
        3545.0,
        3550.0,
        3555.0,
        3560.0,
        3565.0,
        3570.0,
        3575.0,
        3580.0,
        3585.0,
        3590.0,
        3595.0,
        3600.0,
        3605.0,
        3610.0,
        3615.0,
        3620.0,
        3625.0,
        3630.0,
        3635.0,
        3640.0,
        3645.0,
        3650.0,
        3655.0,
        3660.0,
        3665.0,
        3670.0,
        3675.0,
        3680.0,
        3685.0,
        3690.0,
        3695.0,
        3700.0,
        3705.0,
        3710.0,
        3715.0,
        3720.0,
        3725.0,
        3730.0,
        3735.0,
        3740.0,
        3745.0,
        3750.0,
        3755.0,
        3760.0,
        3765.0,
        3770.0,
        3775.0,
        3780.0,
        3785.0,
        3790.0,
        3795.0,
        3800.0,
        3805.0,
        3810.0,
        3815.0,
        3820.0,
        3825.0,
        3830.0,
        3835.0,
        3840.0,
        3845.0,
        3850.0,
        3855.0,
        3860.0,
        3865.0,
        3870.0,
        3875.0,
        3880.0,
        3885.0,
        3890.0,
        3895.0,
        3900.0,
        3905.0,
        3910.0,
        3915.0,
        3920.0,
        3925.0,
        3930.0,
        3935.0,
        3940.0,
        3945.0,
        3950.0,
        3955.0,
        3960.0,
        3965.0,
        3970.0,
        3975.0,
        3980.0,
        3985.0,
        3990.0,
        3995.0,
        4000.0,
        4005.0,
        4010.0,
        4015.0,
        4020.0,
        4025.0,
        4030.0,
        4035.0,
        4040.0,
        4045.0,
        4050.0,
        4055.0,
        4060.0,
        4065.0,
        4070.0,
        4075.0,
        4080.0,
        4085.0,
        4090.0,
        4095.0,
        4100.0,
        4105.0,
        4110.0,
        4115.0,
        4120.0,
        4125.0,
        4130.0,
        4135.0,
        4140.0,
        4145.0,
        4150.0,
        4155.0,
        4160.0,
        4165.0,
        4170.0,
        4175.0,
        4180.0,
        4185.0,
        4190.0,
        4195.0,
        4200.0,
        4205.0,
        4210.0,
        4215.0,
        4220.0,
        4225.0,
        4230.0,
        4235.0,
        4240.0,
        4245.0,
        4250.0,
        4255.0,
        4260.0,
        4265.0,
        4270.0,
        4275.0,
        4280.0,
        4285.0,
        4290.0,
        4295.0,
        4300.0,
        4305.0,
        4310.0,
        4315.0,
        4320.0,
        4325.0,
        4330.0,
        4335.0,
        4340.0,
        4345.0,
        4350.0,
        4355.0,
        4360.0,
        4365.0,
        4370.0,
        4375.0,
        4380.0,
        4385.0,
        4390.0,
        4395.0,
        4400.0,
        4405.0,
        4410.0,
        4415.0,
        4420.0,
        4425.0,
        4430.0,
        4435.0,
        4440.0,
        4445.0,
        4450.0,
        4455.0,
        4460.0,
        4465.0,
        4470.0,
        4475.0,
        4480.0,
        4485.0,
        4490.0,
        4495.0,
        4500.0,
        4505.0,
        4510.0,
        4515.0,
        4520.0,
        4525.0,
        4530.0,
        4535.0,
        4540.0,
        4545.0,
        4550.0,
        4555.0,
        4560.0,
        4565.0,
        4570.0,
        4575.0,
        4580.0,
        4585.0,
        4590.0,
        4595.0,
        4600.0,
        4605.0,
        4610.0,
        4615.0,
        4620.0,
        4625.0,
        4630.0,
        4635.0,
        4640.0,
        4645.0,
        4650.0,
        4655.0,
        4660.0,
        4665.0,
        4670.0,
        4675.0,
        4680.0,
        4685.0,
        4690.0,
        4695.0,
        4700.0,
        4705.0,
        4710.0,
        4715.0,
        4720.0,
        4725.0,
        4730.0,
        4735.0,
        4740.0,
        4745.0,
        4750.0,
        4755.0,
        4760.0,
        4765.0,
        4770.0,
        4775.0,
        4780.0,
        4785.0,
        4790.0,
        4795.0,
        4800.0,
        4805.0,
        4810.0,
        4815.0,
        4820.0,
        4825.0,
        4830.0,
        4835.0,
        4840.0,
        4845.0,
        4850.0,
        4855.0,
        4860.0,
        4865.0,
        4870.0,
        4875.0,
        4880.0,
        4885.0,
        4890.0,
        4895.0,
        4900.0,
        4905.0,
        4910.0,
        4915.0,
        4920.0,
        4925.0,
        4930.0,
        4935.0,
        4940.0,
        4945.0,
        4950.0,
        4955.0,
        4960.0,
        4965.0,
        4970.0,
        4975.0,
        4980.0,
        4985.0,
        4990.0,
        4995.0,
        5000.0,
        5005.0,
        5010.0,
        5015.0,
        5020.0,
        5025.0,
        5030.0,
        5035.0,
        5040.0,
        5045.0,
        5050.0,
        5055.0,
        5060.0,
        5065.0,
        5070.0,
        5075.0,
        5080.0,
        5085.0,
        5090.0,
        5095.0,
        5100.0,
        5105.0,
        5110.0,
        5115.0,
        5120.0,
        5125.0,
        5130.0,
        5135.0,
        5140.0,
        5145.0,
        5150.0,
        5155.0,
        5160.0,
        5165.0,
        5170.0,
        5175.0,
        5180.0,
        5185.0,
        5190.0,
        5195.0,
        5200.0,
        5205.0,
        5210.0,
        5215.0,
        5220.0,
        5225.0,
        5230.0,
        5235.0,
        5240.0,
        5245.0,
        5250.0,
        5255.0,
        5260.0,
        5265.0,
        5270.0,
        5275.0,
        5280.0,
        5285.0,
        5290.0,
        5295.0,
        5300.0,
        5305.0,
        5310.0,
        5315.0,
        5320.0,
        5325.0,
        5330.0,
        5335.0,
        5340.0,
        5345.0,
        5350.0,
        5355.0,
        5360.0,
        5365.0,
        5370.0,
        5375.0,
        5380.0,
        5385.0,
        5390.0,
        5395.0,
        5400.0,
        5405.0,
        5410.0,
        5415.0,
        5420.0,
        5425.0,
        5430.0,
        5435.0,
        5440.0,
        5445.0,
        5450.0,
        5455.0,
        5460.0,
        5465.0,
        5470.0,
        5475.0,
        5480.0,
        5485.0,
        5490.0,
        5495.0,
        5500.0,
        5505.0,
        5510.0,
        5515.0,
        5520.0,
        5525.0,
        5530.0,
        5535.0,
        5540.0,
        5545.0,
        5550.0,
        5555.0,
        5560.0,
        5565.0,
        5570.0,
        5575.0,
        5580.0,
        5585.0,
        5590.0,
        5595.0,
        5600.0,
        5605.0,
        5610.0,
        5615.0,
        5620.0,
        5625.0,
        5630.0,
        5635.0,
        5640.0,
        5645.0,
        5650.0,
        5655.0,
        5660.0,
        5665.0,
        5670.0,
        5675.0,
        5680.0,
        5685.0,
        5690.0,
        5695.0,
        5700.0,
        5705.0,
        5710.0,
        5715.0,
        5720.0,
        5725.0,
        5730.0,
        5735.0,
        5740.0,
        5745.0,
        5750.0,
        5755.0,
        5760.0,
        5765.0,
        5770.0,
        5775.0,
        5780.0,
        5785.0,
        5790.0,
        5795.0,
        5800.0,
        5805.0,
        5810.0,
        5815.0,
        5820.0,
        5825.0,
        5830.0,
        5835.0,
        5840.0,
        5845.0,
        5850.0,
        5855.0,
        5860.0,
        5865.0,
        5870.0,
        5875.0,
        5880.0,
        5885.0,
        5890.0,
        5895.0,
        5900.0,
        5905.0,
        5910.0,
        5915.0,
        5920.0,
        5925.0,
        5930.0,
        5935.0,
        5940.0,
        5945.0,
        5950.0,
        5955.0,
        5960.0,
        5965.0,
        5970.0,
        5975.0,
        5980.0,
        5985.0,
        5990.0,
        5995.0,
        6000.0,
        6005.0,
        6010.0,
        6015.0,
        6020.0,
        6025.0,
        6030.0,
        6035.0,
        6040.0,
        6045.0,
        6050.0,
        6055.0,
        6060.0,
        6065.0,
        6070.0,
        6075.0,
        6080.0,
        6085.0,
        6090.0,
        6095.0,
        6100.0,
        6105.0,
        6110.0,
        6115.0,
        6120.0,
        6125.0,
        6130.0,
        6135.0,
        6140.0,
        6145.0,
        6150.0,
        6155.0,
        6160.0,
        6165.0,
        6170.0,
        6175.0,
        6180.0,
        6185.0,
        6190.0,
        6195.0,
        6200.0,
        6205.0,
        6210.0,
        6215.0,
        6220.0,
        6225.0,
        6230.0,
        6235.0,
        6240.0,
        6245.0,
        6250.0,
        6255.0,
        6260.0,
        6265.0,
        6270.0,
        6275.0,
        6280.0,
        6285.0,
        6290.0,
        6295.0,
        6300.0,
        6305.0,
        6310.0,
        6315.0,
        6320.0,
        6325.0,
        6330.0,
        6335.0,
        6340.0,
        6345.0,
        6350.0,
        6355.0,
        6360.0,
        6365.0,
        6370.0,
        6375.0,
        6380.0,
        6385.0,
        6390.0,
        6395.0,
        6400.0,
        6405.0,
        6410.0,
        6415.0,
        6420.0,
        6425.0,
        6430.0,
        6435.0,
        6440.0,
        6445.0,
        6450.0,
        6455.0,
        6460.0,
        6465.0,
        6470.0,
        6475.0,
        6480.0,
        6485.0,
        6490.0,
        6495.0,
        6500.0,
        6505.0,
        6510.0,
        6515.0,
        6520.0,
        6525.0,
        6530.0,
        6535.0,
        6540.0,
        6545.0,
        6550.0,
        6555.0,
        6560.0,
        6565.0,
        6570.0,
        6575.0,
        6580.0,
        6585.0,
        6590.0,
        6595.0,
        6600.0,
        6605.0,
        6610.0,
        6615.0,
        6620.0,
        6625.0,
        6630.0,
        6635.0,
        6640.0,
        6645.0,
        6650.0,
        6655.0,
        6660.0,
        6665.0,
        6670.0,
        6675.0,
        6680.0,
        6685.0,
        6690.0,
        6695.0,
        6700.0,
        6705.0,
        6710.0,
        6715.0,
        6720.0,
        6725.0,
        6730.0,
        6735.0,
        6740.0,
        6745.0,
        6750.0,
        6755.0,
        6760.0,
        6765.0,
        6770.0,
        6775.0,
        6780.0,
        6785.0,
        6790.0,
        6795.0,
        6800.0,
        6805.0,
        6810.0,
        6815.0,
        6820.0,
        6825.0,
        6830.0,
        6835.0,
        6840.0,
        6845.0,
        6850.0,
        6855.0,
        6860.0,
        6865.0,
        6870.0,
        6875.0,
        6880.0,
        6885.0,
        6890.0,
        6895.0,
        6900.0,
        6905.0,
        6910.0,
        6915.0,
        6920.0,
        6925.0,
        6930.0,
        6935.0,
        6940.0,
        6945.0,
        6950.0,
        6955.0,
        6960.0,
        6965.0,
        6970.0,
        6975.0,
        6980.0,
        6985.0,
        6990.0,
        6995.0,
        7000.0,
        7005.0,
        7010.0,
        7015.0,
        7020.0,
        7025.0,
        7030.0,
        7035.0,
        7040.0,
        7045.0,
        7050.0,
        7055.0,
        7060.0,
        7065.0,
        7070.0,
        7075.0,
        7080.0,
        7085.0,
        7090.0,
        7095.0,
        7100.0,
        7105.0,
        7110.0,
        7115.0,
        7120.0,
        7125.0,
        7130.0,
        7135.0,
        7140.0,
        7145.0,
        7150.0,
        7155.0,
        7160.0,
        7165.0,
        7170.0,
        7175.0,
        7180.0,
        7185.0,
        7190.0,
        7195.0,
        7200.0,
        7205.0,
        7210.0,
        7215.0,
        7220.0,
        7225.0,
        7230.0,
        7235.0,
        7240.0,
        7245.0,
        7250.0,
        7255.0,
        7260.0,
        7265.0,
        7270.0,
        7275.0,
        7280.0,
        7285.0,
        7290.0,
        7295.0,
        7300.0,
        7305.0,
        7310.0,
        7315.0,
        7320.0,
        7325.0,
        7330.0,
        7335.0,
        7340.0,
        7345.0,
        7350.0,
        7355.0,
        7360.0,
        7365.0,
        7370.0,
        7375.0,
        7380.0,
        7385.0,
        7390.0,
        7395.0,
        7400.0,
        7405.0,
        7410.0,
        7415.0,
        7420.0,
        7425.0,
        7430.0,
        7435.0,
        7440.0,
        7445.0,
        7450.0,
        7455.0,
        7460.0,
        7465.0,
        7470.0,
        7475.0,
        7480.0,
        7485.0,
        7490.0,
        7495.0,
        7500.0,
        7505.0,
        7510.0,
        7515.0,
        7520.0,
        7525.0,
        7530.0,
        7535.0,
        7540.0,
        7545.0,
        7550.0,
        7555.0,
        7560.0,
        7565.0,
        7570.0,
        7575.0,
        7580.0,
        7585.0,
        7590.0,
        7595.0,
        7600.0,
        7605.0,
        7610.0,
        7615.0,
        7620.0,
        7625.0,
        7630.0,
        7635.0,
        7640.0,
        7645.0,
        7650.0,
        7655.0,
        7660.0,
        7665.0,
        7670.0,
        7675.0,
        7680.0,
        7685.0,
        7690.0,
        7695.0,
        7700.0,
        7705.0,
        7710.0,
        7715.0,
        7720.0,
        7725.0,
        7730.0,
        7735.0,
        7740.0,
        7745.0,
        7750.0,
        7755.0,
        7760.0,
        7765.0,
        7770.0,
        7775.0,
        7780.0,
        7785.0,
        7790.0,
        7795.0,
        7800.0,
        7805.0,
        7810.0,
        7815.0,
        7820.0,
        7825.0,
        7830.0,
        7835.0,
        7840.0,
        7845.0,
        7850.0,
        7855.0,
        7860.0,
        7865.0,
        7870.0,
        7875.0,
        7880.0,
        7885.0,
        7890.0,
        7895.0,
        7900.0,
        7905.0,
        7910.0,
        7915.0,
        7920.0,
        7925.0,
        7930.0,
        7935.0,
        7940.0,
        7945.0,
        7950.0,
        7955.0,
        7960.0,
        7965.0,
        7970.0,
        7975.0,
        7980.0,
        7985.0,
        7990.0,
        7995.0,
        8000.0,
        8005.0,
        8010.0,
        8015.0,
        8020.0,
        8025.0,
        8030.0,
        8035.0,
        8040.0,
        8045.0,
        8050.0,
        8055.0,
        8060.0,
        8065.0,
        8070.0,
        8075.0,
        8080.0,
        8085.0,
        8090.0,
        8095.0,
        8100.0,
        8105.0,
        8110.0,
        8115.0,
        8120.0,
        8125.0,
        8130.0,
        8135.0,
        8140.0,
        8145.0,
        8150.0,
        8155.0,
        8160.0,
        8165.0,
        8170.0,
        8175.0,
        8180.0,
        8185.0,
        8190.0,
        8195.0,
        8200.0,
        8205.0,
        8210.0,
        8215.0,
        8220.0,
        8225.0,
        8230.0,
        8235.0,
        8240.0,
        8245.0,
        8250.0,
        8255.0,
        8260.0,
        8265.0,
        8270.0,
        8275.0,
        8280.0,
        8285.0,
        8290.0,
        8295.0,
        8300.0,
        8305.0,
        8310.0,
        8315.0,
        8320.0,
        8325.0,
        8330.0,
        8335.0,
        8340.0,
        8345.0,
        8350.0,
        8355.0,
        8360.0,
        8365.0,
        8370.0,
        8375.0,
        8380.0,
        8385.0,
        8390.0,
        8395.0,
        8400.0,
        8405.0,
        8410.0,
        8415.0,
        8420.0,
        8425.0,
        8430.0,
        8435.0,
        8440.0,
        8445.0,
        8450.0,
        8455.0,
        8460.0,
        8465.0,
        8470.0,
        8475.0,
        8480.0,
        8485.0,
        8490.0,
        8495.0,
        8500.0,
        8505.0,
        8510.0,
        8515.0,
        8520.0,
        8525.0,
        8530.0,
        8535.0,
        8540.0,
        8545.0,
        8550.0,
        8555.0,
        8560.0,
        8565.0,
        8570.0,
        8575.0,
        8580.0,
        8585.0,
        8590.0,
        8595.0,
        8600.0,
        8605.0,
        8610.0,
        8615.0,
        8620.0,
        8625.0,
        8630.0,
        8635.0,
        8640.0,
        8645.0,
        8650.0,
        8655.0,
        8660.0,
        8665.0,
        8670.0,
        8675.0,
        8680.0,
        8685.0,
        8690.0,
        8695.0,
        8700.0,
        8705.0,
        8710.0,
        8715.0,
        8720.0,
        8725.0,
        8730.0,
        8735.0,
        8740.0,
        8745.0,
        8750.0,
        8755.0,
        8760.0,
        8765.0,
        8770.0,
        8775.0,
        8780.0,
        8785.0,
        8790.0,
        8795.0,
        8800.0,
        8805.0,
        8810.0,
        8815.0,
        8820.0,
        8825.0,
        8830.0,
        8835.0,
        8840.0,
        8845.0,
        8850.0,
        8855.0,
        8860.0,
        8865.0,
        8870.0,
        8875.0,
        8880.0,
        8885.0,
        8890.0,
        8895.0,
        8900.0,
        8905.0,
        8910.0,
        8915.0,
        8920.0,
        8925.0,
        8930.0,
        8935.0,
        8940.0,
        8945.0,
        8950.0,
        8955.0,
        8960.0,
        8965.0,
        8970.0,
        8975.0,
        8980.0,
        8985.0,
        8990.0,
        8995.0,
        9000.0,
        9005.0,
        9010.0,
        9015.0,
        9020.0,
        9025.0,
        9030.0,
        9035.0,
        9040.0,
        9045.0,
        9050.0,
        9055.0,
        9060.0,
        9065.0,
        9070.0,
        9075.0,
        9080.0,
        9085.0,
        9090.0,
        9095.0,
        9100.0,
        9105.0,
        9110.0,
        9115.0,
        9120.0,
        9125.0,
        9130.0,
        9135.0,
        9140.0,
        9145.0,
        9150.0,
        9155.0,
        9160.0,
        9165.0,
        9170.0,
        9175.0,
        9180.0,
        9185.0,
        9190.0,
        9195.0,
        9200.0,
        9205.0,
        9210.0,
        9215.0,
        9220.0,
        9225.0,
        9230.0,
        9235.0,
        9240.0,
        9245.0,
        9250.0,
        9255.0,
        9260.0,
        9265.0,
        9270.0,
        9275.0,
        9280.0,
        9285.0,
        9290.0,
        9295.0,
        9300.0,
        9305.0,
        9310.0,
        9315.0,
        9320.0,
        9325.0,
        9330.0,
        9335.0,
        9340.0,
        9345.0,
        9350.0,
        9355.0,
        9360.0,
        9365.0,
        9370.0,
        9375.0,
        9380.0,
        9385.0,
        9390.0,
        9395.0,
        9400.0,
        9405.0,
        9410.0,
        9415.0,
        9420.0,
        9425.0,
        9430.0,
        9435.0,
        9440.0,
        9445.0,
        9450.0,
        9455.0,
        9460.0,
        9465.0,
        9470.0,
        9475.0,
        9480.0,
        9485.0,
        9490.0,
        9495.0,
        9500.0,
        9505.0,
        9510.0,
        9515.0,
        9520.0,
        9525.0,
        9530.0,
        9535.0,
        9540.0,
        9545.0,
        9550.0,
        9555.0,
        9560.0,
        9565.0,
        9570.0,
        9575.0,
        9580.0,
        9585.0,
        9590.0,
        9595.0,
        9600.0,
        9605.0,
        9610.0,
        9615.0,
        9620.0,
        9625.0,
        9630.0,
        9635.0,
        9640.0,
        9645.0,
        9650.0,
        9655.0,
        9660.0,
        9665.0,
        9670.0,
        9675.0,
        9680.0,
        9685.0,
        9690.0,
        9695.0,
        9700.0,
        9705.0,
        9710.0,
        9715.0,
        9720.0,
        9725.0,
        9730.0,
        9735.0,
        9740.0,
        9745.0,
        9750.0,
        9755.0,
        9760.0,
        9765.0,
        9770.0,
        9775.0,
        9780.0,
        9785.0,
        9790.0,
        9795.0,
        9800.0,
        9805.0,
        9810.0,
        9815.0,
        9820.0,
        9825.0,
        9830.0,
        9835.0,
        9840.0,
        9845.0,
        9850.0,
        9855.0,
        9860.0,
        9865.0,
        9870.0,
        9875.0,
        9880.0,
        9885.0,
        9890.0,
        9895.0,
        9900.0,
        9905.0,
        9910.0,
        9915.0,
        9920.0,
        9925.0,
        9930.0,
        9935.0,
        9940.0,
        9945.0,
        9950.0,
        9955.0,
        9960.0,
        9965.0,
        9970.0,
        9975.0,
        9980.0,
        9985.0,
        9990.0,
        9995.0,
        10000.0,
        10005.0,
        10010.0,
        10015.0,
        10020.0,
        10025.0,
        10030.0,
        10035.0,
        10040.0,
        10045.0,
        10050.0,
        10055.0,
        10060.0,
        10065.0,
        10070.0,
        10075.0,
        10080.0,
        10085.0,
        10090.0,
        10095.0,
        10100.0,
        10105.0,
        10110.0,
        10115.0,
        10120.0,
        10125.0,
        10130.0,
        10135.0,
        10140.0,
        10145.0,
        10150.0,
        10155.0,
        10160.0,
        10165.0,
        10170.0,
        10175.0,
        10180.0,
        10185.0,
        10190.0,
        10195.0,
        10200.0,
        10205.0,
        10210.0,
        10215.0,
        10220.0,
        10225.0,
        10230.0,
        10235.0,
        10240.0,
        10245.0,
        10250.0,
        10255.0,
        10260.0,
        10265.0,
        10270.0,
        10275.0,
        10280.0,
        10285.0,
        10290.0,
        10295.0,
        10300.0,
        10305.0,
        10310.0,
        10315.0,
        10320.0,
        10325.0,
        10330.0,
        10335.0,
        10340.0,
        10345.0,
        10350.0,
        10355.0,
        10360.0,
        10365.0,
        10370.0,
        10375.0,
        10380.0,
        10385.0,
        10390.0,
        10395.0,
        10400.0,
        10405.0,
        10410.0,
        10415.0,
        10420.0,
        10425.0,
        10430.0,
        10435.0,
        10440.0,
        10445.0,
        10450.0,
        10455.0,
        10460.0,
        10465.0,
        10470.0,
        10475.0,
        10480.0,
        10485.0,
        10490.0,
        10495.0,
        10500.0
      ],
      "units":"angstrom"
    },
    "values":{
      "value":[
        80.717331,
        58.822697,
        46.084198,
        43.013996,
        35.115273,
        27.668774,
        32.747818,
        34.962406,
        27.112854,
        24.834612,
        24.910772,
        20.042112,
        12.891719,
        9.822898,
        18.641714,
        29.074123,
        33.424278,
        36.043472,
        37.187851,
        36.164307,
        35.131752,
        35.547283,
        36.05088,
        38.114735,
        40.016357,
        40.059788,
        39.881683,
        39.547867,
        37.829453,
        33.89854,
        32.102943,
        34.797359,
        38.057842,
        39.08744,
        38.809902,
        36.536625,
        34.586662,
        32.473209,
        33.958599,
        34.813446,
        35.428848,
        35.498512,
        34.323513,
        33.512302,
        33.319435,
        32.093548,
        30.678148,
        28.514946,
        24.248201,
        22.666229,
        23.572512,
        25.771519,
        27.755444,
        27.260014,
        26.929907,
        26.05229,
        26.712805,
        27.74074,
        28.041786,
        27.773335,
        27.969456,
        27.160017,
        26.948801,
        27.08955,
        27.623365,
        27.542501,
        27.39011,
        28.052855,
        28.241182,
        26.87491,
        25.082266,
        24.744677,
        24.673874,
        23.699249,
        23.926367,
        21.895563,
        19.742727,
        18.741011,
        16.918783,
        14.698949,
        16.165497,
        19.253212,
        19.380663,
        19.50507,
        20.150513,
        20.539524,
        20.746939,
        21.407219,
        21.091061,
        19.972979,
        19.016699,
        17.977081,
        17.268639,
        17.784643,
        17.931824,
        17.916063,
        18.08449,
        18.447086,
        18.788988,
        19.650757,
        19.437553,
        18.264404,
        17.963568,
        18.42569,
        18.162043,
        18.947903,
        20.172016,
        19.725855,
        18.965555,
        18.605291,
        18.273268,
        18.035425,
        17.620743,
        16.938257,
        16.04595,
        16.533163,
        17.643862,
        18.541063,
        18.265173,
        17.875513,
        17.7777,
        18.27422,
        18.694607,
        18.602907,
        17.915865,
        17.552011,
        17.482634,
        16.004702,
        13.397943,
        15.812195,
        17.246275,
        16.967152,
        16.551691,
        16.652954,
        17.005144,
        17.016474,
        16.890469,
        16.586256,
        15.751781,
        15.039984,
        14.796963,
        14.739436,
        14.957563,
        14.987175,
        15.011134,
        15.040326,
        14.635312,
        13.677851,
        13.154941,
        13.322406,
        13.496264,
        13.297423,
        13.150349,
        12.657618,
        12.26156,
        12.08619,
        12.681643,
        13.211442,
        13.299747,
        13.289064,
        12.959528,
        12.289224,
        11.5084,
        11.429792,
        12.287663,
        13.260214,
        12.863069,
        12.80137,
        12.067332,
        11.345984,
        11.282357,
        11.695316,
        11.569563,
        12.280392,
        12.181655,
        12.526383,
        12.545506,
        12.103759,
        11.81729,
        11.556646,
        11.63878,
        11.894423,
        11.129672,
        11.160922,
        11.515783,
        11.607277,
        11.635771,
        11.48693,
        11.1634,
        10.261996,
        10.205277,
        10.326957,
        10.627976,
        11.10292,
        11.063919,
        11.181467,
        11.247544,
        10.619627,
        10.322792,
        10.276087,
        9.990604,
        10.101192,
        10.403266,
        9.953468,
        9.89747,
        9.609347,
        9.344927,
        9.521371,
        9.788008,
        10.162237,
        10.110148,
        9.631575,
        9.274659,
        9.051321,
        9.256481,
        9.539359,
        9.430471,
        9.247479,
        9.364753,
        9.309875,
        9.388724,
        9.287314,
        9.362546,
        9.230436,
        8.999113,
        8.946658,
        9.071369,
        9.002579,
        9.169501,
        8.815235,
        8.668582,
        8.626733,
        8.980558,
        9.237049,
        9.124409,
        9.026744,
        9.133413,
        9.14133,
        9.053886,
        9.045562,
        9.291764,
        9.262098,
        9.113672,
        8.917361,
        8.971763,
        9.091454,
        8.933378,
        8.563183,
        8.276361,
        8.589521,
        8.801236,
        8.549692,
        8.421992,
        8.269428,
        8.322881,
        8.603613,
        8.644798,
        8.688939,
        8.76869,
        8.863748,
        8.815141,
        9.091658,
        9.411484,
        9.330894,
        9.00839,
        8.662229,
        8.707833,
        8.812909,
        8.494123,
        8.505847,
        8.818014,
        8.623822,
        8.51232,
        8.397819,
        8.233256,
        8.258522,
        8.583609,
        8.623123,
        8.462879,
        8.462756,
        8.694212,
        8.292758,
        8.230354,
        8.479631,
        8.664526,
        8.242883,
        7.2447,
        7.066213,
        7.84391,
        8.26557,
        8.053348,
        7.923511,
        8.074516,
        8.318711,
        8.104652,
        8.027171,
        8.163589,
        8.19196,
        7.877193,
        8.090027,
        8.030375,
        7.940987,
        7.849125,
        7.885294,
        7.972133,
        7.89617,
        7.941397,
        7.794964,
        7.463846,
        7.280376,
        7.346497,
        7.496123,
        7.397977,
        7.321217,
        7.277266,
        7.185751,
        7.269631,
        7.306519,
        7.399523,
        7.343837,
        7.287463,
        7.053884,
        7.109258,
        7.190351,
        6.96527,
        7.246474,
        7.425817,
        7.336812,
        7.816154,
        7.039585,
        6.550538,
        6.537097,
        6.583429,
        7.069006,
        7.40357,
        6.960972,
        6.614836,
        6.552101,
        6.777225,
        6.777612,
        6.910142,
        6.716792,
        6.69427,
        6.737988,
        6.767127,
        6.711542,
        6.703153,
        6.743594,
        6.674086,
        6.92511,
        6.625654,
        6.560663,
        6.702202,
        6.717231,
        6.582953,
        6.539078,
        6.546461,
        6.579565,
        6.504998,
        6.396259,
        6.256368,
        6.558966,
        6.76409,
        6.417897,
        6.361255,
        6.491911,
        6.363913,
        6.312532,
        6.22266,
        6.177102,
        6.198606,
        6.174957,
        6.131411,
        5.889791,
        5.792145,
        5.833067,
        5.545245,
        5.586946,
        5.647696,
        5.661539,
        5.626898,
        5.606952,
        5.520898,
        5.538794,
        5.487102,
        5.506607,
        5.657759,
        5.508247,
        5.446122,
        5.72892,
        5.325674,
        5.119058,
        5.076274,
        5.293655,
        5.401051,
        5.631491,
        5.602252,
        5.405685,
        5.506554,
        5.274365,
        5.304151,
        5.27078,
        5.186633,
        5.200308,
        5.346776,
        5.293934,
        5.084993,
        5.253097,
        5.296554,
        5.108899,
        5.109699,
        5.156979,
        5.170796,
        5.151854,
        5.119935,
        5.099976,
        5.118451,
        5.178782,
        5.19063,
        5.083509,
        4.960099,
        4.925388,
        4.920444,
        4.870564,
        4.8019,
        4.752789,
        4.709456,
        4.653862,
        4.60303,
        4.576106,
        4.565669,
        4.561255,
        4.566787,
        4.58357,
        4.58803,
        4.561928,
        4.533214,
        4.527832,
        4.517502,
        4.47721,
        4.449195,
        4.473619,
        4.51504,
        4.5267,
        4.492154,
        4.415471,
        4.352459,
        4.349619,
        4.364477,
        4.349758,
        4.327958,
        4.327488,
        4.33065,
        4.314034,
        4.277474,
        4.229123,
        4.18715,
        4.163023,
        4.131366,
        4.071646,
        4.019532,
        4.009736,
        4.016934,
        4.010863,
        4.001532,
        4.001128,
        3.990273,
        3.952218,
        3.912287,
        3.894985,
        3.879466,
        3.8458,
        3.823066,
        3.838865,
        3.865883,
        3.871364,
        3.855712,
        3.8293,
        3.809222,
        3.806373,
        3.800141,
        3.772863,
        3.750175,
        3.754959,
        3.755771,
        3.720403,
        3.667922,
        3.609337,
        3.609001,
        3.618664,
        3.599601,
        3.632007,
        3.663081,
        3.63885,
        3.61347,
        3.641897,
        3.643732,
        3.492352,
        3.528893,
        3.618019,
        3.61387,
        3.629,
        3.622665,
        3.579438,
        3.573886,
        3.510961,
        3.517251,
        3.572621,
        3.56773,
        3.487131,
        3.431707,
        3.3427,
        3.359972,
        3.440808,
        3.360285,
        3.378251,
        3.377135,
        3.308112,
        3.5484,
        3.373318,
        3.072766,
        3.431441,
        3.691063,
        3.391567,
        3.070776,
        3.509697,
        3.93753,
        3.936599,
        3.641204,
        3.1079,
        3.257521,
        3.739247,
        3.957413,
        3.798244,
        3.696342,
        3.784786,
        3.322133,
        3.023141,
        3.495896,
        3.793458,
        3.860965,
        3.903942,
        3.85809,
        3.752664,
        3.702843,
        3.608919,
        3.347849,
        2.849648,
        2.842709,
        3.374485,
        3.622931,
        3.665153,
        3.634172,
        3.596667,
        3.445179,
        3.416101,
        3.366363,
        3.420547,
        3.532216,
        3.512469,
        3.468697,
        3.34659,
        3.133338,
        2.644351,
        2.446476,
        2.946186,
        3.259169,
        3.313883,
        3.31941,
        3.328106,
        3.345814,
        3.212095,
        3.179786,
        3.215247,
        3.112437,
        2.923556,
        3.066586,
        3.166837,
        3.171858,
        3.168583,
        3.197768,
        3.168848,
        3.168514,
        3.127086,
        3.005328,
        2.979412,
        2.992459,
        2.942513,
        2.865037,
        2.584837,
        2.224554,
        2.432005,
        2.722791,
        2.78326,
        2.761328,
        2.842372,
        2.846406,
        2.848161,
        2.730622,
        2.722098,
        2.825834,
        2.841228,
        2.826144,
        2.800233,
        2.781928,
        2.7738,
        2.772033,
        2.734405,
        2.732409,
        2.722674,
        2.716158,
        2.714379,
        2.723886,
        2.703516,
        2.71863,
        2.707158,
        2.652894,
        2.621943,
        2.604724,
        2.630009,
        2.605189,
        2.564882,
        2.543894,
        2.52364,
        2.535739,
        2.534209,
        2.549386,
        2.546556,
        2.543786,
        2.539161,
        2.518583,
        2.471407,
        2.448052,
        2.419128,
        2.402364,
        2.371353,
        2.23662,
        1.981221,
        1.794681,
        1.995554,
        2.212918,
        2.329541,
        2.34087,
        2.304791,
        2.33639,
        2.367734,
        2.345288,
        2.221406,
        2.23907,
        2.305035,
        2.325277,
        2.302329,
        2.267075,
        2.189944,
        2.18837,
        2.185552,
        2.146926,
        2.136626,
        2.168542,
        2.193014,
        2.192934,
        2.192255,
        2.185032,
        2.078629,
        1.927901,
        2.033468,
        2.097465,
        2.13448,
        2.14035,
        2.137836,
        2.135895,
        2.125159,
        2.110197,
        2.130009,
        2.131881,
        2.091933,
        2.078682,
        2.09029,
        2.092989,
        2.081481,
        2.027819,
        2.053822,
        2.064079,
        2.031204,
        2.017469,
        2.018156,
        2.039036,
        1.981384,
        1.952694,
        1.966765,
        1.951049,
        1.939144,
        1.951574,
        1.963492,
        1.944509,
        1.905595,
        1.899379,
        1.897712,
        1.863462,
        1.830574,
        1.837804,
        1.880728,
        1.881229,
        1.895188,
        1.873561,
        1.852216,
        1.870126,
        1.861425,
        1.85727,
        1.844253,
        1.801931,
        1.808085,
        1.76844,
        1.774164,
        1.817153,
        1.79968,
        1.807338,
        1.79078,
        1.792675,
        1.766821,
        1.72281,
        1.721395,
        1.724244,
        1.731492,
        1.729817,
        1.741251,
        1.712364,
        1.717053,
        1.735109,
        1.742568,
        1.709978,
        1.704925,
        1.693032,
        1.689259,
        1.673214,
        1.666047,
        1.669461,
        1.660262,
        1.63581,
        1.600677,
        1.531045,
        1.362847,
        1.203292,
        1.329042,
        1.486345,
        1.525846,
        1.53723,
        1.536544,
        1.538663,
        1.570242,
        1.569033,
        1.559014,
        1.553552,
        1.519045,
        1.435303,
        1.475158,
        1.55754,
        1.534515,
        1.544068,
        1.579218,
        1.562248,
        1.551928,
        1.553569,
        1.531516,
        1.514235,
        1.509005,
        1.502592,
        1.499846,
        1.498925,
        1.495968,
        1.466089,
        1.451174,
        1.438176,
        1.425152,
        1.449233,
        1.430374,
        1.423655,
        1.417231,
        1.415872,
        1.413727,
        1.414742,
        1.413131,
        1.402434,
        1.37137,
        1.383697,
        1.410481,
        1.39298,
        1.392305,
        1.403249,
        1.368831,
        1.355961,
        1.373517,
        1.370747,
        1.359171,
        1.351696,
        1.355353,
        1.353371,
        1.343274,
        1.316987,
        1.321502,
        1.309002,
        1.307743,
        1.329047,
        1.308109,
        1.299335,
        1.301044,
        1.289563,
        1.299241,
        1.28287,
        1.273298,
        1.292347,
        1.272494,
        1.263794,
        1.272724,
        1.258233,
        1.257154,
        1.254644,
        1.237113,
        1.223862,
        1.226413,
        1.230827,
        1.233697,
        1.233327,
        1.216515,
        1.193407,
        1.190371,
        1.197758,
        1.192354,
        1.183432,
        1.155991,
        1.149392,
        1.157733,
        1.174996,
        1.193421,
        1.185574,
        1.175383,
        1.170542,
        1.156287,
        1.149257,
        1.164168,
        1.171112,
        1.158666,
        1.137109,
        1.124855,
        1.116024,
        1.123975,
        1.125875,
        1.119029,
        1.125744,
        1.115476,
        1.104082,
        1.094415,
        1.105482,
        1.108322,
        1.094783,
        1.088759,
        1.084008,
        1.084941,
        1.081957,
        1.070365,
        1.055596,
        1.048221,
        1.040455,
        1.052056,
        1.054781,
        1.035808,
        1.026268,
        1.033779,
        1.035385,
        1.032934,
        1.037061,
        1.038073,
        1.033926,
        1.028265,
        1.034922,
        1.030187,
        1.017019,
        1.019108,
        1.009881,
        1.006881,
        1.009491,
        1.002835,
        0.987492,
        0.987338,
        0.984189,
        0.98129,
        0.989709,
        0.975996,
        0.96685,
        0.965001,
        0.966187,
        0.950861,
        0.946654,
        0.96001,
        0.968377,
        0.94567,
        0.946548,
        0.942923,
        0.934994,
        0.937044,
        0.925369,
        0.918532,
        0.911016,
        0.912596,
        0.916354,
        0.899031,
        0.893546,
        0.907963,
        0.911662,
        0.899524,
        0.890376,
        0.882021,
        0.890845,
        0.887511,
        0.867887,
        0.856073,
        0.860485,
        0.849918,
        0.853212,
        0.848961,
        0.844695,
        0.855569,
        0.856272,
        0.859928,
        0.851946,
        0.831183,
        0.798557,
        0.835665,
        0.839752,
        0.822389,
        0.83477,
        0.843936,
        0.833645,
        0.82657,
        0.832059,
        0.840701,
        0.826601,
        0.811441,
        0.816854,
        0.833637,
        0.822987,
        0.808471,
        0.828422,
        0.820902,
        0.765083,
        0.743647,
        0.780244,
        0.756427,
        0.686822,
        0.697404,
        0.74564,
        0.785536,
        0.782332,
        0.778331,
        0.777377,
        0.779747,
        0.770667,
        0.769879,
        0.764955,
        0.759705,
        0.761484,
        0.766376,
        0.759842,
        0.754896,
        0.750496,
        0.754706,
        0.759177,
        0.745799,
        0.740237,
        0.738762,
        0.730741,
        0.732782,
        0.733887,
        0.730139,
        0.729572,
        0.728327,
        0.727225,
        0.726175,
        0.717504,
        0.722644,
        0.714038,
        0.718046,
        0.715732,
        0.71274,
        0.7082,
        0.705296,
        0.708491,
        0.702571,
        0.70447,
        0.70092,
        0.700932,
        0.700679,
        0.700532,
        0.702889,
        0.691004,
        0.691524,
        0.689138,
        0.680975,
        0.679647,
        0.677679,
        0.678226,
        0.679122,
        0.670995,
        0.67125,
        0.664001,
        0.664213,
        0.660482,
        0.658522,
        0.65958,
        0.662177,
        0.653668,
        0.653394,
        0.654946,
        0.648432,
        0.649781,
        0.653062,
        0.657428,
        0.655184,
        0.654445,
        0.656725,
        0.649453,
        0.645178,
        0.650082,
        0.643202,
        0.632086,
        0.620583,
        0.592489,
        0.596509,
        0.616943,
        0.626873,
        0.622099,
        0.619311,
        0.623696,
        0.619024,
        0.620343,
        0.620862,
        0.622198,
        0.618677,
        0.613639,
        0.602667,
        0.600997,
        0.601901,
        0.60197,
        0.596683,
        0.594163,
        0.588831,
        0.587206,
        0.59075,
        0.589583,
        0.586096,
        0.583159,
        0.584688,
        0.590563,
        0.581574,
        0.580763,
        0.58144,
        0.580139,
        0.580991,
        0.580302,
        0.57093,
        0.5698,
        0.56959,
        0.5664,
        0.566898,
        0.564989,
        0.559582,
        0.557471,
        0.552617,
        0.553975,
        0.555696,
        0.558854,
        0.559367,
        0.556384,
        0.550888,
        0.554651,
        0.559659,
        0.552056,
        0.548521,
        0.548097,
        0.540912,
        0.525994,
        0.500518,
        0.44676,
        0.445827,
        0.500266,
        0.518442,
        0.522699,
        0.527841,
        0.538819,
        0.538181,
        0.535933,
        0.538003,
        0.530122,
        0.532124,
        0.535821,
        0.533471,
        0.526122,
        0.525864,
        0.521171,
        0.51513,
        0.515302,
        0.515038,
        0.512506,
        0.506196,
        0.49843,
        0.479656,
        0.476798,
        0.498697,
        0.501755,
        0.501822,
        0.5011,
        0.502934,
        0.502828,
        0.495424,
        0.493366,
        0.494469,
        0.49225,
        0.493654,
        0.495556,
        0.492567,
        0.489382,
        0.487069,
        0.483735,
        0.483247,
        0.480255,
        0.477874,
        0.479389,
        0.477724,
        0.475057,
        0.476514,
        0.476685,
        0.474583,
        0.470294,
        0.47174,
        0.469819,
        0.467223,
        0.467612,
        0.46465,
        0.47083,
        0.469471,
        0.468113,
        0.466833,
        0.465688,
        0.464384,
        0.462977,
        0.461756,
        0.460569,
        0.459343,
        0.458072,
        0.456888,
        0.455745,
        0.454589,
        0.453421,
        0.452258,
        0.451158,
        0.450099,
        0.449104,
        0.448069,
        0.446999,
        0.445942,
        0.444792,
        0.443645,
        0.442441,
        0.441322,
        0.440212,
        0.447727,
        0.442243,
        0.433359,
        0.428296,
        0.429911,
        0.429934,
        0.426847,
        0.4245,
        0.420627,
        0.420851,
        0.414876,
        0.419989,
        0.419487,
        0.419783,
        0.421319,
        0.417556,
        0.41829,
        0.412667,
        0.395087,
        0.409419,
        0.413324,
        0.41095,
        0.412192,
        0.41123,
        0.407948,
        0.400791,
        0.398163,
        0.403812,
        0.406062,
        0.406685,
        0.409861,
        0.413114,
        0.418098,
        0.411996,
        0.407799,
        0.408873,
        0.406704,
        0.398264,
        0.390864,
        0.378983,
        0.374837,
        0.371181,
        0.36157,
        0.363501,
        0.365089,
        0.361974,
        0.375053,
        0.397593,
        0.399174,
        0.395208,
        0.389822,
        0.381752,
        0.36806,
        0.368938,
        0.372689,
        0.375627,
        0.367053,
        0.368704,
        0.375484,
        0.372603,
        0.362775,
        0.368667,
        0.376532,
        0.362357,
        0.366671,
        0.367849,
        0.365432,
        0.365814,
        0.364653,
        0.367451,
        0.369245,
        0.366347,
        0.365355,
        0.368743,
        0.364207,
        0.36074,
        0.36684,
        0.364091,
        0.361081,
        0.360092,
        0.356882,
        0.350272,
        0.350369,
        0.348522,
        0.348493,
        0.347108,
        0.342431,
        0.33837,
        0.344724,
        0.35316,
        0.350992,
        0.350843,
        0.348608,
        0.348487,
        0.347933,
        0.348855,
        0.346497,
        0.344851,
        0.346362,
        0.343601,
        0.343012,
        0.343354,
        0.339498,
        0.340923,
        0.340397,
        0.337137,
        0.336853,
        0.337543,
        0.337879,
        0.336277,
        0.335754,
        0.334073,
        0.333854,
        0.331228,
        0.332515,
        0.331103,
        0.330487,
        0.329732,
        0.328897,
        0.328085,
        0.327325,
        0.326597,
        0.325836,
        0.325086,
        0.324291,
        0.323521,
        0.322692,
        0.32193,
        0.321153,
        0.32038,
        0.319609,
        0.318839,
        0.318072,
        0.317306,
        0.316544,
        0.315785,
        0.315031,
        0.314282,
        0.313539,
        0.312798,
        0.312073,
        0.311352,
        0.310641,
        0.30988,
        0.309108,
        0.308367,
        0.30768,
        0.307049,
        0.306605,
        0.306009,
        0.305261,
        0.304747,
        0.303701,
        0.303143,
        0.302093,
        0.303018,
        0.302189,
        0.301014,
        0.298951,
        0.296418,
        0.291476,
        0.295078,
        0.296853,
        0.295421,
        0.29478,
        0.296144,
        0.29727,
        0.293736,
        0.292071,
        0.29229,
        0.292592,
        0.290757,
        0.289876,
        0.290432,
        0.288889,
        0.289232,
        0.288102,
        0.287772,
        0.284241,
        0.286928,
        0.285436,
        0.282072,
        0.284413,
        0.283116,
        0.281421,
        0.279263,
        0.280045,
        0.281978,
        0.280692,
        0.276959,
        0.277173,
        0.276757,
        0.277009,
        0.278404,
        0.276892,
        0.27302,
        0.276324,
        0.27626,
        0.272073,
        0.270714,
        0.272091,
        0.271502,
        0.270929,
        0.269827,
        0.269225,
        0.269714,
        0.268795,
        0.267199,
        0.266467,
        0.267139,
        0.265353,
        0.26536,
        0.265546,
        0.26415,
        0.263921,
        0.263234,
        0.262586,
        0.263121,
        0.261432,
        0.262184,
        0.260958,
        0.260707,
        0.260208,
        0.260631,
        0.258779,
        0.259457,
        0.260672,
        0.25883,
        0.257096,
        0.259026,
        0.257412,
        0.258261,
        0.252885,
        0.253642,
        0.252271,
        0.24998,
        0.247376,
        0.242552,
        0.240884,
        0.245411,
        0.24615,
        0.243355,
        0.248225,
        0.24744,
        0.246517,
        0.245846,
        0.252205,
        0.2507,
        0.251161,
        0.245837,
        0.238064,
        0.227634,
        0.236888,
        0.244589,
        0.243638,
        0.247778,
        0.242825,
        0.242256,
        0.242189,
        0.240836,
        0.23786,
        0.237037,
        0.237531,
        0.237605,
        0.235486,
        0.237112,
        0.23509,
        0.234927,
        0.233897,
        0.232733,
        0.233987,
        0.235192,
        0.234348,
        0.232939,
        0.2336,
        0.233729,
        0.231886,
        0.229881,
        0.229337,
        0.23147,
        0.23119,
        0.231236,
        0.229994,
        0.230225,
        0.229588,
        0.229794,
        0.227563,
        0.227518,
        0.225408,
        0.227467,
        0.229243,
        0.224161,
        0.222866,
        0.222215,
        0.222141,
        0.222872,
        0.224613,
        0.225481,
        0.222796,
        0.22195,
        0.221615,
        0.22165,
        0.221665,
        0.222726,
        0.22088,
        0.215088,
        0.213748,
        0.219605,
        0.220364,
        0.219892,
        0.219319,
        0.220564,
        0.216957,
        0.212159,
        0.21041,
        0.211553,
        0.216225,
        0.218692,
        0.218228,
        0.218043,
        0.217683,
        0.216107,
        0.212959,
        0.209587,
        0.207017,
        0.205022,
        0.206552,
        0.213122,
        0.217008,
        0.217273,
        0.218514,
        0.219262,
        0.219468,
        0.217496,
        0.214637,
        0.210427,
        0.205404,
        0.202389,
        0.194163,
        0.196568,
        0.201602,
        0.209217,
        0.212236,
        0.21336,
        0.217322,
        0.216133,
        0.218339,
        0.215741,
        0.212888,
        0.214687,
        0.211065,
        0.209084,
        0.203495,
        0.199318,
        0.194131,
        0.186906,
        0.188612,
        0.194028,
        0.199618,
        0.200124,
        0.200184,
        0.200198,
        0.204118,
        0.204192,
        0.204554,
        0.20734,
        0.207646,
        0.205337,
        0.204096,
        0.200598,
        0.202651,
        0.200673,
        0.198236,
        0.195659,
        0.194126,
        0.1871,
        0.181864,
        0.174278,
        0.170369,
        0.179797,
        0.186646,
        0.188967,
        0.192346,
        0.19465,
        0.195917,
        0.19526,
        0.197969,
        0.198904,
        0.197663,
        0.196556,
        0.19729,
        0.196033,
        0.193438,
        0.194344,
        0.194101,
        0.192027,
        0.187731,
        0.192237,
        0.187472,
        0.186598,
        0.187802,
        0.187493,
        0.18159,
        0.169933,
        0.173785,
        0.173599,
        0.166128,
        0.163049,
        0.156139,
        0.159415,
        0.165998,
        0.179136,
        0.188195,
        0.191525,
        0.194298,
        0.192691,
        0.188072,
        0.183342,
        0.179291,
        0.177737,
        0.177516,
        0.177913,
        0.178215,
        0.17699,
        0.178787,
        0.176418,
        0.18041,
        0.179595,
        0.179389,
        0.175487,
        0.17801,
        0.173929,
        0.169112,
        0.174624,
        0.177225,
        0.173439,
        0.167845,
        0.169455,
        0.174056,
        0.171868,
        0.170739,
        0.170891,
        0.170329,
        0.173564,
        0.172355,
        0.170945,
        0.170459,
        0.1639,
        0.158557,
        0.157404,
        0.148094,
        0.140178,
        0.1454,
        0.155535,
        0.161908,
        0.164486,
        0.172171,
        0.167164,
        0.171806,
        0.175487,
        0.175951,
        0.170492,
        0.171033,
        0.174869,
        0.170191,
        0.163969,
        0.155577,
        0.153956,
        0.147927,
        0.145537,
        0.145332,
        0.149318,
        0.146838,
        0.146167,
        0.142123,
        0.149878,
        0.143968,
        0.147046,
        0.15162,
        0.148846,
        0.153584,
        0.153824,
        0.16002,
        0.166698,
        0.171975,
        0.16801,
        0.165165,
        0.158053,
        0.158419,
        0.151996,
        0.148076,
        0.143622,
        0.150296,
        0.142717,
        0.146285,
        0.154867,
        0.151327,
        0.149722,
        0.152518,
        0.15409,
        0.151375,
        0.145321,
        0.152291,
        0.153303,
        0.144449,
        0.142614,
        0.146422,
        0.153866,
        0.146548,
        0.13862,
        0.136432,
        0.138376,
        0.140433,
        0.136404,
        0.131446,
        0.133355,
        0.128895,
        0.141186,
        0.145028,
        0.146835,
        0.150352,
        0.147759,
        0.144145,
        0.142499,
        0.139016,
        0.143711,
        0.142965,
        0.145152,
        0.144489,
        0.142349,
        0.143278,
        0.139561,
        0.14025,
        0.140044,
        0.139741,
        0.141262,
        0.143366,
        0.142334,
        0.146152,
        0.142398,
        0.143699,
        0.14167,
        0.144536,
        0.141593,
        0.13965,
        0.138632,
        0.134893,
        0.136857,
        0.134102,
        0.13302,
        0.133007,
        0.135926,
        0.1378,
        0.137345,
        0.132548,
        0.135087,
        0.133642,
        0.132765,
        0.12785,
        0.135824,
        0.134503,
        0.132575,
        0.135058,
        0.132537,
        0.137463,
        0.136146,
        0.133382,
        0.130101,
        0.127024,
        0.129812,
        0.130467,
        0.132817,
        0.131653,
        0.13255,
        0.13469,
        0.131145,
        0.13014,
        0.129112,
        0.131467,
        0.134921,
        0.13223,
        0.124307,
        0.127701,
        0.128683,
        0.126446,
        0.132876,
        0.122743,
        0.12995,
        0.128681,
        0.12727,
        0.123524,
        0.128182,
        0.128354,
        0.122778,
        0.125379,
        0.123159,
        0.128976,
        0.121419,
        0.125495,
        0.123965,
        0.124117,
        0.116717,
        0.116556,
        0.118053,
        0.115544,
        0.111612,
        0.109412,
        0.107725,
        0.106457,
        0.105516,
        0.104845,
        0.10453,
        0.104692,
        0.105452,
        0.106841,
        0.108524,
        0.110076,
        0.111072,
        0.111229,
        0.11084,
        0.110339,
        0.11016,
        0.110585,
        0.111286,
        0.111779,
        0.111584,
        0.110396,
        0.108625,
        0.106862,
        0.105694,
        0.105551,
        0.106222,
        0.107335,
        0.10852,
        0.109461,
        0.110071,
        0.110316,
        0.110164,
        0.109614,
        0.108787,
        0.107838,
        0.10692,
        0.106181,
        0.105743,
        0.105724,
        0.106239,
        0.10732,
        0.108647,
        0.109812,
        0.11041,
        0.11016,
        0.10929,
        0.108154,
        0.107105,
        0.106413,
        0.106014,
        0.105761,
        0.105505,
        0.105125,
        0.104607,
        0.103962,
        0.103203,
        0.102356,
        0.10151,
        0.10077,
        0.100239,
        0.100933,
        0.100832,
        0.100797,
        0.100784,
        0.100762,
        0.100753,
        0.100794,
        0.100922,
        0.10114,
        0.101317,
        0.101288,
        0.100889,
        0.10003,
        0.098927,
        0.09787,
        0.09715,
        0.096983,
        0.097282,
        0.097886,
        0.098633,
        0.099368,
        0.099959,
        0.100283,
        0.100213,
        0.099682,
        0.098849,
        0.097928,
        0.097133,
        0.096632,
        0.096402,
        0.09637,
        0.096463,
        0.096609,
        0.09673,
        0.096747,
        0.096581,
        0.09618,
        0.09559,
        0.09489,
        0.094154
      ],
      "range":1
    }
  }
]
