[
  {
    "model":"Star, type A2(v)",
    "name":"Star, type A2(v)",
    "type":"WB_REF",
    "dataQualityMarker":3,
    "dataSource":"https://www.eso.org/sci/facilities/paranal/decommissioned/isaac/tools/lib.html",
    "manufacturer":"A. Pickles (A.J. Pickles, PASP 110,863, 1998)",
    "version":1,
    "wavelength":{
      "value":[
        1150.0,
        1155.0,
        1160.0,
        1165.0,
        1170.0,
        1175.0,
        1180.0,
        1185.0,
        1190.0,
        1195.0,
        1200.0,
        1205.0,
        1210.0,
        1215.0,
        1220.0,
        1225.0,
        1230.0,
        1235.0,
        1240.0,
        1245.0,
        1250.0,
        1255.0,
        1260.0,
        1265.0,
        1270.0,
        1275.0,
        1280.0,
        1285.0,
        1290.0,
        1295.0,
        1300.0,
        1305.0,
        1310.0,
        1315.0,
        1320.0,
        1325.0,
        1330.0,
        1335.0,
        1340.0,
        1345.0,
        1350.0,
        1355.0,
        1360.0,
        1365.0,
        1370.0,
        1375.0,
        1380.0,
        1385.0,
        1390.0,
        1395.0,
        1400.0,
        1405.0,
        1410.0,
        1415.0,
        1420.0,
        1425.0,
        1430.0,
        1435.0,
        1440.0,
        1445.0,
        1450.0,
        1455.0,
        1460.0,
        1465.0,
        1470.0,
        1475.0,
        1480.0,
        1485.0,
        1490.0,
        1495.0,
        1500.0,
        1505.0,
        1510.0,
        1515.0,
        1520.0,
        1525.0,
        1530.0,
        1535.0,
        1540.0,
        1545.0,
        1550.0,
        1555.0,
        1560.0,
        1565.0,
        1570.0,
        1575.0,
        1580.0,
        1585.0,
        1590.0,
        1595.0,
        1600.0,
        1605.0,
        1610.0,
        1615.0,
        1620.0,
        1625.0,
        1630.0,
        1635.0,
        1640.0,
        1645.0,
        1650.0,
        1655.0,
        1660.0,
        1665.0,
        1670.0,
        1675.0,
        1680.0,
        1685.0,
        1690.0,
        1695.0,
        1700.0,
        1705.0,
        1710.0,
        1715.0,
        1720.0,
        1725.0,
        1730.0,
        1735.0,
        1740.0,
        1745.0,
        1750.0,
        1755.0,
        1760.0,
        1765.0,
        1770.0,
        1775.0,
        1780.0,
        1785.0,
        1790.0,
        1795.0,
        1800.0,
        1805.0,
        1810.0,
        1815.0,
        1820.0,
        1825.0,
        1830.0,
        1835.0,
        1840.0,
        1845.0,
        1850.0,
        1855.0,
        1860.0,
        1865.0,
        1870.0,
        1875.0,
        1880.0,
        1885.0,
        1890.0,
        1895.0,
        1900.0,
        1905.0,
        1910.0,
        1915.0,
        1920.0,
        1925.0,
        1930.0,
        1935.0,
        1940.0,
        1945.0,
        1950.0,
        1955.0,
        1960.0,
        1965.0,
        1970.0,
        1975.0,
        1980.0,
        1985.0,
        1990.0,
        1995.0,
        2000.0,
        2005.0,
        2010.0,
        2015.0,
        2020.0,
        2025.0,
        2030.0,
        2035.0,
        2040.0,
        2045.0,
        2050.0,
        2055.0,
        2060.0,
        2065.0,
        2070.0,
        2075.0,
        2080.0,
        2085.0,
        2090.0,
        2095.0,
        2100.0,
        2105.0,
        2110.0,
        2115.0,
        2120.0,
        2125.0,
        2130.0,
        2135.0,
        2140.0,
        2145.0,
        2150.0,
        2155.0,
        2160.0,
        2165.0,
        2170.0,
        2175.0,
        2180.0,
        2185.0,
        2190.0,
        2195.0,
        2200.0,
        2205.0,
        2210.0,
        2215.0,
        2220.0,
        2225.0,
        2230.0,
        2235.0,
        2240.0,
        2245.0,
        2250.0,
        2255.0,
        2260.0,
        2265.0,
        2270.0,
        2275.0,
        2280.0,
        2285.0,
        2290.0,
        2295.0,
        2300.0,
        2305.0,
        2310.0,
        2315.0,
        2320.0,
        2325.0,
        2330.0,
        2335.0,
        2340.0,
        2345.0,
        2350.0,
        2355.0,
        2360.0,
        2365.0,
        2370.0,
        2375.0,
        2380.0,
        2385.0,
        2390.0,
        2395.0,
        2400.0,
        2405.0,
        2410.0,
        2415.0,
        2420.0,
        2425.0,
        2430.0,
        2435.0,
        2440.0,
        2445.0,
        2450.0,
        2455.0,
        2460.0,
        2465.0,
        2470.0,
        2475.0,
        2480.0,
        2485.0,
        2490.0,
        2495.0,
        2500.0,
        2505.0,
        2510.0,
        2515.0,
        2520.0,
        2525.0,
        2530.0,
        2535.0,
        2540.0,
        2545.0,
        2550.0,
        2555.0,
        2560.0,
        2565.0,
        2570.0,
        2575.0,
        2580.0,
        2585.0,
        2590.0,
        2595.0,
        2600.0,
        2605.0,
        2610.0,
        2615.0,
        2620.0,
        2625.0,
        2630.0,
        2635.0,
        2640.0,
        2645.0,
        2650.0,
        2655.0,
        2660.0,
        2665.0,
        2670.0,
        2675.0,
        2680.0,
        2685.0,
        2690.0,
        2695.0,
        2700.0,
        2705.0,
        2710.0,
        2715.0,
        2720.0,
        2725.0,
        2730.0,
        2735.0,
        2740.0,
        2745.0,
        2750.0,
        2755.0,
        2760.0,
        2765.0,
        2770.0,
        2775.0,
        2780.0,
        2785.0,
        2790.0,
        2795.0,
        2800.0,
        2805.0,
        2810.0,
        2815.0,
        2820.0,
        2825.0,
        2830.0,
        2835.0,
        2840.0,
        2845.0,
        2850.0,
        2855.0,
        2860.0,
        2865.0,
        2870.0,
        2875.0,
        2880.0,
        2885.0,
        2890.0,
        2895.0,
        2900.0,
        2905.0,
        2910.0,
        2915.0,
        2920.0,
        2925.0,
        2930.0,
        2935.0,
        2940.0,
        2945.0,
        2950.0,
        2955.0,
        2960.0,
        2965.0,
        2970.0,
        2975.0,
        2980.0,
        2985.0,
        2990.0,
        2995.0,
        3000.0,
        3005.0,
        3010.0,
        3015.0,
        3020.0,
        3025.0,
        3030.0,
        3035.0,
        3040.0,
        3045.0,
        3050.0,
        3055.0,
        3060.0,
        3065.0,
        3070.0,
        3075.0,
        3080.0,
        3085.0,
        3090.0,
        3095.0,
        3100.0,
        3105.0,
        3110.0,
        3115.0,
        3120.0,
        3125.0,
        3130.0,
        3135.0,
        3140.0,
        3145.0,
        3150.0,
        3155.0,
        3160.0,
        3165.0,
        3170.0,
        3175.0,
        3180.0,
        3185.0,
        3190.0,
        3195.0,
        3200.0,
        3205.0,
        3210.0,
        3215.0,
        3220.0,
        3225.0,
        3230.0,
        3235.0,
        3240.0,
        3245.0,
        3250.0,
        3255.0,
        3260.0,
        3265.0,
        3270.0,
        3275.0,
        3280.0,
        3285.0,
        3290.0,
        3295.0,
        3300.0,
        3305.0,
        3310.0,
        3315.0,
        3320.0,
        3325.0,
        3330.0,
        3335.0,
        3340.0,
        3345.0,
        3350.0,
        3355.0,
        3360.0,
        3365.0,
        3370.0,
        3375.0,
        3380.0,
        3385.0,
        3390.0,
        3395.0,
        3400.0,
        3405.0,
        3410.0,
        3415.0,
        3420.0,
        3425.0,
        3430.0,
        3435.0,
        3440.0,
        3445.0,
        3450.0,
        3455.0,
        3460.0,
        3465.0,
        3470.0,
        3475.0,
        3480.0,
        3485.0,
        3490.0,
        3495.0,
        3500.0,
        3505.0,
        3510.0,
        3515.0,
        3520.0,
        3525.0,
        3530.0,
        3535.0,
        3540.0,
        3545.0,
        3550.0,
        3555.0,
        3560.0,
        3565.0,
        3570.0,
        3575.0,
        3580.0,
        3585.0,
        3590.0,
        3595.0,
        3600.0,
        3605.0,
        3610.0,
        3615.0,
        3620.0,
        3625.0,
        3630.0,
        3635.0,
        3640.0,
        3645.0,
        3650.0,
        3655.0,
        3660.0,
        3665.0,
        3670.0,
        3675.0,
        3680.0,
        3685.0,
        3690.0,
        3695.0,
        3700.0,
        3705.0,
        3710.0,
        3715.0,
        3720.0,
        3725.0,
        3730.0,
        3735.0,
        3740.0,
        3745.0,
        3750.0,
        3755.0,
        3760.0,
        3765.0,
        3770.0,
        3775.0,
        3780.0,
        3785.0,
        3790.0,
        3795.0,
        3800.0,
        3805.0,
        3810.0,
        3815.0,
        3820.0,
        3825.0,
        3830.0,
        3835.0,
        3840.0,
        3845.0,
        3850.0,
        3855.0,
        3860.0,
        3865.0,
        3870.0,
        3875.0,
        3880.0,
        3885.0,
        3890.0,
        3895.0,
        3900.0,
        3905.0,
        3910.0,
        3915.0,
        3920.0,
        3925.0,
        3930.0,
        3935.0,
        3940.0,
        3945.0,
        3950.0,
        3955.0,
        3960.0,
        3965.0,
        3970.0,
        3975.0,
        3980.0,
        3985.0,
        3990.0,
        3995.0,
        4000.0,
        4005.0,
        4010.0,
        4015.0,
        4020.0,
        4025.0,
        4030.0,
        4035.0,
        4040.0,
        4045.0,
        4050.0,
        4055.0,
        4060.0,
        4065.0,
        4070.0,
        4075.0,
        4080.0,
        4085.0,
        4090.0,
        4095.0,
        4100.0,
        4105.0,
        4110.0,
        4115.0,
        4120.0,
        4125.0,
        4130.0,
        4135.0,
        4140.0,
        4145.0,
        4150.0,
        4155.0,
        4160.0,
        4165.0,
        4170.0,
        4175.0,
        4180.0,
        4185.0,
        4190.0,
        4195.0,
        4200.0,
        4205.0,
        4210.0,
        4215.0,
        4220.0,
        4225.0,
        4230.0,
        4235.0,
        4240.0,
        4245.0,
        4250.0,
        4255.0,
        4260.0,
        4265.0,
        4270.0,
        4275.0,
        4280.0,
        4285.0,
        4290.0,
        4295.0,
        4300.0,
        4305.0,
        4310.0,
        4315.0,
        4320.0,
        4325.0,
        4330.0,
        4335.0,
        4340.0,
        4345.0,
        4350.0,
        4355.0,
        4360.0,
        4365.0,
        4370.0,
        4375.0,
        4380.0,
        4385.0,
        4390.0,
        4395.0,
        4400.0,
        4405.0,
        4410.0,
        4415.0,
        4420.0,
        4425.0,
        4430.0,
        4435.0,
        4440.0,
        4445.0,
        4450.0,
        4455.0,
        4460.0,
        4465.0,
        4470.0,
        4475.0,
        4480.0,
        4485.0,
        4490.0,
        4495.0,
        4500.0,
        4505.0,
        4510.0,
        4515.0,
        4520.0,
        4525.0,
        4530.0,
        4535.0,
        4540.0,
        4545.0,
        4550.0,
        4555.0,
        4560.0,
        4565.0,
        4570.0,
        4575.0,
        4580.0,
        4585.0,
        4590.0,
        4595.0,
        4600.0,
        4605.0,
        4610.0,
        4615.0,
        4620.0,
        4625.0,
        4630.0,
        4635.0,
        4640.0,
        4645.0,
        4650.0,
        4655.0,
        4660.0,
        4665.0,
        4670.0,
        4675.0,
        4680.0,
        4685.0,
        4690.0,
        4695.0,
        4700.0,
        4705.0,
        4710.0,
        4715.0,
        4720.0,
        4725.0,
        4730.0,
        4735.0,
        4740.0,
        4745.0,
        4750.0,
        4755.0,
        4760.0,
        4765.0,
        4770.0,
        4775.0,
        4780.0,
        4785.0,
        4790.0,
        4795.0,
        4800.0,
        4805.0,
        4810.0,
        4815.0,
        4820.0,
        4825.0,
        4830.0,
        4835.0,
        4840.0,
        4845.0,
        4850.0,
        4855.0,
        4860.0,
        4865.0,
        4870.0,
        4875.0,
        4880.0,
        4885.0,
        4890.0,
        4895.0,
        4900.0,
        4905.0,
        4910.0,
        4915.0,
        4920.0,
        4925.0,
        4930.0,
        4935.0,
        4940.0,
        4945.0,
        4950.0,
        4955.0,
        4960.0,
        4965.0,
        4970.0,
        4975.0,
        4980.0,
        4985.0,
        4990.0,
        4995.0,
        5000.0,
        5005.0,
        5010.0,
        5015.0,
        5020.0,
        5025.0,
        5030.0,
        5035.0,
        5040.0,
        5045.0,
        5050.0,
        5055.0,
        5060.0,
        5065.0,
        5070.0,
        5075.0,
        5080.0,
        5085.0,
        5090.0,
        5095.0,
        5100.0,
        5105.0,
        5110.0,
        5115.0,
        5120.0,
        5125.0,
        5130.0,
        5135.0,
        5140.0,
        5145.0,
        5150.0,
        5155.0,
        5160.0,
        5165.0,
        5170.0,
        5175.0,
        5180.0,
        5185.0,
        5190.0,
        5195.0,
        5200.0,
        5205.0,
        5210.0,
        5215.0,
        5220.0,
        5225.0,
        5230.0,
        5235.0,
        5240.0,
        5245.0,
        5250.0,
        5255.0,
        5260.0,
        5265.0,
        5270.0,
        5275.0,
        5280.0,
        5285.0,
        5290.0,
        5295.0,
        5300.0,
        5305.0,
        5310.0,
        5315.0,
        5320.0,
        5325.0,
        5330.0,
        5335.0,
        5340.0,
        5345.0,
        5350.0,
        5355.0,
        5360.0,
        5365.0,
        5370.0,
        5375.0,
        5380.0,
        5385.0,
        5390.0,
        5395.0,
        5400.0,
        5405.0,
        5410.0,
        5415.0,
        5420.0,
        5425.0,
        5430.0,
        5435.0,
        5440.0,
        5445.0,
        5450.0,
        5455.0,
        5460.0,
        5465.0,
        5470.0,
        5475.0,
        5480.0,
        5485.0,
        5490.0,
        5495.0,
        5500.0,
        5505.0,
        5510.0,
        5515.0,
        5520.0,
        5525.0,
        5530.0,
        5535.0,
        5540.0,
        5545.0,
        5550.0,
        5555.0,
        5560.0,
        5565.0,
        5570.0,
        5575.0,
        5580.0,
        5585.0,
        5590.0,
        5595.0,
        5600.0,
        5605.0,
        5610.0,
        5615.0,
        5620.0,
        5625.0,
        5630.0,
        5635.0,
        5640.0,
        5645.0,
        5650.0,
        5655.0,
        5660.0,
        5665.0,
        5670.0,
        5675.0,
        5680.0,
        5685.0,
        5690.0,
        5695.0,
        5700.0,
        5705.0,
        5710.0,
        5715.0,
        5720.0,
        5725.0,
        5730.0,
        5735.0,
        5740.0,
        5745.0,
        5750.0,
        5755.0,
        5760.0,
        5765.0,
        5770.0,
        5775.0,
        5780.0,
        5785.0,
        5790.0,
        5795.0,
        5800.0,
        5805.0,
        5810.0,
        5815.0,
        5820.0,
        5825.0,
        5830.0,
        5835.0,
        5840.0,
        5845.0,
        5850.0,
        5855.0,
        5860.0,
        5865.0,
        5870.0,
        5875.0,
        5880.0,
        5885.0,
        5890.0,
        5895.0,
        5900.0,
        5905.0,
        5910.0,
        5915.0,
        5920.0,
        5925.0,
        5930.0,
        5935.0,
        5940.0,
        5945.0,
        5950.0,
        5955.0,
        5960.0,
        5965.0,
        5970.0,
        5975.0,
        5980.0,
        5985.0,
        5990.0,
        5995.0,
        6000.0,
        6005.0,
        6010.0,
        6015.0,
        6020.0,
        6025.0,
        6030.0,
        6035.0,
        6040.0,
        6045.0,
        6050.0,
        6055.0,
        6060.0,
        6065.0,
        6070.0,
        6075.0,
        6080.0,
        6085.0,
        6090.0,
        6095.0,
        6100.0,
        6105.0,
        6110.0,
        6115.0,
        6120.0,
        6125.0,
        6130.0,
        6135.0,
        6140.0,
        6145.0,
        6150.0,
        6155.0,
        6160.0,
        6165.0,
        6170.0,
        6175.0,
        6180.0,
        6185.0,
        6190.0,
        6195.0,
        6200.0,
        6205.0,
        6210.0,
        6215.0,
        6220.0,
        6225.0,
        6230.0,
        6235.0,
        6240.0,
        6245.0,
        6250.0,
        6255.0,
        6260.0,
        6265.0,
        6270.0,
        6275.0,
        6280.0,
        6285.0,
        6290.0,
        6295.0,
        6300.0,
        6305.0,
        6310.0,
        6315.0,
        6320.0,
        6325.0,
        6330.0,
        6335.0,
        6340.0,
        6345.0,
        6350.0,
        6355.0,
        6360.0,
        6365.0,
        6370.0,
        6375.0,
        6380.0,
        6385.0,
        6390.0,
        6395.0,
        6400.0,
        6405.0,
        6410.0,
        6415.0,
        6420.0,
        6425.0,
        6430.0,
        6435.0,
        6440.0,
        6445.0,
        6450.0,
        6455.0,
        6460.0,
        6465.0,
        6470.0,
        6475.0,
        6480.0,
        6485.0,
        6490.0,
        6495.0,
        6500.0,
        6505.0,
        6510.0,
        6515.0,
        6520.0,
        6525.0,
        6530.0,
        6535.0,
        6540.0,
        6545.0,
        6550.0,
        6555.0,
        6560.0,
        6565.0,
        6570.0,
        6575.0,
        6580.0,
        6585.0,
        6590.0,
        6595.0,
        6600.0,
        6605.0,
        6610.0,
        6615.0,
        6620.0,
        6625.0,
        6630.0,
        6635.0,
        6640.0,
        6645.0,
        6650.0,
        6655.0,
        6660.0,
        6665.0,
        6670.0,
        6675.0,
        6680.0,
        6685.0,
        6690.0,
        6695.0,
        6700.0,
        6705.0,
        6710.0,
        6715.0,
        6720.0,
        6725.0,
        6730.0,
        6735.0,
        6740.0,
        6745.0,
        6750.0,
        6755.0,
        6760.0,
        6765.0,
        6770.0,
        6775.0,
        6780.0,
        6785.0,
        6790.0,
        6795.0,
        6800.0,
        6805.0,
        6810.0,
        6815.0,
        6820.0,
        6825.0,
        6830.0,
        6835.0,
        6840.0,
        6845.0,
        6850.0,
        6855.0,
        6860.0,
        6865.0,
        6870.0,
        6875.0,
        6880.0,
        6885.0,
        6890.0,
        6895.0,
        6900.0,
        6905.0,
        6910.0,
        6915.0,
        6920.0,
        6925.0,
        6930.0,
        6935.0,
        6940.0,
        6945.0,
        6950.0,
        6955.0,
        6960.0,
        6965.0,
        6970.0,
        6975.0,
        6980.0,
        6985.0,
        6990.0,
        6995.0,
        7000.0,
        7005.0,
        7010.0,
        7015.0,
        7020.0,
        7025.0,
        7030.0,
        7035.0,
        7040.0,
        7045.0,
        7050.0,
        7055.0,
        7060.0,
        7065.0,
        7070.0,
        7075.0,
        7080.0,
        7085.0,
        7090.0,
        7095.0,
        7100.0,
        7105.0,
        7110.0,
        7115.0,
        7120.0,
        7125.0,
        7130.0,
        7135.0,
        7140.0,
        7145.0,
        7150.0,
        7155.0,
        7160.0,
        7165.0,
        7170.0,
        7175.0,
        7180.0,
        7185.0,
        7190.0,
        7195.0,
        7200.0,
        7205.0,
        7210.0,
        7215.0,
        7220.0,
        7225.0,
        7230.0,
        7235.0,
        7240.0,
        7245.0,
        7250.0,
        7255.0,
        7260.0,
        7265.0,
        7270.0,
        7275.0,
        7280.0,
        7285.0,
        7290.0,
        7295.0,
        7300.0,
        7305.0,
        7310.0,
        7315.0,
        7320.0,
        7325.0,
        7330.0,
        7335.0,
        7340.0,
        7345.0,
        7350.0,
        7355.0,
        7360.0,
        7365.0,
        7370.0,
        7375.0,
        7380.0,
        7385.0,
        7390.0,
        7395.0,
        7400.0,
        7405.0,
        7410.0,
        7415.0,
        7420.0,
        7425.0,
        7430.0,
        7435.0,
        7440.0,
        7445.0,
        7450.0,
        7455.0,
        7460.0,
        7465.0,
        7470.0,
        7475.0,
        7480.0,
        7485.0,
        7490.0,
        7495.0,
        7500.0,
        7505.0,
        7510.0,
        7515.0,
        7520.0,
        7525.0,
        7530.0,
        7535.0,
        7540.0,
        7545.0,
        7550.0,
        7555.0,
        7560.0,
        7565.0,
        7570.0,
        7575.0,
        7580.0,
        7585.0,
        7590.0,
        7595.0,
        7600.0,
        7605.0,
        7610.0,
        7615.0,
        7620.0,
        7625.0,
        7630.0,
        7635.0,
        7640.0,
        7645.0,
        7650.0,
        7655.0,
        7660.0,
        7665.0,
        7670.0,
        7675.0,
        7680.0,
        7685.0,
        7690.0,
        7695.0,
        7700.0,
        7705.0,
        7710.0,
        7715.0,
        7720.0,
        7725.0,
        7730.0,
        7735.0,
        7740.0,
        7745.0,
        7750.0,
        7755.0,
        7760.0,
        7765.0,
        7770.0,
        7775.0,
        7780.0,
        7785.0,
        7790.0,
        7795.0,
        7800.0,
        7805.0,
        7810.0,
        7815.0,
        7820.0,
        7825.0,
        7830.0,
        7835.0,
        7840.0,
        7845.0,
        7850.0,
        7855.0,
        7860.0,
        7865.0,
        7870.0,
        7875.0,
        7880.0,
        7885.0,
        7890.0,
        7895.0,
        7900.0,
        7905.0,
        7910.0,
        7915.0,
        7920.0,
        7925.0,
        7930.0,
        7935.0,
        7940.0,
        7945.0,
        7950.0,
        7955.0,
        7960.0,
        7965.0,
        7970.0,
        7975.0,
        7980.0,
        7985.0,
        7990.0,
        7995.0,
        8000.0,
        8005.0,
        8010.0,
        8015.0,
        8020.0,
        8025.0,
        8030.0,
        8035.0,
        8040.0,
        8045.0,
        8050.0,
        8055.0,
        8060.0,
        8065.0,
        8070.0,
        8075.0,
        8080.0,
        8085.0,
        8090.0,
        8095.0,
        8100.0,
        8105.0,
        8110.0,
        8115.0,
        8120.0,
        8125.0,
        8130.0,
        8135.0,
        8140.0,
        8145.0,
        8150.0,
        8155.0,
        8160.0,
        8165.0,
        8170.0,
        8175.0,
        8180.0,
        8185.0,
        8190.0,
        8195.0,
        8200.0,
        8205.0,
        8210.0,
        8215.0,
        8220.0,
        8225.0,
        8230.0,
        8235.0,
        8240.0,
        8245.0,
        8250.0,
        8255.0,
        8260.0,
        8265.0,
        8270.0,
        8275.0,
        8280.0,
        8285.0,
        8290.0,
        8295.0,
        8300.0,
        8305.0,
        8310.0,
        8315.0,
        8320.0,
        8325.0,
        8330.0,
        8335.0,
        8340.0,
        8345.0,
        8350.0,
        8355.0,
        8360.0,
        8365.0,
        8370.0,
        8375.0,
        8380.0,
        8385.0,
        8390.0,
        8395.0,
        8400.0,
        8405.0,
        8410.0,
        8415.0,
        8420.0,
        8425.0,
        8430.0,
        8435.0,
        8440.0,
        8445.0,
        8450.0,
        8455.0,
        8460.0,
        8465.0,
        8470.0,
        8475.0,
        8480.0,
        8485.0,
        8490.0,
        8495.0,
        8500.0,
        8505.0,
        8510.0,
        8515.0,
        8520.0,
        8525.0,
        8530.0,
        8535.0,
        8540.0,
        8545.0,
        8550.0,
        8555.0,
        8560.0,
        8565.0,
        8570.0,
        8575.0,
        8580.0,
        8585.0,
        8590.0,
        8595.0,
        8600.0,
        8605.0,
        8610.0,
        8615.0,
        8620.0,
        8625.0,
        8630.0,
        8635.0,
        8640.0,
        8645.0,
        8650.0,
        8655.0,
        8660.0,
        8665.0,
        8670.0,
        8675.0,
        8680.0,
        8685.0,
        8690.0,
        8695.0,
        8700.0,
        8705.0,
        8710.0,
        8715.0,
        8720.0,
        8725.0,
        8730.0,
        8735.0,
        8740.0,
        8745.0,
        8750.0,
        8755.0,
        8760.0,
        8765.0,
        8770.0,
        8775.0,
        8780.0,
        8785.0,
        8790.0,
        8795.0,
        8800.0,
        8805.0,
        8810.0,
        8815.0,
        8820.0,
        8825.0,
        8830.0,
        8835.0,
        8840.0,
        8845.0,
        8850.0,
        8855.0,
        8860.0,
        8865.0,
        8870.0,
        8875.0,
        8880.0,
        8885.0,
        8890.0,
        8895.0,
        8900.0,
        8905.0,
        8910.0,
        8915.0,
        8920.0,
        8925.0,
        8930.0,
        8935.0,
        8940.0,
        8945.0,
        8950.0,
        8955.0,
        8960.0,
        8965.0,
        8970.0,
        8975.0,
        8980.0,
        8985.0,
        8990.0,
        8995.0,
        9000.0,
        9005.0,
        9010.0,
        9015.0,
        9020.0,
        9025.0,
        9030.0,
        9035.0,
        9040.0,
        9045.0,
        9050.0,
        9055.0,
        9060.0,
        9065.0,
        9070.0,
        9075.0,
        9080.0,
        9085.0,
        9090.0,
        9095.0,
        9100.0,
        9105.0,
        9110.0,
        9115.0,
        9120.0,
        9125.0,
        9130.0,
        9135.0,
        9140.0,
        9145.0,
        9150.0,
        9155.0,
        9160.0,
        9165.0,
        9170.0,
        9175.0,
        9180.0,
        9185.0,
        9190.0,
        9195.0,
        9200.0,
        9205.0,
        9210.0,
        9215.0,
        9220.0,
        9225.0,
        9230.0,
        9235.0,
        9240.0,
        9245.0,
        9250.0,
        9255.0,
        9260.0,
        9265.0,
        9270.0,
        9275.0,
        9280.0,
        9285.0,
        9290.0,
        9295.0,
        9300.0,
        9305.0,
        9310.0,
        9315.0,
        9320.0,
        9325.0,
        9330.0,
        9335.0,
        9340.0,
        9345.0,
        9350.0,
        9355.0,
        9360.0,
        9365.0,
        9370.0,
        9375.0,
        9380.0,
        9385.0,
        9390.0,
        9395.0,
        9400.0,
        9405.0,
        9410.0,
        9415.0,
        9420.0,
        9425.0,
        9430.0,
        9435.0,
        9440.0,
        9445.0,
        9450.0,
        9455.0,
        9460.0,
        9465.0,
        9470.0,
        9475.0,
        9480.0,
        9485.0,
        9490.0,
        9495.0,
        9500.0,
        9505.0,
        9510.0,
        9515.0,
        9520.0,
        9525.0,
        9530.0,
        9535.0,
        9540.0,
        9545.0,
        9550.0,
        9555.0,
        9560.0,
        9565.0,
        9570.0,
        9575.0,
        9580.0,
        9585.0,
        9590.0,
        9595.0,
        9600.0,
        9605.0,
        9610.0,
        9615.0,
        9620.0,
        9625.0,
        9630.0,
        9635.0,
        9640.0,
        9645.0,
        9650.0,
        9655.0,
        9660.0,
        9665.0,
        9670.0,
        9675.0,
        9680.0,
        9685.0,
        9690.0,
        9695.0,
        9700.0,
        9705.0,
        9710.0,
        9715.0,
        9720.0,
        9725.0,
        9730.0,
        9735.0,
        9740.0,
        9745.0,
        9750.0,
        9755.0,
        9760.0,
        9765.0,
        9770.0,
        9775.0,
        9780.0,
        9785.0,
        9790.0,
        9795.0,
        9800.0,
        9805.0,
        9810.0,
        9815.0,
        9820.0,
        9825.0,
        9830.0,
        9835.0,
        9840.0,
        9845.0,
        9850.0,
        9855.0,
        9860.0,
        9865.0,
        9870.0,
        9875.0,
        9880.0,
        9885.0,
        9890.0,
        9895.0,
        9900.0,
        9905.0,
        9910.0,
        9915.0,
        9920.0,
        9925.0,
        9930.0,
        9935.0,
        9940.0,
        9945.0,
        9950.0,
        9955.0,
        9960.0,
        9965.0,
        9970.0,
        9975.0,
        9980.0,
        9985.0,
        9990.0,
        9995.0,
        10000.0,
        10005.0,
        10010.0,
        10015.0,
        10020.0,
        10025.0,
        10030.0,
        10035.0,
        10040.0,
        10045.0,
        10050.0,
        10055.0,
        10060.0,
        10065.0,
        10070.0,
        10075.0,
        10080.0,
        10085.0,
        10090.0,
        10095.0,
        10100.0,
        10105.0,
        10110.0,
        10115.0,
        10120.0,
        10125.0,
        10130.0,
        10135.0,
        10140.0,
        10145.0,
        10150.0,
        10155.0,
        10160.0,
        10165.0,
        10170.0,
        10175.0,
        10180.0,
        10185.0,
        10190.0,
        10195.0,
        10200.0,
        10205.0,
        10210.0,
        10215.0,
        10220.0,
        10225.0,
        10230.0,
        10235.0,
        10240.0,
        10245.0,
        10250.0,
        10255.0,
        10260.0,
        10265.0,
        10270.0,
        10275.0,
        10280.0,
        10285.0,
        10290.0,
        10295.0,
        10300.0,
        10305.0,
        10310.0,
        10315.0,
        10320.0,
        10325.0,
        10330.0,
        10335.0,
        10340.0,
        10345.0,
        10350.0,
        10355.0,
        10360.0,
        10365.0,
        10370.0,
        10375.0,
        10380.0,
        10385.0,
        10390.0,
        10395.0,
        10400.0,
        10405.0,
        10410.0,
        10415.0,
        10420.0,
        10425.0,
        10430.0,
        10435.0,
        10440.0,
        10445.0,
        10450.0,
        10455.0,
        10460.0,
        10465.0,
        10470.0,
        10475.0,
        10480.0,
        10485.0,
        10490.0,
        10495.0,
        10500.0
      ],
      "units":"angstrom"
    },
    "values":{
      "value":[
        0.048772,
        0.08081,
        0.045105,
        0.0,
        0.0,
        0.0,
        0.0,
        0.0,
        0.0,
        0.0,
        0.0,
        0.01991,
        0.04076,
        0.060314,
        0.042427,
        0.00657,
        0.0,
        0.0,
        0.0,
        0.0093,
        0.027538,
        0.037438,
        0.03156,
        0.05137,
        0.129364,
        0.152724,
        0.206271,
        0.29434,
        0.284121,
        0.325176,
        0.312861,
        0.207035,
        0.205818,
        0.378064,
        0.516613,
        0.509219,
        0.469999,
        0.456474,
        0.602398,
        0.707192,
        0.625617,
        0.554425,
        0.585936,
        0.586939,
        0.57795,
        0.620958,
        0.617573,
        0.626609,
        0.653152,
        0.648686,
        0.655104,
        0.685234,
        0.670128,
        0.700653,
        0.74417,
        0.79238,
        0.784451,
        0.691923,
        0.770701,
        0.85267,
        0.920204,
        0.952583,
        0.935521,
        0.888617,
        0.850843,
        0.84773,
        0.864767,
        0.898421,
        0.993426,
        1.011061,
        1.095753,
        1.053715,
        0.918713,
        0.90911,
        1.002487,
        0.953331,
        0.868277,
        0.858747,
        0.983363,
        1.07052,
        1.069504,
        1.026595,
        0.991489,
        1.021673,
        1.045555,
        1.024684,
        1.167998,
        1.209682,
        1.158308,
        1.114007,
        1.152654,
        1.132959,
        1.100852,
        1.118465,
        1.127225,
        1.13615,
        1.100201,
        1.07935,
        1.086797,
        1.136064,
        1.111403,
        0.983501,
        0.927513,
        1.046428,
        1.013038,
        0.97295,
        1.074331,
        1.116373,
        1.120287,
        1.130247,
        1.110143,
        1.109293,
        1.096222,
        1.08266,
        1.056915,
        1.016341,
        1.061069,
        1.105294,
        1.133167,
        1.147622,
        1.146857,
        1.207994,
        1.180336,
        1.082725,
        1.078491,
        1.122045,
        1.151984,
        1.077211,
        0.944697,
        1.183283,
        1.260551,
        1.221854,
        1.203552,
        1.211014,
        1.208987,
        1.193883,
        1.147665,
        1.127262,
        1.099923,
        1.079189,
        1.098963,
        1.085838,
        1.077041,
        1.082379,
        1.108205,
        1.130922,
        1.130334,
        1.133842,
        1.110069,
        1.080564,
        1.042127,
        1.035678,
        1.036147,
        1.047876,
        1.053135,
        1.051751,
        1.033955,
        1.033672,
        1.067928,
        1.096705,
        1.086554,
        1.070048,
        1.061546,
        1.017227,
        1.036394,
        1.110458,
        1.046026,
        1.002819,
        0.973589,
        0.93991,
        0.9871,
        0.97265,
        0.949257,
        0.976768,
        0.937004,
        0.922009,
        0.965908,
        0.974127,
        0.927801,
        0.958224,
        0.952444,
        0.939004,
        0.85342,
        0.881144,
        0.910309,
        0.941347,
        0.989236,
        0.951419,
        0.961494,
        0.905096,
        0.88221,
        0.893115,
        0.887075,
        0.920811,
        0.897518,
        0.956271,
        0.948809,
        0.805323,
        0.757371,
        0.779653,
        0.813341,
        0.856002,
        0.861915,
        0.803662,
        0.803501,
        0.737987,
        0.736423,
        0.744711,
        0.80033,
        0.866289,
        0.852338,
        0.777862,
        0.733407,
        0.688944,
        0.673776,
        0.741323,
        0.733396,
        0.705085,
        0.727864,
        0.673793,
        0.71228,
        0.716169,
        0.690594,
        0.716653,
        0.741698,
        0.728737,
        0.754769,
        0.73805,
        0.760701,
        0.765453,
        0.751307,
        0.741022,
        0.763875,
        0.748198,
        0.677025,
        0.68825,
        0.745198,
        0.692884,
        0.659359,
        0.65925,
        0.637556,
        0.656535,
        0.661012,
        0.619454,
        0.636822,
        0.686468,
        0.691743,
        0.609688,
        0.570636,
        0.623625,
        0.659276,
        0.620767,
        0.579455,
        0.593557,
        0.654564,
        0.772185,
        0.788376,
        0.720614,
        0.714904,
        0.756274,
        0.736599,
        0.766139,
        0.785951,
        0.763648,
        0.717838,
        0.716485,
        0.73403,
        0.734686,
        0.723533,
        0.712069,
        0.788493,
        0.773021,
        0.748999,
        0.759301,
        0.738479,
        0.704268,
        0.664091,
        0.694552,
        0.651929,
        0.663343,
        0.711964,
        0.739542,
        0.76184,
        0.773341,
        0.842671,
        0.803415,
        0.635071,
        0.636797,
        0.748339,
        0.790075,
        0.739125,
        0.752882,
        0.776477,
        0.731861,
        0.78259,
        0.77678,
        0.75044,
        0.794892,
        0.829723,
        0.887244,
        0.932165,
        0.899366,
        0.843955,
        0.792704,
        0.795197,
        0.82315,
        0.840732,
        0.823902,
        0.801476,
        0.770924,
        0.779702,
        0.830657,
        0.792607,
        0.764665,
        0.781997,
        0.795588,
        0.836708,
        0.846288,
        0.813151,
        0.783818,
        0.745126,
        0.7242,
        0.758751,
        0.794624,
        0.819149,
        0.814987,
        0.803459,
        0.779873,
        0.800028,
        0.688237,
        0.560928,
        0.634847,
        0.779432,
        0.847296,
        0.847432,
        0.835958,
        0.820808,
        0.834334,
        0.862731,
        0.830902,
        0.825667,
        0.822967,
        0.819314,
        0.817555,
        0.809185,
        0.813366,
        0.823311,
        0.82947,
        0.813682,
        0.824097,
        0.856594,
        0.869074,
        0.888518,
        0.894086,
        0.902356,
        0.85725,
        0.865761,
        0.871996,
        0.873998,
        0.914849,
        0.877851,
        0.90707,
        0.916915,
        0.876673,
        0.872402,
        0.91354,
        0.942143,
        0.900569,
        0.890384,
        0.89533,
        0.889381,
        0.867013,
        0.902474,
        0.908181,
        0.870989,
        0.85345,
        0.901873,
        0.894244,
        0.894807,
        0.903744,
        0.906209,
        0.882601,
        0.867015,
        0.864492,
        0.856776,
        0.899451,
        0.924536,
        0.933755,
        0.933245,
        0.915498,
        0.877399,
        0.868357,
        0.855515,
        0.858062,
        0.826583,
        0.849798,
        0.842076,
        0.877046,
        0.927064,
        0.934686,
        0.933432,
        0.950706,
        0.935276,
        0.927976,
        0.968695,
        0.966431,
        0.919748,
        0.901822,
        0.893604,
        0.889418,
        0.910571,
        0.917982,
        0.914699,
        0.887743,
        0.85432,
        0.835685,
        0.8391,
        0.862876,
        0.883493,
        0.881547,
        0.875913,
        0.886768,
        0.901226,
        0.90316,
        0.896541,
        0.889036,
        0.88298,
        0.879937,
        0.883689,
        0.895861,
        0.907212,
        0.908782,
        0.903602,
        0.89723,
        0.893336,
        0.89333,
        0.891465,
        0.883465,
        0.878087,
        0.883363,
        0.891375,
        0.892436,
        0.885742,
        0.873919,
        0.864441,
        0.863812,
        0.869802,
        0.877596,
        0.880771,
        0.875405,
        0.86918,
        0.869962,
        0.874734,
        0.878511,
        0.879304,
        0.876663,
        0.873285,
        0.871391,
        0.868129,
        0.86159,
        0.85869,
        0.864391,
        0.867011,
        0.856449,
        0.845597,
        0.847753,
        0.854866,
        0.855335,
        0.844707,
        0.824931,
        0.816418,
        0.834278,
        0.842766,
        0.837984,
        0.842707,
        0.846364,
        0.847867,
        0.855693,
        0.852023,
        0.855343,
        0.856774,
        0.848823,
        0.833435,
        0.806491,
        0.799122,
        0.801782,
        0.811904,
        0.799178,
        0.797385,
        0.821587,
        0.835004,
        0.815578,
        0.765291,
        0.761955,
        0.785754,
        0.819209,
        0.818027,
        0.807173,
        0.826602,
        0.828027,
        0.824475,
        0.844642,
        0.851688,
        0.836367,
        0.828607,
        0.803935,
        0.792329,
        0.800424,
        0.82435,
        0.833893,
        0.858434,
        0.830689,
        0.8403,
        0.884579,
        0.884502,
        0.930929,
        0.975159,
        0.87518,
        1.0553,
        1.061362,
        0.866205,
        1.05765,
        1.245307,
        1.135631,
        0.910495,
        1.122964,
        1.506279,
        1.643476,
        1.443973,
        1.076944,
        1.051178,
        1.449358,
        1.814698,
        1.963344,
        1.902758,
        1.641367,
        1.238233,
        0.946711,
        1.183845,
        1.623371,
        1.936252,
        2.12883,
        2.211425,
        2.263114,
        2.178019,
        1.898178,
        1.539756,
        1.110898,
        0.950602,
        1.313165,
        1.70562,
        2.000964,
        2.228504,
        2.302248,
        2.352494,
        2.349095,
        2.077487,
        1.953954,
        2.268402,
        2.271302,
        2.153929,
        1.936466,
        1.600858,
        1.169462,
        0.870281,
        1.176203,
        1.617409,
        1.930121,
        2.121762,
        2.233527,
        2.281556,
        2.318671,
        2.362419,
        2.385537,
        2.398529,
        2.367473,
        2.353317,
        2.385643,
        2.404873,
        2.35043,
        2.351461,
        2.356511,
        2.318976,
        2.269607,
        2.194996,
        2.094512,
        2.004461,
        1.884568,
        1.640538,
        1.294262,
        0.950647,
        1.000737,
        1.377002,
        1.703971,
        1.904418,
        1.994694,
        2.033967,
        2.112509,
        2.17169,
        2.173666,
        2.194596,
        2.190008,
        2.200183,
        2.224786,
        2.188926,
        2.129922,
        2.123109,
        2.140516,
        2.155073,
        2.153191,
        2.115216,
        2.14176,
        2.161181,
        2.122995,
        2.117833,
        2.090325,
        2.065279,
        2.067605,
        2.105541,
        2.083151,
        2.053111,
        2.059645,
        2.03804,
        2.040509,
        2.009441,
        1.993159,
        2.052364,
        2.042666,
        1.994315,
        1.966927,
        1.909439,
        1.86888,
        1.85985,
        1.80549,
        1.721439,
        1.584174,
        1.387736,
        1.10038,
        0.828133,
        0.939009,
        1.238777,
        1.485828,
        1.650422,
        1.770467,
        1.826794,
        1.858662,
        1.897603,
        1.867614,
        1.890381,
        1.892859,
        1.901195,
        1.903415,
        1.917146,
        1.878563,
        1.879709,
        1.922172,
        1.90956,
        1.895152,
        1.895269,
        1.871927,
        1.907464,
        1.912082,
        1.885135,
        1.869801,
        1.837555,
        1.847553,
        1.786736,
        1.80426,
        1.816487,
        1.83784,
        1.845022,
        1.836659,
        1.821699,
        1.789605,
        1.762996,
        1.767388,
        1.765345,
        1.765559,
        1.785736,
        1.772145,
        1.693238,
        1.695421,
        1.725753,
        1.749119,
        1.738701,
        1.72136,
        1.708716,
        1.699131,
        1.698346,
        1.719539,
        1.724264,
        1.717236,
        1.714494,
        1.696736,
        1.697438,
        1.68301,
        1.651956,
        1.657052,
        1.690797,
        1.679931,
        1.66828,
        1.658651,
        1.662189,
        1.649415,
        1.641207,
        1.650798,
        1.661545,
        1.670636,
        1.665922,
        1.650078,
        1.62173,
        1.622197,
        1.595498,
        1.579937,
        1.580069,
        1.588162,
        1.57348,
        1.558096,
        1.570181,
        1.573089,
        1.552812,
        1.541291,
        1.533266,
        1.518384,
        1.517116,
        1.502874,
        1.514471,
        1.521286,
        1.530087,
        1.529285,
        1.510589,
        1.484858,
        1.455228,
        1.462817,
        1.458191,
        1.414545,
        1.376167,
        1.325563,
        1.270089,
        1.174284,
        1.02432,
        0.841809,
        0.668883,
        0.723993,
        0.906405,
        1.053309,
        1.171758,
        1.239208,
        1.287163,
        1.327099,
        1.344887,
        1.358364,
        1.384265,
        1.395308,
        1.368221,
        1.372824,
        1.400129,
        1.39121,
        1.399568,
        1.407213,
        1.407628,
        1.380666,
        1.37025,
        1.382605,
        1.377469,
        1.374885,
        1.356369,
        1.344657,
        1.361129,
        1.369437,
        1.344536,
        1.312805,
        1.310202,
        1.292996,
        1.280268,
        1.306953,
        1.317892,
        1.313054,
        1.308424,
        1.320768,
        1.306816,
        1.298699,
        1.294507,
        1.281642,
        1.272933,
        1.288309,
        1.288684,
        1.286826,
        1.292426,
        1.271245,
        1.263389,
        1.284449,
        1.282414,
        1.276694,
        1.257702,
        1.246524,
        1.246153,
        1.241935,
        1.242223,
        1.255258,
        1.251392,
        1.23833,
        1.228012,
        1.186206,
        1.160203,
        1.197253,
        1.203329,
        1.179898,
        1.182476,
        1.182377,
        1.187093,
        1.182728,
        1.186563,
        1.199009,
        1.192398,
        1.161335,
        1.149402,
        1.152893,
        1.167848,
        1.177416,
        1.167306,
        1.1637,
        1.161237,
        1.134498,
        1.119901,
        1.110913,
        1.12508,
        1.138808,
        1.153442,
        1.152383,
        1.147702,
        1.136179,
        1.123265,
        1.106792,
        1.106297,
        1.114831,
        1.106132,
        1.102239,
        1.100799,
        1.114951,
        1.127091,
        1.13155,
        1.110391,
        1.090629,
        1.088778,
        1.092763,
        1.09107,
        1.090017,
        1.096021,
        1.077974,
        1.064363,
        1.062417,
        1.068424,
        1.066843,
        1.062284,
        1.063374,
        1.065694,
        1.07276,
        1.080754,
        1.059627,
        1.05759,
        1.055028,
        1.057603,
        1.04745,
        1.047183,
        1.03977,
        1.024468,
        1.028427,
        1.022418,
        1.027056,
        1.030776,
        1.027155,
        1.026147,
        1.026965,
        1.015918,
        1.00587,
        0.996693,
        1.004769,
        1.009369,
        1.012038,
        1.017048,
        1.015598,
        1.007968,
        0.99717,
        0.983368,
        0.98361,
        0.988414,
        0.984235,
        0.975111,
        0.972183,
        0.975562,
        0.975594,
        0.980124,
        0.974577,
        0.973209,
        0.960996,
        0.957428,
        0.959275,
        0.958803,
        0.954701,
        0.950173,
        0.944928,
        0.933942,
        0.936396,
        0.939003,
        0.944512,
        0.938255,
        0.932773,
        0.92926,
        0.927146,
        0.924326,
        0.91649,
        0.920086,
        0.926873,
        0.922968,
        0.924114,
        0.918862,
        0.910236,
        0.907275,
        0.894578,
        0.895186,
        0.898467,
        0.89932,
        0.903765,
        0.900227,
        0.892424,
        0.882067,
        0.882008,
        0.88093,
        0.880678,
        0.878065,
        0.882329,
        0.885737,
        0.886285,
        0.879277,
        0.873311,
        0.863257,
        0.860542,
        0.86655,
        0.87744,
        0.873284,
        0.867625,
        0.87651,
        0.876446,
        0.877808,
        0.88088,
        0.863586,
        0.834537,
        0.802316,
        0.801516,
        0.826145,
        0.846572,
        0.841184,
        0.839019,
        0.835549,
        0.828654,
        0.8312,
        0.821018,
        0.817945,
        0.816001,
        0.819064,
        0.815577,
        0.812228,
        0.820608,
        0.811386,
        0.806256,
        0.802269,
        0.801364,
        0.803982,
        0.8046,
        0.796518,
        0.788527,
        0.7916,
        0.788329,
        0.783457,
        0.798538,
        0.786868,
        0.785658,
        0.780235,
        0.78256,
        0.779211,
        0.768785,
        0.770084,
        0.771618,
        0.767251,
        0.765687,
        0.765389,
        0.758615,
        0.754554,
        0.761649,
        0.761886,
        0.751945,
        0.761076,
        0.763734,
        0.753619,
        0.745308,
        0.736318,
        0.730493,
        0.727402,
        0.732158,
        0.739791,
        0.738359,
        0.730541,
        0.733316,
        0.731078,
        0.730098,
        0.737211,
        0.733722,
        0.73334,
        0.729231,
        0.726465,
        0.727627,
        0.726098,
        0.717556,
        0.711469,
        0.712477,
        0.707334,
        0.704662,
        0.705276,
        0.706,
        0.702399,
        0.711166,
        0.708149,
        0.699534,
        0.695186,
        0.686028,
        0.671626,
        0.685007,
        0.683555,
        0.682651,
        0.684047,
        0.682078,
        0.686096,
        0.680733,
        0.679375,
        0.681957,
        0.681146,
        0.678683,
        0.674824,
        0.668204,
        0.665075,
        0.67904,
        0.674615,
        0.673226,
        0.665573,
        0.661959,
        0.664231,
        0.665459,
        0.668131,
        0.66669,
        0.665006,
        0.661004,
        0.653698,
        0.655716,
        0.654597,
        0.656806,
        0.656409,
        0.651375,
        0.652526,
        0.647449,
        0.642168,
        0.637008,
        0.638215,
        0.641654,
        0.642378,
        0.643483,
        0.642186,
        0.638401,
        0.636552,
        0.623021,
        0.625846,
        0.6332,
        0.62906,
        0.619061,
        0.617035,
        0.619056,
        0.612346,
        0.599738,
        0.58328,
        0.558883,
        0.524521,
        0.475142,
        0.401993,
        0.377366,
        0.452615,
        0.511641,
        0.545588,
        0.566418,
        0.577915,
        0.587645,
        0.59554,
        0.596479,
        0.598459,
        0.599998,
        0.598513,
        0.601953,
        0.606518,
        0.603826,
        0.600234,
        0.600461,
        0.601201,
        0.59592,
        0.594233,
        0.591049,
        0.589359,
        0.58668,
        0.586981,
        0.592762,
        0.592749,
        0.592045,
        0.58712,
        0.586241,
        0.583251,
        0.580081,
        0.579103,
        0.579666,
        0.579726,
        0.575939,
        0.572173,
        0.570686,
        0.570126,
        0.571722,
        0.576524,
        0.578651,
        0.571459,
        0.569201,
        0.568162,
        0.567452,
        0.568642,
        0.565872,
        0.564842,
        0.561197,
        0.557704,
        0.557398,
        0.556132,
        0.556879,
        0.557212,
        0.557286,
        0.565286,
        0.563109,
        0.559453,
        0.554986,
        0.550376,
        0.546197,
        0.542636,
        0.539784,
        0.537732,
        0.536504,
        0.535852,
        0.53546,
        0.535014,
        0.534287,
        0.533415,
        0.532624,
        0.532139,
        0.53209,
        0.532224,
        0.53219,
        0.531638,
        0.530329,
        0.528463,
        0.52635,
        0.524299,
        0.522553,
        0.521091,
        0.524488,
        0.520911,
        0.520729,
        0.517325,
        0.516107,
        0.511973,
        0.507516,
        0.509194,
        0.510073,
        0.51149,
        0.508317,
        0.507455,
        0.510578,
        0.509144,
        0.5082,
        0.506307,
        0.505756,
        0.505816,
        0.504568,
        0.503803,
        0.501473,
        0.501185,
        0.504641,
        0.505955,
        0.502601,
        0.498237,
        0.494968,
        0.49196,
        0.491464,
        0.492767,
        0.495329,
        0.497788,
        0.496225,
        0.490622,
        0.494676,
        0.496409,
        0.496651,
        0.494615,
        0.487228,
        0.478721,
        0.474826,
        0.471457,
        0.46414,
        0.465386,
        0.46565,
        0.462013,
        0.459662,
        0.472661,
        0.479326,
        0.477642,
        0.474334,
        0.472046,
        0.466026,
        0.464259,
        0.461887,
        0.462011,
        0.45793,
        0.45954,
        0.458415,
        0.458569,
        0.451483,
        0.45291,
        0.455204,
        0.447794,
        0.449187,
        0.448139,
        0.447555,
        0.447086,
        0.444609,
        0.447341,
        0.452642,
        0.449198,
        0.444522,
        0.448161,
        0.446825,
        0.444296,
        0.445231,
        0.446773,
        0.446045,
        0.44192,
        0.442545,
        0.443919,
        0.440821,
        0.442457,
        0.443473,
        0.444191,
        0.443419,
        0.438608,
        0.440157,
        0.442572,
        0.440056,
        0.439806,
        0.440769,
        0.438747,
        0.4369,
        0.438074,
        0.438488,
        0.437643,
        0.43448,
        0.433517,
        0.431269,
        0.429573,
        0.428858,
        0.427357,
        0.425856,
        0.426143,
        0.425469,
        0.423105,
        0.420945,
        0.421861,
        0.420047,
        0.419348,
        0.417649,
        0.415088,
        0.412794,
        0.410009,
        0.40892,
        0.409922,
        0.413427,
        0.417914,
        0.42138,
        0.421824,
        0.417876,
        0.410703,
        0.402106,
        0.393887,
        0.38754,
        0.383338,
        0.381247,
        0.381236,
        0.383147,
        0.386335,
        0.390028,
        0.393458,
        0.395956,
        0.397264,
        0.397225,
        0.39568,
        0.392678,
        0.38908,
        0.385955,
        0.38437,
        0.385031,
        0.38721,
        0.389816,
        0.39176,
        0.392234,
        0.391559,
        0.390339,
        0.389175,
        0.388524,
        0.388262,
        0.38892,
        0.388545,
        0.386608,
        0.38618,
        0.385583,
        0.384669,
        0.383087,
        0.37785,
        0.370136,
        0.375355,
        0.380213,
        0.37994,
        0.380397,
        0.380121,
        0.381261,
        0.380532,
        0.380784,
        0.380216,
        0.37925,
        0.37715,
        0.374943,
        0.374064,
        0.373224,
        0.371863,
        0.372743,
        0.372844,
        0.371648,
        0.371071,
        0.369612,
        0.367924,
        0.369082,
        0.368397,
        0.365189,
        0.364032,
        0.363976,
        0.361808,
        0.359146,
        0.358258,
        0.358565,
        0.35853,
        0.359294,
        0.359517,
        0.357787,
        0.358447,
        0.358571,
        0.356687,
        0.356897,
        0.355242,
        0.354533,
        0.353634,
        0.352538,
        0.351244,
        0.349922,
        0.348358,
        0.348563,
        0.348984,
        0.35022,
        0.35077,
        0.349522,
        0.348024,
        0.347419,
        0.346604,
        0.345202,
        0.345397,
        0.345014,
        0.343733,
        0.342505,
        0.342179,
        0.340024,
        0.33858,
        0.336162,
        0.336757,
        0.33702,
        0.335536,
        0.337022,
        0.336947,
        0.337472,
        0.338035,
        0.338174,
        0.337896,
        0.336011,
        0.33537,
        0.333989,
        0.330983,
        0.328122,
        0.324131,
        0.321727,
        0.320666,
        0.32083,
        0.316598,
        0.317527,
        0.318301,
        0.317545,
        0.318371,
        0.321151,
        0.321533,
        0.318316,
        0.316071,
        0.312672,
        0.308028,
        0.314156,
        0.320014,
        0.319494,
        0.320804,
        0.31958,
        0.320373,
        0.32066,
        0.31909,
        0.31548,
        0.313282,
        0.311817,
        0.309653,
        0.308856,
        0.309073,
        0.308893,
        0.310038,
        0.311116,
        0.308988,
        0.308171,
        0.30693,
        0.304051,
        0.304605,
        0.307467,
        0.309018,
        0.309772,
        0.310964,
        0.310209,
        0.309776,
        0.307272,
        0.305267,
        0.304236,
        0.302078,
        0.302282,
        0.303347,
        0.304982,
        0.305588,
        0.306587,
        0.307695,
        0.308701,
        0.307273,
        0.304233,
        0.301513,
        0.298223,
        0.296814,
        0.299631,
        0.299003,
        0.297359,
        0.299293,
        0.302911,
        0.305626,
        0.303997,
        0.301268,
        0.294632,
        0.287593,
        0.28999,
        0.295255,
        0.299155,
        0.299416,
        0.297259,
        0.293493,
        0.287277,
        0.275292,
        0.269381,
        0.279064,
        0.286296,
        0.293131,
        0.296428,
        0.296317,
        0.296345,
        0.293009,
        0.288007,
        0.283527,
        0.277375,
        0.275051,
        0.281405,
        0.289966,
        0.296527,
        0.301689,
        0.303742,
        0.302371,
        0.30092,
        0.29759,
        0.290705,
        0.282994,
        0.274113,
        0.260309,
        0.25099,
        0.25687,
        0.26586,
        0.272203,
        0.279268,
        0.286264,
        0.291777,
        0.296948,
        0.297952,
        0.298996,
        0.296851,
        0.293244,
        0.287666,
        0.281313,
        0.273928,
        0.264992,
        0.256095,
        0.249138,
        0.25082,
        0.261296,
        0.269685,
        0.276516,
        0.284291,
        0.288916,
        0.294053,
        0.296558,
        0.29856,
        0.299733,
        0.297169,
        0.292659,
        0.291733,
        0.289115,
        0.285817,
        0.284049,
        0.280352,
        0.275836,
        0.269398,
        0.259709,
        0.247529,
        0.235692,
        0.228469,
        0.236294,
        0.245613,
        0.253558,
        0.26161,
        0.268869,
        0.274927,
        0.277191,
        0.280093,
        0.279331,
        0.278569,
        0.279659,
        0.278251,
        0.278519,
        0.282255,
        0.280582,
        0.282075,
        0.277386,
        0.27728,
        0.277868,
        0.275418,
        0.275074,
        0.273241,
        0.270096,
        0.260273,
        0.247017,
        0.242287,
        0.233039,
        0.225389,
        0.217162,
        0.212319,
        0.218545,
        0.230059,
        0.241438,
        0.252015,
        0.25841,
        0.263606,
        0.265932,
        0.26637,
        0.263329,
        0.260478,
        0.259459,
        0.25882,
        0.257227,
        0.258179,
        0.257253,
        0.260921,
        0.262483,
        0.263552,
        0.261777,
        0.261008,
        0.259622,
        0.261181,
        0.259028,
        0.257685,
        0.261384,
        0.264399,
        0.260856,
        0.257629,
        0.260097,
        0.260397,
        0.258108,
        0.251188,
        0.251365,
        0.252491,
        0.252041,
        0.250441,
        0.246507,
        0.241606,
        0.232758,
        0.223182,
        0.214587,
        0.207476,
        0.199898,
        0.205144,
        0.215702,
        0.220112,
        0.228434,
        0.233204,
        0.235196,
        0.237176,
        0.241031,
        0.243887,
        0.244945,
        0.247661,
        0.248347,
        0.247662,
        0.243777,
        0.242105,
        0.237791,
        0.232936,
        0.227144,
        0.22766,
        0.230554,
        0.228717,
        0.223593,
        0.215854,
        0.225635,
        0.21991,
        0.217041,
        0.225382,
        0.220424,
        0.228246,
        0.228368,
        0.232123,
        0.238634,
        0.240326,
        0.236961,
        0.232033,
        0.227852,
        0.227403,
        0.226859,
        0.223447,
        0.213257,
        0.218936,
        0.21205,
        0.215221,
        0.226488,
        0.224131,
        0.221419,
        0.22225,
        0.225099,
        0.221626,
        0.214275,
        0.216916,
        0.219944,
        0.212966,
        0.205801,
        0.212663,
        0.22041,
        0.213031,
        0.203276,
        0.196397,
        0.195799,
        0.192779,
        0.182866,
        0.173395,
        0.173125,
        0.177094,
        0.184732,
        0.185835,
        0.194175,
        0.204347,
        0.207115,
        0.208477,
        0.20702,
        0.210207,
        0.21288,
        0.21188,
        0.213653,
        0.216268,
        0.211593,
        0.214525,
        0.216501,
        0.216441,
        0.219032,
        0.216702,
        0.220433,
        0.219676,
        0.218719,
        0.219064,
        0.220341,
        0.224965,
        0.224257,
        0.223564,
        0.222683,
        0.222222,
        0.220911,
        0.217282,
        0.219722,
        0.218118,
        0.223053,
        0.222834,
        0.219733,
        0.2207,
        0.222272,
        0.221419,
        0.221547,
        0.216362,
        0.219063,
        0.217024,
        0.218631,
        0.217259,
        0.217642,
        0.215866,
        0.216717,
        0.211435,
        0.210549,
        0.204163,
        0.213694,
        0.212695,
        0.211184,
        0.213394,
        0.212887,
        0.21295,
        0.21253,
        0.214193,
        0.213638,
        0.213426,
        0.212964,
        0.213452,
        0.208556,
        0.214428,
        0.216248,
        0.218465,
        0.21508,
        0.210873,
        0.207168,
        0.212492,
        0.206399,
        0.207758,
        0.212929,
        0.208376,
        0.210928,
        0.211714,
        0.212459,
        0.210168,
        0.207974,
        0.209151,
        0.200101,
        0.204665,
        0.207624,
        0.203638,
        0.203584,
        0.20459,
        0.202702,
        0.202051,
        0.201354,
        0.202054,
        0.200288,
        0.19588,
        0.195883,
        0.19177,
        0.186419,
        0.182098,
        0.172153,
        0.169861,
        0.163784,
        0.164556,
        0.171586,
        0.174467,
        0.183896,
        0.183251,
        0.186879,
        0.189167,
        0.186306,
        0.182511,
        0.184701,
        0.187505,
        0.192297,
        0.197308,
        0.195559,
        0.188139,
        0.18793,
        0.19076,
        0.189075,
        0.18467,
        0.18939,
        0.192035,
        0.187443,
        0.195987,
        0.17992,
        0.175923,
        0.173138,
        0.172538,
        0.173812,
        0.176326,
        0.17945,
        0.182593,
        0.185347,
        0.187343,
        0.188215,
        0.187752,
        0.186357,
        0.184591,
        0.183012,
        0.182021,
        0.181376,
        0.180677,
        0.179525,
        0.177705,
        0.175756,
        0.174401,
        0.174364,
        0.176089,
        0.178897,
        0.181829,
        0.183926,
        0.180907,
        0.1804,
        0.179452,
        0.17829,
        0.177124,
        0.176093,
        0.17532,
        0.174926,
        0.174976,
        0.175302,
        0.175678,
        0.175877,
        0.175732,
        0.175305,
        0.174717,
        0.174089,
        0.173532,
        0.173123,
        0.172927,
        0.173013,
        0.173386,
        0.17382,
        0.174026,
        0.173717,
        0.172726,
        0.171372,
        0.170093,
        0.169329,
        0.169356,
        0.169796,
        0.170104,
        0.169738,
        0.168387,
        0.166663,
        0.16541,
        0.16547,
        0.167332,
        0.170064,
        0.172377,
        0.172985
      ],
      "range":1
    }
  }
]
