[
  {
    "model":"Star, type A7(v)",
    "name":"Star, type A7(v)",
    "type":"WB_REF",
    "dataQualityMarker":3,
    "dataSource":"https://www.eso.org/sci/facilities/paranal/decommissioned/isaac/tools/lib.html",
    "manufacturer":"A. Pickles (A.J. Pickles, PASP 110,863, 1998)",
    "version":1,
    "wavelength":{
      "value":[
        1150.0,
        1155.0,
        1160.0,
        1165.0,
        1170.0,
        1175.0,
        1180.0,
        1185.0,
        1190.0,
        1195.0,
        1200.0,
        1205.0,
        1210.0,
        1215.0,
        1220.0,
        1225.0,
        1230.0,
        1235.0,
        1240.0,
        1245.0,
        1250.0,
        1255.0,
        1260.0,
        1265.0,
        1270.0,
        1275.0,
        1280.0,
        1285.0,
        1290.0,
        1295.0,
        1300.0,
        1305.0,
        1310.0,
        1315.0,
        1320.0,
        1325.0,
        1330.0,
        1335.0,
        1340.0,
        1345.0,
        1350.0,
        1355.0,
        1360.0,
        1365.0,
        1370.0,
        1375.0,
        1380.0,
        1385.0,
        1390.0,
        1395.0,
        1400.0,
        1405.0,
        1410.0,
        1415.0,
        1420.0,
        1425.0,
        1430.0,
        1435.0,
        1440.0,
        1445.0,
        1450.0,
        1455.0,
        1460.0,
        1465.0,
        1470.0,
        1475.0,
        1480.0,
        1485.0,
        1490.0,
        1495.0,
        1500.0,
        1505.0,
        1510.0,
        1515.0,
        1520.0,
        1525.0,
        1530.0,
        1535.0,
        1540.0,
        1545.0,
        1550.0,
        1555.0,
        1560.0,
        1565.0,
        1570.0,
        1575.0,
        1580.0,
        1585.0,
        1590.0,
        1595.0,
        1600.0,
        1605.0,
        1610.0,
        1615.0,
        1620.0,
        1625.0,
        1630.0,
        1635.0,
        1640.0,
        1645.0,
        1650.0,
        1655.0,
        1660.0,
        1665.0,
        1670.0,
        1675.0,
        1680.0,
        1685.0,
        1690.0,
        1695.0,
        1700.0,
        1705.0,
        1710.0,
        1715.0,
        1720.0,
        1725.0,
        1730.0,
        1735.0,
        1740.0,
        1745.0,
        1750.0,
        1755.0,
        1760.0,
        1765.0,
        1770.0,
        1775.0,
        1780.0,
        1785.0,
        1790.0,
        1795.0,
        1800.0,
        1805.0,
        1810.0,
        1815.0,
        1820.0,
        1825.0,
        1830.0,
        1835.0,
        1840.0,
        1845.0,
        1850.0,
        1855.0,
        1860.0,
        1865.0,
        1870.0,
        1875.0,
        1880.0,
        1885.0,
        1890.0,
        1895.0,
        1900.0,
        1905.0,
        1910.0,
        1915.0,
        1920.0,
        1925.0,
        1930.0,
        1935.0,
        1940.0,
        1945.0,
        1950.0,
        1955.0,
        1960.0,
        1965.0,
        1970.0,
        1975.0,
        1980.0,
        1985.0,
        1990.0,
        1995.0,
        2000.0,
        2005.0,
        2010.0,
        2015.0,
        2020.0,
        2025.0,
        2030.0,
        2035.0,
        2040.0,
        2045.0,
        2050.0,
        2055.0,
        2060.0,
        2065.0,
        2070.0,
        2075.0,
        2080.0,
        2085.0,
        2090.0,
        2095.0,
        2100.0,
        2105.0,
        2110.0,
        2115.0,
        2120.0,
        2125.0,
        2130.0,
        2135.0,
        2140.0,
        2145.0,
        2150.0,
        2155.0,
        2160.0,
        2165.0,
        2170.0,
        2175.0,
        2180.0,
        2185.0,
        2190.0,
        2195.0,
        2200.0,
        2205.0,
        2210.0,
        2215.0,
        2220.0,
        2225.0,
        2230.0,
        2235.0,
        2240.0,
        2245.0,
        2250.0,
        2255.0,
        2260.0,
        2265.0,
        2270.0,
        2275.0,
        2280.0,
        2285.0,
        2290.0,
        2295.0,
        2300.0,
        2305.0,
        2310.0,
        2315.0,
        2320.0,
        2325.0,
        2330.0,
        2335.0,
        2340.0,
        2345.0,
        2350.0,
        2355.0,
        2360.0,
        2365.0,
        2370.0,
        2375.0,
        2380.0,
        2385.0,
        2390.0,
        2395.0,
        2400.0,
        2405.0,
        2410.0,
        2415.0,
        2420.0,
        2425.0,
        2430.0,
        2435.0,
        2440.0,
        2445.0,
        2450.0,
        2455.0,
        2460.0,
        2465.0,
        2470.0,
        2475.0,
        2480.0,
        2485.0,
        2490.0,
        2495.0,
        2500.0,
        2505.0,
        2510.0,
        2515.0,
        2520.0,
        2525.0,
        2530.0,
        2535.0,
        2540.0,
        2545.0,
        2550.0,
        2555.0,
        2560.0,
        2565.0,
        2570.0,
        2575.0,
        2580.0,
        2585.0,
        2590.0,
        2595.0,
        2600.0,
        2605.0,
        2610.0,
        2615.0,
        2620.0,
        2625.0,
        2630.0,
        2635.0,
        2640.0,
        2645.0,
        2650.0,
        2655.0,
        2660.0,
        2665.0,
        2670.0,
        2675.0,
        2680.0,
        2685.0,
        2690.0,
        2695.0,
        2700.0,
        2705.0,
        2710.0,
        2715.0,
        2720.0,
        2725.0,
        2730.0,
        2735.0,
        2740.0,
        2745.0,
        2750.0,
        2755.0,
        2760.0,
        2765.0,
        2770.0,
        2775.0,
        2780.0,
        2785.0,
        2790.0,
        2795.0,
        2800.0,
        2805.0,
        2810.0,
        2815.0,
        2820.0,
        2825.0,
        2830.0,
        2835.0,
        2840.0,
        2845.0,
        2850.0,
        2855.0,
        2860.0,
        2865.0,
        2870.0,
        2875.0,
        2880.0,
        2885.0,
        2890.0,
        2895.0,
        2900.0,
        2905.0,
        2910.0,
        2915.0,
        2920.0,
        2925.0,
        2930.0,
        2935.0,
        2940.0,
        2945.0,
        2950.0,
        2955.0,
        2960.0,
        2965.0,
        2970.0,
        2975.0,
        2980.0,
        2985.0,
        2990.0,
        2995.0,
        3000.0,
        3005.0,
        3010.0,
        3015.0,
        3020.0,
        3025.0,
        3030.0,
        3035.0,
        3040.0,
        3045.0,
        3050.0,
        3055.0,
        3060.0,
        3065.0,
        3070.0,
        3075.0,
        3080.0,
        3085.0,
        3090.0,
        3095.0,
        3100.0,
        3105.0,
        3110.0,
        3115.0,
        3120.0,
        3125.0,
        3130.0,
        3135.0,
        3140.0,
        3145.0,
        3150.0,
        3155.0,
        3160.0,
        3165.0,
        3170.0,
        3175.0,
        3180.0,
        3185.0,
        3190.0,
        3195.0,
        3200.0,
        3205.0,
        3210.0,
        3215.0,
        3220.0,
        3225.0,
        3230.0,
        3235.0,
        3240.0,
        3245.0,
        3250.0,
        3255.0,
        3260.0,
        3265.0,
        3270.0,
        3275.0,
        3280.0,
        3285.0,
        3290.0,
        3295.0,
        3300.0,
        3305.0,
        3310.0,
        3315.0,
        3320.0,
        3325.0,
        3330.0,
        3335.0,
        3340.0,
        3345.0,
        3350.0,
        3355.0,
        3360.0,
        3365.0,
        3370.0,
        3375.0,
        3380.0,
        3385.0,
        3390.0,
        3395.0,
        3400.0,
        3405.0,
        3410.0,
        3415.0,
        3420.0,
        3425.0,
        3430.0,
        3435.0,
        3440.0,
        3445.0,
        3450.0,
        3455.0,
        3460.0,
        3465.0,
        3470.0,
        3475.0,
        3480.0,
        3485.0,
        3490.0,
        3495.0,
        3500.0,
        3505.0,
        3510.0,
        3515.0,
        3520.0,
        3525.0,
        3530.0,
        3535.0,
        3540.0,
        3545.0,
        3550.0,
        3555.0,
        3560.0,
        3565.0,
        3570.0,
        3575.0,
        3580.0,
        3585.0,
        3590.0,
        3595.0,
        3600.0,
        3605.0,
        3610.0,
        3615.0,
        3620.0,
        3625.0,
        3630.0,
        3635.0,
        3640.0,
        3645.0,
        3650.0,
        3655.0,
        3660.0,
        3665.0,
        3670.0,
        3675.0,
        3680.0,
        3685.0,
        3690.0,
        3695.0,
        3700.0,
        3705.0,
        3710.0,
        3715.0,
        3720.0,
        3725.0,
        3730.0,
        3735.0,
        3740.0,
        3745.0,
        3750.0,
        3755.0,
        3760.0,
        3765.0,
        3770.0,
        3775.0,
        3780.0,
        3785.0,
        3790.0,
        3795.0,
        3800.0,
        3805.0,
        3810.0,
        3815.0,
        3820.0,
        3825.0,
        3830.0,
        3835.0,
        3840.0,
        3845.0,
        3850.0,
        3855.0,
        3860.0,
        3865.0,
        3870.0,
        3875.0,
        3880.0,
        3885.0,
        3890.0,
        3895.0,
        3900.0,
        3905.0,
        3910.0,
        3915.0,
        3920.0,
        3925.0,
        3930.0,
        3935.0,
        3940.0,
        3945.0,
        3950.0,
        3955.0,
        3960.0,
        3965.0,
        3970.0,
        3975.0,
        3980.0,
        3985.0,
        3990.0,
        3995.0,
        4000.0,
        4005.0,
        4010.0,
        4015.0,
        4020.0,
        4025.0,
        4030.0,
        4035.0,
        4040.0,
        4045.0,
        4050.0,
        4055.0,
        4060.0,
        4065.0,
        4070.0,
        4075.0,
        4080.0,
        4085.0,
        4090.0,
        4095.0,
        4100.0,
        4105.0,
        4110.0,
        4115.0,
        4120.0,
        4125.0,
        4130.0,
        4135.0,
        4140.0,
        4145.0,
        4150.0,
        4155.0,
        4160.0,
        4165.0,
        4170.0,
        4175.0,
        4180.0,
        4185.0,
        4190.0,
        4195.0,
        4200.0,
        4205.0,
        4210.0,
        4215.0,
        4220.0,
        4225.0,
        4230.0,
        4235.0,
        4240.0,
        4245.0,
        4250.0,
        4255.0,
        4260.0,
        4265.0,
        4270.0,
        4275.0,
        4280.0,
        4285.0,
        4290.0,
        4295.0,
        4300.0,
        4305.0,
        4310.0,
        4315.0,
        4320.0,
        4325.0,
        4330.0,
        4335.0,
        4340.0,
        4345.0,
        4350.0,
        4355.0,
        4360.0,
        4365.0,
        4370.0,
        4375.0,
        4380.0,
        4385.0,
        4390.0,
        4395.0,
        4400.0,
        4405.0,
        4410.0,
        4415.0,
        4420.0,
        4425.0,
        4430.0,
        4435.0,
        4440.0,
        4445.0,
        4450.0,
        4455.0,
        4460.0,
        4465.0,
        4470.0,
        4475.0,
        4480.0,
        4485.0,
        4490.0,
        4495.0,
        4500.0,
        4505.0,
        4510.0,
        4515.0,
        4520.0,
        4525.0,
        4530.0,
        4535.0,
        4540.0,
        4545.0,
        4550.0,
        4555.0,
        4560.0,
        4565.0,
        4570.0,
        4575.0,
        4580.0,
        4585.0,
        4590.0,
        4595.0,
        4600.0,
        4605.0,
        4610.0,
        4615.0,
        4620.0,
        4625.0,
        4630.0,
        4635.0,
        4640.0,
        4645.0,
        4650.0,
        4655.0,
        4660.0,
        4665.0,
        4670.0,
        4675.0,
        4680.0,
        4685.0,
        4690.0,
        4695.0,
        4700.0,
        4705.0,
        4710.0,
        4715.0,
        4720.0,
        4725.0,
        4730.0,
        4735.0,
        4740.0,
        4745.0,
        4750.0,
        4755.0,
        4760.0,
        4765.0,
        4770.0,
        4775.0,
        4780.0,
        4785.0,
        4790.0,
        4795.0,
        4800.0,
        4805.0,
        4810.0,
        4815.0,
        4820.0,
        4825.0,
        4830.0,
        4835.0,
        4840.0,
        4845.0,
        4850.0,
        4855.0,
        4860.0,
        4865.0,
        4870.0,
        4875.0,
        4880.0,
        4885.0,
        4890.0,
        4895.0,
        4900.0,
        4905.0,
        4910.0,
        4915.0,
        4920.0,
        4925.0,
        4930.0,
        4935.0,
        4940.0,
        4945.0,
        4950.0,
        4955.0,
        4960.0,
        4965.0,
        4970.0,
        4975.0,
        4980.0,
        4985.0,
        4990.0,
        4995.0,
        5000.0,
        5005.0,
        5010.0,
        5015.0,
        5020.0,
        5025.0,
        5030.0,
        5035.0,
        5040.0,
        5045.0,
        5050.0,
        5055.0,
        5060.0,
        5065.0,
        5070.0,
        5075.0,
        5080.0,
        5085.0,
        5090.0,
        5095.0,
        5100.0,
        5105.0,
        5110.0,
        5115.0,
        5120.0,
        5125.0,
        5130.0,
        5135.0,
        5140.0,
        5145.0,
        5150.0,
        5155.0,
        5160.0,
        5165.0,
        5170.0,
        5175.0,
        5180.0,
        5185.0,
        5190.0,
        5195.0,
        5200.0,
        5205.0,
        5210.0,
        5215.0,
        5220.0,
        5225.0,
        5230.0,
        5235.0,
        5240.0,
        5245.0,
        5250.0,
        5255.0,
        5260.0,
        5265.0,
        5270.0,
        5275.0,
        5280.0,
        5285.0,
        5290.0,
        5295.0,
        5300.0,
        5305.0,
        5310.0,
        5315.0,
        5320.0,
        5325.0,
        5330.0,
        5335.0,
        5340.0,
        5345.0,
        5350.0,
        5355.0,
        5360.0,
        5365.0,
        5370.0,
        5375.0,
        5380.0,
        5385.0,
        5390.0,
        5395.0,
        5400.0,
        5405.0,
        5410.0,
        5415.0,
        5420.0,
        5425.0,
        5430.0,
        5435.0,
        5440.0,
        5445.0,
        5450.0,
        5455.0,
        5460.0,
        5465.0,
        5470.0,
        5475.0,
        5480.0,
        5485.0,
        5490.0,
        5495.0,
        5500.0,
        5505.0,
        5510.0,
        5515.0,
        5520.0,
        5525.0,
        5530.0,
        5535.0,
        5540.0,
        5545.0,
        5550.0,
        5555.0,
        5560.0,
        5565.0,
        5570.0,
        5575.0,
        5580.0,
        5585.0,
        5590.0,
        5595.0,
        5600.0,
        5605.0,
        5610.0,
        5615.0,
        5620.0,
        5625.0,
        5630.0,
        5635.0,
        5640.0,
        5645.0,
        5650.0,
        5655.0,
        5660.0,
        5665.0,
        5670.0,
        5675.0,
        5680.0,
        5685.0,
        5690.0,
        5695.0,
        5700.0,
        5705.0,
        5710.0,
        5715.0,
        5720.0,
        5725.0,
        5730.0,
        5735.0,
        5740.0,
        5745.0,
        5750.0,
        5755.0,
        5760.0,
        5765.0,
        5770.0,
        5775.0,
        5780.0,
        5785.0,
        5790.0,
        5795.0,
        5800.0,
        5805.0,
        5810.0,
        5815.0,
        5820.0,
        5825.0,
        5830.0,
        5835.0,
        5840.0,
        5845.0,
        5850.0,
        5855.0,
        5860.0,
        5865.0,
        5870.0,
        5875.0,
        5880.0,
        5885.0,
        5890.0,
        5895.0,
        5900.0,
        5905.0,
        5910.0,
        5915.0,
        5920.0,
        5925.0,
        5930.0,
        5935.0,
        5940.0,
        5945.0,
        5950.0,
        5955.0,
        5960.0,
        5965.0,
        5970.0,
        5975.0,
        5980.0,
        5985.0,
        5990.0,
        5995.0,
        6000.0,
        6005.0,
        6010.0,
        6015.0,
        6020.0,
        6025.0,
        6030.0,
        6035.0,
        6040.0,
        6045.0,
        6050.0,
        6055.0,
        6060.0,
        6065.0,
        6070.0,
        6075.0,
        6080.0,
        6085.0,
        6090.0,
        6095.0,
        6100.0,
        6105.0,
        6110.0,
        6115.0,
        6120.0,
        6125.0,
        6130.0,
        6135.0,
        6140.0,
        6145.0,
        6150.0,
        6155.0,
        6160.0,
        6165.0,
        6170.0,
        6175.0,
        6180.0,
        6185.0,
        6190.0,
        6195.0,
        6200.0,
        6205.0,
        6210.0,
        6215.0,
        6220.0,
        6225.0,
        6230.0,
        6235.0,
        6240.0,
        6245.0,
        6250.0,
        6255.0,
        6260.0,
        6265.0,
        6270.0,
        6275.0,
        6280.0,
        6285.0,
        6290.0,
        6295.0,
        6300.0,
        6305.0,
        6310.0,
        6315.0,
        6320.0,
        6325.0,
        6330.0,
        6335.0,
        6340.0,
        6345.0,
        6350.0,
        6355.0,
        6360.0,
        6365.0,
        6370.0,
        6375.0,
        6380.0,
        6385.0,
        6390.0,
        6395.0,
        6400.0,
        6405.0,
        6410.0,
        6415.0,
        6420.0,
        6425.0,
        6430.0,
        6435.0,
        6440.0,
        6445.0,
        6450.0,
        6455.0,
        6460.0,
        6465.0,
        6470.0,
        6475.0,
        6480.0,
        6485.0,
        6490.0,
        6495.0,
        6500.0,
        6505.0,
        6510.0,
        6515.0,
        6520.0,
        6525.0,
        6530.0,
        6535.0,
        6540.0,
        6545.0,
        6550.0,
        6555.0,
        6560.0,
        6565.0,
        6570.0,
        6575.0,
        6580.0,
        6585.0,
        6590.0,
        6595.0,
        6600.0,
        6605.0,
        6610.0,
        6615.0,
        6620.0,
        6625.0,
        6630.0,
        6635.0,
        6640.0,
        6645.0,
        6650.0,
        6655.0,
        6660.0,
        6665.0,
        6670.0,
        6675.0,
        6680.0,
        6685.0,
        6690.0,
        6695.0,
        6700.0,
        6705.0,
        6710.0,
        6715.0,
        6720.0,
        6725.0,
        6730.0,
        6735.0,
        6740.0,
        6745.0,
        6750.0,
        6755.0,
        6760.0,
        6765.0,
        6770.0,
        6775.0,
        6780.0,
        6785.0,
        6790.0,
        6795.0,
        6800.0,
        6805.0,
        6810.0,
        6815.0,
        6820.0,
        6825.0,
        6830.0,
        6835.0,
        6840.0,
        6845.0,
        6850.0,
        6855.0,
        6860.0,
        6865.0,
        6870.0,
        6875.0,
        6880.0,
        6885.0,
        6890.0,
        6895.0,
        6900.0,
        6905.0,
        6910.0,
        6915.0,
        6920.0,
        6925.0,
        6930.0,
        6935.0,
        6940.0,
        6945.0,
        6950.0,
        6955.0,
        6960.0,
        6965.0,
        6970.0,
        6975.0,
        6980.0,
        6985.0,
        6990.0,
        6995.0,
        7000.0,
        7005.0,
        7010.0,
        7015.0,
        7020.0,
        7025.0,
        7030.0,
        7035.0,
        7040.0,
        7045.0,
        7050.0,
        7055.0,
        7060.0,
        7065.0,
        7070.0,
        7075.0,
        7080.0,
        7085.0,
        7090.0,
        7095.0,
        7100.0,
        7105.0,
        7110.0,
        7115.0,
        7120.0,
        7125.0,
        7130.0,
        7135.0,
        7140.0,
        7145.0,
        7150.0,
        7155.0,
        7160.0,
        7165.0,
        7170.0,
        7175.0,
        7180.0,
        7185.0,
        7190.0,
        7195.0,
        7200.0,
        7205.0,
        7210.0,
        7215.0,
        7220.0,
        7225.0,
        7230.0,
        7235.0,
        7240.0,
        7245.0,
        7250.0,
        7255.0,
        7260.0,
        7265.0,
        7270.0,
        7275.0,
        7280.0,
        7285.0,
        7290.0,
        7295.0,
        7300.0,
        7305.0,
        7310.0,
        7315.0,
        7320.0,
        7325.0,
        7330.0,
        7335.0,
        7340.0,
        7345.0,
        7350.0,
        7355.0,
        7360.0,
        7365.0,
        7370.0,
        7375.0,
        7380.0,
        7385.0,
        7390.0,
        7395.0,
        7400.0,
        7405.0,
        7410.0,
        7415.0,
        7420.0,
        7425.0,
        7430.0,
        7435.0,
        7440.0,
        7445.0,
        7450.0,
        7455.0,
        7460.0,
        7465.0,
        7470.0,
        7475.0,
        7480.0,
        7485.0,
        7490.0,
        7495.0,
        7500.0,
        7505.0,
        7510.0,
        7515.0,
        7520.0,
        7525.0,
        7530.0,
        7535.0,
        7540.0,
        7545.0,
        7550.0,
        7555.0,
        7560.0,
        7565.0,
        7570.0,
        7575.0,
        7580.0,
        7585.0,
        7590.0,
        7595.0,
        7600.0,
        7605.0,
        7610.0,
        7615.0,
        7620.0,
        7625.0,
        7630.0,
        7635.0,
        7640.0,
        7645.0,
        7650.0,
        7655.0,
        7660.0,
        7665.0,
        7670.0,
        7675.0,
        7680.0,
        7685.0,
        7690.0,
        7695.0,
        7700.0,
        7705.0,
        7710.0,
        7715.0,
        7720.0,
        7725.0,
        7730.0,
        7735.0,
        7740.0,
        7745.0,
        7750.0,
        7755.0,
        7760.0,
        7765.0,
        7770.0,
        7775.0,
        7780.0,
        7785.0,
        7790.0,
        7795.0,
        7800.0,
        7805.0,
        7810.0,
        7815.0,
        7820.0,
        7825.0,
        7830.0,
        7835.0,
        7840.0,
        7845.0,
        7850.0,
        7855.0,
        7860.0,
        7865.0,
        7870.0,
        7875.0,
        7880.0,
        7885.0,
        7890.0,
        7895.0,
        7900.0,
        7905.0,
        7910.0,
        7915.0,
        7920.0,
        7925.0,
        7930.0,
        7935.0,
        7940.0,
        7945.0,
        7950.0,
        7955.0,
        7960.0,
        7965.0,
        7970.0,
        7975.0,
        7980.0,
        7985.0,
        7990.0,
        7995.0,
        8000.0,
        8005.0,
        8010.0,
        8015.0,
        8020.0,
        8025.0,
        8030.0,
        8035.0,
        8040.0,
        8045.0,
        8050.0,
        8055.0,
        8060.0,
        8065.0,
        8070.0,
        8075.0,
        8080.0,
        8085.0,
        8090.0,
        8095.0,
        8100.0,
        8105.0,
        8110.0,
        8115.0,
        8120.0,
        8125.0,
        8130.0,
        8135.0,
        8140.0,
        8145.0,
        8150.0,
        8155.0,
        8160.0,
        8165.0,
        8170.0,
        8175.0,
        8180.0,
        8185.0,
        8190.0,
        8195.0,
        8200.0,
        8205.0,
        8210.0,
        8215.0,
        8220.0,
        8225.0,
        8230.0,
        8235.0,
        8240.0,
        8245.0,
        8250.0,
        8255.0,
        8260.0,
        8265.0,
        8270.0,
        8275.0,
        8280.0,
        8285.0,
        8290.0,
        8295.0,
        8300.0,
        8305.0,
        8310.0,
        8315.0,
        8320.0,
        8325.0,
        8330.0,
        8335.0,
        8340.0,
        8345.0,
        8350.0,
        8355.0,
        8360.0,
        8365.0,
        8370.0,
        8375.0,
        8380.0,
        8385.0,
        8390.0,
        8395.0,
        8400.0,
        8405.0,
        8410.0,
        8415.0,
        8420.0,
        8425.0,
        8430.0,
        8435.0,
        8440.0,
        8445.0,
        8450.0,
        8455.0,
        8460.0,
        8465.0,
        8470.0,
        8475.0,
        8480.0,
        8485.0,
        8490.0,
        8495.0,
        8500.0,
        8505.0,
        8510.0,
        8515.0,
        8520.0,
        8525.0,
        8530.0,
        8535.0,
        8540.0,
        8545.0,
        8550.0,
        8555.0,
        8560.0,
        8565.0,
        8570.0,
        8575.0,
        8580.0,
        8585.0,
        8590.0,
        8595.0,
        8600.0,
        8605.0,
        8610.0,
        8615.0,
        8620.0,
        8625.0,
        8630.0,
        8635.0,
        8640.0,
        8645.0,
        8650.0,
        8655.0,
        8660.0,
        8665.0,
        8670.0,
        8675.0,
        8680.0,
        8685.0,
        8690.0,
        8695.0,
        8700.0,
        8705.0,
        8710.0,
        8715.0,
        8720.0,
        8725.0,
        8730.0,
        8735.0,
        8740.0,
        8745.0,
        8750.0,
        8755.0,
        8760.0,
        8765.0,
        8770.0,
        8775.0,
        8780.0,
        8785.0,
        8790.0,
        8795.0,
        8800.0,
        8805.0,
        8810.0,
        8815.0,
        8820.0,
        8825.0,
        8830.0,
        8835.0,
        8840.0,
        8845.0,
        8850.0,
        8855.0,
        8860.0,
        8865.0,
        8870.0,
        8875.0,
        8880.0,
        8885.0,
        8890.0,
        8895.0,
        8900.0,
        8905.0,
        8910.0,
        8915.0,
        8920.0,
        8925.0,
        8930.0,
        8935.0,
        8940.0,
        8945.0,
        8950.0,
        8955.0,
        8960.0,
        8965.0,
        8970.0,
        8975.0,
        8980.0,
        8985.0,
        8990.0,
        8995.0,
        9000.0,
        9005.0,
        9010.0,
        9015.0,
        9020.0,
        9025.0,
        9030.0,
        9035.0,
        9040.0,
        9045.0,
        9050.0,
        9055.0,
        9060.0,
        9065.0,
        9070.0,
        9075.0,
        9080.0,
        9085.0,
        9090.0,
        9095.0,
        9100.0,
        9105.0,
        9110.0,
        9115.0,
        9120.0,
        9125.0,
        9130.0,
        9135.0,
        9140.0,
        9145.0,
        9150.0,
        9155.0,
        9160.0,
        9165.0,
        9170.0,
        9175.0,
        9180.0,
        9185.0,
        9190.0,
        9195.0,
        9200.0,
        9205.0,
        9210.0,
        9215.0,
        9220.0,
        9225.0,
        9230.0,
        9235.0,
        9240.0,
        9245.0,
        9250.0,
        9255.0,
        9260.0,
        9265.0,
        9270.0,
        9275.0,
        9280.0,
        9285.0,
        9290.0,
        9295.0,
        9300.0,
        9305.0,
        9310.0,
        9315.0,
        9320.0,
        9325.0,
        9330.0,
        9335.0,
        9340.0,
        9345.0,
        9350.0,
        9355.0,
        9360.0,
        9365.0,
        9370.0,
        9375.0,
        9380.0,
        9385.0,
        9390.0,
        9395.0,
        9400.0,
        9405.0,
        9410.0,
        9415.0,
        9420.0,
        9425.0,
        9430.0,
        9435.0,
        9440.0,
        9445.0,
        9450.0,
        9455.0,
        9460.0,
        9465.0,
        9470.0,
        9475.0,
        9480.0,
        9485.0,
        9490.0,
        9495.0,
        9500.0,
        9505.0,
        9510.0,
        9515.0,
        9520.0,
        9525.0,
        9530.0,
        9535.0,
        9540.0,
        9545.0,
        9550.0,
        9555.0,
        9560.0,
        9565.0,
        9570.0,
        9575.0,
        9580.0,
        9585.0,
        9590.0,
        9595.0,
        9600.0,
        9605.0,
        9610.0,
        9615.0,
        9620.0,
        9625.0,
        9630.0,
        9635.0,
        9640.0,
        9645.0,
        9650.0,
        9655.0,
        9660.0,
        9665.0,
        9670.0,
        9675.0,
        9680.0,
        9685.0,
        9690.0,
        9695.0,
        9700.0,
        9705.0,
        9710.0,
        9715.0,
        9720.0,
        9725.0,
        9730.0,
        9735.0,
        9740.0,
        9745.0,
        9750.0,
        9755.0,
        9760.0,
        9765.0,
        9770.0,
        9775.0,
        9780.0,
        9785.0,
        9790.0,
        9795.0,
        9800.0,
        9805.0,
        9810.0,
        9815.0,
        9820.0,
        9825.0,
        9830.0,
        9835.0,
        9840.0,
        9845.0,
        9850.0,
        9855.0,
        9860.0,
        9865.0,
        9870.0,
        9875.0,
        9880.0,
        9885.0,
        9890.0,
        9895.0,
        9900.0,
        9905.0,
        9910.0,
        9915.0,
        9920.0,
        9925.0,
        9930.0,
        9935.0,
        9940.0,
        9945.0,
        9950.0,
        9955.0,
        9960.0,
        9965.0,
        9970.0,
        9975.0,
        9980.0,
        9985.0,
        9990.0,
        9995.0,
        10000.0,
        10005.0,
        10010.0,
        10015.0,
        10020.0,
        10025.0,
        10030.0,
        10035.0,
        10040.0,
        10045.0,
        10050.0,
        10055.0,
        10060.0,
        10065.0,
        10070.0,
        10075.0,
        10080.0,
        10085.0,
        10090.0,
        10095.0,
        10100.0,
        10105.0,
        10110.0,
        10115.0,
        10120.0,
        10125.0,
        10130.0,
        10135.0,
        10140.0,
        10145.0,
        10150.0,
        10155.0,
        10160.0,
        10165.0,
        10170.0,
        10175.0,
        10180.0,
        10185.0,
        10190.0,
        10195.0,
        10200.0,
        10205.0,
        10210.0,
        10215.0,
        10220.0,
        10225.0,
        10230.0,
        10235.0,
        10240.0,
        10245.0,
        10250.0,
        10255.0,
        10260.0,
        10265.0,
        10270.0,
        10275.0,
        10280.0,
        10285.0,
        10290.0,
        10295.0,
        10300.0,
        10305.0,
        10310.0,
        10315.0,
        10320.0,
        10325.0,
        10330.0,
        10335.0,
        10340.0,
        10345.0,
        10350.0,
        10355.0,
        10360.0,
        10365.0,
        10370.0,
        10375.0,
        10380.0,
        10385.0,
        10390.0,
        10395.0,
        10400.0,
        10405.0,
        10410.0,
        10415.0,
        10420.0,
        10425.0,
        10430.0,
        10435.0,
        10440.0,
        10445.0,
        10450.0,
        10455.0,
        10460.0,
        10465.0,
        10470.0,
        10475.0,
        10480.0,
        10485.0,
        10490.0,
        10495.0,
        10500.0
      ],
      "units":"angstrom"
    },
    "values":{
      "value":[
        0.0,
        0.00519,
        0.002815,
        0.0,
        0.0,
        0.0,
        0.007617,
        0.0,
        0.0,
        0.0,
        0.0,
        0.002985,
        0.008355,
        0.018679,
        0.009686,
        0.00087,
        0.0,
        0.004617,
        0.006843,
        0.00194,
        0.004591,
        0.001872,
        0.002015,
        0.000816,
        0.000644,
        0.000594,
        0.000947,
        0.0,
        0.0,
        0.0,
        0.0,
        0.0,
        0.0,
        0.0,
        0.0,
        0.0,
        0.001126,
        0.002608,
        0.001526,
        0.001818,
        0.001039,
        0.001771,
        0.001592,
        0.000564,
        0.002774,
        0.001074,
        0.001471,
        0.0,
        0.002302,
        0.0,
        0.0,
        0.000582,
        0.001786,
        0.004654,
        0.001037,
        0.0,
        0.0,
        0.001085,
        0.001012,
        0.005565,
        0.006606,
        0.00498,
        0.001203,
        0.002313,
        0.003441,
        0.00387,
        0.004129,
        0.006567,
        0.004651,
        0.00657,
        0.006174,
        0.006681,
        0.008359,
        0.007667,
        0.002158,
        0.004127,
        0.005487,
        0.00797,
        0.010707,
        0.013285,
        0.009977,
        0.012577,
        0.017704,
        0.016765,
        0.014197,
        0.019541,
        0.027366,
        0.019127,
        0.018888,
        0.023833,
        0.026059,
        0.025932,
        0.030201,
        0.036672,
        0.037913,
        0.037657,
        0.042306,
        0.053894,
        0.065972,
        0.07844,
        0.073191,
        0.059211,
        0.082721,
        0.094588,
        0.082605,
        0.104324,
        0.116982,
        0.115362,
        0.129904,
        0.143221,
        0.178704,
        0.228402,
        0.263224,
        0.291685,
        0.281368,
        0.301496,
        0.340128,
        0.331323,
        0.337996,
        0.372188,
        0.424176,
        0.443993,
        0.400938,
        0.37746,
        0.432317,
        0.505379,
        0.516375,
        0.464451,
        0.481849,
        0.566009,
        0.564104,
        0.503609,
        0.494022,
        0.522347,
        0.535655,
        0.520469,
        0.488669,
        0.454973,
        0.418679,
        0.402509,
        0.40715,
        0.428968,
        0.449607,
        0.475903,
        0.492435,
        0.493097,
        0.513848,
        0.526429,
        0.520165,
        0.486895,
        0.460964,
        0.482099,
        0.502564,
        0.527066,
        0.531994,
        0.469431,
        0.40791,
        0.443429,
        0.537424,
        0.579312,
        0.572168,
        0.566978,
        0.550661,
        0.554076,
        0.588337,
        0.572147,
        0.576917,
        0.562561,
        0.475641,
        0.473226,
        0.519683,
        0.514764,
        0.508528,
        0.488803,
        0.479219,
        0.483462,
        0.519271,
        0.54325,
        0.52525,
        0.56717,
        0.578377,
        0.588989,
        0.558841,
        0.558141,
        0.593507,
        0.606965,
        0.656632,
        0.647474,
        0.612886,
        0.594022,
        0.575267,
        0.570334,
        0.563742,
        0.541747,
        0.603906,
        0.630235,
        0.555554,
        0.453207,
        0.420122,
        0.481196,
        0.496356,
        0.498891,
        0.492215,
        0.471837,
        0.476957,
        0.445164,
        0.475924,
        0.532743,
        0.560262,
        0.584142,
        0.592063,
        0.578241,
        0.494896,
        0.416204,
        0.431928,
        0.451642,
        0.463665,
        0.500183,
        0.514548,
        0.485555,
        0.454262,
        0.43803,
        0.432409,
        0.450351,
        0.439862,
        0.451782,
        0.463342,
        0.50824,
        0.490542,
        0.491219,
        0.450556,
        0.431209,
        0.46992,
        0.454556,
        0.423225,
        0.453614,
        0.41344,
        0.400171,
        0.385114,
        0.34857,
        0.346496,
        0.394017,
        0.397086,
        0.395557,
        0.433318,
        0.419202,
        0.372241,
        0.318668,
        0.336863,
        0.375992,
        0.359264,
        0.346829,
        0.306624,
        0.31471,
        0.384734,
        0.424044,
        0.419951,
        0.413023,
        0.435136,
        0.461312,
        0.422459,
        0.419975,
        0.44811,
        0.431314,
        0.403732,
        0.400591,
        0.408213,
        0.399039,
        0.386275,
        0.404622,
        0.469734,
        0.464438,
        0.452231,
        0.418091,
        0.372541,
        0.363297,
        0.342554,
        0.366924,
        0.373146,
        0.354832,
        0.372962,
        0.397915,
        0.43405,
        0.459479,
        0.500443,
        0.516914,
        0.467719,
        0.430654,
        0.476917,
        0.480881,
        0.435664,
        0.412775,
        0.389641,
        0.421465,
        0.481554,
        0.503243,
        0.459182,
        0.524763,
        0.658589,
        0.722879,
        0.701665,
        0.706563,
        0.664411,
        0.5872,
        0.568115,
        0.607232,
        0.631691,
        0.617821,
        0.599591,
        0.595821,
        0.586793,
        0.586281,
        0.579222,
        0.616067,
        0.594983,
        0.646304,
        0.623571,
        0.603594,
        0.537981,
        0.465599,
        0.439196,
        0.450089,
        0.490023,
        0.512783,
        0.546506,
        0.573327,
        0.538182,
        0.505975,
        0.447733,
        0.307306,
        0.234021,
        0.307691,
        0.498788,
        0.700889,
        0.814174,
        0.787567,
        0.748519,
        0.640784,
        0.635324,
        0.633306,
        0.570684,
        0.560975,
        0.608887,
        0.606146,
        0.598168,
        0.63529,
        0.628296,
        0.644972,
        0.620053,
        0.596235,
        0.637103,
        0.723978,
        0.779217,
        0.761766,
        0.711807,
        0.673724,
        0.668693,
        0.672501,
        0.679734,
        0.673932,
        0.645389,
        0.711704,
        0.738024,
        0.759274,
        0.73934,
        0.710228,
        0.685927,
        0.694756,
        0.726688,
        0.717074,
        0.704922,
        0.71049,
        0.730701,
        0.721306,
        0.694783,
        0.691646,
        0.680834,
        0.685669,
        0.672189,
        0.675454,
        0.662725,
        0.681785,
        0.671157,
        0.664201,
        0.667946,
        0.689995,
        0.699192,
        0.699441,
        0.691,
        0.649487,
        0.672552,
        0.671262,
        0.693115,
        0.671473,
        0.660377,
        0.677744,
        0.690986,
        0.705279,
        0.727749,
        0.71903,
        0.735092,
        0.710794,
        0.713408,
        0.717529,
        0.722334,
        0.723621,
        0.718068,
        0.705345,
        0.729098,
        0.721978,
        0.751995,
        0.755249,
        0.744259,
        0.718227,
        0.693225,
        0.684077,
        0.683725,
        0.682725,
        0.683967,
        0.692211,
        0.707371,
        0.727452,
        0.747671,
        0.761479,
        0.758034,
        0.733296,
        0.714724,
        0.727253,
        0.754242,
        0.772982,
        0.778059,
        0.770564,
        0.760281,
        0.756466,
        0.75754,
        0.758864,
        0.754371,
        0.741716,
        0.734859,
        0.745369,
        0.758943,
        0.759871,
        0.752692,
        0.745058,
        0.736835,
        0.727756,
        0.724826,
        0.732806,
        0.740201,
        0.73671,
        0.733036,
        0.739842,
        0.746623,
        0.743044,
        0.740604,
        0.749875,
        0.755886,
        0.744436,
        0.729952,
        0.72858,
        0.734719,
        0.738966,
        0.738452,
        0.733207,
        0.728311,
        0.727975,
        0.727868,
        0.723372,
        0.71726,
        0.714204,
        0.719083,
        0.733284,
        0.727418,
        0.733068,
        0.732848,
        0.733531,
        0.745927,
        0.757765,
        0.763967,
        0.770712,
        0.775493,
        0.77205,
        0.760094,
        0.741118,
        0.718555,
        0.70694,
        0.700895,
        0.695931,
        0.712803,
        0.732606,
        0.736195,
        0.724114,
        0.716233,
        0.729326,
        0.7406,
        0.753751,
        0.750443,
        0.73745,
        0.737099,
        0.734065,
        0.755313,
        0.786441,
        0.783113,
        0.773028,
        0.770969,
        0.755993,
        0.733968,
        0.731975,
        0.749054,
        0.764696,
        0.763659,
        0.749861,
        0.772141,
        0.81373,
        0.808818,
        0.821906,
        0.829699,
        0.795047,
        0.895528,
        0.87588,
        0.805991,
        0.931825,
        1.00252,
        0.9321,
        0.84351,
        0.995311,
        1.220988,
        1.260774,
        1.109055,
        0.905881,
        0.938401,
        1.191003,
        1.39084,
        1.438296,
        1.387806,
        1.205505,
        0.966611,
        0.829509,
        1.014086,
        1.29033,
        1.474017,
        1.566254,
        1.623472,
        1.654444,
        1.584583,
        1.423069,
        1.194373,
        0.926967,
        0.862509,
        1.076116,
        1.309249,
        1.5014,
        1.651564,
        1.692025,
        1.692722,
        1.580245,
        1.259881,
        1.223503,
        1.515599,
        1.607089,
        1.55452,
        1.428986,
        1.204426,
        0.896606,
        0.785735,
        1.038812,
        1.31058,
        1.500104,
        1.644965,
        1.718796,
        1.763716,
        1.807291,
        1.845352,
        1.871881,
        1.880991,
        1.862087,
        1.842823,
        1.873542,
        1.887295,
        1.856774,
        1.84827,
        1.813592,
        1.784304,
        1.74189,
        1.691697,
        1.622116,
        1.55792,
        1.469275,
        1.313342,
        1.072128,
        0.859904,
        0.951502,
        1.20981,
        1.415073,
        1.533329,
        1.595592,
        1.637041,
        1.712687,
        1.76877,
        1.774064,
        1.775611,
        1.752822,
        1.757465,
        1.77479,
        1.735154,
        1.699624,
        1.709781,
        1.73403,
        1.770255,
        1.766266,
        1.73278,
        1.74783,
        1.773421,
        1.759669,
        1.736847,
        1.696185,
        1.704235,
        1.710073,
        1.721301,
        1.706227,
        1.685867,
        1.702778,
        1.703642,
        1.718594,
        1.689321,
        1.668256,
        1.678685,
        1.645452,
        1.601279,
        1.576575,
        1.529251,
        1.512436,
        1.497652,
        1.462875,
        1.412809,
        1.318162,
        1.179362,
        0.971247,
        0.812495,
        0.920203,
        1.127314,
        1.316098,
        1.449854,
        1.532989,
        1.561745,
        1.579995,
        1.598788,
        1.583916,
        1.609281,
        1.612218,
        1.611134,
        1.623727,
        1.628853,
        1.599175,
        1.612244,
        1.635966,
        1.631807,
        1.631678,
        1.623012,
        1.603984,
        1.619808,
        1.601959,
        1.596923,
        1.585827,
        1.584724,
        1.593671,
        1.557505,
        1.575861,
        1.588042,
        1.596718,
        1.604331,
        1.617584,
        1.615056,
        1.585675,
        1.571505,
        1.547778,
        1.522447,
        1.546477,
        1.566148,
        1.540911,
        1.496238,
        1.502651,
        1.532164,
        1.555706,
        1.544548,
        1.533931,
        1.50293,
        1.489908,
        1.502483,
        1.524136,
        1.530076,
        1.530016,
        1.529079,
        1.522942,
        1.516678,
        1.507823,
        1.483049,
        1.486585,
        1.510054,
        1.496063,
        1.497955,
        1.495827,
        1.487062,
        1.466691,
        1.458872,
        1.479048,
        1.479799,
        1.489488,
        1.484332,
        1.467816,
        1.441945,
        1.442358,
        1.438841,
        1.440817,
        1.44733,
        1.438328,
        1.414327,
        1.412565,
        1.416868,
        1.418744,
        1.416939,
        1.40203,
        1.383238,
        1.361755,
        1.376467,
        1.385388,
        1.370457,
        1.372712,
        1.374349,
        1.385144,
        1.367292,
        1.340926,
        1.332916,
        1.336217,
        1.310266,
        1.27946,
        1.267895,
        1.242022,
        1.185734,
        1.116555,
        1.008322,
        0.841245,
        0.675744,
        0.736886,
        0.907741,
        1.018092,
        1.1023,
        1.142862,
        1.180483,
        1.229114,
        1.25246,
        1.252643,
        1.265742,
        1.274096,
        1.241778,
        1.249491,
        1.28134,
        1.27395,
        1.289674,
        1.303425,
        1.301126,
        1.281212,
        1.268732,
        1.280921,
        1.282173,
        1.275551,
        1.251746,
        1.242067,
        1.256729,
        1.260139,
        1.244927,
        1.223047,
        1.223561,
        1.201622,
        1.186188,
        1.219161,
        1.231973,
        1.233895,
        1.216132,
        1.221168,
        1.218071,
        1.218194,
        1.2312,
        1.225964,
        1.214367,
        1.204701,
        1.200419,
        1.21078,
        1.225511,
        1.214871,
        1.205954,
        1.214035,
        1.218426,
        1.224437,
        1.207833,
        1.187786,
        1.176711,
        1.17235,
        1.167771,
        1.177401,
        1.1735,
        1.170722,
        1.166673,
        1.117994,
        1.084322,
        1.133774,
        1.147477,
        1.114436,
        1.111306,
        1.122861,
        1.12203,
        1.116093,
        1.124048,
        1.137897,
        1.141544,
        1.112681,
        1.093672,
        1.100197,
        1.120376,
        1.136118,
        1.134926,
        1.129885,
        1.097721,
        1.060392,
        1.05453,
        1.0686,
        1.086874,
        1.098394,
        1.122889,
        1.127191,
        1.116441,
        1.111755,
        1.103887,
        1.088322,
        1.086597,
        1.076584,
        1.066196,
        1.073331,
        1.074001,
        1.088525,
        1.095787,
        1.104722,
        1.089702,
        1.063852,
        1.056177,
        1.072395,
        1.071843,
        1.066231,
        1.074251,
        1.065315,
        1.049664,
        1.039522,
        1.044646,
        1.053004,
        1.054703,
        1.046403,
        1.044111,
        1.050662,
        1.06016,
        1.047333,
        1.04028,
        1.040264,
        1.040443,
        1.037571,
        1.043913,
        1.030476,
        1.024701,
        1.035333,
        1.036147,
        1.04052,
        1.032854,
        1.019334,
        1.017868,
        1.031046,
        1.027767,
        1.004932,
        0.996162,
        1.000752,
        1.00927,
        1.014044,
        1.015802,
        1.011319,
        1.006842,
        0.999663,
        0.992571,
        0.997604,
        0.998667,
        0.979824,
        0.971761,
        0.970136,
        0.967118,
        0.980395,
        0.988642,
        0.973109,
        0.973761,
        0.979032,
        0.979232,
        0.973393,
        0.971229,
        0.974341,
        0.972051,
        0.956519,
        0.946565,
        0.952692,
        0.9598,
        0.967411,
        0.955656,
        0.946874,
        0.954245,
        0.957928,
        0.95244,
        0.945652,
        0.941152,
        0.942479,
        0.946568,
        0.946802,
        0.942699,
        0.941936,
        0.941319,
        0.940981,
        0.934136,
        0.92562,
        0.92546,
        0.928551,
        0.926648,
        0.92274,
        0.91689,
        0.914641,
        0.920356,
        0.918636,
        0.918103,
        0.920481,
        0.92064,
        0.921303,
        0.920352,
        0.91319,
        0.909322,
        0.911003,
        0.909167,
        0.907643,
        0.904829,
        0.897468,
        0.901887,
        0.907297,
        0.911598,
        0.90498,
        0.897974,
        0.880619,
        0.851465,
        0.845398,
        0.865061,
        0.888275,
        0.889075,
        0.883578,
        0.877924,
        0.878624,
        0.872814,
        0.871549,
        0.869077,
        0.868245,
        0.865323,
        0.863008,
        0.867192,
        0.866288,
        0.864396,
        0.856644,
        0.853701,
        0.850078,
        0.849779,
        0.853214,
        0.853051,
        0.835549,
        0.836991,
        0.833615,
        0.831205,
        0.834126,
        0.831088,
        0.835543,
        0.827569,
        0.831312,
        0.828439,
        0.824417,
        0.820411,
        0.820552,
        0.823299,
        0.819053,
        0.818285,
        0.811718,
        0.810247,
        0.809775,
        0.807158,
        0.802746,
        0.810095,
        0.812036,
        0.802521,
        0.796339,
        0.79689,
        0.791191,
        0.783328,
        0.78245,
        0.786267,
        0.782642,
        0.776465,
        0.776146,
        0.777231,
        0.782831,
        0.788561,
        0.787769,
        0.785749,
        0.783322,
        0.781731,
        0.783291,
        0.787335,
        0.778454,
        0.773615,
        0.774897,
        0.767762,
        0.760421,
        0.758272,
        0.755429,
        0.754162,
        0.759388,
        0.760082,
        0.76186,
        0.75959,
        0.747628,
        0.725276,
        0.736856,
        0.744953,
        0.741039,
        0.739956,
        0.740644,
        0.741285,
        0.735977,
        0.734958,
        0.741858,
        0.743947,
        0.739165,
        0.736598,
        0.728242,
        0.730436,
        0.73853,
        0.736531,
        0.730189,
        0.726827,
        0.727688,
        0.730883,
        0.730504,
        0.729125,
        0.725971,
        0.722,
        0.721823,
        0.717601,
        0.714185,
        0.715291,
        0.718827,
        0.714674,
        0.711,
        0.709427,
        0.711764,
        0.707667,
        0.696247,
        0.693443,
        0.698871,
        0.701468,
        0.696994,
        0.696551,
        0.689044,
        0.68287,
        0.671079,
        0.677966,
        0.691642,
        0.692787,
        0.683812,
        0.678038,
        0.676407,
        0.669616,
        0.661112,
        0.646213,
        0.624887,
        0.593036,
        0.54524,
        0.466561,
        0.434767,
        0.506464,
        0.573147,
        0.613164,
        0.631516,
        0.641148,
        0.6501,
        0.659616,
        0.667287,
        0.66993,
        0.669485,
        0.670854,
        0.671226,
        0.665425,
        0.660103,
        0.660422,
        0.66064,
        0.660072,
        0.661016,
        0.658938,
        0.654088,
        0.652766,
        0.651542,
        0.64883,
        0.650353,
        0.650531,
        0.649969,
        0.646841,
        0.644721,
        0.64518,
        0.640307,
        0.638876,
        0.639826,
        0.638028,
        0.636142,
        0.636947,
        0.631075,
        0.628206,
        0.627715,
        0.628398,
        0.63083,
        0.629701,
        0.62925,
        0.628021,
        0.62621,
        0.624048,
        0.626405,
        0.622423,
        0.62131,
        0.623121,
        0.620959,
        0.6176,
        0.616244,
        0.615824,
        0.614063,
        0.615492,
        0.614561,
        0.613559,
        0.612513,
        0.611573,
        0.610462,
        0.609333,
        0.60831,
        0.607304,
        0.606303,
        0.605276,
        0.604242,
        0.603202,
        0.602165,
        0.601127,
        0.600111,
        0.599161,
        0.5982,
        0.597269,
        0.596392,
        0.595565,
        0.594787,
        0.593921,
        0.59298,
        0.592046,
        0.59114,
        0.590275,
        0.594735,
        0.588688,
        0.586693,
        0.581903,
        0.581063,
        0.578849,
        0.57758,
        0.580266,
        0.580037,
        0.578748,
        0.575466,
        0.577194,
        0.576919,
        0.574437,
        0.577468,
        0.575758,
        0.571854,
        0.572711,
        0.572046,
        0.569639,
        0.568785,
        0.567853,
        0.56707,
        0.563569,
        0.56361,
        0.563433,
        0.562686,
        0.560862,
        0.553282,
        0.556762,
        0.559863,
        0.560117,
        0.561927,
        0.56153,
        0.560786,
        0.556076,
        0.55922,
        0.558825,
        0.55257,
        0.548303,
        0.541038,
        0.537532,
        0.526026,
        0.528375,
        0.530496,
        0.528217,
        0.52705,
        0.537017,
        0.544245,
        0.546609,
        0.543661,
        0.539912,
        0.531256,
        0.530306,
        0.52883,
        0.529797,
        0.526523,
        0.53002,
        0.527583,
        0.52771,
        0.522396,
        0.520334,
        0.525647,
        0.519352,
        0.520096,
        0.524304,
        0.517113,
        0.515776,
        0.516124,
        0.516006,
        0.520227,
        0.516153,
        0.516919,
        0.521124,
        0.517067,
        0.510759,
        0.511197,
        0.511595,
        0.510695,
        0.509052,
        0.510741,
        0.509013,
        0.505936,
        0.504058,
        0.506185,
        0.506722,
        0.504168,
        0.50019,
        0.500936,
        0.50082,
        0.500114,
        0.502952,
        0.503677,
        0.502583,
        0.49798,
        0.498103,
        0.500003,
        0.497363,
        0.495649,
        0.497499,
        0.496074,
        0.495365,
        0.493763,
        0.492348,
        0.489475,
        0.489834,
        0.489298,
        0.486286,
        0.485253,
        0.488616,
        0.488901,
        0.486065,
        0.484064,
        0.485128,
        0.484255,
        0.483081,
        0.482284,
        0.481363,
        0.480485,
        0.479639,
        0.478735,
        0.477802,
        0.47698,
        0.476193,
        0.475383,
        0.474515,
        0.473731,
        0.472932,
        0.472118,
        0.471305,
        0.47049,
        0.469671,
        0.468848,
        0.468019,
        0.467182,
        0.466337,
        0.465484,
        0.464621,
        0.46375,
        0.462865,
        0.461977,
        0.461073,
        0.460222,
        0.459384,
        0.458475,
        0.457566,
        0.456686,
        0.456073,
        0.455843,
        0.455407,
        0.454598,
        0.45394,
        0.45316,
        0.451974,
        0.45026,
        0.45125,
        0.450679,
        0.449028,
        0.445324,
        0.43141,
        0.421034,
        0.433692,
        0.443461,
        0.445939,
        0.443809,
        0.444573,
        0.443648,
        0.44303,
        0.443555,
        0.443835,
        0.441981,
        0.437839,
        0.435699,
        0.437943,
        0.438472,
        0.436919,
        0.436209,
        0.434713,
        0.433197,
        0.434931,
        0.43138,
        0.430606,
        0.433042,
        0.431681,
        0.426752,
        0.426031,
        0.429131,
        0.430419,
        0.429627,
        0.424701,
        0.423794,
        0.42191,
        0.420026,
        0.419048,
        0.418691,
        0.418406,
        0.421612,
        0.421661,
        0.421561,
        0.420403,
        0.420909,
        0.418833,
        0.420112,
        0.419015,
        0.416691,
        0.412373,
        0.413623,
        0.412922,
        0.413458,
        0.412876,
        0.412471,
        0.411623,
        0.411803,
        0.409551,
        0.40865,
        0.407594,
        0.408567,
        0.408481,
        0.40505,
        0.407321,
        0.406618,
        0.405905,
        0.403896,
        0.404247,
        0.404654,
        0.402769,
        0.404491,
        0.402928,
        0.401551,
        0.402378,
        0.401617,
        0.40068,
        0.396741,
        0.397838,
        0.396562,
        0.395184,
        0.392895,
        0.391062,
        0.386994,
        0.389328,
        0.390795,
        0.386886,
        0.386908,
        0.387574,
        0.386157,
        0.385461,
        0.390025,
        0.393616,
        0.390819,
        0.387416,
        0.382109,
        0.372674,
        0.377727,
        0.386095,
        0.385711,
        0.385784,
        0.383302,
        0.384173,
        0.385525,
        0.384819,
        0.380582,
        0.380006,
        0.379458,
        0.377625,
        0.376963,
        0.378159,
        0.377677,
        0.377353,
        0.376618,
        0.373545,
        0.373147,
        0.372576,
        0.369567,
        0.369365,
        0.372623,
        0.373845,
        0.373471,
        0.37251,
        0.372001,
        0.372412,
        0.372085,
        0.370824,
        0.370183,
        0.369106,
        0.369164,
        0.369584,
        0.369266,
        0.367999,
        0.367791,
        0.368555,
        0.370301,
        0.367925,
        0.362478,
        0.35759,
        0.355066,
        0.360607,
        0.365253,
        0.363987,
        0.358016,
        0.3579,
        0.360086,
        0.363526,
        0.365012,
        0.36155,
        0.346484,
        0.335055,
        0.341316,
        0.351917,
        0.35534,
        0.359868,
        0.358468,
        0.353645,
        0.339741,
        0.314202,
        0.306429,
        0.327174,
        0.345456,
        0.35294,
        0.357248,
        0.358874,
        0.356238,
        0.353726,
        0.347914,
        0.338107,
        0.327326,
        0.323752,
        0.333604,
        0.345261,
        0.352261,
        0.357253,
        0.359826,
        0.359603,
        0.359348,
        0.35658,
        0.35348,
        0.343252,
        0.327302,
        0.304337,
        0.290427,
        0.307693,
        0.325935,
        0.337845,
        0.343391,
        0.348817,
        0.355615,
        0.36012,
        0.364172,
        0.36362,
        0.362174,
        0.360067,
        0.354321,
        0.349225,
        0.339113,
        0.324951,
        0.310231,
        0.29756,
        0.303674,
        0.321578,
        0.334724,
        0.340914,
        0.346022,
        0.346896,
        0.347828,
        0.347797,
        0.348219,
        0.347879,
        0.345299,
        0.343996,
        0.344264,
        0.348188,
        0.348265,
        0.340993,
        0.335212,
        0.327537,
        0.32196,
        0.310392,
        0.298043,
        0.278721,
        0.274479,
        0.288986,
        0.304693,
        0.315601,
        0.325977,
        0.329362,
        0.332698,
        0.337558,
        0.33724,
        0.334158,
        0.33822,
        0.338893,
        0.332121,
        0.323484,
        0.326997,
        0.330603,
        0.330598,
        0.327709,
        0.328228,
        0.332936,
        0.326667,
        0.325269,
        0.324312,
        0.320845,
        0.313863,
        0.299786,
        0.29845,
        0.297331,
        0.288665,
        0.281743,
        0.272042,
        0.277228,
        0.291692,
        0.306853,
        0.321397,
        0.328448,
        0.333015,
        0.336789,
        0.331614,
        0.327079,
        0.321319,
        0.319062,
        0.317653,
        0.316108,
        0.313247,
        0.311861,
        0.313279,
        0.315526,
        0.318722,
        0.318819,
        0.319399,
        0.319278,
        0.320819,
        0.318992,
        0.316074,
        0.319138,
        0.322998,
        0.31773,
        0.310712,
        0.312889,
        0.31662,
        0.316964,
        0.313702,
        0.314912,
        0.318605,
        0.318027,
        0.316164,
        0.313185,
        0.309352,
        0.29912,
        0.285421,
        0.275331,
        0.264756,
        0.256721,
        0.261508,
        0.274202,
        0.283411,
        0.290941,
        0.297684,
        0.302608,
        0.306524,
        0.314532,
        0.319437,
        0.319844,
        0.324156,
        0.32453,
        0.321482,
        0.316701,
        0.311944,
        0.305375,
        0.299233,
        0.290838,
        0.29592,
        0.297865,
        0.295845,
        0.289696,
        0.280185,
        0.294653,
        0.287692,
        0.284717,
        0.293416,
        0.286296,
        0.290978,
        0.292413,
        0.302971,
        0.316287,
        0.328795,
        0.324742,
        0.318409,
        0.30922,
        0.303474,
        0.3025,
        0.295615,
        0.281806,
        0.293236,
        0.27554,
        0.279989,
        0.294762,
        0.292637,
        0.284323,
        0.287871,
        0.296458,
        0.291105,
        0.286745,
        0.286257,
        0.300204,
        0.289624,
        0.279,
        0.290779,
        0.302024,
        0.293892,
        0.275332,
        0.267237,
        0.264527,
        0.262648,
        0.250081,
        0.234859,
        0.236973,
        0.240023,
        0.25603,
        0.260923,
        0.2672,
        0.282866,
        0.280697,
        0.278269,
        0.276732,
        0.274779,
        0.279848,
        0.282259,
        0.285079,
        0.285018,
        0.274199,
        0.27536,
        0.27644,
        0.27734,
        0.274716,
        0.274841,
        0.274648,
        0.276122,
        0.273099,
        0.274226,
        0.280768,
        0.282617,
        0.279416,
        0.277263,
        0.279457,
        0.281649,
        0.277847,
        0.276613,
        0.279934,
        0.27562,
        0.273752,
        0.272602,
        0.271604,
        0.270941,
        0.266864,
        0.265944,
        0.26581,
        0.265081,
        0.268436,
        0.268117,
        0.267397,
        0.269813,
        0.271281,
        0.267792,
        0.266092,
        0.266244,
        0.266964,
        0.265521,
        0.265962,
        0.260663,
        0.268191,
        0.267169,
        0.264201,
        0.263184,
        0.263074,
        0.264955,
        0.268731,
        0.262605,
        0.259839,
        0.265254,
        0.261865,
        0.26036,
        0.258028,
        0.259331,
        0.261666,
        0.255549,
        0.26415,
        0.260488,
        0.266589,
        0.26122,
        0.260278,
        0.257764,
        0.254711,
        0.257057,
        0.247941,
        0.258852,
        0.255804,
        0.260446,
        0.257871,
        0.257342,
        0.260452,
        0.257034,
        0.252739,
        0.252817,
        0.253092,
        0.254817,
        0.247163,
        0.24883,
        0.246153,
        0.248527,
        0.246636,
        0.238293,
        0.235988,
        0.228026,
        0.224689,
        0.216476,
        0.205127,
        0.211425,
        0.215855,
        0.213501,
        0.227686,
        0.233914,
        0.245823,
        0.240777,
        0.237114,
        0.24198,
        0.241863,
        0.24052,
        0.247799,
        0.251882,
        0.247441,
        0.238811,
        0.238501,
        0.238739,
        0.248995,
        0.248527,
        0.247555,
        0.24648,
        0.245701,
        0.245532,
        0.245932,
        0.246777,
        0.247939,
        0.249247,
        0.250347,
        0.25084,
        0.250327,
        0.248613,
        0.246308,
        0.244226,
        0.24318,
        0.243717,
        0.245307,
        0.247153,
        0.248457,
        0.248637,
        0.247958,
        0.246901,
        0.245947,
        0.245437,
        0.245156,
        0.244748,
        0.24386,
        0.242268,
        0.240274,
        0.238312,
        0.236815,
        0.236541,
        0.236376,
        0.236409,
        0.236513,
        0.236583,
        0.236597,
        0.236556,
        0.236457,
        0.236312,
        0.236175,
        0.236111,
        0.236187,
        0.236433,
        0.236737,
        0.236952,
        0.236931,
        0.236563,
        0.235887,
        0.234978,
        0.23391,
        0.232767,
        0.23166,
        0.230709,
        0.230032,
        0.229697,
        0.229554,
        0.229401,
        0.229035,
        0.228321,
        0.227388,
        0.226433,
        0.225649,
        0.22518,
        0.224953,
        0.224841,
        0.22472,
        0.224489,
        0.224162,
        0.223777,
        0.223374
      ],
      "range":1
    }
  }
]
