[
  {
    "model":"Star, type F2(ii)",
    "name":"Star, type F2(ii)",
    "type":"WB_REF",
    "dataQualityMarker":3,
    "dataSource":"https://www.eso.org/sci/facilities/paranal/decommissioned/isaac/tools/lib.html",
    "manufacturer":"A. Pickles (A.J. Pickles, PASP 110,863, 1998)",
    "version":1,
    "wavelength":{
      "value":[
        1150.0,
        1155.0,
        1160.0,
        1165.0,
        1170.0,
        1175.0,
        1180.0,
        1185.0,
        1190.0,
        1195.0,
        1200.0,
        1205.0,
        1210.0,
        1215.0,
        1220.0,
        1225.0,
        1230.0,
        1235.0,
        1240.0,
        1245.0,
        1250.0,
        1255.0,
        1260.0,
        1265.0,
        1270.0,
        1275.0,
        1280.0,
        1285.0,
        1290.0,
        1295.0,
        1300.0,
        1305.0,
        1310.0,
        1315.0,
        1320.0,
        1325.0,
        1330.0,
        1335.0,
        1340.0,
        1345.0,
        1350.0,
        1355.0,
        1360.0,
        1365.0,
        1370.0,
        1375.0,
        1380.0,
        1385.0,
        1390.0,
        1395.0,
        1400.0,
        1405.0,
        1410.0,
        1415.0,
        1420.0,
        1425.0,
        1430.0,
        1435.0,
        1440.0,
        1445.0,
        1450.0,
        1455.0,
        1460.0,
        1465.0,
        1470.0,
        1475.0,
        1480.0,
        1485.0,
        1490.0,
        1495.0,
        1500.0,
        1505.0,
        1510.0,
        1515.0,
        1520.0,
        1525.0,
        1530.0,
        1535.0,
        1540.0,
        1545.0,
        1550.0,
        1555.0,
        1560.0,
        1565.0,
        1570.0,
        1575.0,
        1580.0,
        1585.0,
        1590.0,
        1595.0,
        1600.0,
        1605.0,
        1610.0,
        1615.0,
        1620.0,
        1625.0,
        1630.0,
        1635.0,
        1640.0,
        1645.0,
        1650.0,
        1655.0,
        1660.0,
        1665.0,
        1670.0,
        1675.0,
        1680.0,
        1685.0,
        1690.0,
        1695.0,
        1700.0,
        1705.0,
        1710.0,
        1715.0,
        1720.0,
        1725.0,
        1730.0,
        1735.0,
        1740.0,
        1745.0,
        1750.0,
        1755.0,
        1760.0,
        1765.0,
        1770.0,
        1775.0,
        1780.0,
        1785.0,
        1790.0,
        1795.0,
        1800.0,
        1805.0,
        1810.0,
        1815.0,
        1820.0,
        1825.0,
        1830.0,
        1835.0,
        1840.0,
        1845.0,
        1850.0,
        1855.0,
        1860.0,
        1865.0,
        1870.0,
        1875.0,
        1880.0,
        1885.0,
        1890.0,
        1895.0,
        1900.0,
        1905.0,
        1910.0,
        1915.0,
        1920.0,
        1925.0,
        1930.0,
        1935.0,
        1940.0,
        1945.0,
        1950.0,
        1955.0,
        1960.0,
        1965.0,
        1970.0,
        1975.0,
        1980.0,
        1985.0,
        1990.0,
        1995.0,
        2000.0,
        2005.0,
        2010.0,
        2015.0,
        2020.0,
        2025.0,
        2030.0,
        2035.0,
        2040.0,
        2045.0,
        2050.0,
        2055.0,
        2060.0,
        2065.0,
        2070.0,
        2075.0,
        2080.0,
        2085.0,
        2090.0,
        2095.0,
        2100.0,
        2105.0,
        2110.0,
        2115.0,
        2120.0,
        2125.0,
        2130.0,
        2135.0,
        2140.0,
        2145.0,
        2150.0,
        2155.0,
        2160.0,
        2165.0,
        2170.0,
        2175.0,
        2180.0,
        2185.0,
        2190.0,
        2195.0,
        2200.0,
        2205.0,
        2210.0,
        2215.0,
        2220.0,
        2225.0,
        2230.0,
        2235.0,
        2240.0,
        2245.0,
        2250.0,
        2255.0,
        2260.0,
        2265.0,
        2270.0,
        2275.0,
        2280.0,
        2285.0,
        2290.0,
        2295.0,
        2300.0,
        2305.0,
        2310.0,
        2315.0,
        2320.0,
        2325.0,
        2330.0,
        2335.0,
        2340.0,
        2345.0,
        2350.0,
        2355.0,
        2360.0,
        2365.0,
        2370.0,
        2375.0,
        2380.0,
        2385.0,
        2390.0,
        2395.0,
        2400.0,
        2405.0,
        2410.0,
        2415.0,
        2420.0,
        2425.0,
        2430.0,
        2435.0,
        2440.0,
        2445.0,
        2450.0,
        2455.0,
        2460.0,
        2465.0,
        2470.0,
        2475.0,
        2480.0,
        2485.0,
        2490.0,
        2495.0,
        2500.0,
        2505.0,
        2510.0,
        2515.0,
        2520.0,
        2525.0,
        2530.0,
        2535.0,
        2540.0,
        2545.0,
        2550.0,
        2555.0,
        2560.0,
        2565.0,
        2570.0,
        2575.0,
        2580.0,
        2585.0,
        2590.0,
        2595.0,
        2600.0,
        2605.0,
        2610.0,
        2615.0,
        2620.0,
        2625.0,
        2630.0,
        2635.0,
        2640.0,
        2645.0,
        2650.0,
        2655.0,
        2660.0,
        2665.0,
        2670.0,
        2675.0,
        2680.0,
        2685.0,
        2690.0,
        2695.0,
        2700.0,
        2705.0,
        2710.0,
        2715.0,
        2720.0,
        2725.0,
        2730.0,
        2735.0,
        2740.0,
        2745.0,
        2750.0,
        2755.0,
        2760.0,
        2765.0,
        2770.0,
        2775.0,
        2780.0,
        2785.0,
        2790.0,
        2795.0,
        2800.0,
        2805.0,
        2810.0,
        2815.0,
        2820.0,
        2825.0,
        2830.0,
        2835.0,
        2840.0,
        2845.0,
        2850.0,
        2855.0,
        2860.0,
        2865.0,
        2870.0,
        2875.0,
        2880.0,
        2885.0,
        2890.0,
        2895.0,
        2900.0,
        2905.0,
        2910.0,
        2915.0,
        2920.0,
        2925.0,
        2930.0,
        2935.0,
        2940.0,
        2945.0,
        2950.0,
        2955.0,
        2960.0,
        2965.0,
        2970.0,
        2975.0,
        2980.0,
        2985.0,
        2990.0,
        2995.0,
        3000.0,
        3005.0,
        3010.0,
        3015.0,
        3020.0,
        3025.0,
        3030.0,
        3035.0,
        3040.0,
        3045.0,
        3050.0,
        3055.0,
        3060.0,
        3065.0,
        3070.0,
        3075.0,
        3080.0,
        3085.0,
        3090.0,
        3095.0,
        3100.0,
        3105.0,
        3110.0,
        3115.0,
        3120.0,
        3125.0,
        3130.0,
        3135.0,
        3140.0,
        3145.0,
        3150.0,
        3155.0,
        3160.0,
        3165.0,
        3170.0,
        3175.0,
        3180.0,
        3185.0,
        3190.0,
        3195.0,
        3200.0,
        3205.0,
        3210.0,
        3215.0,
        3220.0,
        3225.0,
        3230.0,
        3235.0,
        3240.0,
        3245.0,
        3250.0,
        3255.0,
        3260.0,
        3265.0,
        3270.0,
        3275.0,
        3280.0,
        3285.0,
        3290.0,
        3295.0,
        3300.0,
        3305.0,
        3310.0,
        3315.0,
        3320.0,
        3325.0,
        3330.0,
        3335.0,
        3340.0,
        3345.0,
        3350.0,
        3355.0,
        3360.0,
        3365.0,
        3370.0,
        3375.0,
        3380.0,
        3385.0,
        3390.0,
        3395.0,
        3400.0,
        3405.0,
        3410.0,
        3415.0,
        3420.0,
        3425.0,
        3430.0,
        3435.0,
        3440.0,
        3445.0,
        3450.0,
        3455.0,
        3460.0,
        3465.0,
        3470.0,
        3475.0,
        3480.0,
        3485.0,
        3490.0,
        3495.0,
        3500.0,
        3505.0,
        3510.0,
        3515.0,
        3520.0,
        3525.0,
        3530.0,
        3535.0,
        3540.0,
        3545.0,
        3550.0,
        3555.0,
        3560.0,
        3565.0,
        3570.0,
        3575.0,
        3580.0,
        3585.0,
        3590.0,
        3595.0,
        3600.0,
        3605.0,
        3610.0,
        3615.0,
        3620.0,
        3625.0,
        3630.0,
        3635.0,
        3640.0,
        3645.0,
        3650.0,
        3655.0,
        3660.0,
        3665.0,
        3670.0,
        3675.0,
        3680.0,
        3685.0,
        3690.0,
        3695.0,
        3700.0,
        3705.0,
        3710.0,
        3715.0,
        3720.0,
        3725.0,
        3730.0,
        3735.0,
        3740.0,
        3745.0,
        3750.0,
        3755.0,
        3760.0,
        3765.0,
        3770.0,
        3775.0,
        3780.0,
        3785.0,
        3790.0,
        3795.0,
        3800.0,
        3805.0,
        3810.0,
        3815.0,
        3820.0,
        3825.0,
        3830.0,
        3835.0,
        3840.0,
        3845.0,
        3850.0,
        3855.0,
        3860.0,
        3865.0,
        3870.0,
        3875.0,
        3880.0,
        3885.0,
        3890.0,
        3895.0,
        3900.0,
        3905.0,
        3910.0,
        3915.0,
        3920.0,
        3925.0,
        3930.0,
        3935.0,
        3940.0,
        3945.0,
        3950.0,
        3955.0,
        3960.0,
        3965.0,
        3970.0,
        3975.0,
        3980.0,
        3985.0,
        3990.0,
        3995.0,
        4000.0,
        4005.0,
        4010.0,
        4015.0,
        4020.0,
        4025.0,
        4030.0,
        4035.0,
        4040.0,
        4045.0,
        4050.0,
        4055.0,
        4060.0,
        4065.0,
        4070.0,
        4075.0,
        4080.0,
        4085.0,
        4090.0,
        4095.0,
        4100.0,
        4105.0,
        4110.0,
        4115.0,
        4120.0,
        4125.0,
        4130.0,
        4135.0,
        4140.0,
        4145.0,
        4150.0,
        4155.0,
        4160.0,
        4165.0,
        4170.0,
        4175.0,
        4180.0,
        4185.0,
        4190.0,
        4195.0,
        4200.0,
        4205.0,
        4210.0,
        4215.0,
        4220.0,
        4225.0,
        4230.0,
        4235.0,
        4240.0,
        4245.0,
        4250.0,
        4255.0,
        4260.0,
        4265.0,
        4270.0,
        4275.0,
        4280.0,
        4285.0,
        4290.0,
        4295.0,
        4300.0,
        4305.0,
        4310.0,
        4315.0,
        4320.0,
        4325.0,
        4330.0,
        4335.0,
        4340.0,
        4345.0,
        4350.0,
        4355.0,
        4360.0,
        4365.0,
        4370.0,
        4375.0,
        4380.0,
        4385.0,
        4390.0,
        4395.0,
        4400.0,
        4405.0,
        4410.0,
        4415.0,
        4420.0,
        4425.0,
        4430.0,
        4435.0,
        4440.0,
        4445.0,
        4450.0,
        4455.0,
        4460.0,
        4465.0,
        4470.0,
        4475.0,
        4480.0,
        4485.0,
        4490.0,
        4495.0,
        4500.0,
        4505.0,
        4510.0,
        4515.0,
        4520.0,
        4525.0,
        4530.0,
        4535.0,
        4540.0,
        4545.0,
        4550.0,
        4555.0,
        4560.0,
        4565.0,
        4570.0,
        4575.0,
        4580.0,
        4585.0,
        4590.0,
        4595.0,
        4600.0,
        4605.0,
        4610.0,
        4615.0,
        4620.0,
        4625.0,
        4630.0,
        4635.0,
        4640.0,
        4645.0,
        4650.0,
        4655.0,
        4660.0,
        4665.0,
        4670.0,
        4675.0,
        4680.0,
        4685.0,
        4690.0,
        4695.0,
        4700.0,
        4705.0,
        4710.0,
        4715.0,
        4720.0,
        4725.0,
        4730.0,
        4735.0,
        4740.0,
        4745.0,
        4750.0,
        4755.0,
        4760.0,
        4765.0,
        4770.0,
        4775.0,
        4780.0,
        4785.0,
        4790.0,
        4795.0,
        4800.0,
        4805.0,
        4810.0,
        4815.0,
        4820.0,
        4825.0,
        4830.0,
        4835.0,
        4840.0,
        4845.0,
        4850.0,
        4855.0,
        4860.0,
        4865.0,
        4870.0,
        4875.0,
        4880.0,
        4885.0,
        4890.0,
        4895.0,
        4900.0,
        4905.0,
        4910.0,
        4915.0,
        4920.0,
        4925.0,
        4930.0,
        4935.0,
        4940.0,
        4945.0,
        4950.0,
        4955.0,
        4960.0,
        4965.0,
        4970.0,
        4975.0,
        4980.0,
        4985.0,
        4990.0,
        4995.0,
        5000.0,
        5005.0,
        5010.0,
        5015.0,
        5020.0,
        5025.0,
        5030.0,
        5035.0,
        5040.0,
        5045.0,
        5050.0,
        5055.0,
        5060.0,
        5065.0,
        5070.0,
        5075.0,
        5080.0,
        5085.0,
        5090.0,
        5095.0,
        5100.0,
        5105.0,
        5110.0,
        5115.0,
        5120.0,
        5125.0,
        5130.0,
        5135.0,
        5140.0,
        5145.0,
        5150.0,
        5155.0,
        5160.0,
        5165.0,
        5170.0,
        5175.0,
        5180.0,
        5185.0,
        5190.0,
        5195.0,
        5200.0,
        5205.0,
        5210.0,
        5215.0,
        5220.0,
        5225.0,
        5230.0,
        5235.0,
        5240.0,
        5245.0,
        5250.0,
        5255.0,
        5260.0,
        5265.0,
        5270.0,
        5275.0,
        5280.0,
        5285.0,
        5290.0,
        5295.0,
        5300.0,
        5305.0,
        5310.0,
        5315.0,
        5320.0,
        5325.0,
        5330.0,
        5335.0,
        5340.0,
        5345.0,
        5350.0,
        5355.0,
        5360.0,
        5365.0,
        5370.0,
        5375.0,
        5380.0,
        5385.0,
        5390.0,
        5395.0,
        5400.0,
        5405.0,
        5410.0,
        5415.0,
        5420.0,
        5425.0,
        5430.0,
        5435.0,
        5440.0,
        5445.0,
        5450.0,
        5455.0,
        5460.0,
        5465.0,
        5470.0,
        5475.0,
        5480.0,
        5485.0,
        5490.0,
        5495.0,
        5500.0,
        5505.0,
        5510.0,
        5515.0,
        5520.0,
        5525.0,
        5530.0,
        5535.0,
        5540.0,
        5545.0,
        5550.0,
        5555.0,
        5560.0,
        5565.0,
        5570.0,
        5575.0,
        5580.0,
        5585.0,
        5590.0,
        5595.0,
        5600.0,
        5605.0,
        5610.0,
        5615.0,
        5620.0,
        5625.0,
        5630.0,
        5635.0,
        5640.0,
        5645.0,
        5650.0,
        5655.0,
        5660.0,
        5665.0,
        5670.0,
        5675.0,
        5680.0,
        5685.0,
        5690.0,
        5695.0,
        5700.0,
        5705.0,
        5710.0,
        5715.0,
        5720.0,
        5725.0,
        5730.0,
        5735.0,
        5740.0,
        5745.0,
        5750.0,
        5755.0,
        5760.0,
        5765.0,
        5770.0,
        5775.0,
        5780.0,
        5785.0,
        5790.0,
        5795.0,
        5800.0,
        5805.0,
        5810.0,
        5815.0,
        5820.0,
        5825.0,
        5830.0,
        5835.0,
        5840.0,
        5845.0,
        5850.0,
        5855.0,
        5860.0,
        5865.0,
        5870.0,
        5875.0,
        5880.0,
        5885.0,
        5890.0,
        5895.0,
        5900.0,
        5905.0,
        5910.0,
        5915.0,
        5920.0,
        5925.0,
        5930.0,
        5935.0,
        5940.0,
        5945.0,
        5950.0,
        5955.0,
        5960.0,
        5965.0,
        5970.0,
        5975.0,
        5980.0,
        5985.0,
        5990.0,
        5995.0,
        6000.0,
        6005.0,
        6010.0,
        6015.0,
        6020.0,
        6025.0,
        6030.0,
        6035.0,
        6040.0,
        6045.0,
        6050.0,
        6055.0,
        6060.0,
        6065.0,
        6070.0,
        6075.0,
        6080.0,
        6085.0,
        6090.0,
        6095.0,
        6100.0,
        6105.0,
        6110.0,
        6115.0,
        6120.0,
        6125.0,
        6130.0,
        6135.0,
        6140.0,
        6145.0,
        6150.0,
        6155.0,
        6160.0,
        6165.0,
        6170.0,
        6175.0,
        6180.0,
        6185.0,
        6190.0,
        6195.0,
        6200.0,
        6205.0,
        6210.0,
        6215.0,
        6220.0,
        6225.0,
        6230.0,
        6235.0,
        6240.0,
        6245.0,
        6250.0,
        6255.0,
        6260.0,
        6265.0,
        6270.0,
        6275.0,
        6280.0,
        6285.0,
        6290.0,
        6295.0,
        6300.0,
        6305.0,
        6310.0,
        6315.0,
        6320.0,
        6325.0,
        6330.0,
        6335.0,
        6340.0,
        6345.0,
        6350.0,
        6355.0,
        6360.0,
        6365.0,
        6370.0,
        6375.0,
        6380.0,
        6385.0,
        6390.0,
        6395.0,
        6400.0,
        6405.0,
        6410.0,
        6415.0,
        6420.0,
        6425.0,
        6430.0,
        6435.0,
        6440.0,
        6445.0,
        6450.0,
        6455.0,
        6460.0,
        6465.0,
        6470.0,
        6475.0,
        6480.0,
        6485.0,
        6490.0,
        6495.0,
        6500.0,
        6505.0,
        6510.0,
        6515.0,
        6520.0,
        6525.0,
        6530.0,
        6535.0,
        6540.0,
        6545.0,
        6550.0,
        6555.0,
        6560.0,
        6565.0,
        6570.0,
        6575.0,
        6580.0,
        6585.0,
        6590.0,
        6595.0,
        6600.0,
        6605.0,
        6610.0,
        6615.0,
        6620.0,
        6625.0,
        6630.0,
        6635.0,
        6640.0,
        6645.0,
        6650.0,
        6655.0,
        6660.0,
        6665.0,
        6670.0,
        6675.0,
        6680.0,
        6685.0,
        6690.0,
        6695.0,
        6700.0,
        6705.0,
        6710.0,
        6715.0,
        6720.0,
        6725.0,
        6730.0,
        6735.0,
        6740.0,
        6745.0,
        6750.0,
        6755.0,
        6760.0,
        6765.0,
        6770.0,
        6775.0,
        6780.0,
        6785.0,
        6790.0,
        6795.0,
        6800.0,
        6805.0,
        6810.0,
        6815.0,
        6820.0,
        6825.0,
        6830.0,
        6835.0,
        6840.0,
        6845.0,
        6850.0,
        6855.0,
        6860.0,
        6865.0,
        6870.0,
        6875.0,
        6880.0,
        6885.0,
        6890.0,
        6895.0,
        6900.0,
        6905.0,
        6910.0,
        6915.0,
        6920.0,
        6925.0,
        6930.0,
        6935.0,
        6940.0,
        6945.0,
        6950.0,
        6955.0,
        6960.0,
        6965.0,
        6970.0,
        6975.0,
        6980.0,
        6985.0,
        6990.0,
        6995.0,
        7000.0,
        7005.0,
        7010.0,
        7015.0,
        7020.0,
        7025.0,
        7030.0,
        7035.0,
        7040.0,
        7045.0,
        7050.0,
        7055.0,
        7060.0,
        7065.0,
        7070.0,
        7075.0,
        7080.0,
        7085.0,
        7090.0,
        7095.0,
        7100.0,
        7105.0,
        7110.0,
        7115.0,
        7120.0,
        7125.0,
        7130.0,
        7135.0,
        7140.0,
        7145.0,
        7150.0,
        7155.0,
        7160.0,
        7165.0,
        7170.0,
        7175.0,
        7180.0,
        7185.0,
        7190.0,
        7195.0,
        7200.0,
        7205.0,
        7210.0,
        7215.0,
        7220.0,
        7225.0,
        7230.0,
        7235.0,
        7240.0,
        7245.0,
        7250.0,
        7255.0,
        7260.0,
        7265.0,
        7270.0,
        7275.0,
        7280.0,
        7285.0,
        7290.0,
        7295.0,
        7300.0,
        7305.0,
        7310.0,
        7315.0,
        7320.0,
        7325.0,
        7330.0,
        7335.0,
        7340.0,
        7345.0,
        7350.0,
        7355.0,
        7360.0,
        7365.0,
        7370.0,
        7375.0,
        7380.0,
        7385.0,
        7390.0,
        7395.0,
        7400.0,
        7405.0,
        7410.0,
        7415.0,
        7420.0,
        7425.0,
        7430.0,
        7435.0,
        7440.0,
        7445.0,
        7450.0,
        7455.0,
        7460.0,
        7465.0,
        7470.0,
        7475.0,
        7480.0,
        7485.0,
        7490.0,
        7495.0,
        7500.0,
        7505.0,
        7510.0,
        7515.0,
        7520.0,
        7525.0,
        7530.0,
        7535.0,
        7540.0,
        7545.0,
        7550.0,
        7555.0,
        7560.0,
        7565.0,
        7570.0,
        7575.0,
        7580.0,
        7585.0,
        7590.0,
        7595.0,
        7600.0,
        7605.0,
        7610.0,
        7615.0,
        7620.0,
        7625.0,
        7630.0,
        7635.0,
        7640.0,
        7645.0,
        7650.0,
        7655.0,
        7660.0,
        7665.0,
        7670.0,
        7675.0,
        7680.0,
        7685.0,
        7690.0,
        7695.0,
        7700.0,
        7705.0,
        7710.0,
        7715.0,
        7720.0,
        7725.0,
        7730.0,
        7735.0,
        7740.0,
        7745.0,
        7750.0,
        7755.0,
        7760.0,
        7765.0,
        7770.0,
        7775.0,
        7780.0,
        7785.0,
        7790.0,
        7795.0,
        7800.0,
        7805.0,
        7810.0,
        7815.0,
        7820.0,
        7825.0,
        7830.0,
        7835.0,
        7840.0,
        7845.0,
        7850.0,
        7855.0,
        7860.0,
        7865.0,
        7870.0,
        7875.0,
        7880.0,
        7885.0,
        7890.0,
        7895.0,
        7900.0,
        7905.0,
        7910.0,
        7915.0,
        7920.0,
        7925.0,
        7930.0,
        7935.0,
        7940.0,
        7945.0,
        7950.0,
        7955.0,
        7960.0,
        7965.0,
        7970.0,
        7975.0,
        7980.0,
        7985.0,
        7990.0,
        7995.0,
        8000.0,
        8005.0,
        8010.0,
        8015.0,
        8020.0,
        8025.0,
        8030.0,
        8035.0,
        8040.0,
        8045.0,
        8050.0,
        8055.0,
        8060.0,
        8065.0,
        8070.0,
        8075.0,
        8080.0,
        8085.0,
        8090.0,
        8095.0,
        8100.0,
        8105.0,
        8110.0,
        8115.0,
        8120.0,
        8125.0,
        8130.0,
        8135.0,
        8140.0,
        8145.0,
        8150.0,
        8155.0,
        8160.0,
        8165.0,
        8170.0,
        8175.0,
        8180.0,
        8185.0,
        8190.0,
        8195.0,
        8200.0,
        8205.0,
        8210.0,
        8215.0,
        8220.0,
        8225.0,
        8230.0,
        8235.0,
        8240.0,
        8245.0,
        8250.0,
        8255.0,
        8260.0,
        8265.0,
        8270.0,
        8275.0,
        8280.0,
        8285.0,
        8290.0,
        8295.0,
        8300.0,
        8305.0,
        8310.0,
        8315.0,
        8320.0,
        8325.0,
        8330.0,
        8335.0,
        8340.0,
        8345.0,
        8350.0,
        8355.0,
        8360.0,
        8365.0,
        8370.0,
        8375.0,
        8380.0,
        8385.0,
        8390.0,
        8395.0,
        8400.0,
        8405.0,
        8410.0,
        8415.0,
        8420.0,
        8425.0,
        8430.0,
        8435.0,
        8440.0,
        8445.0,
        8450.0,
        8455.0,
        8460.0,
        8465.0,
        8470.0,
        8475.0,
        8480.0,
        8485.0,
        8490.0,
        8495.0,
        8500.0,
        8505.0,
        8510.0,
        8515.0,
        8520.0,
        8525.0,
        8530.0,
        8535.0,
        8540.0,
        8545.0,
        8550.0,
        8555.0,
        8560.0,
        8565.0,
        8570.0,
        8575.0,
        8580.0,
        8585.0,
        8590.0,
        8595.0,
        8600.0,
        8605.0,
        8610.0,
        8615.0,
        8620.0,
        8625.0,
        8630.0,
        8635.0,
        8640.0,
        8645.0,
        8650.0,
        8655.0,
        8660.0,
        8665.0,
        8670.0,
        8675.0,
        8680.0,
        8685.0,
        8690.0,
        8695.0,
        8700.0,
        8705.0,
        8710.0,
        8715.0,
        8720.0,
        8725.0,
        8730.0,
        8735.0,
        8740.0,
        8745.0,
        8750.0,
        8755.0,
        8760.0,
        8765.0,
        8770.0,
        8775.0,
        8780.0,
        8785.0,
        8790.0,
        8795.0,
        8800.0,
        8805.0,
        8810.0,
        8815.0,
        8820.0,
        8825.0,
        8830.0,
        8835.0,
        8840.0,
        8845.0,
        8850.0,
        8855.0,
        8860.0,
        8865.0,
        8870.0,
        8875.0,
        8880.0,
        8885.0,
        8890.0,
        8895.0,
        8900.0,
        8905.0,
        8910.0,
        8915.0,
        8920.0,
        8925.0,
        8930.0,
        8935.0,
        8940.0,
        8945.0,
        8950.0,
        8955.0,
        8960.0,
        8965.0,
        8970.0,
        8975.0,
        8980.0,
        8985.0,
        8990.0,
        8995.0,
        9000.0,
        9005.0,
        9010.0,
        9015.0,
        9020.0,
        9025.0,
        9030.0,
        9035.0,
        9040.0,
        9045.0,
        9050.0,
        9055.0,
        9060.0,
        9065.0,
        9070.0,
        9075.0,
        9080.0,
        9085.0,
        9090.0,
        9095.0,
        9100.0,
        9105.0,
        9110.0,
        9115.0,
        9120.0,
        9125.0,
        9130.0,
        9135.0,
        9140.0,
        9145.0,
        9150.0,
        9155.0,
        9160.0,
        9165.0,
        9170.0,
        9175.0,
        9180.0,
        9185.0,
        9190.0,
        9195.0,
        9200.0,
        9205.0,
        9210.0,
        9215.0,
        9220.0,
        9225.0,
        9230.0,
        9235.0,
        9240.0,
        9245.0,
        9250.0,
        9255.0,
        9260.0,
        9265.0,
        9270.0,
        9275.0,
        9280.0,
        9285.0,
        9290.0,
        9295.0,
        9300.0,
        9305.0,
        9310.0,
        9315.0,
        9320.0,
        9325.0,
        9330.0,
        9335.0,
        9340.0,
        9345.0,
        9350.0,
        9355.0,
        9360.0,
        9365.0,
        9370.0,
        9375.0,
        9380.0,
        9385.0,
        9390.0,
        9395.0,
        9400.0,
        9405.0,
        9410.0,
        9415.0,
        9420.0,
        9425.0,
        9430.0,
        9435.0,
        9440.0,
        9445.0,
        9450.0,
        9455.0,
        9460.0,
        9465.0,
        9470.0,
        9475.0,
        9480.0,
        9485.0,
        9490.0,
        9495.0,
        9500.0,
        9505.0,
        9510.0,
        9515.0,
        9520.0,
        9525.0,
        9530.0,
        9535.0,
        9540.0,
        9545.0,
        9550.0,
        9555.0,
        9560.0,
        9565.0,
        9570.0,
        9575.0,
        9580.0,
        9585.0,
        9590.0,
        9595.0,
        9600.0,
        9605.0,
        9610.0,
        9615.0,
        9620.0,
        9625.0,
        9630.0,
        9635.0,
        9640.0,
        9645.0,
        9650.0,
        9655.0,
        9660.0,
        9665.0,
        9670.0,
        9675.0,
        9680.0,
        9685.0,
        9690.0,
        9695.0,
        9700.0,
        9705.0,
        9710.0,
        9715.0,
        9720.0,
        9725.0,
        9730.0,
        9735.0,
        9740.0,
        9745.0,
        9750.0,
        9755.0,
        9760.0,
        9765.0,
        9770.0,
        9775.0,
        9780.0,
        9785.0,
        9790.0,
        9795.0,
        9800.0,
        9805.0,
        9810.0,
        9815.0,
        9820.0,
        9825.0,
        9830.0,
        9835.0,
        9840.0,
        9845.0,
        9850.0,
        9855.0,
        9860.0,
        9865.0,
        9870.0,
        9875.0,
        9880.0,
        9885.0,
        9890.0,
        9895.0,
        9900.0,
        9905.0,
        9910.0,
        9915.0,
        9920.0,
        9925.0,
        9930.0,
        9935.0,
        9940.0,
        9945.0,
        9950.0,
        9955.0,
        9960.0,
        9965.0,
        9970.0,
        9975.0,
        9980.0,
        9985.0,
        9990.0,
        9995.0,
        10000.0,
        10005.0,
        10010.0,
        10015.0,
        10020.0,
        10025.0,
        10030.0,
        10035.0,
        10040.0,
        10045.0,
        10050.0,
        10055.0,
        10060.0,
        10065.0,
        10070.0,
        10075.0,
        10080.0,
        10085.0,
        10090.0,
        10095.0,
        10100.0,
        10105.0,
        10110.0,
        10115.0,
        10120.0,
        10125.0,
        10130.0,
        10135.0,
        10140.0,
        10145.0,
        10150.0,
        10155.0,
        10160.0,
        10165.0,
        10170.0,
        10175.0,
        10180.0,
        10185.0,
        10190.0,
        10195.0,
        10200.0,
        10205.0,
        10210.0,
        10215.0,
        10220.0,
        10225.0,
        10230.0,
        10235.0,
        10240.0,
        10245.0,
        10250.0,
        10255.0,
        10260.0,
        10265.0,
        10270.0,
        10275.0,
        10280.0,
        10285.0,
        10290.0,
        10295.0,
        10300.0,
        10305.0,
        10310.0,
        10315.0,
        10320.0,
        10325.0,
        10330.0,
        10335.0,
        10340.0,
        10345.0,
        10350.0,
        10355.0,
        10360.0,
        10365.0,
        10370.0,
        10375.0,
        10380.0,
        10385.0,
        10390.0,
        10395.0,
        10400.0,
        10405.0,
        10410.0,
        10415.0,
        10420.0,
        10425.0,
        10430.0,
        10435.0,
        10440.0,
        10445.0,
        10450.0,
        10455.0,
        10460.0,
        10465.0,
        10470.0,
        10475.0,
        10480.0,
        10485.0,
        10490.0,
        10495.0,
        10500.0
      ],
      "units":"angstrom"
    },
    "values":{
      "value":[
        0.0,
        0.0,
        0.0,
        0.0,
        0.0,
        0.0,
        0.0,
        0.0,
        0.0,
        0.0,
        0.0,
        0.0,
        0.0,
        0.0,
        0.0,
        0.0,
        0.0,
        0.0,
        0.0,
        0.0,
        0.0,
        0.0,
        0.0,
        0.0,
        0.0,
        0.0,
        0.0,
        0.0,
        0.0,
        0.0,
        0.0,
        0.0,
        0.0,
        0.0,
        0.0,
        0.0,
        0.0,
        0.0,
        0.0,
        0.0,
        0.0,
        0.0,
        1e-06,
        1e-06,
        2e-06,
        2e-06,
        2e-06,
        2e-06,
        2e-06,
        1e-06,
        0.0,
        0.0,
        0.0,
        0.0,
        0.0,
        0.0,
        0.0,
        0.0,
        0.0,
        0.0,
        0.0,
        5e-06,
        1.2e-05,
        1.8e-05,
        2.4e-05,
        2.8e-05,
        3e-05,
        2.9e-05,
        2.4e-05,
        1.5e-05,
        0.0,
        0.0,
        0.0,
        0.0,
        0.0,
        0.0,
        0.0,
        0.0,
        0.0,
        0.0,
        0.0,
        7.8e-05,
        0.000181,
        0.000309,
        0.000464,
        0.000647,
        0.000859,
        0.001101,
        0.001375,
        0.001681,
        0.002022,
        0.002397,
        0.002805,
        0.003246,
        0.003716,
        0.004215,
        0.004741,
        0.005291,
        0.005865,
        0.00646,
        0.007075,
        0.007714,
        0.008401,
        0.009166,
        0.010038,
        0.011048,
        0.012225,
        0.013599,
        0.015201,
        0.01706,
        0.019205,
        0.021654,
        0.024375,
        0.027323,
        0.030453,
        0.03372,
        0.037079,
        0.040486,
        0.043894,
        0.04726,
        0.050539,
        0.053691,
        0.056696,
        0.059541,
        0.062211,
        0.064693,
        0.066973,
        0.069036,
        0.070869,
        0.072457,
        0.073787,
        0.074858,
        0.07572,
        0.076439,
        0.07708,
        0.077706,
        0.078382,
        0.079174,
        0.080145,
        0.08136,
        0.082884,
        0.084757,
        0.086923,
        0.089301,
        0.09181,
        0.094371,
        0.096902,
        0.099323,
        0.101554,
        0.103513,
        0.105121,
        0.106321,
        0.107152,
        0.107678,
        0.107963,
        0.108069,
        0.108061,
        0.108002,
        0.107955,
        0.107985,
        0.108154,
        0.108514,
        0.109067,
        0.109804,
        0.110714,
        0.111788,
        0.113016,
        0.114389,
        0.115895,
        0.117527,
        0.119272,
        0.121119,
        0.123041,
        0.125007,
        0.126987,
        0.128951,
        0.130868,
        0.132708,
        0.134442,
        0.136038,
        0.137466,
        0.13871,
        0.139801,
        0.140787,
        0.141712,
        0.142624,
        0.143568,
        0.14459,
        0.145736,
        0.147053,
        0.148585,
        0.150361,
        0.152337,
        0.154449,
        0.156635,
        0.158832,
        0.160978,
        0.163009,
        0.164863,
        0.166478,
        0.16779,
        0.168754,
        0.169394,
        0.169751,
        0.169866,
        0.169781,
        0.169536,
        0.169174,
        0.168734,
        0.168259,
        0.16779,
        0.16736,
        0.166979,
        0.166646,
        0.166363,
        0.16613,
        0.16595,
        0.165823,
        0.165749,
        0.165731,
        0.165768,
        0.165852,
        0.165929,
        0.165937,
        0.165811,
        0.165487,
        0.164904,
        0.163996,
        0.1627,
        0.160954,
        0.158693,
        0.155881,
        0.152592,
        0.148928,
        0.144991,
        0.140881,
        0.136699,
        0.132549,
        0.12853,
        0.124744,
        0.121294,
        0.118266,
        0.115696,
        0.113606,
        0.112017,
        0.11095,
        0.110428,
        0.110472,
        0.111104,
        0.112346,
        0.114218,
        0.116721,
        0.119761,
        0.123223,
        0.126992,
        0.130953,
        0.13499,
        0.138988,
        0.142832,
        0.146406,
        0.149596,
        0.152306,
        0.154525,
        0.156262,
        0.157525,
        0.158324,
        0.158667,
        0.158564,
        0.158022,
        0.157051,
        0.15566,
        0.153871,
        0.151756,
        0.149401,
        0.146893,
        0.144317,
        0.141759,
        0.139304,
        0.13704,
        0.135051,
        0.133423,
        0.132249,
        0.131643,
        0.131725,
        0.132617,
        0.134439,
        0.137312,
        0.141356,
        0.146693,
        0.153442,
        0.161725,
        0.171569,
        0.182633,
        0.19448,
        0.206676,
        0.218785,
        0.230373,
        0.241004,
        0.250243,
        0.257654,
        0.262803,
        0.265383,
        0.265599,
        0.263787,
        0.26028,
        0.255412,
        0.249519,
        0.242934,
        0.235991,
        0.229026,
        0.222372,
        0.216299,
        0.210819,
        0.205878,
        0.201424,
        0.197403,
        0.193762,
        0.190449,
        0.187409,
        0.184591,
        0.181941,
        0.179426,
        0.177098,
        0.17503,
        0.173292,
        0.171958,
        0.171098,
        0.170786,
        0.171094,
        0.172092,
        0.173854,
        0.176425,
        0.179742,
        0.183715,
        0.188254,
        0.193271,
        0.198675,
        0.204377,
        0.210286,
        0.216315,
        0.222372,
        0.228387,
        0.23436,
        0.240312,
        0.246262,
        0.25223,
        0.258234,
        0.264296,
        0.270435,
        0.276669,
        0.283019,
        0.289491,
        0.296036,
        0.302594,
        0.309102,
        0.315499,
        0.321724,
        0.327715,
        0.33341,
        0.338747,
        0.343666,
        0.348122,
        0.352142,
        0.355771,
        0.359054,
        0.362036,
        0.364761,
        0.367274,
        0.36962,
        0.371843,
        0.373989,
        0.376095,
        0.378172,
        0.380224,
        0.382254,
        0.384267,
        0.386267,
        0.388256,
        0.39024,
        0.392221,
        0.394205,
        0.396193,
        0.398188,
        0.400189,
        0.402198,
        0.404213,
        0.406237,
        0.408269,
        0.41031,
        0.41236,
        0.414421,
        0.41649,
        0.418563,
        0.420636,
        0.422702,
        0.424755,
        0.42679,
        0.428802,
        0.430783,
        0.43273,
        0.434636,
        0.4365,
        0.43834,
        0.440178,
        0.442036,
        0.443936,
        0.445901,
        0.447953,
        0.450114,
        0.452406,
        0.454852,
        0.457466,
        0.464911,
        0.47372,
        0.481889,
        0.460807,
        0.415449,
        0.451954,
        0.495813,
        0.478667,
        0.454304,
        0.481179,
        0.514281,
        0.502298,
        0.472205,
        0.461985,
        0.475379,
        0.504667,
        0.530516,
        0.536861,
        0.532323,
        0.528366,
        0.523132,
        0.513222,
        0.502364,
        0.495437,
        0.494766,
        0.500966,
        0.510351,
        0.517707,
        0.515997,
        0.501838,
        0.488266,
        0.487349,
        0.490851,
        0.489289,
        0.488497,
        0.495892,
        0.509916,
        0.524966,
        0.528247,
        0.51184,
        0.494508,
        0.496016,
        0.513454,
        0.534854,
        0.534703,
        0.498652,
        0.470526,
        0.489125,
        0.514946,
        0.506088,
        0.489377,
        0.495787,
        0.504178,
        0.490426,
        0.470575,
        0.464831,
        0.469874,
        0.477589,
        0.484193,
        0.488297,
        0.447772,
        0.458846,
        0.480269,
        0.466401,
        0.451596,
        0.457416,
        0.492054,
        0.524856,
        0.505445,
        0.510425,
        0.479171,
        0.458306,
        0.45501,
        0.452327,
        0.476313,
        0.482051,
        0.469462,
        0.458011,
        0.495858,
        0.496493,
        0.464473,
        0.4479,
        0.46556,
        0.495898,
        0.484534,
        0.484647,
        0.493509,
        0.499803,
        0.518191,
        0.542632,
        0.541796,
        0.540988,
        0.537696,
        0.556047,
        0.559785,
        0.576848,
        0.629998,
        0.654481,
        0.670573,
        0.66641,
        0.677348,
        0.74935,
        0.764092,
        0.763334,
        0.764456,
        0.747422,
        0.841179,
        0.768212,
        0.719674,
        0.865785,
        0.9304,
        0.867774,
        0.796805,
        0.964553,
        1.175358,
        1.150527,
        0.996866,
        0.854661,
        0.895606,
        1.077532,
        1.228699,
        1.222678,
        1.217089,
        1.050757,
        0.865854,
        0.778317,
        0.952699,
        1.165312,
        1.290181,
        1.348881,
        1.389638,
        1.422416,
        1.402603,
        1.319428,
        1.17179,
        0.944896,
        0.874138,
        1.060952,
        1.21927,
        1.295351,
        1.361604,
        1.36955,
        1.295109,
        1.000987,
        0.627138,
        0.670185,
        1.031908,
        1.213709,
        1.26433,
        1.249665,
        1.065322,
        0.687878,
        0.582433,
        0.933701,
        1.256771,
        1.387549,
        1.436142,
        1.430861,
        1.426901,
        1.447896,
        1.485873,
        1.532849,
        1.53316,
        1.476042,
        1.446271,
        1.491793,
        1.519824,
        1.49144,
        1.476545,
        1.456915,
        1.468337,
        1.456817,
        1.431275,
        1.370952,
        1.37344,
        1.423462,
        1.383204,
        1.146191,
        0.927775,
        1.059751,
        1.295575,
        1.404545,
        1.403936,
        1.363026,
        1.352835,
        1.438984,
        1.508967,
        1.494339,
        1.461487,
        1.442294,
        1.45212,
        1.457643,
        1.375771,
        1.337481,
        1.35374,
        1.393768,
        1.44859,
        1.419175,
        1.365603,
        1.392439,
        1.443856,
        1.431643,
        1.41356,
        1.370457,
        1.367312,
        1.369111,
        1.409935,
        1.385991,
        1.36993,
        1.393562,
        1.403606,
        1.413693,
        1.372092,
        1.381848,
        1.420375,
        1.384142,
        1.310948,
        1.266146,
        1.214092,
        1.257893,
        1.297243,
        1.32627,
        1.356118,
        1.351433,
        1.272389,
        1.051992,
        0.861914,
        1.013057,
        1.216529,
        1.354821,
        1.409563,
        1.415432,
        1.376509,
        1.380859,
        1.382697,
        1.332984,
        1.335649,
        1.314322,
        1.31365,
        1.332155,
        1.353488,
        1.320014,
        1.325688,
        1.352773,
        1.355145,
        1.360834,
        1.355816,
        1.330854,
        1.350313,
        1.332,
        1.299021,
        1.295792,
        1.312994,
        1.352122,
        1.342097,
        1.344701,
        1.340815,
        1.379933,
        1.408593,
        1.425306,
        1.422414,
        1.381713,
        1.336619,
        1.303909,
        1.280419,
        1.342965,
        1.366787,
        1.315203,
        1.255774,
        1.282673,
        1.331127,
        1.356027,
        1.352809,
        1.332874,
        1.27903,
        1.271037,
        1.298944,
        1.315789,
        1.33499,
        1.362673,
        1.365808,
        1.337658,
        1.3384,
        1.336604,
        1.322125,
        1.332934,
        1.348557,
        1.335338,
        1.332151,
        1.337779,
        1.344411,
        1.305593,
        1.30604,
        1.341395,
        1.373501,
        1.391341,
        1.370451,
        1.35055,
        1.317773,
        1.307561,
        1.300926,
        1.316938,
        1.341248,
        1.332791,
        1.289132,
        1.291535,
        1.316215,
        1.323061,
        1.319369,
        1.287074,
        1.262495,
        1.250186,
        1.290325,
        1.30848,
        1.312661,
        1.289577,
        1.291799,
        1.299434,
        1.297131,
        1.270007,
        1.252373,
        1.260276,
        1.265595,
        1.264011,
        1.25759,
        1.25064,
        1.24052,
        1.202199,
        1.109211,
        0.925055,
        0.795846,
        0.909118,
        1.045375,
        1.123351,
        1.15278,
        1.147662,
        1.16098,
        1.211951,
        1.237083,
        1.239055,
        1.216763,
        1.183978,
        1.143487,
        1.181424,
        1.220724,
        1.219661,
        1.214016,
        1.229224,
        1.236602,
        1.216985,
        1.217087,
        1.244296,
        1.233707,
        1.206717,
        1.160921,
        1.171822,
        1.206259,
        1.203532,
        1.17451,
        1.137014,
        1.125216,
        1.109784,
        1.12651,
        1.16744,
        1.194532,
        1.178331,
        1.133325,
        1.142863,
        1.162027,
        1.185583,
        1.191409,
        1.178306,
        1.164882,
        1.136338,
        1.12069,
        1.151603,
        1.181579,
        1.154785,
        1.138298,
        1.148952,
        1.156554,
        1.169859,
        1.149667,
        1.123795,
        1.10076,
        1.097974,
        1.099266,
        1.09635,
        1.09958,
        1.110062,
        1.112881,
        1.035176,
        1.002183,
        1.082137,
        1.110472,
        1.06499,
        1.037174,
        1.039027,
        1.056802,
        1.064376,
        1.085349,
        1.102386,
        1.111729,
        1.052948,
        1.023957,
        1.043601,
        1.091298,
        1.100667,
        1.098299,
        1.083663,
        1.06554,
        1.014476,
        0.997123,
        1.00569,
        1.042409,
        1.083326,
        1.111758,
        1.104189,
        1.088024,
        1.092728,
        1.093793,
        1.074195,
        1.06449,
        1.041631,
        1.03494,
        1.032078,
        1.054922,
        1.075229,
        1.080415,
        1.092376,
        1.079502,
        1.047201,
        1.032408,
        1.044869,
        1.066241,
        1.07789,
        1.067473,
        1.033108,
        1.010888,
        1.010382,
        1.007177,
        1.015597,
        1.018115,
        1.019098,
        1.017541,
        1.039068,
        1.065883,
        1.041249,
        1.019046,
        1.00982,
        1.02715,
        1.043017,
        1.036714,
        1.015712,
        1.000293,
        1.013399,
        1.02131,
        1.030301,
        1.029651,
        1.009879,
        0.994448,
        1.009309,
        1.020859,
        0.996643,
        0.985403,
        1.002578,
        1.015382,
        1.025557,
        1.025222,
        1.015732,
        1.015454,
        1.010057,
        0.992091,
        1.009474,
        1.019872,
        0.9847,
        0.96876,
        0.964804,
        0.960614,
        0.992999,
        1.020565,
        0.999336,
        0.985373,
        0.98971,
        0.997103,
        1.000186,
        0.991888,
        0.997531,
        0.992476,
        0.967246,
        0.950919,
        0.960992,
        0.973921,
        0.98106,
        0.973687,
        0.95614,
        0.964305,
        0.978941,
        0.975175,
        0.947028,
        0.933858,
        0.954023,
        0.981805,
        0.996654,
        0.985415,
        0.976831,
        0.97146,
        0.958848,
        0.960255,
        0.959328,
        0.961992,
        0.963207,
        0.957117,
        0.95209,
        0.93157,
        0.942735,
        0.956209,
        0.944284,
        0.954507,
        0.954388,
        0.948294,
        0.944861,
        0.9573,
        0.957251,
        0.959171,
        0.961331,
        0.965311,
        0.94372,
        0.933275,
        0.921561,
        0.912788,
        0.933767,
        0.937804,
        0.93971,
        0.925997,
        0.895458,
        0.855073,
        0.872434,
        0.899494,
        0.921926,
        0.918299,
        0.914503,
        0.913392,
        0.910615,
        0.907896,
        0.907122,
        0.909123,
        0.909545,
        0.898597,
        0.897408,
        0.9047,
        0.90738,
        0.90078,
        0.895703,
        0.891379,
        0.894753,
        0.893418,
        0.894684,
        0.879033,
        0.873337,
        0.863161,
        0.860545,
        0.85736,
        0.858912,
        0.873217,
        0.871895,
        0.869039,
        0.866489,
        0.863107,
        0.854887,
        0.856033,
        0.85673,
        0.858505,
        0.855403,
        0.847715,
        0.849775,
        0.847908,
        0.845414,
        0.84017,
        0.837108,
        0.848581,
        0.843606,
        0.836356,
        0.836968,
        0.836842,
        0.819982,
        0.794745,
        0.799886,
        0.807869,
        0.807252,
        0.797623,
        0.793407,
        0.803658,
        0.8117,
        0.82201,
        0.820462,
        0.812104,
        0.814154,
        0.820649,
        0.823734,
        0.820456,
        0.812463,
        0.808363,
        0.806052,
        0.799657,
        0.790456,
        0.783878,
        0.775718,
        0.77018,
        0.780238,
        0.798869,
        0.806978,
        0.803989,
        0.786494,
        0.768684,
        0.77778,
        0.790302,
        0.78319,
        0.772376,
        0.773282,
        0.785754,
        0.777149,
        0.76636,
        0.777267,
        0.785525,
        0.78003,
        0.771878,
        0.768348,
        0.76746,
        0.773908,
        0.772363,
        0.76496,
        0.761828,
        0.762651,
        0.769067,
        0.769723,
        0.766235,
        0.761284,
        0.758897,
        0.755678,
        0.748391,
        0.741096,
        0.738678,
        0.746045,
        0.751698,
        0.74543,
        0.746228,
        0.749864,
        0.747597,
        0.732076,
        0.72076,
        0.732148,
        0.739277,
        0.737719,
        0.734223,
        0.728235,
        0.721602,
        0.700217,
        0.699392,
        0.727852,
        0.737683,
        0.727157,
        0.720189,
        0.720549,
        0.720911,
        0.717797,
        0.709587,
        0.703605,
        0.672663,
        0.603149,
        0.524696,
        0.503491,
        0.590609,
        0.658752,
        0.68588,
        0.69503,
        0.696861,
        0.699824,
        0.709918,
        0.711763,
        0.71326,
        0.718152,
        0.719861,
        0.714929,
        0.708266,
        0.702108,
        0.70524,
        0.703018,
        0.704006,
        0.702707,
        0.701873,
        0.6984,
        0.70095,
        0.696405,
        0.689981,
        0.695299,
        0.700977,
        0.698802,
        0.69306,
        0.690446,
        0.689617,
        0.684815,
        0.680588,
        0.685651,
        0.687975,
        0.687013,
        0.681818,
        0.674926,
        0.669951,
        0.673584,
        0.674922,
        0.678347,
        0.67461,
        0.676575,
        0.679074,
        0.675957,
        0.674633,
        0.670612,
        0.669068,
        0.670785,
        0.670166,
        0.670989,
        0.669302,
        0.667134,
        0.66089,
        0.659665,
        0.659325,
        0.658771,
        0.657939,
        0.65722,
        0.656486,
        0.655761,
        0.655083,
        0.654373,
        0.653692,
        0.652992,
        0.652277,
        0.651433,
        0.650581,
        0.649724,
        0.648853,
        0.648037,
        0.6474,
        0.646664,
        0.645894,
        0.645107,
        0.644478,
        0.644,
        0.643301,
        0.642397,
        0.642011,
        0.642168,
        0.640817,
        0.634099,
        0.624759,
        0.625932,
        0.624983,
        0.622252,
        0.616374,
        0.614173,
        0.617324,
        0.614269,
        0.610708,
        0.613774,
        0.618698,
        0.618078,
        0.616796,
        0.619034,
        0.619907,
        0.617765,
        0.612874,
        0.613369,
        0.612634,
        0.616037,
        0.616418,
        0.612531,
        0.607521,
        0.606625,
        0.608529,
        0.607878,
        0.602201,
        0.595729,
        0.595144,
        0.598063,
        0.601116,
        0.604313,
        0.60887,
        0.601142,
        0.595143,
        0.598906,
        0.599291,
        0.582217,
        0.568934,
        0.565103,
        0.558399,
        0.544124,
        0.536585,
        0.542166,
        0.550806,
        0.555149,
        0.569443,
        0.57859,
        0.576563,
        0.573247,
        0.570302,
        0.561119,
        0.558037,
        0.558218,
        0.560818,
        0.558987,
        0.56578,
        0.562941,
        0.564522,
        0.558502,
        0.555659,
        0.549837,
        0.537973,
        0.545968,
        0.558324,
        0.551195,
        0.54486,
        0.550736,
        0.556517,
        0.557285,
        0.557114,
        0.563738,
        0.570288,
        0.567167,
        0.561258,
        0.556913,
        0.556713,
        0.557494,
        0.558624,
        0.5575,
        0.556801,
        0.548712,
        0.539762,
        0.546211,
        0.551962,
        0.548766,
        0.538347,
        0.53405,
        0.53605,
        0.540192,
        0.548014,
        0.54927,
        0.546812,
        0.538553,
        0.535581,
        0.540969,
        0.543734,
        0.542252,
        0.543761,
        0.541031,
        0.537289,
        0.537232,
        0.54064,
        0.535713,
        0.53581,
        0.531401,
        0.526213,
        0.527091,
        0.532267,
        0.530942,
        0.529248,
        0.529347,
        0.536033,
        0.532974,
        0.531357,
        0.530203,
        0.529602,
        0.528946,
        0.528102,
        0.527177,
        0.526275,
        0.525479,
        0.524686,
        0.523889,
        0.52306,
        0.522393,
        0.521646,
        0.520911,
        0.520173,
        0.519434,
        0.518692,
        0.517949,
        0.517204,
        0.516457,
        0.515708,
        0.514957,
        0.514204,
        0.513449,
        0.512668,
        0.511841,
        0.511004,
        0.510239,
        0.50955,
        0.508759,
        0.507817,
        0.506949,
        0.506293,
        0.506125,
        0.505619,
        0.504597,
        0.5047,
        0.505513,
        0.504575,
        0.499032,
        0.494407,
        0.499301,
        0.503512,
        0.499121,
        0.487865,
        0.46927,
        0.473336,
        0.485614,
        0.495459,
        0.495785,
        0.486952,
        0.4877,
        0.491452,
        0.491963,
        0.492421,
        0.489864,
        0.487645,
        0.482985,
        0.482996,
        0.482589,
        0.481253,
        0.481076,
        0.483849,
        0.483088,
        0.482065,
        0.478556,
        0.475698,
        0.479092,
        0.481529,
        0.474618,
        0.470511,
        0.474706,
        0.478218,
        0.474945,
        0.469686,
        0.467002,
        0.464226,
        0.464179,
        0.468366,
        0.463888,
        0.46243,
        0.469415,
        0.472325,
        0.472938,
        0.471305,
        0.47263,
        0.474348,
        0.473944,
        0.470867,
        0.464017,
        0.457649,
        0.460744,
        0.461976,
        0.463573,
        0.462613,
        0.459833,
        0.456641,
        0.459319,
        0.458792,
        0.455538,
        0.451043,
        0.455134,
        0.457608,
        0.459934,
        0.458862,
        0.45898,
        0.458251,
        0.456165,
        0.453448,
        0.450747,
        0.448797,
        0.453251,
        0.454384,
        0.453967,
        0.453846,
        0.451999,
        0.448802,
        0.442494,
        0.440324,
        0.435548,
        0.430499,
        0.425889,
        0.4236,
        0.419999,
        0.423134,
        0.422348,
        0.413252,
        0.412238,
        0.414045,
        0.408931,
        0.406085,
        0.42547,
        0.441085,
        0.4354,
        0.421161,
        0.395299,
        0.378688,
        0.398771,
        0.425405,
        0.429612,
        0.423727,
        0.42014,
        0.419293,
        0.429066,
        0.432353,
        0.42143,
        0.411487,
        0.410753,
        0.41234,
        0.415036,
        0.416553,
        0.416577,
        0.415657,
        0.413643,
        0.409333,
        0.410497,
        0.408661,
        0.402153,
        0.400477,
        0.407824,
        0.414745,
        0.415972,
        0.413469,
        0.417837,
        0.420997,
        0.416167,
        0.413724,
        0.413037,
        0.411207,
        0.41238,
        0.416031,
        0.419206,
        0.417243,
        0.411705,
        0.409332,
        0.417485,
        0.422226,
        0.411536,
        0.397976,
        0.393867,
        0.399408,
        0.415938,
        0.417694,
        0.401578,
        0.384809,
        0.396526,
        0.416941,
        0.42652,
        0.419649,
        0.386894,
        0.35208,
        0.361873,
        0.387815,
        0.397481,
        0.403796,
        0.407143,
        0.404113,
        0.389911,
        0.351568,
        0.308683,
        0.322551,
        0.357755,
        0.388633,
        0.401289,
        0.396138,
        0.394224,
        0.393731,
        0.38919,
        0.375967,
        0.351545,
        0.338468,
        0.367148,
        0.399181,
        0.409607,
        0.410973,
        0.413287,
        0.418248,
        0.42098,
        0.418086,
        0.412876,
        0.405938,
        0.397369,
        0.369427,
        0.326598,
        0.329899,
        0.360818,
        0.386904,
        0.393808,
        0.390181,
        0.392899,
        0.403931,
        0.408979,
        0.407528,
        0.40093,
        0.39586,
        0.391784,
        0.387032,
        0.379501,
        0.367956,
        0.354431,
        0.335732,
        0.330201,
        0.340906,
        0.355701,
        0.369888,
        0.370409,
        0.370273,
        0.370825,
        0.374177,
        0.371753,
        0.391059,
        0.387681,
        0.38249,
        0.39042,
        0.39377,
        0.380776,
        0.383979,
        0.384103,
        0.381421,
        0.376456,
        0.36857,
        0.359832,
        0.33869,
        0.320183,
        0.337409,
        0.35747,
        0.366671,
        0.371959,
        0.375248,
        0.379232,
        0.382437,
        0.381921,
        0.379385,
        0.375539,
        0.382912,
        0.373616,
        0.366788,
        0.376256,
        0.381667,
        0.379755,
        0.372743,
        0.377266,
        0.376611,
        0.369938,
        0.369027,
        0.368293,
        0.36482,
        0.358508,
        0.341256,
        0.350694,
        0.347927,
        0.338218,
        0.324238,
        0.299504,
        0.310638,
        0.330775,
        0.35529,
        0.370639,
        0.380333,
        0.380731,
        0.385047,
        0.380915,
        0.369851,
        0.354796,
        0.358286,
        0.354616,
        0.346121,
        0.347559,
        0.338886,
        0.337219,
        0.34694,
        0.35647,
        0.355106,
        0.352915,
        0.357069,
        0.361119,
        0.352311,
        0.347412,
        0.354625,
        0.361541,
        0.35912,
        0.341094,
        0.346756,
        0.355232,
        0.358375,
        0.350481,
        0.350873,
        0.35875,
        0.363452,
        0.358721,
        0.360332,
        0.359937,
        0.345297,
        0.33005,
        0.32285,
        0.317501,
        0.298019,
        0.309073,
        0.324833,
        0.335601,
        0.345369,
        0.352084,
        0.35085,
        0.360258,
        0.372216,
        0.379012,
        0.370691,
        0.375846,
        0.373511,
        0.366951,
        0.359691,
        0.350836,
        0.342626,
        0.326415,
        0.311393,
        0.314289,
        0.313946,
        0.299441,
        0.294023,
        0.274955,
        0.318546,
        0.29928,
        0.308487,
        0.328726,
        0.311063,
        0.321992,
        0.323831,
        0.336412,
        0.369949,
        0.393544,
        0.378455,
        0.363893,
        0.35224,
        0.355772,
        0.344313,
        0.337748,
        0.309724,
        0.331773,
        0.293739,
        0.296535,
        0.337487,
        0.323287,
        0.311626,
        0.328729,
        0.345323,
        0.341997,
        0.327913,
        0.330815,
        0.353097,
        0.320617,
        0.305432,
        0.339037,
        0.360336,
        0.34819,
        0.314207,
        0.305784,
        0.321059,
        0.320912,
        0.306635,
        0.275982,
        0.276473,
        0.292855,
        0.297598,
        0.302996,
        0.315813,
        0.339604,
        0.335846,
        0.317877,
        0.319593,
        0.309011,
        0.328778,
        0.325834,
        0.328883,
        0.32964,
        0.315054,
        0.308438,
        0.320463,
        0.316078,
        0.324865,
        0.315503,
        0.315717,
        0.314662,
        0.30429,
        0.30097,
        0.313933,
        0.322844,
        0.320225,
        0.321018,
        0.326735,
        0.326685,
        0.324131,
        0.322661,
        0.323977,
        0.32275,
        0.322325,
        0.324988,
        0.31644,
        0.305197,
        0.303781,
        0.302501,
        0.300602,
        0.30113,
        0.301354,
        0.308463,
        0.313354,
        0.318255,
        0.305319,
        0.303762,
        0.309909,
        0.303836,
        0.302439,
        0.300604,
        0.30932,
        0.311555,
        0.312187,
        0.299071,
        0.309504,
        0.310011,
        0.307253,
        0.304821,
        0.300945,
        0.29959,
        0.301187,
        0.30842,
        0.305602,
        0.298234,
        0.301781,
        0.29353,
        0.295621,
        0.298152,
        0.301149,
        0.301881,
        0.304143,
        0.296877,
        0.301445,
        0.304429,
        0.302111,
        0.300667,
        0.297848,
        0.294064,
        0.294629,
        0.295884,
        0.307285,
        0.294957,
        0.296859,
        0.30045,
        0.28808,
        0.296289,
        0.301974,
        0.296981,
        0.288649,
        0.292581,
        0.292785,
        0.286462,
        0.281953,
        0.281073,
        0.278349,
        0.279112,
        0.27385,
        0.270335,
        0.266703,
        0.263913,
        0.274901,
        0.268317,
        0.27458,
        0.276517,
        0.282517,
        0.28423,
        0.286075,
        0.292868,
        0.285628,
        0.286757,
        0.288362,
        0.280846,
        0.281311,
        0.283084,
        0.288097,
        0.279576,
        0.29067,
        0.292998,
        0.282008,
        0.281421,
        0.280935,
        0.280535,
        0.280208,
        0.27994,
        0.279716,
        0.279521,
        0.279343,
        0.279166,
        0.278976,
        0.278762,
        0.278522,
        0.27826,
        0.277977,
        0.277674,
        0.277355,
        0.27702,
        0.276672,
        0.276312,
        0.275943,
        0.275567,
        0.275183,
        0.274793,
        0.274396,
        0.273994,
        0.273585,
        0.273171,
        0.272752,
        0.272329,
        0.2719,
        0.270981,
        0.270613,
        0.270245,
        0.269879,
        0.269516,
        0.269159,
        0.268807,
        0.268463,
        0.268127,
        0.267803,
        0.267489,
        0.267184,
        0.266885,
        0.26659,
        0.266296,
        0.266,
        0.265699,
        0.26539,
        0.265072,
        0.26474,
        0.264395,
        0.264036,
        0.26367,
        0.263298,
        0.262924,
        0.262552,
        0.262185,
        0.261827,
        0.261481,
        0.26115,
        0.260836,
        0.260541,
        0.26026,
        0.259992,
        0.259735,
        0.259487,
        0.259246,
        0.259011,
        0.258778,
        0.258547
      ],
      "range":1
    }
  }
]
