[
  {
    "model":"Star, type B9(iii)",
    "name":"Star, type B9(iii)",
    "type":"WB_REF",
    "dataQualityMarker":3,
    "dataSource":"https://www.eso.org/sci/facilities/paranal/decommissioned/isaac/tools/lib.html",
    "manufacturer":"A. Pickles (A.J. Pickles, PASP 110,863, 1998)",
    "version":1,
    "wavelength":{
      "value":[
        1150.0,
        1155.0,
        1160.0,
        1165.0,
        1170.0,
        1175.0,
        1180.0,
        1185.0,
        1190.0,
        1195.0,
        1200.0,
        1205.0,
        1210.0,
        1215.0,
        1220.0,
        1225.0,
        1230.0,
        1235.0,
        1240.0,
        1245.0,
        1250.0,
        1255.0,
        1260.0,
        1265.0,
        1270.0,
        1275.0,
        1280.0,
        1285.0,
        1290.0,
        1295.0,
        1300.0,
        1305.0,
        1310.0,
        1315.0,
        1320.0,
        1325.0,
        1330.0,
        1335.0,
        1340.0,
        1345.0,
        1350.0,
        1355.0,
        1360.0,
        1365.0,
        1370.0,
        1375.0,
        1380.0,
        1385.0,
        1390.0,
        1395.0,
        1400.0,
        1405.0,
        1410.0,
        1415.0,
        1420.0,
        1425.0,
        1430.0,
        1435.0,
        1440.0,
        1445.0,
        1450.0,
        1455.0,
        1460.0,
        1465.0,
        1470.0,
        1475.0,
        1480.0,
        1485.0,
        1490.0,
        1495.0,
        1500.0,
        1505.0,
        1510.0,
        1515.0,
        1520.0,
        1525.0,
        1530.0,
        1535.0,
        1540.0,
        1545.0,
        1550.0,
        1555.0,
        1560.0,
        1565.0,
        1570.0,
        1575.0,
        1580.0,
        1585.0,
        1590.0,
        1595.0,
        1600.0,
        1605.0,
        1610.0,
        1615.0,
        1620.0,
        1625.0,
        1630.0,
        1635.0,
        1640.0,
        1645.0,
        1650.0,
        1655.0,
        1660.0,
        1665.0,
        1670.0,
        1675.0,
        1680.0,
        1685.0,
        1690.0,
        1695.0,
        1700.0,
        1705.0,
        1710.0,
        1715.0,
        1720.0,
        1725.0,
        1730.0,
        1735.0,
        1740.0,
        1745.0,
        1750.0,
        1755.0,
        1760.0,
        1765.0,
        1770.0,
        1775.0,
        1780.0,
        1785.0,
        1790.0,
        1795.0,
        1800.0,
        1805.0,
        1810.0,
        1815.0,
        1820.0,
        1825.0,
        1830.0,
        1835.0,
        1840.0,
        1845.0,
        1850.0,
        1855.0,
        1860.0,
        1865.0,
        1870.0,
        1875.0,
        1880.0,
        1885.0,
        1890.0,
        1895.0,
        1900.0,
        1905.0,
        1910.0,
        1915.0,
        1920.0,
        1925.0,
        1930.0,
        1935.0,
        1940.0,
        1945.0,
        1950.0,
        1955.0,
        1960.0,
        1965.0,
        1970.0,
        1975.0,
        1980.0,
        1985.0,
        1990.0,
        1995.0,
        2000.0,
        2005.0,
        2010.0,
        2015.0,
        2020.0,
        2025.0,
        2030.0,
        2035.0,
        2040.0,
        2045.0,
        2050.0,
        2055.0,
        2060.0,
        2065.0,
        2070.0,
        2075.0,
        2080.0,
        2085.0,
        2090.0,
        2095.0,
        2100.0,
        2105.0,
        2110.0,
        2115.0,
        2120.0,
        2125.0,
        2130.0,
        2135.0,
        2140.0,
        2145.0,
        2150.0,
        2155.0,
        2160.0,
        2165.0,
        2170.0,
        2175.0,
        2180.0,
        2185.0,
        2190.0,
        2195.0,
        2200.0,
        2205.0,
        2210.0,
        2215.0,
        2220.0,
        2225.0,
        2230.0,
        2235.0,
        2240.0,
        2245.0,
        2250.0,
        2255.0,
        2260.0,
        2265.0,
        2270.0,
        2275.0,
        2280.0,
        2285.0,
        2290.0,
        2295.0,
        2300.0,
        2305.0,
        2310.0,
        2315.0,
        2320.0,
        2325.0,
        2330.0,
        2335.0,
        2340.0,
        2345.0,
        2350.0,
        2355.0,
        2360.0,
        2365.0,
        2370.0,
        2375.0,
        2380.0,
        2385.0,
        2390.0,
        2395.0,
        2400.0,
        2405.0,
        2410.0,
        2415.0,
        2420.0,
        2425.0,
        2430.0,
        2435.0,
        2440.0,
        2445.0,
        2450.0,
        2455.0,
        2460.0,
        2465.0,
        2470.0,
        2475.0,
        2480.0,
        2485.0,
        2490.0,
        2495.0,
        2500.0,
        2505.0,
        2510.0,
        2515.0,
        2520.0,
        2525.0,
        2530.0,
        2535.0,
        2540.0,
        2545.0,
        2550.0,
        2555.0,
        2560.0,
        2565.0,
        2570.0,
        2575.0,
        2580.0,
        2585.0,
        2590.0,
        2595.0,
        2600.0,
        2605.0,
        2610.0,
        2615.0,
        2620.0,
        2625.0,
        2630.0,
        2635.0,
        2640.0,
        2645.0,
        2650.0,
        2655.0,
        2660.0,
        2665.0,
        2670.0,
        2675.0,
        2680.0,
        2685.0,
        2690.0,
        2695.0,
        2700.0,
        2705.0,
        2710.0,
        2715.0,
        2720.0,
        2725.0,
        2730.0,
        2735.0,
        2740.0,
        2745.0,
        2750.0,
        2755.0,
        2760.0,
        2765.0,
        2770.0,
        2775.0,
        2780.0,
        2785.0,
        2790.0,
        2795.0,
        2800.0,
        2805.0,
        2810.0,
        2815.0,
        2820.0,
        2825.0,
        2830.0,
        2835.0,
        2840.0,
        2845.0,
        2850.0,
        2855.0,
        2860.0,
        2865.0,
        2870.0,
        2875.0,
        2880.0,
        2885.0,
        2890.0,
        2895.0,
        2900.0,
        2905.0,
        2910.0,
        2915.0,
        2920.0,
        2925.0,
        2930.0,
        2935.0,
        2940.0,
        2945.0,
        2950.0,
        2955.0,
        2960.0,
        2965.0,
        2970.0,
        2975.0,
        2980.0,
        2985.0,
        2990.0,
        2995.0,
        3000.0,
        3005.0,
        3010.0,
        3015.0,
        3020.0,
        3025.0,
        3030.0,
        3035.0,
        3040.0,
        3045.0,
        3050.0,
        3055.0,
        3060.0,
        3065.0,
        3070.0,
        3075.0,
        3080.0,
        3085.0,
        3090.0,
        3095.0,
        3100.0,
        3105.0,
        3110.0,
        3115.0,
        3120.0,
        3125.0,
        3130.0,
        3135.0,
        3140.0,
        3145.0,
        3150.0,
        3155.0,
        3160.0,
        3165.0,
        3170.0,
        3175.0,
        3180.0,
        3185.0,
        3190.0,
        3195.0,
        3200.0,
        3205.0,
        3210.0,
        3215.0,
        3220.0,
        3225.0,
        3230.0,
        3235.0,
        3240.0,
        3245.0,
        3250.0,
        3255.0,
        3260.0,
        3265.0,
        3270.0,
        3275.0,
        3280.0,
        3285.0,
        3290.0,
        3295.0,
        3300.0,
        3305.0,
        3310.0,
        3315.0,
        3320.0,
        3325.0,
        3330.0,
        3335.0,
        3340.0,
        3345.0,
        3350.0,
        3355.0,
        3360.0,
        3365.0,
        3370.0,
        3375.0,
        3380.0,
        3385.0,
        3390.0,
        3395.0,
        3400.0,
        3405.0,
        3410.0,
        3415.0,
        3420.0,
        3425.0,
        3430.0,
        3435.0,
        3440.0,
        3445.0,
        3450.0,
        3455.0,
        3460.0,
        3465.0,
        3470.0,
        3475.0,
        3480.0,
        3485.0,
        3490.0,
        3495.0,
        3500.0,
        3505.0,
        3510.0,
        3515.0,
        3520.0,
        3525.0,
        3530.0,
        3535.0,
        3540.0,
        3545.0,
        3550.0,
        3555.0,
        3560.0,
        3565.0,
        3570.0,
        3575.0,
        3580.0,
        3585.0,
        3590.0,
        3595.0,
        3600.0,
        3605.0,
        3610.0,
        3615.0,
        3620.0,
        3625.0,
        3630.0,
        3635.0,
        3640.0,
        3645.0,
        3650.0,
        3655.0,
        3660.0,
        3665.0,
        3670.0,
        3675.0,
        3680.0,
        3685.0,
        3690.0,
        3695.0,
        3700.0,
        3705.0,
        3710.0,
        3715.0,
        3720.0,
        3725.0,
        3730.0,
        3735.0,
        3740.0,
        3745.0,
        3750.0,
        3755.0,
        3760.0,
        3765.0,
        3770.0,
        3775.0,
        3780.0,
        3785.0,
        3790.0,
        3795.0,
        3800.0,
        3805.0,
        3810.0,
        3815.0,
        3820.0,
        3825.0,
        3830.0,
        3835.0,
        3840.0,
        3845.0,
        3850.0,
        3855.0,
        3860.0,
        3865.0,
        3870.0,
        3875.0,
        3880.0,
        3885.0,
        3890.0,
        3895.0,
        3900.0,
        3905.0,
        3910.0,
        3915.0,
        3920.0,
        3925.0,
        3930.0,
        3935.0,
        3940.0,
        3945.0,
        3950.0,
        3955.0,
        3960.0,
        3965.0,
        3970.0,
        3975.0,
        3980.0,
        3985.0,
        3990.0,
        3995.0,
        4000.0,
        4005.0,
        4010.0,
        4015.0,
        4020.0,
        4025.0,
        4030.0,
        4035.0,
        4040.0,
        4045.0,
        4050.0,
        4055.0,
        4060.0,
        4065.0,
        4070.0,
        4075.0,
        4080.0,
        4085.0,
        4090.0,
        4095.0,
        4100.0,
        4105.0,
        4110.0,
        4115.0,
        4120.0,
        4125.0,
        4130.0,
        4135.0,
        4140.0,
        4145.0,
        4150.0,
        4155.0,
        4160.0,
        4165.0,
        4170.0,
        4175.0,
        4180.0,
        4185.0,
        4190.0,
        4195.0,
        4200.0,
        4205.0,
        4210.0,
        4215.0,
        4220.0,
        4225.0,
        4230.0,
        4235.0,
        4240.0,
        4245.0,
        4250.0,
        4255.0,
        4260.0,
        4265.0,
        4270.0,
        4275.0,
        4280.0,
        4285.0,
        4290.0,
        4295.0,
        4300.0,
        4305.0,
        4310.0,
        4315.0,
        4320.0,
        4325.0,
        4330.0,
        4335.0,
        4340.0,
        4345.0,
        4350.0,
        4355.0,
        4360.0,
        4365.0,
        4370.0,
        4375.0,
        4380.0,
        4385.0,
        4390.0,
        4395.0,
        4400.0,
        4405.0,
        4410.0,
        4415.0,
        4420.0,
        4425.0,
        4430.0,
        4435.0,
        4440.0,
        4445.0,
        4450.0,
        4455.0,
        4460.0,
        4465.0,
        4470.0,
        4475.0,
        4480.0,
        4485.0,
        4490.0,
        4495.0,
        4500.0,
        4505.0,
        4510.0,
        4515.0,
        4520.0,
        4525.0,
        4530.0,
        4535.0,
        4540.0,
        4545.0,
        4550.0,
        4555.0,
        4560.0,
        4565.0,
        4570.0,
        4575.0,
        4580.0,
        4585.0,
        4590.0,
        4595.0,
        4600.0,
        4605.0,
        4610.0,
        4615.0,
        4620.0,
        4625.0,
        4630.0,
        4635.0,
        4640.0,
        4645.0,
        4650.0,
        4655.0,
        4660.0,
        4665.0,
        4670.0,
        4675.0,
        4680.0,
        4685.0,
        4690.0,
        4695.0,
        4700.0,
        4705.0,
        4710.0,
        4715.0,
        4720.0,
        4725.0,
        4730.0,
        4735.0,
        4740.0,
        4745.0,
        4750.0,
        4755.0,
        4760.0,
        4765.0,
        4770.0,
        4775.0,
        4780.0,
        4785.0,
        4790.0,
        4795.0,
        4800.0,
        4805.0,
        4810.0,
        4815.0,
        4820.0,
        4825.0,
        4830.0,
        4835.0,
        4840.0,
        4845.0,
        4850.0,
        4855.0,
        4860.0,
        4865.0,
        4870.0,
        4875.0,
        4880.0,
        4885.0,
        4890.0,
        4895.0,
        4900.0,
        4905.0,
        4910.0,
        4915.0,
        4920.0,
        4925.0,
        4930.0,
        4935.0,
        4940.0,
        4945.0,
        4950.0,
        4955.0,
        4960.0,
        4965.0,
        4970.0,
        4975.0,
        4980.0,
        4985.0,
        4990.0,
        4995.0,
        5000.0,
        5005.0,
        5010.0,
        5015.0,
        5020.0,
        5025.0,
        5030.0,
        5035.0,
        5040.0,
        5045.0,
        5050.0,
        5055.0,
        5060.0,
        5065.0,
        5070.0,
        5075.0,
        5080.0,
        5085.0,
        5090.0,
        5095.0,
        5100.0,
        5105.0,
        5110.0,
        5115.0,
        5120.0,
        5125.0,
        5130.0,
        5135.0,
        5140.0,
        5145.0,
        5150.0,
        5155.0,
        5160.0,
        5165.0,
        5170.0,
        5175.0,
        5180.0,
        5185.0,
        5190.0,
        5195.0,
        5200.0,
        5205.0,
        5210.0,
        5215.0,
        5220.0,
        5225.0,
        5230.0,
        5235.0,
        5240.0,
        5245.0,
        5250.0,
        5255.0,
        5260.0,
        5265.0,
        5270.0,
        5275.0,
        5280.0,
        5285.0,
        5290.0,
        5295.0,
        5300.0,
        5305.0,
        5310.0,
        5315.0,
        5320.0,
        5325.0,
        5330.0,
        5335.0,
        5340.0,
        5345.0,
        5350.0,
        5355.0,
        5360.0,
        5365.0,
        5370.0,
        5375.0,
        5380.0,
        5385.0,
        5390.0,
        5395.0,
        5400.0,
        5405.0,
        5410.0,
        5415.0,
        5420.0,
        5425.0,
        5430.0,
        5435.0,
        5440.0,
        5445.0,
        5450.0,
        5455.0,
        5460.0,
        5465.0,
        5470.0,
        5475.0,
        5480.0,
        5485.0,
        5490.0,
        5495.0,
        5500.0,
        5505.0,
        5510.0,
        5515.0,
        5520.0,
        5525.0,
        5530.0,
        5535.0,
        5540.0,
        5545.0,
        5550.0,
        5555.0,
        5560.0,
        5565.0,
        5570.0,
        5575.0,
        5580.0,
        5585.0,
        5590.0,
        5595.0,
        5600.0,
        5605.0,
        5610.0,
        5615.0,
        5620.0,
        5625.0,
        5630.0,
        5635.0,
        5640.0,
        5645.0,
        5650.0,
        5655.0,
        5660.0,
        5665.0,
        5670.0,
        5675.0,
        5680.0,
        5685.0,
        5690.0,
        5695.0,
        5700.0,
        5705.0,
        5710.0,
        5715.0,
        5720.0,
        5725.0,
        5730.0,
        5735.0,
        5740.0,
        5745.0,
        5750.0,
        5755.0,
        5760.0,
        5765.0,
        5770.0,
        5775.0,
        5780.0,
        5785.0,
        5790.0,
        5795.0,
        5800.0,
        5805.0,
        5810.0,
        5815.0,
        5820.0,
        5825.0,
        5830.0,
        5835.0,
        5840.0,
        5845.0,
        5850.0,
        5855.0,
        5860.0,
        5865.0,
        5870.0,
        5875.0,
        5880.0,
        5885.0,
        5890.0,
        5895.0,
        5900.0,
        5905.0,
        5910.0,
        5915.0,
        5920.0,
        5925.0,
        5930.0,
        5935.0,
        5940.0,
        5945.0,
        5950.0,
        5955.0,
        5960.0,
        5965.0,
        5970.0,
        5975.0,
        5980.0,
        5985.0,
        5990.0,
        5995.0,
        6000.0,
        6005.0,
        6010.0,
        6015.0,
        6020.0,
        6025.0,
        6030.0,
        6035.0,
        6040.0,
        6045.0,
        6050.0,
        6055.0,
        6060.0,
        6065.0,
        6070.0,
        6075.0,
        6080.0,
        6085.0,
        6090.0,
        6095.0,
        6100.0,
        6105.0,
        6110.0,
        6115.0,
        6120.0,
        6125.0,
        6130.0,
        6135.0,
        6140.0,
        6145.0,
        6150.0,
        6155.0,
        6160.0,
        6165.0,
        6170.0,
        6175.0,
        6180.0,
        6185.0,
        6190.0,
        6195.0,
        6200.0,
        6205.0,
        6210.0,
        6215.0,
        6220.0,
        6225.0,
        6230.0,
        6235.0,
        6240.0,
        6245.0,
        6250.0,
        6255.0,
        6260.0,
        6265.0,
        6270.0,
        6275.0,
        6280.0,
        6285.0,
        6290.0,
        6295.0,
        6300.0,
        6305.0,
        6310.0,
        6315.0,
        6320.0,
        6325.0,
        6330.0,
        6335.0,
        6340.0,
        6345.0,
        6350.0,
        6355.0,
        6360.0,
        6365.0,
        6370.0,
        6375.0,
        6380.0,
        6385.0,
        6390.0,
        6395.0,
        6400.0,
        6405.0,
        6410.0,
        6415.0,
        6420.0,
        6425.0,
        6430.0,
        6435.0,
        6440.0,
        6445.0,
        6450.0,
        6455.0,
        6460.0,
        6465.0,
        6470.0,
        6475.0,
        6480.0,
        6485.0,
        6490.0,
        6495.0,
        6500.0,
        6505.0,
        6510.0,
        6515.0,
        6520.0,
        6525.0,
        6530.0,
        6535.0,
        6540.0,
        6545.0,
        6550.0,
        6555.0,
        6560.0,
        6565.0,
        6570.0,
        6575.0,
        6580.0,
        6585.0,
        6590.0,
        6595.0,
        6600.0,
        6605.0,
        6610.0,
        6615.0,
        6620.0,
        6625.0,
        6630.0,
        6635.0,
        6640.0,
        6645.0,
        6650.0,
        6655.0,
        6660.0,
        6665.0,
        6670.0,
        6675.0,
        6680.0,
        6685.0,
        6690.0,
        6695.0,
        6700.0,
        6705.0,
        6710.0,
        6715.0,
        6720.0,
        6725.0,
        6730.0,
        6735.0,
        6740.0,
        6745.0,
        6750.0,
        6755.0,
        6760.0,
        6765.0,
        6770.0,
        6775.0,
        6780.0,
        6785.0,
        6790.0,
        6795.0,
        6800.0,
        6805.0,
        6810.0,
        6815.0,
        6820.0,
        6825.0,
        6830.0,
        6835.0,
        6840.0,
        6845.0,
        6850.0,
        6855.0,
        6860.0,
        6865.0,
        6870.0,
        6875.0,
        6880.0,
        6885.0,
        6890.0,
        6895.0,
        6900.0,
        6905.0,
        6910.0,
        6915.0,
        6920.0,
        6925.0,
        6930.0,
        6935.0,
        6940.0,
        6945.0,
        6950.0,
        6955.0,
        6960.0,
        6965.0,
        6970.0,
        6975.0,
        6980.0,
        6985.0,
        6990.0,
        6995.0,
        7000.0,
        7005.0,
        7010.0,
        7015.0,
        7020.0,
        7025.0,
        7030.0,
        7035.0,
        7040.0,
        7045.0,
        7050.0,
        7055.0,
        7060.0,
        7065.0,
        7070.0,
        7075.0,
        7080.0,
        7085.0,
        7090.0,
        7095.0,
        7100.0,
        7105.0,
        7110.0,
        7115.0,
        7120.0,
        7125.0,
        7130.0,
        7135.0,
        7140.0,
        7145.0,
        7150.0,
        7155.0,
        7160.0,
        7165.0,
        7170.0,
        7175.0,
        7180.0,
        7185.0,
        7190.0,
        7195.0,
        7200.0,
        7205.0,
        7210.0,
        7215.0,
        7220.0,
        7225.0,
        7230.0,
        7235.0,
        7240.0,
        7245.0,
        7250.0,
        7255.0,
        7260.0,
        7265.0,
        7270.0,
        7275.0,
        7280.0,
        7285.0,
        7290.0,
        7295.0,
        7300.0,
        7305.0,
        7310.0,
        7315.0,
        7320.0,
        7325.0,
        7330.0,
        7335.0,
        7340.0,
        7345.0,
        7350.0,
        7355.0,
        7360.0,
        7365.0,
        7370.0,
        7375.0,
        7380.0,
        7385.0,
        7390.0,
        7395.0,
        7400.0,
        7405.0,
        7410.0,
        7415.0,
        7420.0,
        7425.0,
        7430.0,
        7435.0,
        7440.0,
        7445.0,
        7450.0,
        7455.0,
        7460.0,
        7465.0,
        7470.0,
        7475.0,
        7480.0,
        7485.0,
        7490.0,
        7495.0,
        7500.0,
        7505.0,
        7510.0,
        7515.0,
        7520.0,
        7525.0,
        7530.0,
        7535.0,
        7540.0,
        7545.0,
        7550.0,
        7555.0,
        7560.0,
        7565.0,
        7570.0,
        7575.0,
        7580.0,
        7585.0,
        7590.0,
        7595.0,
        7600.0,
        7605.0,
        7610.0,
        7615.0,
        7620.0,
        7625.0,
        7630.0,
        7635.0,
        7640.0,
        7645.0,
        7650.0,
        7655.0,
        7660.0,
        7665.0,
        7670.0,
        7675.0,
        7680.0,
        7685.0,
        7690.0,
        7695.0,
        7700.0,
        7705.0,
        7710.0,
        7715.0,
        7720.0,
        7725.0,
        7730.0,
        7735.0,
        7740.0,
        7745.0,
        7750.0,
        7755.0,
        7760.0,
        7765.0,
        7770.0,
        7775.0,
        7780.0,
        7785.0,
        7790.0,
        7795.0,
        7800.0,
        7805.0,
        7810.0,
        7815.0,
        7820.0,
        7825.0,
        7830.0,
        7835.0,
        7840.0,
        7845.0,
        7850.0,
        7855.0,
        7860.0,
        7865.0,
        7870.0,
        7875.0,
        7880.0,
        7885.0,
        7890.0,
        7895.0,
        7900.0,
        7905.0,
        7910.0,
        7915.0,
        7920.0,
        7925.0,
        7930.0,
        7935.0,
        7940.0,
        7945.0,
        7950.0,
        7955.0,
        7960.0,
        7965.0,
        7970.0,
        7975.0,
        7980.0,
        7985.0,
        7990.0,
        7995.0,
        8000.0,
        8005.0,
        8010.0,
        8015.0,
        8020.0,
        8025.0,
        8030.0,
        8035.0,
        8040.0,
        8045.0,
        8050.0,
        8055.0,
        8060.0,
        8065.0,
        8070.0,
        8075.0,
        8080.0,
        8085.0,
        8090.0,
        8095.0,
        8100.0,
        8105.0,
        8110.0,
        8115.0,
        8120.0,
        8125.0,
        8130.0,
        8135.0,
        8140.0,
        8145.0,
        8150.0,
        8155.0,
        8160.0,
        8165.0,
        8170.0,
        8175.0,
        8180.0,
        8185.0,
        8190.0,
        8195.0,
        8200.0,
        8205.0,
        8210.0,
        8215.0,
        8220.0,
        8225.0,
        8230.0,
        8235.0,
        8240.0,
        8245.0,
        8250.0,
        8255.0,
        8260.0,
        8265.0,
        8270.0,
        8275.0,
        8280.0,
        8285.0,
        8290.0,
        8295.0,
        8300.0,
        8305.0,
        8310.0,
        8315.0,
        8320.0,
        8325.0,
        8330.0,
        8335.0,
        8340.0,
        8345.0,
        8350.0,
        8355.0,
        8360.0,
        8365.0,
        8370.0,
        8375.0,
        8380.0,
        8385.0,
        8390.0,
        8395.0,
        8400.0,
        8405.0,
        8410.0,
        8415.0,
        8420.0,
        8425.0,
        8430.0,
        8435.0,
        8440.0,
        8445.0,
        8450.0,
        8455.0,
        8460.0,
        8465.0,
        8470.0,
        8475.0,
        8480.0,
        8485.0,
        8490.0,
        8495.0,
        8500.0,
        8505.0,
        8510.0,
        8515.0,
        8520.0,
        8525.0,
        8530.0,
        8535.0,
        8540.0,
        8545.0,
        8550.0,
        8555.0,
        8560.0,
        8565.0,
        8570.0,
        8575.0,
        8580.0,
        8585.0,
        8590.0,
        8595.0,
        8600.0,
        8605.0,
        8610.0,
        8615.0,
        8620.0,
        8625.0,
        8630.0,
        8635.0,
        8640.0,
        8645.0,
        8650.0,
        8655.0,
        8660.0,
        8665.0,
        8670.0,
        8675.0,
        8680.0,
        8685.0,
        8690.0,
        8695.0,
        8700.0,
        8705.0,
        8710.0,
        8715.0,
        8720.0,
        8725.0,
        8730.0,
        8735.0,
        8740.0,
        8745.0,
        8750.0,
        8755.0,
        8760.0,
        8765.0,
        8770.0,
        8775.0,
        8780.0,
        8785.0,
        8790.0,
        8795.0,
        8800.0,
        8805.0,
        8810.0,
        8815.0,
        8820.0,
        8825.0,
        8830.0,
        8835.0,
        8840.0,
        8845.0,
        8850.0,
        8855.0,
        8860.0,
        8865.0,
        8870.0,
        8875.0,
        8880.0,
        8885.0,
        8890.0,
        8895.0,
        8900.0,
        8905.0,
        8910.0,
        8915.0,
        8920.0,
        8925.0,
        8930.0,
        8935.0,
        8940.0,
        8945.0,
        8950.0,
        8955.0,
        8960.0,
        8965.0,
        8970.0,
        8975.0,
        8980.0,
        8985.0,
        8990.0,
        8995.0,
        9000.0,
        9005.0,
        9010.0,
        9015.0,
        9020.0,
        9025.0,
        9030.0,
        9035.0,
        9040.0,
        9045.0,
        9050.0,
        9055.0,
        9060.0,
        9065.0,
        9070.0,
        9075.0,
        9080.0,
        9085.0,
        9090.0,
        9095.0,
        9100.0,
        9105.0,
        9110.0,
        9115.0,
        9120.0,
        9125.0,
        9130.0,
        9135.0,
        9140.0,
        9145.0,
        9150.0,
        9155.0,
        9160.0,
        9165.0,
        9170.0,
        9175.0,
        9180.0,
        9185.0,
        9190.0,
        9195.0,
        9200.0,
        9205.0,
        9210.0,
        9215.0,
        9220.0,
        9225.0,
        9230.0,
        9235.0,
        9240.0,
        9245.0,
        9250.0,
        9255.0,
        9260.0,
        9265.0,
        9270.0,
        9275.0,
        9280.0,
        9285.0,
        9290.0,
        9295.0,
        9300.0,
        9305.0,
        9310.0,
        9315.0,
        9320.0,
        9325.0,
        9330.0,
        9335.0,
        9340.0,
        9345.0,
        9350.0,
        9355.0,
        9360.0,
        9365.0,
        9370.0,
        9375.0,
        9380.0,
        9385.0,
        9390.0,
        9395.0,
        9400.0,
        9405.0,
        9410.0,
        9415.0,
        9420.0,
        9425.0,
        9430.0,
        9435.0,
        9440.0,
        9445.0,
        9450.0,
        9455.0,
        9460.0,
        9465.0,
        9470.0,
        9475.0,
        9480.0,
        9485.0,
        9490.0,
        9495.0,
        9500.0,
        9505.0,
        9510.0,
        9515.0,
        9520.0,
        9525.0,
        9530.0,
        9535.0,
        9540.0,
        9545.0,
        9550.0,
        9555.0,
        9560.0,
        9565.0,
        9570.0,
        9575.0,
        9580.0,
        9585.0,
        9590.0,
        9595.0,
        9600.0,
        9605.0,
        9610.0,
        9615.0,
        9620.0,
        9625.0,
        9630.0,
        9635.0,
        9640.0,
        9645.0,
        9650.0,
        9655.0,
        9660.0,
        9665.0,
        9670.0,
        9675.0,
        9680.0,
        9685.0,
        9690.0,
        9695.0,
        9700.0,
        9705.0,
        9710.0,
        9715.0,
        9720.0,
        9725.0,
        9730.0,
        9735.0,
        9740.0,
        9745.0,
        9750.0,
        9755.0,
        9760.0,
        9765.0,
        9770.0,
        9775.0,
        9780.0,
        9785.0,
        9790.0,
        9795.0,
        9800.0,
        9805.0,
        9810.0,
        9815.0,
        9820.0,
        9825.0,
        9830.0,
        9835.0,
        9840.0,
        9845.0,
        9850.0,
        9855.0,
        9860.0,
        9865.0,
        9870.0,
        9875.0,
        9880.0,
        9885.0,
        9890.0,
        9895.0,
        9900.0,
        9905.0,
        9910.0,
        9915.0,
        9920.0,
        9925.0,
        9930.0,
        9935.0,
        9940.0,
        9945.0,
        9950.0,
        9955.0,
        9960.0,
        9965.0,
        9970.0,
        9975.0,
        9980.0,
        9985.0,
        9990.0,
        9995.0,
        10000.0,
        10005.0,
        10010.0,
        10015.0,
        10020.0,
        10025.0,
        10030.0,
        10035.0,
        10040.0,
        10045.0,
        10050.0,
        10055.0,
        10060.0,
        10065.0,
        10070.0,
        10075.0,
        10080.0,
        10085.0,
        10090.0,
        10095.0,
        10100.0,
        10105.0,
        10110.0,
        10115.0,
        10120.0,
        10125.0,
        10130.0,
        10135.0,
        10140.0,
        10145.0,
        10150.0,
        10155.0,
        10160.0,
        10165.0,
        10170.0,
        10175.0,
        10180.0,
        10185.0,
        10190.0,
        10195.0,
        10200.0,
        10205.0,
        10210.0,
        10215.0,
        10220.0,
        10225.0,
        10230.0,
        10235.0,
        10240.0,
        10245.0,
        10250.0,
        10255.0,
        10260.0,
        10265.0,
        10270.0,
        10275.0,
        10280.0,
        10285.0,
        10290.0,
        10295.0,
        10300.0,
        10305.0,
        10310.0,
        10315.0,
        10320.0,
        10325.0,
        10330.0,
        10335.0,
        10340.0,
        10345.0,
        10350.0,
        10355.0,
        10360.0,
        10365.0,
        10370.0,
        10375.0,
        10380.0,
        10385.0,
        10390.0,
        10395.0,
        10400.0,
        10405.0,
        10410.0,
        10415.0,
        10420.0,
        10425.0,
        10430.0,
        10435.0,
        10440.0,
        10445.0,
        10450.0,
        10455.0,
        10460.0,
        10465.0,
        10470.0,
        10475.0,
        10480.0,
        10485.0,
        10490.0,
        10495.0,
        10500.0
      ],
      "units":"angstrom"
    },
    "values":{
      "value":[
        3.683146,
        2.806452,
        2.411212,
        2.40608,
        2.14405,
        1.972001,
        2.057353,
        1.654702,
        0.852181,
        0.653054,
        0.51926,
        0.256794,
        0.099633,
        0.074636,
        0.191057,
        0.434194,
        0.789237,
        1.350396,
        1.938763,
        2.178136,
        2.363807,
        2.315874,
        1.912943,
        2.293288,
        2.866262,
        2.83381,
        3.177725,
        3.193169,
        2.922549,
        2.722732,
        2.321355,
        1.976519,
        2.564857,
        3.419511,
        3.405693,
        3.202231,
        2.820454,
        2.710276,
        3.459378,
        3.501801,
        3.452438,
        3.484319,
        3.328557,
        3.115736,
        3.152692,
        3.157814,
        3.198367,
        3.246595,
        3.235604,
        3.129658,
        3.180778,
        3.157804,
        3.048999,
        3.10252,
        3.156604,
        3.190784,
        3.110182,
        3.068428,
        3.227481,
        3.377659,
        3.477995,
        3.553304,
        3.470665,
        3.281692,
        3.222266,
        3.272842,
        3.237097,
        3.212358,
        3.375517,
        3.480043,
        3.468347,
        3.260136,
        3.059817,
        3.135739,
        3.238094,
        3.095344,
        2.952761,
        3.013887,
        3.220823,
        3.135713,
        3.103781,
        3.0327,
        2.931714,
        2.894391,
        2.906151,
        2.922683,
        2.930528,
        2.914257,
        2.865761,
        2.833108,
        2.767922,
        2.651284,
        2.644725,
        2.687534,
        2.723766,
        2.729154,
        2.741445,
        2.703408,
        2.561677,
        2.597939,
        2.535235,
        2.393545,
        2.460511,
        2.504204,
        2.407189,
        2.529643,
        2.636013,
        2.608791,
        2.593903,
        2.638955,
        2.62054,
        2.511845,
        2.468231,
        2.43444,
        2.275278,
        2.281552,
        2.40166,
        2.481649,
        2.508122,
        2.532261,
        2.526782,
        2.508865,
        2.45123,
        2.438265,
        2.398169,
        2.395849,
        2.430441,
        2.274938,
        2.197374,
        2.50639,
        2.551542,
        2.510782,
        2.545616,
        2.535276,
        2.530748,
        2.4879,
        2.404641,
        2.397187,
        2.279734,
        2.234319,
        2.219015,
        2.208697,
        2.229392,
        2.260576,
        2.309554,
        2.289247,
        2.281473,
        2.233927,
        2.166776,
        2.145794,
        2.134418,
        2.15789,
        2.156069,
        2.133705,
        2.115443,
        2.098008,
        2.138952,
        2.168165,
        2.177763,
        2.188283,
        2.185696,
        2.209637,
        2.166481,
        2.202204,
        2.212134,
        2.274044,
        2.106685,
        2.025852,
        1.990614,
        1.977278,
        2.004114,
        2.062877,
        2.035776,
        1.981111,
        1.997646,
        2.005994,
        2.069575,
        2.065518,
        2.038385,
        2.030324,
        2.007393,
        1.983271,
        1.93168,
        1.905059,
        1.955196,
        1.961354,
        1.988557,
        2.032728,
        1.950492,
        1.925513,
        1.872708,
        1.901528,
        1.919215,
        1.894041,
        1.901112,
        1.838705,
        1.876283,
        1.821471,
        1.765234,
        1.715423,
        1.762515,
        1.790054,
        1.812181,
        1.741027,
        1.65969,
        1.670204,
        1.673741,
        1.667094,
        1.639166,
        1.703736,
        1.730271,
        1.642679,
        1.567354,
        1.49252,
        1.543975,
        1.479887,
        1.506302,
        1.469212,
        1.485511,
        1.458561,
        1.466839,
        1.49902,
        1.480125,
        1.475924,
        1.509628,
        1.531625,
        1.55142,
        1.572033,
        1.55767,
        1.546046,
        1.469717,
        1.478577,
        1.490793,
        1.513752,
        1.465264,
        1.40617,
        1.404026,
        1.390608,
        1.368646,
        1.367331,
        1.360875,
        1.375128,
        1.381818,
        1.379595,
        1.346742,
        1.336494,
        1.367459,
        1.363675,
        1.286253,
        1.295108,
        1.30908,
        1.308397,
        1.330417,
        1.348567,
        1.35737,
        1.364738,
        1.410107,
        1.382947,
        1.375973,
        1.417547,
        1.458742,
        1.49361,
        1.50185,
        1.500184,
        1.424483,
        1.404076,
        1.414952,
        1.430257,
        1.456355,
        1.387751,
        1.408397,
        1.434455,
        1.432739,
        1.404488,
        1.382528,
        1.403772,
        1.366618,
        1.383496,
        1.371776,
        1.370148,
        1.36762,
        1.38344,
        1.393699,
        1.408048,
        1.404487,
        1.422855,
        1.302045,
        1.300035,
        1.442049,
        1.470028,
        1.425851,
        1.387976,
        1.391228,
        1.393637,
        1.431347,
        1.421558,
        1.414292,
        1.45266,
        1.498381,
        1.506469,
        1.571938,
        1.534349,
        1.495007,
        1.490633,
        1.463528,
        1.438554,
        1.44474,
        1.433089,
        1.417599,
        1.388061,
        1.372289,
        1.401835,
        1.424713,
        1.393084,
        1.390238,
        1.399975,
        1.42652,
        1.383035,
        1.38082,
        1.363675,
        1.37839,
        1.310137,
        1.357661,
        1.383492,
        1.34234,
        1.299308,
        1.296109,
        1.280174,
        1.26104,
        1.272539,
        1.314934,
        1.311479,
        1.351441,
        1.361941,
        1.451872,
        1.451392,
        1.356713,
        1.29815,
        1.286619,
        1.287828,
        1.291196,
        1.28719,
        1.269292,
        1.340171,
        1.461846,
        1.344537,
        1.286565,
        1.327306,
        1.359246,
        1.327132,
        1.355107,
        1.356542,
        1.332564,
        1.381212,
        1.345764,
        1.327802,
        1.314486,
        1.29843,
        1.277632,
        1.321708,
        1.349402,
        1.313045,
        1.321581,
        1.338756,
        1.321069,
        1.303425,
        1.318537,
        1.311794,
        1.287296,
        1.287172,
        1.283247,
        1.282704,
        1.303769,
        1.31573,
        1.257999,
        1.240766,
        1.207196,
        1.198919,
        1.233875,
        1.243432,
        1.246003,
        1.273646,
        1.232894,
        1.212135,
        1.233889,
        1.212783,
        1.265748,
        1.278565,
        1.212872,
        1.240797,
        1.228754,
        1.198816,
        1.197441,
        1.209788,
        1.225785,
        1.22609,
        1.262166,
        1.283649,
        1.235799,
        1.22551,
        1.23023,
        1.224104,
        1.304189,
        1.258486,
        1.213698,
        1.238945,
        1.240147,
        1.203985,
        1.173157,
        1.242668,
        1.294408,
        1.302992,
        1.288815,
        1.272173,
        1.266163,
        1.27813,
        1.299612,
        1.318685,
        1.325385,
        1.312539,
        1.282167,
        1.243503,
        1.22545,
        1.246614,
        1.264754,
        1.240342,
        1.205547,
        1.199179,
        1.214905,
        1.234704,
        1.238955,
        1.216208,
        1.189285,
        1.181718,
        1.185579,
        1.189294,
        1.198172,
        1.216787,
        1.229894,
        1.223715,
        1.210148,
        1.202775,
        1.196224,
        1.184941,
        1.181607,
        1.196741,
        1.213983,
        1.216007,
        1.208485,
        1.201224,
        1.197552,
        1.198211,
        1.200069,
        1.199557,
        1.195228,
        1.186786,
        1.176426,
        1.167241,
        1.163442,
        1.167423,
        1.173201,
        1.174764,
        1.174364,
        1.174417,
        1.169709,
        1.156547,
        1.144955,
        1.14471,
        1.150882,
        1.155141,
        1.15026,
        1.133509,
        1.124897,
        1.122191,
        1.109807,
        1.123394,
        1.120405,
        1.126106,
        1.122182,
        1.118655,
        1.110782,
        1.107669,
        1.104867,
        1.103491,
        1.096225,
        1.100468,
        1.096667,
        1.07098,
        1.071079,
        1.077342,
        1.065252,
        1.075036,
        1.092104,
        1.087895,
        1.088846,
        1.067911,
        1.069238,
        1.055978,
        1.045633,
        1.049223,
        1.040804,
        1.049732,
        1.062814,
        1.063643,
        1.034812,
        1.061635,
        1.043768,
        1.035831,
        1.064001,
        1.057612,
        1.059639,
        1.090203,
        1.120368,
        1.149502,
        1.110044,
        1.157923,
        1.23839,
        1.166549,
        1.413123,
        1.41731,
        1.174282,
        1.448023,
        1.713677,
        1.530534,
        1.227975,
        1.545611,
        2.091764,
        2.245004,
        1.980337,
        1.434,
        1.327223,
        1.882828,
        2.335364,
        2.538407,
        2.498887,
        2.286891,
        1.784024,
        1.306505,
        1.604814,
        2.187338,
        2.562356,
        2.717794,
        2.737169,
        2.683117,
        2.616486,
        2.434257,
        2.070496,
        1.510266,
        1.221866,
        1.66615,
        2.204364,
        2.515807,
        2.674729,
        2.755537,
        2.794583,
        2.811598,
        2.749774,
        2.687147,
        2.763383,
        2.738262,
        2.616255,
        2.375185,
        2.027714,
        1.513816,
        1.162687,
        1.521002,
        2.045921,
        2.343363,
        2.516267,
        2.622008,
        2.671083,
        2.642586,
        2.63349,
        2.639407,
        2.629339,
        2.570326,
        2.584357,
        2.586414,
        2.58622,
        2.575602,
        2.561171,
        2.534493,
        2.487435,
        2.454891,
        2.432863,
        2.379805,
        2.316481,
        2.219456,
        1.996184,
        1.570253,
        1.146163,
        1.277407,
        1.760862,
        2.090565,
        2.254113,
        2.304031,
        2.337958,
        2.3859,
        2.414201,
        2.443933,
        2.494457,
        2.499346,
        2.499211,
        2.477487,
        2.418731,
        2.352907,
        2.350579,
        2.371596,
        2.385925,
        2.395344,
        2.389928,
        2.394457,
        2.400859,
        2.405999,
        2.389127,
        2.362467,
        2.358851,
        2.347601,
        2.352512,
        2.332011,
        2.304692,
        2.311571,
        2.288888,
        2.274608,
        2.242515,
        2.255527,
        2.265403,
        2.252413,
        2.267578,
        2.245968,
        2.224006,
        2.223342,
        2.19419,
        2.127432,
        2.056321,
        1.941361,
        1.726845,
        1.355617,
        1.035223,
        1.201928,
        1.585043,
        1.85573,
        2.003997,
        2.071205,
        2.107709,
        2.125518,
        2.107485,
        2.049182,
        2.059308,
        2.091858,
        2.088429,
        2.077029,
        2.069326,
        2.067457,
        2.047182,
        2.014081,
        1.997983,
        1.988896,
        2.015232,
        2.008,
        2.006647,
        2.026764,
        2.025176,
        1.987374,
        1.945607,
        1.941498,
        1.904193,
        1.940423,
        1.96956,
        1.970027,
        1.970663,
        1.964233,
        1.945914,
        1.944003,
        1.93265,
        1.926816,
        1.930192,
        1.906317,
        1.886461,
        1.874839,
        1.85652,
        1.856969,
        1.864455,
        1.861906,
        1.871211,
        1.860576,
        1.850666,
        1.831408,
        1.81669,
        1.819894,
        1.825532,
        1.809691,
        1.795387,
        1.79454,
        1.796781,
        1.796841,
        1.77459,
        1.763623,
        1.77071,
        1.792698,
        1.777108,
        1.766348,
        1.768353,
        1.759567,
        1.760284,
        1.759086,
        1.751426,
        1.747531,
        1.733617,
        1.714509,
        1.700934,
        1.685824,
        1.677974,
        1.677422,
        1.677875,
        1.667629,
        1.664546,
        1.641747,
        1.64985,
        1.644041,
        1.645036,
        1.636987,
        1.615584,
        1.599936,
        1.589906,
        1.585374,
        1.582418,
        1.571539,
        1.552458,
        1.55318,
        1.561078,
        1.569352,
        1.575977,
        1.548159,
        1.52714,
        1.520642,
        1.490126,
        1.480387,
        1.462256,
        1.395076,
        1.2634,
        1.085879,
        0.868596,
        0.815058,
        0.992391,
        1.186866,
        1.320372,
        1.403138,
        1.432157,
        1.458799,
        1.487208,
        1.481736,
        1.47963,
        1.495451,
        1.494588,
        1.474376,
        1.463554,
        1.481395,
        1.506935,
        1.484679,
        1.466383,
        1.465063,
        1.464099,
        1.455585,
        1.444294,
        1.439226,
        1.437513,
        1.426569,
        1.416617,
        1.418122,
        1.362214,
        1.331049,
        1.374272,
        1.377954,
        1.36689,
        1.376325,
        1.39603,
        1.384497,
        1.348842,
        1.323432,
        1.31866,
        1.322464,
        1.305677,
        1.322329,
        1.316497,
        1.321923,
        1.331215,
        1.343765,
        1.338662,
        1.334452,
        1.315941,
        1.314166,
        1.306097,
        1.300102,
        1.298757,
        1.308536,
        1.295794,
        1.29698,
        1.293248,
        1.272927,
        1.280483,
        1.265123,
        1.244852,
        1.248761,
        1.228351,
        1.218748,
        1.228957,
        1.235267,
        1.237621,
        1.228692,
        1.216825,
        1.222395,
        1.213872,
        1.197677,
        1.201006,
        1.191061,
        1.174867,
        1.18142,
        1.186636,
        1.1802,
        1.180143,
        1.178791,
        1.174848,
        1.172829,
        1.161194,
        1.162815,
        1.159127,
        1.149823,
        1.153507,
        1.149115,
        1.144653,
        1.134655,
        1.129359,
        1.126814,
        1.123527,
        1.122053,
        1.112969,
        1.119364,
        1.119032,
        1.113179,
        1.113443,
        1.111919,
        1.106797,
        1.096513,
        1.092653,
        1.101024,
        1.096654,
        1.104045,
        1.106834,
        1.090893,
        1.085434,
        1.07603,
        1.06626,
        1.068639,
        1.067215,
        1.060634,
        1.063041,
        1.068301,
        1.064498,
        1.04957,
        1.041783,
        1.04291,
        1.043476,
        1.049555,
        1.033479,
        1.033056,
        1.036611,
        1.039725,
        1.04264,
        1.030127,
        1.031731,
        1.028452,
        1.033452,
        1.023686,
        1.010624,
        1.016056,
        1.006559,
        1.01191,
        1.007882,
        0.991376,
        0.999845,
        1.001638,
        0.990436,
        0.991275,
        0.990684,
        0.991125,
        0.988903,
        0.98688,
        0.990824,
        0.983407,
        0.973764,
        0.971557,
        0.97419,
        0.971143,
        0.959132,
        0.967745,
        0.969385,
        0.957651,
        0.950613,
        0.950294,
        0.946077,
        0.947354,
        0.948478,
        0.937159,
        0.932849,
        0.933554,
        0.946598,
        0.944364,
        0.931725,
        0.919287,
        0.924063,
        0.921498,
        0.910643,
        0.917449,
        0.9219,
        0.915562,
        0.91159,
        0.907578,
        0.900825,
        0.898989,
        0.903877,
        0.901074,
        0.90487,
        0.90486,
        0.902162,
        0.893362,
        0.881731,
        0.862427,
        0.863768,
        0.871347,
        0.87838,
        0.871949,
        0.878022,
        0.878082,
        0.882168,
        0.869532,
        0.865689,
        0.875505,
        0.889206,
        0.882162,
        0.872204,
        0.875827,
        0.872052,
        0.85573,
        0.854196,
        0.85345,
        0.854774,
        0.831906,
        0.798847,
        0.78602,
        0.80695,
        0.835639,
        0.843893,
        0.843153,
        0.848204,
        0.839515,
        0.84127,
        0.835583,
        0.83456,
        0.82761,
        0.820854,
        0.815401,
        0.812634,
        0.802633,
        0.801706,
        0.804552,
        0.793271,
        0.806583,
        0.802173,
        0.795455,
        0.791142,
        0.791081,
        0.790516,
        0.790543,
        0.792394,
        0.794374,
        0.793413,
        0.788255,
        0.777975,
        0.776605,
        0.777125,
        0.775583,
        0.772199,
        0.768583,
        0.768048,
        0.764528,
        0.764146,
        0.764257,
        0.761302,
        0.757924,
        0.757405,
        0.757412,
        0.756424,
        0.754514,
        0.750577,
        0.746824,
        0.746501,
        0.742615,
        0.741734,
        0.734416,
        0.733111,
        0.729016,
        0.729248,
        0.729477,
        0.724736,
        0.724668,
        0.727214,
        0.72413,
        0.724661,
        0.723165,
        0.723042,
        0.720775,
        0.720524,
        0.717611,
        0.716907,
        0.715469,
        0.711724,
        0.709849,
        0.707881,
        0.706035,
        0.709487,
        0.710606,
        0.705759,
        0.693501,
        0.692498,
        0.68186,
        0.662082,
        0.672351,
        0.684527,
        0.685897,
        0.688616,
        0.685067,
        0.684089,
        0.680256,
        0.681093,
        0.682497,
        0.680697,
        0.679737,
        0.675301,
        0.661136,
        0.659774,
        0.66731,
        0.665996,
        0.65914,
        0.651125,
        0.651901,
        0.653089,
        0.651738,
        0.652814,
        0.652607,
        0.651055,
        0.650035,
        0.647018,
        0.640143,
        0.640123,
        0.641582,
        0.638779,
        0.638076,
        0.635561,
        0.629584,
        0.62453,
        0.618812,
        0.619636,
        0.617053,
        0.614632,
        0.61028,
        0.607493,
        0.604972,
        0.601745,
        0.606745,
        0.614643,
        0.615276,
        0.614889,
        0.608827,
        0.608161,
        0.601791,
        0.594097,
        0.585461,
        0.574129,
        0.552963,
        0.520934,
        0.470537,
        0.404443,
        0.404823,
        0.475654,
        0.526149,
        0.553251,
        0.565806,
        0.572411,
        0.578436,
        0.583773,
        0.585553,
        0.584576,
        0.584978,
        0.582335,
        0.579047,
        0.571612,
        0.567149,
        0.566145,
        0.56218,
        0.562442,
        0.561984,
        0.56108,
        0.560784,
        0.55918,
        0.556066,
        0.555861,
        0.55977,
        0.560919,
        0.559487,
        0.55863,
        0.55794,
        0.556756,
        0.553965,
        0.553032,
        0.551678,
        0.549118,
        0.549849,
        0.548848,
        0.547891,
        0.545572,
        0.542651,
        0.543358,
        0.545685,
        0.542802,
        0.540771,
        0.539013,
        0.537234,
        0.535879,
        0.537799,
        0.536999,
        0.533202,
        0.534444,
        0.533356,
        0.529539,
        0.526216,
        0.525609,
        0.525403,
        0.526757,
        0.525557,
        0.524356,
        0.523118,
        0.521969,
        0.520754,
        0.519461,
        0.518261,
        0.517136,
        0.515953,
        0.514672,
        0.513506,
        0.512388,
        0.511256,
        0.510115,
        0.508958,
        0.507796,
        0.506741,
        0.505699,
        0.50463,
        0.503569,
        0.502514,
        0.501395,
        0.500273,
        0.499132,
        0.498048,
        0.49691,
        0.497408,
        0.493861,
        0.490487,
        0.486704,
        0.48822,
        0.487771,
        0.485727,
        0.489745,
        0.489285,
        0.486814,
        0.483717,
        0.483432,
        0.481724,
        0.481075,
        0.480181,
        0.480013,
        0.478344,
        0.475015,
        0.471798,
        0.471066,
        0.471529,
        0.472539,
        0.472126,
        0.471818,
        0.471528,
        0.471022,
        0.469394,
        0.468466,
        0.468454,
        0.468911,
        0.469771,
        0.467186,
        0.466399,
        0.465307,
        0.464657,
        0.465219,
        0.466099,
        0.465294,
        0.458592,
        0.449275,
        0.441377,
        0.438617,
        0.429821,
        0.432738,
        0.438778,
        0.438647,
        0.442329,
        0.454895,
        0.459622,
        0.45945,
        0.455271,
        0.446252,
        0.43801,
        0.436277,
        0.438596,
        0.437678,
        0.435861,
        0.438828,
        0.43459,
        0.432446,
        0.424745,
        0.429693,
        0.431977,
        0.424973,
        0.428206,
        0.42807,
        0.424881,
        0.424901,
        0.424528,
        0.423464,
        0.427816,
        0.425376,
        0.424148,
        0.426809,
        0.423402,
        0.420473,
        0.419995,
        0.418944,
        0.41798,
        0.413537,
        0.4148,
        0.414245,
        0.410884,
        0.410884,
        0.413242,
        0.412273,
        0.410125,
        0.409561,
        0.407284,
        0.405965,
        0.405852,
        0.406649,
        0.405028,
        0.404448,
        0.402641,
        0.402596,
        0.40219,
        0.399852,
        0.399096,
        0.398753,
        0.397817,
        0.397452,
        0.395232,
        0.395853,
        0.393891,
        0.393088,
        0.392321,
        0.39065,
        0.389809,
        0.38901,
        0.388864,
        0.388779,
        0.388436,
        0.387073,
        0.386331,
        0.385001,
        0.38442,
        0.38369,
        0.382962,
        0.382226,
        0.381437,
        0.380643,
        0.379835,
        0.379047,
        0.378278,
        0.377515,
        0.376727,
        0.37593,
        0.375112,
        0.374294,
        0.373473,
        0.372649,
        0.371822,
        0.370992,
        0.37016,
        0.369325,
        0.36849,
        0.367656,
        0.366826,
        0.366008,
        0.365209,
        0.364442,
        0.363656,
        0.362872,
        0.362118,
        0.361366,
        0.360702,
        0.360364,
        0.360249,
        0.35981,
        0.359141,
        0.358255,
        0.35736,
        0.356009,
        0.356101,
        0.355553,
        0.354163,
        0.353802,
        0.350664,
        0.341266,
        0.336707,
        0.344479,
        0.349034,
        0.347964,
        0.347816,
        0.348317,
        0.347018,
        0.346137,
        0.345381,
        0.345565,
        0.344403,
        0.343501,
        0.341617,
        0.341961,
        0.339077,
        0.337795,
        0.337578,
        0.338515,
        0.338053,
        0.335927,
        0.334056,
        0.333653,
        0.335093,
        0.332941,
        0.329676,
        0.329689,
        0.3309,
        0.331639,
        0.331038,
        0.328472,
        0.329294,
        0.32906,
        0.329228,
        0.328204,
        0.325461,
        0.324744,
        0.32491,
        0.32344,
        0.322286,
        0.321853,
        0.321646,
        0.32183,
        0.321189,
        0.320136,
        0.319324,
        0.318354,
        0.318646,
        0.316112,
        0.315897,
        0.314408,
        0.315069,
        0.314335,
        0.314122,
        0.313284,
        0.313168,
        0.313352,
        0.313078,
        0.312165,
        0.311016,
        0.311476,
        0.310649,
        0.309287,
        0.309716,
        0.309795,
        0.309233,
        0.309462,
        0.309551,
        0.308285,
        0.30714,
        0.308169,
        0.306509,
        0.304956,
        0.301992,
        0.30113,
        0.29873,
        0.296393,
        0.294455,
        0.290696,
        0.287366,
        0.293885,
        0.29408,
        0.292004,
        0.294243,
        0.293258,
        0.293,
        0.294435,
        0.301143,
        0.29894,
        0.295819,
        0.29277,
        0.280549,
        0.272068,
        0.28481,
        0.291527,
        0.291817,
        0.294697,
        0.288815,
        0.289375,
        0.291818,
        0.287851,
        0.282716,
        0.282952,
        0.283505,
        0.280386,
        0.280731,
        0.280808,
        0.27983,
        0.281146,
        0.279599,
        0.276176,
        0.278425,
        0.279901,
        0.278691,
        0.277472,
        0.27845,
        0.278111,
        0.276313,
        0.273382,
        0.274493,
        0.273424,
        0.273013,
        0.272747,
        0.270942,
        0.270341,
        0.269405,
        0.270898,
        0.269969,
        0.267179,
        0.26567,
        0.267445,
        0.267583,
        0.264515,
        0.262321,
        0.260131,
        0.2593,
        0.263437,
        0.26556,
        0.263173,
        0.257814,
        0.258422,
        0.261725,
        0.266278,
        0.268348,
        0.264786,
        0.257623,
        0.249732,
        0.250495,
        0.258398,
        0.26327,
        0.267787,
        0.267157,
        0.265026,
        0.258257,
        0.24707,
        0.241111,
        0.249147,
        0.260539,
        0.267948,
        0.272292,
        0.274218,
        0.271842,
        0.267419,
        0.259129,
        0.248265,
        0.237858,
        0.234977,
        0.244985,
        0.259628,
        0.271227,
        0.276302,
        0.279492,
        0.279744,
        0.281107,
        0.27876,
        0.27368,
        0.263375,
        0.249436,
        0.232499,
        0.221714,
        0.229966,
        0.242866,
        0.256353,
        0.268247,
        0.275697,
        0.280967,
        0.285675,
        0.287164,
        0.288222,
        0.285625,
        0.281091,
        0.275479,
        0.267646,
        0.255627,
        0.24109,
        0.223222,
        0.212138,
        0.219444,
        0.235294,
        0.248106,
        0.256524,
        0.264289,
        0.26616,
        0.268117,
        0.269885,
        0.270829,
        0.273319,
        0.272455,
        0.269528,
        0.268119,
        0.266662,
        0.262357,
        0.258074,
        0.254448,
        0.249844,
        0.242331,
        0.229589,
        0.213354,
        0.197674,
        0.196416,
        0.211308,
        0.228207,
        0.238877,
        0.247954,
        0.254044,
        0.257991,
        0.260691,
        0.26471,
        0.26383,
        0.26417,
        0.262076,
        0.260042,
        0.258238,
        0.255047,
        0.256091,
        0.255881,
        0.254519,
        0.254431,
        0.253335,
        0.251352,
        0.250298,
        0.249719,
        0.245761,
        0.234719,
        0.225731,
        0.22705,
        0.218676,
        0.202453,
        0.189152,
        0.179821,
        0.191403,
        0.207913,
        0.226388,
        0.24049,
        0.246957,
        0.24968,
        0.252851,
        0.251966,
        0.247147,
        0.24743,
        0.241829,
        0.237712,
        0.23849,
        0.238411,
        0.238436,
        0.238304,
        0.238119,
        0.240238,
        0.242603,
        0.241193,
        0.240766,
        0.241956,
        0.235493,
        0.234607,
        0.242839,
        0.240735,
        0.236297,
        0.230616,
        0.235849,
        0.238664,
        0.237587,
        0.232624,
        0.235783,
        0.237258,
        0.23752,
        0.235388,
        0.23265,
        0.227688,
        0.219555,
        0.206594,
        0.194602,
        0.180182,
        0.171546,
        0.183477,
        0.200771,
        0.210064,
        0.217987,
        0.22463,
        0.230156,
        0.232126,
        0.236871,
        0.238406,
        0.236994,
        0.238271,
        0.235912,
        0.232441,
        0.223325,
        0.224617,
        0.219094,
        0.211309,
        0.208108,
        0.21316,
        0.221896,
        0.222434,
        0.219241,
        0.21868,
        0.22561,
        0.211517,
        0.214691,
        0.216289,
        0.213459,
        0.223341,
        0.227227,
        0.23651,
        0.242594,
        0.248165,
        0.242919,
        0.236243,
        0.227396,
        0.22369,
        0.219196,
        0.212118,
        0.207717,
        0.213465,
        0.203406,
        0.214062,
        0.218983,
        0.20967,
        0.207184,
        0.214902,
        0.216348,
        0.213234,
        0.207771,
        0.212971,
        0.214403,
        0.200344,
        0.195702,
        0.203761,
        0.204311,
        0.192665,
        0.183176,
        0.18308,
        0.18224,
        0.175492,
        0.172051,
        0.162014,
        0.17065,
        0.175347,
        0.184448,
        0.189062,
        0.19805,
        0.203538,
        0.199724,
        0.200715,
        0.201076,
        0.203499,
        0.205088,
        0.204098,
        0.207607,
        0.203744,
        0.200866,
        0.202519,
        0.200451,
        0.199022,
        0.20095,
        0.201202,
        0.202386,
        0.203517,
        0.202494,
        0.20108,
        0.202385,
        0.203064,
        0.199819,
        0.199957,
        0.202669,
        0.199484,
        0.19811,
        0.197459,
        0.196568,
        0.193168,
        0.189658,
        0.192399,
        0.197091,
        0.196176,
        0.197574,
        0.199331,
        0.196978,
        0.193599,
        0.197246,
        0.193672,
        0.194392,
        0.196275,
        0.196011,
        0.192189,
        0.192484,
        0.193714,
        0.19778,
        0.193303,
        0.193173,
        0.194632,
        0.193943,
        0.192947,
        0.192143,
        0.189888,
        0.193041,
        0.19173,
        0.189397,
        0.185685,
        0.17942,
        0.186286,
        0.182878,
        0.180634,
        0.182027,
        0.184916,
        0.186331,
        0.185207,
        0.184975,
        0.184993,
        0.186531,
        0.184397,
        0.183066,
        0.182753,
        0.18393,
        0.187654,
        0.186611,
        0.182332,
        0.182871,
        0.184068,
        0.181857,
        0.177843,
        0.181705,
        0.182417,
        0.181905,
        0.179935,
        0.179672,
        0.179384,
        0.177272,
        0.174969,
        0.170823,
        0.169772,
        0.167798,
        0.156492,
        0.156841,
        0.144269,
        0.144449,
        0.142066,
        0.145845,
        0.149446,
        0.162032,
        0.16313,
        0.175419,
        0.166501,
        0.166581,
        0.16218,
        0.173574,
        0.168329,
        0.185622,
        0.186315,
        0.184991,
        0.182771,
        0.180777,
        0.179855,
        0.179741,
        0.179898,
        0.179788,
        0.179022,
        0.177816,
        0.176537,
        0.175553,
        0.175121,
        0.175063,
        0.175093,
        0.174925,
        0.174349,
        0.173467,
        0.172458,
        0.171501,
        0.170757,
        0.170318,
        0.170258,
        0.170648,
        0.17149,
        0.172492,
        0.173289,
        0.173515,
        0.172929,
        0.171774,
        0.170419,
        0.16923,
        0.168498,
        0.16821,
        0.168275,
        0.168602,
        0.169075,
        0.169469,
        0.169535,
        0.169022,
        0.166896,
        0.165988,
        0.165076,
        0.164365,
        0.164022,
        0.16406,
        0.164455,
        0.165182,
        0.166194,
        0.167359,
        0.168521,
        0.169525,
        0.170209,
        0.170381,
        0.169841,
        0.168391,
        0.165976,
        0.163124,
        0.160508,
        0.158797,
        0.158459,
        0.159133,
        0.160249,
        0.161241,
        0.161671,
        0.161632,
        0.161348,
        0.161043,
        0.160872,
        0.160714,
        0.16038,
        0.159681,
        0.158529,
        0.15724,
        0.156234,
        0.155929,
        0.156577,
        0.157757,
        0.158882,
        0.159364
      ],
      "range":1
    }
  }
]
