[
  {
    "model":"Star, type B3(iii)",
    "name":"Star, type B3(iii)",
    "type":"WB_REF",
    "dataQualityMarker":3,
    "dataSource":"https://www.eso.org/sci/facilities/paranal/decommissioned/isaac/tools/lib.html",
    "manufacturer":"A. Pickles (A.J. Pickles, PASP 110,863, 1998)",
    "version":1,
    "wavelength":{
      "value":[
        1150.0,
        1155.0,
        1160.0,
        1165.0,
        1170.0,
        1175.0,
        1180.0,
        1185.0,
        1190.0,
        1195.0,
        1200.0,
        1205.0,
        1210.0,
        1215.0,
        1220.0,
        1225.0,
        1230.0,
        1235.0,
        1240.0,
        1245.0,
        1250.0,
        1255.0,
        1260.0,
        1265.0,
        1270.0,
        1275.0,
        1280.0,
        1285.0,
        1290.0,
        1295.0,
        1300.0,
        1305.0,
        1310.0,
        1315.0,
        1320.0,
        1325.0,
        1330.0,
        1335.0,
        1340.0,
        1345.0,
        1350.0,
        1355.0,
        1360.0,
        1365.0,
        1370.0,
        1375.0,
        1380.0,
        1385.0,
        1390.0,
        1395.0,
        1400.0,
        1405.0,
        1410.0,
        1415.0,
        1420.0,
        1425.0,
        1430.0,
        1435.0,
        1440.0,
        1445.0,
        1450.0,
        1455.0,
        1460.0,
        1465.0,
        1470.0,
        1475.0,
        1480.0,
        1485.0,
        1490.0,
        1495.0,
        1500.0,
        1505.0,
        1510.0,
        1515.0,
        1520.0,
        1525.0,
        1530.0,
        1535.0,
        1540.0,
        1545.0,
        1550.0,
        1555.0,
        1560.0,
        1565.0,
        1570.0,
        1575.0,
        1580.0,
        1585.0,
        1590.0,
        1595.0,
        1600.0,
        1605.0,
        1610.0,
        1615.0,
        1620.0,
        1625.0,
        1630.0,
        1635.0,
        1640.0,
        1645.0,
        1650.0,
        1655.0,
        1660.0,
        1665.0,
        1670.0,
        1675.0,
        1680.0,
        1685.0,
        1690.0,
        1695.0,
        1700.0,
        1705.0,
        1710.0,
        1715.0,
        1720.0,
        1725.0,
        1730.0,
        1735.0,
        1740.0,
        1745.0,
        1750.0,
        1755.0,
        1760.0,
        1765.0,
        1770.0,
        1775.0,
        1780.0,
        1785.0,
        1790.0,
        1795.0,
        1800.0,
        1805.0,
        1810.0,
        1815.0,
        1820.0,
        1825.0,
        1830.0,
        1835.0,
        1840.0,
        1845.0,
        1850.0,
        1855.0,
        1860.0,
        1865.0,
        1870.0,
        1875.0,
        1880.0,
        1885.0,
        1890.0,
        1895.0,
        1900.0,
        1905.0,
        1910.0,
        1915.0,
        1920.0,
        1925.0,
        1930.0,
        1935.0,
        1940.0,
        1945.0,
        1950.0,
        1955.0,
        1960.0,
        1965.0,
        1970.0,
        1975.0,
        1980.0,
        1985.0,
        1990.0,
        1995.0,
        2000.0,
        2005.0,
        2010.0,
        2015.0,
        2020.0,
        2025.0,
        2030.0,
        2035.0,
        2040.0,
        2045.0,
        2050.0,
        2055.0,
        2060.0,
        2065.0,
        2070.0,
        2075.0,
        2080.0,
        2085.0,
        2090.0,
        2095.0,
        2100.0,
        2105.0,
        2110.0,
        2115.0,
        2120.0,
        2125.0,
        2130.0,
        2135.0,
        2140.0,
        2145.0,
        2150.0,
        2155.0,
        2160.0,
        2165.0,
        2170.0,
        2175.0,
        2180.0,
        2185.0,
        2190.0,
        2195.0,
        2200.0,
        2205.0,
        2210.0,
        2215.0,
        2220.0,
        2225.0,
        2230.0,
        2235.0,
        2240.0,
        2245.0,
        2250.0,
        2255.0,
        2260.0,
        2265.0,
        2270.0,
        2275.0,
        2280.0,
        2285.0,
        2290.0,
        2295.0,
        2300.0,
        2305.0,
        2310.0,
        2315.0,
        2320.0,
        2325.0,
        2330.0,
        2335.0,
        2340.0,
        2345.0,
        2350.0,
        2355.0,
        2360.0,
        2365.0,
        2370.0,
        2375.0,
        2380.0,
        2385.0,
        2390.0,
        2395.0,
        2400.0,
        2405.0,
        2410.0,
        2415.0,
        2420.0,
        2425.0,
        2430.0,
        2435.0,
        2440.0,
        2445.0,
        2450.0,
        2455.0,
        2460.0,
        2465.0,
        2470.0,
        2475.0,
        2480.0,
        2485.0,
        2490.0,
        2495.0,
        2500.0,
        2505.0,
        2510.0,
        2515.0,
        2520.0,
        2525.0,
        2530.0,
        2535.0,
        2540.0,
        2545.0,
        2550.0,
        2555.0,
        2560.0,
        2565.0,
        2570.0,
        2575.0,
        2580.0,
        2585.0,
        2590.0,
        2595.0,
        2600.0,
        2605.0,
        2610.0,
        2615.0,
        2620.0,
        2625.0,
        2630.0,
        2635.0,
        2640.0,
        2645.0,
        2650.0,
        2655.0,
        2660.0,
        2665.0,
        2670.0,
        2675.0,
        2680.0,
        2685.0,
        2690.0,
        2695.0,
        2700.0,
        2705.0,
        2710.0,
        2715.0,
        2720.0,
        2725.0,
        2730.0,
        2735.0,
        2740.0,
        2745.0,
        2750.0,
        2755.0,
        2760.0,
        2765.0,
        2770.0,
        2775.0,
        2780.0,
        2785.0,
        2790.0,
        2795.0,
        2800.0,
        2805.0,
        2810.0,
        2815.0,
        2820.0,
        2825.0,
        2830.0,
        2835.0,
        2840.0,
        2845.0,
        2850.0,
        2855.0,
        2860.0,
        2865.0,
        2870.0,
        2875.0,
        2880.0,
        2885.0,
        2890.0,
        2895.0,
        2900.0,
        2905.0,
        2910.0,
        2915.0,
        2920.0,
        2925.0,
        2930.0,
        2935.0,
        2940.0,
        2945.0,
        2950.0,
        2955.0,
        2960.0,
        2965.0,
        2970.0,
        2975.0,
        2980.0,
        2985.0,
        2990.0,
        2995.0,
        3000.0,
        3005.0,
        3010.0,
        3015.0,
        3020.0,
        3025.0,
        3030.0,
        3035.0,
        3040.0,
        3045.0,
        3050.0,
        3055.0,
        3060.0,
        3065.0,
        3070.0,
        3075.0,
        3080.0,
        3085.0,
        3090.0,
        3095.0,
        3100.0,
        3105.0,
        3110.0,
        3115.0,
        3120.0,
        3125.0,
        3130.0,
        3135.0,
        3140.0,
        3145.0,
        3150.0,
        3155.0,
        3160.0,
        3165.0,
        3170.0,
        3175.0,
        3180.0,
        3185.0,
        3190.0,
        3195.0,
        3200.0,
        3205.0,
        3210.0,
        3215.0,
        3220.0,
        3225.0,
        3230.0,
        3235.0,
        3240.0,
        3245.0,
        3250.0,
        3255.0,
        3260.0,
        3265.0,
        3270.0,
        3275.0,
        3280.0,
        3285.0,
        3290.0,
        3295.0,
        3300.0,
        3305.0,
        3310.0,
        3315.0,
        3320.0,
        3325.0,
        3330.0,
        3335.0,
        3340.0,
        3345.0,
        3350.0,
        3355.0,
        3360.0,
        3365.0,
        3370.0,
        3375.0,
        3380.0,
        3385.0,
        3390.0,
        3395.0,
        3400.0,
        3405.0,
        3410.0,
        3415.0,
        3420.0,
        3425.0,
        3430.0,
        3435.0,
        3440.0,
        3445.0,
        3450.0,
        3455.0,
        3460.0,
        3465.0,
        3470.0,
        3475.0,
        3480.0,
        3485.0,
        3490.0,
        3495.0,
        3500.0,
        3505.0,
        3510.0,
        3515.0,
        3520.0,
        3525.0,
        3530.0,
        3535.0,
        3540.0,
        3545.0,
        3550.0,
        3555.0,
        3560.0,
        3565.0,
        3570.0,
        3575.0,
        3580.0,
        3585.0,
        3590.0,
        3595.0,
        3600.0,
        3605.0,
        3610.0,
        3615.0,
        3620.0,
        3625.0,
        3630.0,
        3635.0,
        3640.0,
        3645.0,
        3650.0,
        3655.0,
        3660.0,
        3665.0,
        3670.0,
        3675.0,
        3680.0,
        3685.0,
        3690.0,
        3695.0,
        3700.0,
        3705.0,
        3710.0,
        3715.0,
        3720.0,
        3725.0,
        3730.0,
        3735.0,
        3740.0,
        3745.0,
        3750.0,
        3755.0,
        3760.0,
        3765.0,
        3770.0,
        3775.0,
        3780.0,
        3785.0,
        3790.0,
        3795.0,
        3800.0,
        3805.0,
        3810.0,
        3815.0,
        3820.0,
        3825.0,
        3830.0,
        3835.0,
        3840.0,
        3845.0,
        3850.0,
        3855.0,
        3860.0,
        3865.0,
        3870.0,
        3875.0,
        3880.0,
        3885.0,
        3890.0,
        3895.0,
        3900.0,
        3905.0,
        3910.0,
        3915.0,
        3920.0,
        3925.0,
        3930.0,
        3935.0,
        3940.0,
        3945.0,
        3950.0,
        3955.0,
        3960.0,
        3965.0,
        3970.0,
        3975.0,
        3980.0,
        3985.0,
        3990.0,
        3995.0,
        4000.0,
        4005.0,
        4010.0,
        4015.0,
        4020.0,
        4025.0,
        4030.0,
        4035.0,
        4040.0,
        4045.0,
        4050.0,
        4055.0,
        4060.0,
        4065.0,
        4070.0,
        4075.0,
        4080.0,
        4085.0,
        4090.0,
        4095.0,
        4100.0,
        4105.0,
        4110.0,
        4115.0,
        4120.0,
        4125.0,
        4130.0,
        4135.0,
        4140.0,
        4145.0,
        4150.0,
        4155.0,
        4160.0,
        4165.0,
        4170.0,
        4175.0,
        4180.0,
        4185.0,
        4190.0,
        4195.0,
        4200.0,
        4205.0,
        4210.0,
        4215.0,
        4220.0,
        4225.0,
        4230.0,
        4235.0,
        4240.0,
        4245.0,
        4250.0,
        4255.0,
        4260.0,
        4265.0,
        4270.0,
        4275.0,
        4280.0,
        4285.0,
        4290.0,
        4295.0,
        4300.0,
        4305.0,
        4310.0,
        4315.0,
        4320.0,
        4325.0,
        4330.0,
        4335.0,
        4340.0,
        4345.0,
        4350.0,
        4355.0,
        4360.0,
        4365.0,
        4370.0,
        4375.0,
        4380.0,
        4385.0,
        4390.0,
        4395.0,
        4400.0,
        4405.0,
        4410.0,
        4415.0,
        4420.0,
        4425.0,
        4430.0,
        4435.0,
        4440.0,
        4445.0,
        4450.0,
        4455.0,
        4460.0,
        4465.0,
        4470.0,
        4475.0,
        4480.0,
        4485.0,
        4490.0,
        4495.0,
        4500.0,
        4505.0,
        4510.0,
        4515.0,
        4520.0,
        4525.0,
        4530.0,
        4535.0,
        4540.0,
        4545.0,
        4550.0,
        4555.0,
        4560.0,
        4565.0,
        4570.0,
        4575.0,
        4580.0,
        4585.0,
        4590.0,
        4595.0,
        4600.0,
        4605.0,
        4610.0,
        4615.0,
        4620.0,
        4625.0,
        4630.0,
        4635.0,
        4640.0,
        4645.0,
        4650.0,
        4655.0,
        4660.0,
        4665.0,
        4670.0,
        4675.0,
        4680.0,
        4685.0,
        4690.0,
        4695.0,
        4700.0,
        4705.0,
        4710.0,
        4715.0,
        4720.0,
        4725.0,
        4730.0,
        4735.0,
        4740.0,
        4745.0,
        4750.0,
        4755.0,
        4760.0,
        4765.0,
        4770.0,
        4775.0,
        4780.0,
        4785.0,
        4790.0,
        4795.0,
        4800.0,
        4805.0,
        4810.0,
        4815.0,
        4820.0,
        4825.0,
        4830.0,
        4835.0,
        4840.0,
        4845.0,
        4850.0,
        4855.0,
        4860.0,
        4865.0,
        4870.0,
        4875.0,
        4880.0,
        4885.0,
        4890.0,
        4895.0,
        4900.0,
        4905.0,
        4910.0,
        4915.0,
        4920.0,
        4925.0,
        4930.0,
        4935.0,
        4940.0,
        4945.0,
        4950.0,
        4955.0,
        4960.0,
        4965.0,
        4970.0,
        4975.0,
        4980.0,
        4985.0,
        4990.0,
        4995.0,
        5000.0,
        5005.0,
        5010.0,
        5015.0,
        5020.0,
        5025.0,
        5030.0,
        5035.0,
        5040.0,
        5045.0,
        5050.0,
        5055.0,
        5060.0,
        5065.0,
        5070.0,
        5075.0,
        5080.0,
        5085.0,
        5090.0,
        5095.0,
        5100.0,
        5105.0,
        5110.0,
        5115.0,
        5120.0,
        5125.0,
        5130.0,
        5135.0,
        5140.0,
        5145.0,
        5150.0,
        5155.0,
        5160.0,
        5165.0,
        5170.0,
        5175.0,
        5180.0,
        5185.0,
        5190.0,
        5195.0,
        5200.0,
        5205.0,
        5210.0,
        5215.0,
        5220.0,
        5225.0,
        5230.0,
        5235.0,
        5240.0,
        5245.0,
        5250.0,
        5255.0,
        5260.0,
        5265.0,
        5270.0,
        5275.0,
        5280.0,
        5285.0,
        5290.0,
        5295.0,
        5300.0,
        5305.0,
        5310.0,
        5315.0,
        5320.0,
        5325.0,
        5330.0,
        5335.0,
        5340.0,
        5345.0,
        5350.0,
        5355.0,
        5360.0,
        5365.0,
        5370.0,
        5375.0,
        5380.0,
        5385.0,
        5390.0,
        5395.0,
        5400.0,
        5405.0,
        5410.0,
        5415.0,
        5420.0,
        5425.0,
        5430.0,
        5435.0,
        5440.0,
        5445.0,
        5450.0,
        5455.0,
        5460.0,
        5465.0,
        5470.0,
        5475.0,
        5480.0,
        5485.0,
        5490.0,
        5495.0,
        5500.0,
        5505.0,
        5510.0,
        5515.0,
        5520.0,
        5525.0,
        5530.0,
        5535.0,
        5540.0,
        5545.0,
        5550.0,
        5555.0,
        5560.0,
        5565.0,
        5570.0,
        5575.0,
        5580.0,
        5585.0,
        5590.0,
        5595.0,
        5600.0,
        5605.0,
        5610.0,
        5615.0,
        5620.0,
        5625.0,
        5630.0,
        5635.0,
        5640.0,
        5645.0,
        5650.0,
        5655.0,
        5660.0,
        5665.0,
        5670.0,
        5675.0,
        5680.0,
        5685.0,
        5690.0,
        5695.0,
        5700.0,
        5705.0,
        5710.0,
        5715.0,
        5720.0,
        5725.0,
        5730.0,
        5735.0,
        5740.0,
        5745.0,
        5750.0,
        5755.0,
        5760.0,
        5765.0,
        5770.0,
        5775.0,
        5780.0,
        5785.0,
        5790.0,
        5795.0,
        5800.0,
        5805.0,
        5810.0,
        5815.0,
        5820.0,
        5825.0,
        5830.0,
        5835.0,
        5840.0,
        5845.0,
        5850.0,
        5855.0,
        5860.0,
        5865.0,
        5870.0,
        5875.0,
        5880.0,
        5885.0,
        5890.0,
        5895.0,
        5900.0,
        5905.0,
        5910.0,
        5915.0,
        5920.0,
        5925.0,
        5930.0,
        5935.0,
        5940.0,
        5945.0,
        5950.0,
        5955.0,
        5960.0,
        5965.0,
        5970.0,
        5975.0,
        5980.0,
        5985.0,
        5990.0,
        5995.0,
        6000.0,
        6005.0,
        6010.0,
        6015.0,
        6020.0,
        6025.0,
        6030.0,
        6035.0,
        6040.0,
        6045.0,
        6050.0,
        6055.0,
        6060.0,
        6065.0,
        6070.0,
        6075.0,
        6080.0,
        6085.0,
        6090.0,
        6095.0,
        6100.0,
        6105.0,
        6110.0,
        6115.0,
        6120.0,
        6125.0,
        6130.0,
        6135.0,
        6140.0,
        6145.0,
        6150.0,
        6155.0,
        6160.0,
        6165.0,
        6170.0,
        6175.0,
        6180.0,
        6185.0,
        6190.0,
        6195.0,
        6200.0,
        6205.0,
        6210.0,
        6215.0,
        6220.0,
        6225.0,
        6230.0,
        6235.0,
        6240.0,
        6245.0,
        6250.0,
        6255.0,
        6260.0,
        6265.0,
        6270.0,
        6275.0,
        6280.0,
        6285.0,
        6290.0,
        6295.0,
        6300.0,
        6305.0,
        6310.0,
        6315.0,
        6320.0,
        6325.0,
        6330.0,
        6335.0,
        6340.0,
        6345.0,
        6350.0,
        6355.0,
        6360.0,
        6365.0,
        6370.0,
        6375.0,
        6380.0,
        6385.0,
        6390.0,
        6395.0,
        6400.0,
        6405.0,
        6410.0,
        6415.0,
        6420.0,
        6425.0,
        6430.0,
        6435.0,
        6440.0,
        6445.0,
        6450.0,
        6455.0,
        6460.0,
        6465.0,
        6470.0,
        6475.0,
        6480.0,
        6485.0,
        6490.0,
        6495.0,
        6500.0,
        6505.0,
        6510.0,
        6515.0,
        6520.0,
        6525.0,
        6530.0,
        6535.0,
        6540.0,
        6545.0,
        6550.0,
        6555.0,
        6560.0,
        6565.0,
        6570.0,
        6575.0,
        6580.0,
        6585.0,
        6590.0,
        6595.0,
        6600.0,
        6605.0,
        6610.0,
        6615.0,
        6620.0,
        6625.0,
        6630.0,
        6635.0,
        6640.0,
        6645.0,
        6650.0,
        6655.0,
        6660.0,
        6665.0,
        6670.0,
        6675.0,
        6680.0,
        6685.0,
        6690.0,
        6695.0,
        6700.0,
        6705.0,
        6710.0,
        6715.0,
        6720.0,
        6725.0,
        6730.0,
        6735.0,
        6740.0,
        6745.0,
        6750.0,
        6755.0,
        6760.0,
        6765.0,
        6770.0,
        6775.0,
        6780.0,
        6785.0,
        6790.0,
        6795.0,
        6800.0,
        6805.0,
        6810.0,
        6815.0,
        6820.0,
        6825.0,
        6830.0,
        6835.0,
        6840.0,
        6845.0,
        6850.0,
        6855.0,
        6860.0,
        6865.0,
        6870.0,
        6875.0,
        6880.0,
        6885.0,
        6890.0,
        6895.0,
        6900.0,
        6905.0,
        6910.0,
        6915.0,
        6920.0,
        6925.0,
        6930.0,
        6935.0,
        6940.0,
        6945.0,
        6950.0,
        6955.0,
        6960.0,
        6965.0,
        6970.0,
        6975.0,
        6980.0,
        6985.0,
        6990.0,
        6995.0,
        7000.0,
        7005.0,
        7010.0,
        7015.0,
        7020.0,
        7025.0,
        7030.0,
        7035.0,
        7040.0,
        7045.0,
        7050.0,
        7055.0,
        7060.0,
        7065.0,
        7070.0,
        7075.0,
        7080.0,
        7085.0,
        7090.0,
        7095.0,
        7100.0,
        7105.0,
        7110.0,
        7115.0,
        7120.0,
        7125.0,
        7130.0,
        7135.0,
        7140.0,
        7145.0,
        7150.0,
        7155.0,
        7160.0,
        7165.0,
        7170.0,
        7175.0,
        7180.0,
        7185.0,
        7190.0,
        7195.0,
        7200.0,
        7205.0,
        7210.0,
        7215.0,
        7220.0,
        7225.0,
        7230.0,
        7235.0,
        7240.0,
        7245.0,
        7250.0,
        7255.0,
        7260.0,
        7265.0,
        7270.0,
        7275.0,
        7280.0,
        7285.0,
        7290.0,
        7295.0,
        7300.0,
        7305.0,
        7310.0,
        7315.0,
        7320.0,
        7325.0,
        7330.0,
        7335.0,
        7340.0,
        7345.0,
        7350.0,
        7355.0,
        7360.0,
        7365.0,
        7370.0,
        7375.0,
        7380.0,
        7385.0,
        7390.0,
        7395.0,
        7400.0,
        7405.0,
        7410.0,
        7415.0,
        7420.0,
        7425.0,
        7430.0,
        7435.0,
        7440.0,
        7445.0,
        7450.0,
        7455.0,
        7460.0,
        7465.0,
        7470.0,
        7475.0,
        7480.0,
        7485.0,
        7490.0,
        7495.0,
        7500.0,
        7505.0,
        7510.0,
        7515.0,
        7520.0,
        7525.0,
        7530.0,
        7535.0,
        7540.0,
        7545.0,
        7550.0,
        7555.0,
        7560.0,
        7565.0,
        7570.0,
        7575.0,
        7580.0,
        7585.0,
        7590.0,
        7595.0,
        7600.0,
        7605.0,
        7610.0,
        7615.0,
        7620.0,
        7625.0,
        7630.0,
        7635.0,
        7640.0,
        7645.0,
        7650.0,
        7655.0,
        7660.0,
        7665.0,
        7670.0,
        7675.0,
        7680.0,
        7685.0,
        7690.0,
        7695.0,
        7700.0,
        7705.0,
        7710.0,
        7715.0,
        7720.0,
        7725.0,
        7730.0,
        7735.0,
        7740.0,
        7745.0,
        7750.0,
        7755.0,
        7760.0,
        7765.0,
        7770.0,
        7775.0,
        7780.0,
        7785.0,
        7790.0,
        7795.0,
        7800.0,
        7805.0,
        7810.0,
        7815.0,
        7820.0,
        7825.0,
        7830.0,
        7835.0,
        7840.0,
        7845.0,
        7850.0,
        7855.0,
        7860.0,
        7865.0,
        7870.0,
        7875.0,
        7880.0,
        7885.0,
        7890.0,
        7895.0,
        7900.0,
        7905.0,
        7910.0,
        7915.0,
        7920.0,
        7925.0,
        7930.0,
        7935.0,
        7940.0,
        7945.0,
        7950.0,
        7955.0,
        7960.0,
        7965.0,
        7970.0,
        7975.0,
        7980.0,
        7985.0,
        7990.0,
        7995.0,
        8000.0,
        8005.0,
        8010.0,
        8015.0,
        8020.0,
        8025.0,
        8030.0,
        8035.0,
        8040.0,
        8045.0,
        8050.0,
        8055.0,
        8060.0,
        8065.0,
        8070.0,
        8075.0,
        8080.0,
        8085.0,
        8090.0,
        8095.0,
        8100.0,
        8105.0,
        8110.0,
        8115.0,
        8120.0,
        8125.0,
        8130.0,
        8135.0,
        8140.0,
        8145.0,
        8150.0,
        8155.0,
        8160.0,
        8165.0,
        8170.0,
        8175.0,
        8180.0,
        8185.0,
        8190.0,
        8195.0,
        8200.0,
        8205.0,
        8210.0,
        8215.0,
        8220.0,
        8225.0,
        8230.0,
        8235.0,
        8240.0,
        8245.0,
        8250.0,
        8255.0,
        8260.0,
        8265.0,
        8270.0,
        8275.0,
        8280.0,
        8285.0,
        8290.0,
        8295.0,
        8300.0,
        8305.0,
        8310.0,
        8315.0,
        8320.0,
        8325.0,
        8330.0,
        8335.0,
        8340.0,
        8345.0,
        8350.0,
        8355.0,
        8360.0,
        8365.0,
        8370.0,
        8375.0,
        8380.0,
        8385.0,
        8390.0,
        8395.0,
        8400.0,
        8405.0,
        8410.0,
        8415.0,
        8420.0,
        8425.0,
        8430.0,
        8435.0,
        8440.0,
        8445.0,
        8450.0,
        8455.0,
        8460.0,
        8465.0,
        8470.0,
        8475.0,
        8480.0,
        8485.0,
        8490.0,
        8495.0,
        8500.0,
        8505.0,
        8510.0,
        8515.0,
        8520.0,
        8525.0,
        8530.0,
        8535.0,
        8540.0,
        8545.0,
        8550.0,
        8555.0,
        8560.0,
        8565.0,
        8570.0,
        8575.0,
        8580.0,
        8585.0,
        8590.0,
        8595.0,
        8600.0,
        8605.0,
        8610.0,
        8615.0,
        8620.0,
        8625.0,
        8630.0,
        8635.0,
        8640.0,
        8645.0,
        8650.0,
        8655.0,
        8660.0,
        8665.0,
        8670.0,
        8675.0,
        8680.0,
        8685.0,
        8690.0,
        8695.0,
        8700.0,
        8705.0,
        8710.0,
        8715.0,
        8720.0,
        8725.0,
        8730.0,
        8735.0,
        8740.0,
        8745.0,
        8750.0,
        8755.0,
        8760.0,
        8765.0,
        8770.0,
        8775.0,
        8780.0,
        8785.0,
        8790.0,
        8795.0,
        8800.0,
        8805.0,
        8810.0,
        8815.0,
        8820.0,
        8825.0,
        8830.0,
        8835.0,
        8840.0,
        8845.0,
        8850.0,
        8855.0,
        8860.0,
        8865.0,
        8870.0,
        8875.0,
        8880.0,
        8885.0,
        8890.0,
        8895.0,
        8900.0,
        8905.0,
        8910.0,
        8915.0,
        8920.0,
        8925.0,
        8930.0,
        8935.0,
        8940.0,
        8945.0,
        8950.0,
        8955.0,
        8960.0,
        8965.0,
        8970.0,
        8975.0,
        8980.0,
        8985.0,
        8990.0,
        8995.0,
        9000.0,
        9005.0,
        9010.0,
        9015.0,
        9020.0,
        9025.0,
        9030.0,
        9035.0,
        9040.0,
        9045.0,
        9050.0,
        9055.0,
        9060.0,
        9065.0,
        9070.0,
        9075.0,
        9080.0,
        9085.0,
        9090.0,
        9095.0,
        9100.0,
        9105.0,
        9110.0,
        9115.0,
        9120.0,
        9125.0,
        9130.0,
        9135.0,
        9140.0,
        9145.0,
        9150.0,
        9155.0,
        9160.0,
        9165.0,
        9170.0,
        9175.0,
        9180.0,
        9185.0,
        9190.0,
        9195.0,
        9200.0,
        9205.0,
        9210.0,
        9215.0,
        9220.0,
        9225.0,
        9230.0,
        9235.0,
        9240.0,
        9245.0,
        9250.0,
        9255.0,
        9260.0,
        9265.0,
        9270.0,
        9275.0,
        9280.0,
        9285.0,
        9290.0,
        9295.0,
        9300.0,
        9305.0,
        9310.0,
        9315.0,
        9320.0,
        9325.0,
        9330.0,
        9335.0,
        9340.0,
        9345.0,
        9350.0,
        9355.0,
        9360.0,
        9365.0,
        9370.0,
        9375.0,
        9380.0,
        9385.0,
        9390.0,
        9395.0,
        9400.0,
        9405.0,
        9410.0,
        9415.0,
        9420.0,
        9425.0,
        9430.0,
        9435.0,
        9440.0,
        9445.0,
        9450.0,
        9455.0,
        9460.0,
        9465.0,
        9470.0,
        9475.0,
        9480.0,
        9485.0,
        9490.0,
        9495.0,
        9500.0,
        9505.0,
        9510.0,
        9515.0,
        9520.0,
        9525.0,
        9530.0,
        9535.0,
        9540.0,
        9545.0,
        9550.0,
        9555.0,
        9560.0,
        9565.0,
        9570.0,
        9575.0,
        9580.0,
        9585.0,
        9590.0,
        9595.0,
        9600.0,
        9605.0,
        9610.0,
        9615.0,
        9620.0,
        9625.0,
        9630.0,
        9635.0,
        9640.0,
        9645.0,
        9650.0,
        9655.0,
        9660.0,
        9665.0,
        9670.0,
        9675.0,
        9680.0,
        9685.0,
        9690.0,
        9695.0,
        9700.0,
        9705.0,
        9710.0,
        9715.0,
        9720.0,
        9725.0,
        9730.0,
        9735.0,
        9740.0,
        9745.0,
        9750.0,
        9755.0,
        9760.0,
        9765.0,
        9770.0,
        9775.0,
        9780.0,
        9785.0,
        9790.0,
        9795.0,
        9800.0,
        9805.0,
        9810.0,
        9815.0,
        9820.0,
        9825.0,
        9830.0,
        9835.0,
        9840.0,
        9845.0,
        9850.0,
        9855.0,
        9860.0,
        9865.0,
        9870.0,
        9875.0,
        9880.0,
        9885.0,
        9890.0,
        9895.0,
        9900.0,
        9905.0,
        9910.0,
        9915.0,
        9920.0,
        9925.0,
        9930.0,
        9935.0,
        9940.0,
        9945.0,
        9950.0,
        9955.0,
        9960.0,
        9965.0,
        9970.0,
        9975.0,
        9980.0,
        9985.0,
        9990.0,
        9995.0,
        10000.0,
        10005.0,
        10010.0,
        10015.0,
        10020.0,
        10025.0,
        10030.0,
        10035.0,
        10040.0,
        10045.0,
        10050.0,
        10055.0,
        10060.0,
        10065.0,
        10070.0,
        10075.0,
        10080.0,
        10085.0,
        10090.0,
        10095.0,
        10100.0,
        10105.0,
        10110.0,
        10115.0,
        10120.0,
        10125.0,
        10130.0,
        10135.0,
        10140.0,
        10145.0,
        10150.0,
        10155.0,
        10160.0,
        10165.0,
        10170.0,
        10175.0,
        10180.0,
        10185.0,
        10190.0,
        10195.0,
        10200.0,
        10205.0,
        10210.0,
        10215.0,
        10220.0,
        10225.0,
        10230.0,
        10235.0,
        10240.0,
        10245.0,
        10250.0,
        10255.0,
        10260.0,
        10265.0,
        10270.0,
        10275.0,
        10280.0,
        10285.0,
        10290.0,
        10295.0,
        10300.0,
        10305.0,
        10310.0,
        10315.0,
        10320.0,
        10325.0,
        10330.0,
        10335.0,
        10340.0,
        10345.0,
        10350.0,
        10355.0,
        10360.0,
        10365.0,
        10370.0,
        10375.0,
        10380.0,
        10385.0,
        10390.0,
        10395.0,
        10400.0,
        10405.0,
        10410.0,
        10415.0,
        10420.0,
        10425.0,
        10430.0,
        10435.0,
        10440.0,
        10445.0,
        10450.0,
        10455.0,
        10460.0,
        10465.0,
        10470.0,
        10475.0,
        10480.0,
        10485.0,
        10490.0,
        10495.0,
        10500.0
      ],
      "units":"angstrom"
    },
    "values":{
      "value":[
        41.840851,
        30.689465,
        24.090151,
        23.871496,
        20.864693,
        16.531,
        19.259575,
        21.813398,
        18.391584,
        15.336345,
        12.56127,
        6.887948,
        4.994263,
        4.559591,
        9.335598,
        14.718299,
        17.496855,
        20.286835,
        22.752468,
        21.869368,
        20.562391,
        21.085979,
        19.455708,
        19.652901,
        21.733366,
        21.235163,
        21.380228,
        20.728727,
        18.729637,
        15.561623,
        13.927346,
        15.380256,
        18.61981,
        20.865482,
        20.742617,
        18.918056,
        17.114006,
        15.666258,
        18.114281,
        18.985037,
        19.235771,
        19.114843,
        18.531347,
        17.436972,
        17.322607,
        16.651804,
        16.087574,
        15.676275,
        13.743819,
        12.744454,
        13.624058,
        14.666944,
        15.275439,
        14.847779,
        14.733349,
        15.205817,
        15.399096,
        15.442472,
        16.167984,
        16.277758,
        16.28562,
        16.037395,
        16.186289,
        15.538831,
        15.230975,
        15.251977,
        15.413118,
        15.282339,
        15.698807,
        14.711073,
        13.804553,
        13.613629,
        13.295915,
        12.796185,
        13.251414,
        12.806873,
        11.730997,
        11.371466,
        11.368567,
        10.041272,
        10.28693,
        12.005475,
        12.258532,
        12.186838,
        12.045185,
        12.289775,
        12.280875,
        12.616515,
        12.601618,
        11.991306,
        11.74659,
        11.588952,
        11.400382,
        11.937174,
        12.377307,
        12.382113,
        11.95301,
        11.853568,
        11.839644,
        11.950033,
        11.912451,
        11.326685,
        11.345251,
        11.678164,
        11.530293,
        11.428124,
        11.663,
        11.763447,
        11.551032,
        11.412723,
        11.246058,
        10.830338,
        10.490933,
        10.132352,
        9.614215,
        9.852149,
        10.549395,
        10.863365,
        10.59386,
        10.335449,
        10.369751,
        10.783031,
        10.703043,
        10.633457,
        10.332238,
        9.959282,
        10.365556,
        10.238552,
        9.345263,
        10.152493,
        10.984908,
        10.732045,
        10.318864,
        10.035318,
        10.00216,
        10.15692,
        10.12956,
        9.854777,
        9.264677,
        8.611675,
        8.301704,
        8.358732,
        8.540063,
        8.703991,
        9.118657,
        9.262348,
        8.711812,
        7.865895,
        7.405287,
        7.494446,
        7.950949,
        7.987834,
        7.779191,
        7.462731,
        7.301484,
        6.976667,
        7.21607,
        7.718379,
        7.852427,
        7.835706,
        7.426609,
        7.285757,
        6.982098,
        6.851182,
        7.242912,
        8.040431,
        8.116179,
        7.951756,
        7.509889,
        7.066195,
        6.845473,
        7.154503,
        7.285114,
        7.669665,
        7.928763,
        8.141651,
        8.00918,
        7.760941,
        7.491302,
        7.16258,
        7.688098,
        7.765459,
        7.381057,
        7.008885,
        7.34038,
        7.41513,
        7.545906,
        7.617029,
        7.522392,
        7.32968,
        6.997594,
        6.774957,
        6.875367,
        7.416681,
        7.36483,
        7.28471,
        7.719303,
        7.673121,
        7.224916,
        6.920174,
        6.68012,
        6.955977,
        7.34197,
        7.147964,
        6.90046,
        6.767896,
        6.741836,
        6.709911,
        6.715438,
        6.887768,
        6.983832,
        6.892181,
        6.592607,
        6.49275,
        6.490471,
        6.242634,
        6.043723,
        6.01335,
        6.18314,
        6.187934,
        6.210834,
        6.199705,
        6.004788,
        5.910126,
        6.197706,
        6.32644,
        6.402836,
        6.336821,
        6.444247,
        6.15527,
        5.834966,
        5.841418,
        6.181917,
        6.358899,
        6.08781,
        5.916316,
        5.798517,
        5.902799,
        5.755342,
        5.56038,
        5.604122,
        5.772737,
        5.942628,
        5.9803,
        5.844886,
        5.713054,
        5.589355,
        5.639158,
        5.439287,
        5.340204,
        5.418575,
        5.599714,
        5.500259,
        5.508901,
        5.52575,
        5.517076,
        5.746656,
        5.655138,
        5.495908,
        5.503943,
        5.536307,
        5.690223,
        5.772109,
        5.759869,
        5.512853,
        5.313511,
        5.390017,
        5.473989,
        5.46805,
        5.33483,
        5.406973,
        5.413285,
        5.394854,
        5.323816,
        5.346264,
        5.337454,
        5.394674,
        5.395238,
        5.19397,
        5.050864,
        5.092351,
        5.118517,
        5.254869,
        5.198751,
        5.151981,
        5.27566,
        4.609396,
        4.436519,
        5.000047,
        5.134057,
        5.186597,
        5.059168,
        5.090822,
        5.19361,
        5.188883,
        5.225585,
        5.040378,
        5.128421,
        5.275167,
        5.256166,
        5.212819,
        5.299,
        5.251774,
        5.102521,
        5.015196,
        4.989673,
        5.053693,
        5.131038,
        5.11358,
        4.844469,
        4.687869,
        4.860626,
        4.858716,
        4.723477,
        4.742724,
        4.704451,
        4.721249,
        4.858325,
        4.747584,
        4.582126,
        4.609346,
        4.564458,
        4.621657,
        4.934391,
        4.785839,
        4.579762,
        4.619887,
        4.570086,
        4.432395,
        4.501031,
        4.30681,
        4.233335,
        4.405518,
        4.570413,
        4.602504,
        4.474468,
        4.337596,
        4.233897,
        4.200503,
        4.238629,
        4.289678,
        4.21557,
        4.244826,
        4.277167,
        4.307568,
        4.335718,
        4.291011,
        4.24227,
        4.245763,
        4.365929,
        4.410199,
        4.281754,
        4.229131,
        4.255305,
        4.187747,
        4.156812,
        4.230038,
        4.266141,
        4.195659,
        4.191389,
        4.068748,
        4.046884,
        4.059013,
        4.035268,
        4.126647,
        4.19161,
        4.176297,
        4.060822,
        3.929216,
        3.881281,
        3.883242,
        3.848028,
        3.883861,
        3.841807,
        3.884883,
        3.863974,
        3.778191,
        3.810368,
        3.825976,
        3.757446,
        3.672014,
        3.798032,
        3.757275,
        3.662907,
        3.691962,
        3.723125,
        3.74586,
        3.792079,
        3.783755,
        3.734993,
        3.689901,
        3.657701,
        3.691402,
        3.705824,
        3.63776,
        3.686941,
        3.683288,
        3.641975,
        3.742207,
        3.753168,
        3.757764,
        3.844793,
        3.558997,
        3.559133,
        3.557188,
        3.605976,
        3.558493,
        3.547159,
        3.624567,
        3.595218,
        3.523189,
        3.555586,
        3.601595,
        3.551647,
        3.459619,
        3.405691,
        3.411808,
        3.470579,
        3.515513,
        3.487851,
        3.418879,
        3.357102,
        3.329848,
        3.342209,
        3.331487,
        3.248718,
        3.167649,
        3.166752,
        3.220675,
        3.280611,
        3.307737,
        3.2806,
        3.237228,
        3.217396,
        3.208396,
        3.192417,
        3.183697,
        3.197549,
        3.221526,
        3.237863,
        3.235273,
        3.20594,
        3.149437,
        3.074926,
        3.022542,
        3.023015,
        3.038485,
        3.026634,
        2.995898,
        2.967511,
        2.963148,
        2.991642,
        3.010023,
        2.980762,
        2.939889,
        2.926061,
        2.914865,
        2.881261,
        2.860756,
        2.88651,
        2.921715,
        2.926562,
        2.919195,
        2.921661,
        2.913663,
        2.874061,
        2.820668,
        2.781139,
        2.783515,
        2.837998,
        2.883047,
        2.863516,
        2.757059,
        2.748742,
        2.779916,
        2.784152,
        2.739195,
        2.730482,
        2.724216,
        2.703648,
        2.695329,
        2.683712,
        2.664487,
        2.652861,
        2.687845,
        2.639409,
        2.587491,
        2.583165,
        2.602455,
        2.590554,
        2.592574,
        2.595267,
        2.571366,
        2.548405,
        2.564738,
        2.526481,
        2.528747,
        2.529989,
        2.560751,
        2.541178,
        2.53893,
        2.566134,
        2.546025,
        2.502843,
        2.515307,
        2.538917,
        2.467147,
        2.430134,
        2.456603,
        2.456588,
        2.377358,
        2.393397,
        2.455635,
        2.495369,
        2.45872,
        2.548656,
        2.554402,
        2.423799,
        2.72037,
        2.687534,
        2.401453,
        2.652512,
        2.858646,
        2.658339,
        2.334059,
        2.651189,
        2.988145,
        2.95986,
        2.827204,
        2.444964,
        2.450362,
        2.825847,
        3.066952,
        2.954015,
        2.830239,
        2.911325,
        2.656319,
        2.318177,
        2.65998,
        2.995733,
        3.096476,
        3.083369,
        3.082289,
        3.005562,
        2.935829,
        2.918098,
        2.808776,
        2.442151,
        2.306707,
        2.752705,
        3.011585,
        3.055196,
        3.058499,
        3.037191,
        2.908789,
        2.871533,
        2.822129,
        2.886467,
        3.040572,
        3.023123,
        2.980866,
        2.948567,
        2.740984,
        2.296398,
        2.11471,
        2.53795,
        2.806859,
        2.92732,
        2.947963,
        2.891155,
        2.853216,
        2.769987,
        2.726719,
        2.820708,
        2.735549,
        2.582159,
        2.689947,
        2.780781,
        2.766972,
        2.776786,
        2.785887,
        2.780759,
        2.751585,
        2.717621,
        2.647274,
        2.627695,
        2.68044,
        2.649041,
        2.563541,
        2.345188,
        2.00112,
        2.167266,
        2.474746,
        2.54249,
        2.541908,
        2.57928,
        2.576864,
        2.593753,
        2.505604,
        2.486892,
        2.605654,
        2.629525,
        2.57576,
        2.569258,
        2.5685,
        2.585694,
        2.583915,
        2.55415,
        2.579059,
        2.604244,
        2.574741,
        2.560311,
        2.570081,
        2.559505,
        2.547577,
        2.557454,
        2.505427,
        2.491708,
        2.497187,
        2.490627,
        2.467491,
        2.449945,
        2.429024,
        2.37774,
        2.366338,
        2.386267,
        2.407043,
        2.405859,
        2.404894,
        2.385698,
        2.391264,
        2.384015,
        2.371129,
        2.344451,
        2.317547,
        2.326941,
        2.248941,
        2.013153,
        1.732199,
        1.889142,
        2.121726,
        2.251484,
        2.278582,
        2.286898,
        2.278068,
        2.258781,
        2.240132,
        2.147502,
        2.139359,
        2.237598,
        2.241699,
        2.215109,
        2.193819,
        2.123239,
        2.09406,
        2.086516,
        2.043902,
        2.035744,
        2.107442,
        2.153115,
        2.142779,
        2.125452,
        2.120118,
        2.059422,
        1.904662,
        1.978272,
        2.030097,
        2.066006,
        2.082504,
        2.065506,
        2.058454,
        2.07741,
        2.069787,
        2.060943,
        2.053581,
        2.044743,
        2.018636,
        2.037304,
        2.021484,
        1.987065,
        1.961368,
        1.974211,
        1.989808,
        1.943666,
        1.925263,
        1.933788,
        1.952712,
        1.930918,
        1.914669,
        1.911073,
        1.930908,
        1.915904,
        1.895261,
        1.895841,
        1.90853,
        1.910056,
        1.884979,
        1.86741,
        1.844544,
        1.851801,
        1.842239,
        1.865952,
        1.853506,
        1.851107,
        1.860547,
        1.828813,
        1.845825,
        1.864404,
        1.839742,
        1.815425,
        1.801838,
        1.796528,
        1.746102,
        1.711246,
        1.732943,
        1.741886,
        1.767701,
        1.756442,
        1.756218,
        1.742233,
        1.72336,
        1.696301,
        1.679141,
        1.688828,
        1.68971,
        1.669785,
        1.684379,
        1.686538,
        1.683068,
        1.685846,
        1.660223,
        1.652179,
        1.646644,
        1.61787,
        1.615679,
        1.630429,
        1.622415,
        1.625453,
        1.611852,
        1.594424,
        1.548086,
        1.395086,
        1.23758,
        1.345055,
        1.476586,
        1.492647,
        1.494792,
        1.49984,
        1.526695,
        1.540986,
        1.542873,
        1.53332,
        1.525906,
        1.490835,
        1.419784,
        1.44684,
        1.528712,
        1.541605,
        1.533008,
        1.523476,
        1.5248,
        1.527837,
        1.51871,
        1.497885,
        1.470916,
        1.474206,
        1.480187,
        1.482756,
        1.472673,
        1.466383,
        1.443512,
        1.422371,
        1.391642,
        1.340608,
        1.410064,
        1.411122,
        1.398496,
        1.393915,
        1.401318,
        1.393166,
        1.391146,
        1.39974,
        1.38743,
        1.385469,
        1.386953,
        1.392967,
        1.381877,
        1.369588,
        1.369346,
        1.358858,
        1.336883,
        1.33691,
        1.345506,
        1.345612,
        1.328735,
        1.327237,
        1.319929,
        1.322251,
        1.326109,
        1.317203,
        1.304608,
        1.283771,
        1.299122,
        1.304848,
        1.300548,
        1.307753,
        1.299791,
        1.286827,
        1.278971,
        1.27633,
        1.261542,
        1.247798,
        1.255926,
        1.262811,
        1.266595,
        1.252707,
        1.232986,
        1.240237,
        1.233881,
        1.22802,
        1.226026,
        1.225579,
        1.222437,
        1.203035,
        1.197519,
        1.195583,
        1.197974,
        1.195728,
        1.18739,
        1.193822,
        1.195427,
        1.187371,
        1.169311,
        1.166483,
        1.167912,
        1.168251,
        1.154216,
        1.150269,
        1.147517,
        1.150632,
        1.151405,
        1.15567,
        1.145287,
        1.13188,
        1.139737,
        1.137165,
        1.123998,
        1.120494,
        1.13033,
        1.118914,
        1.108796,
        1.104542,
        1.102556,
        1.102675,
        1.097297,
        1.094826,
        1.088889,
        1.079694,
        1.077022,
        1.053701,
        1.043085,
        1.040258,
        1.049392,
        1.058663,
        1.055583,
        1.057418,
        1.043867,
        1.030459,
        1.021114,
        1.024654,
        1.044372,
        1.034284,
        1.020129,
        1.02867,
        1.023403,
        1.008438,
        1.001046,
        0.997294,
        0.995139,
        1.001954,
        1.01091,
        1.005413,
        0.997148,
        0.992899,
        0.991275,
        0.989399,
        0.989729,
        0.990091,
        0.994357,
        0.987106,
        0.975871,
        0.959455,
        0.956602,
        0.961068,
        0.959846,
        0.958587,
        0.959765,
        0.948699,
        0.939981,
        0.936343,
        0.931991,
        0.932742,
        0.920905,
        0.9112,
        0.917888,
        0.91356,
        0.909466,
        0.914242,
        0.907892,
        0.891278,
        0.886662,
        0.889839,
        0.892414,
        0.897359,
        0.883626,
        0.875282,
        0.875272,
        0.869077,
        0.857463,
        0.861907,
        0.875405,
        0.871101,
        0.865645,
        0.862557,
        0.848694,
        0.834991,
        0.809076,
        0.826903,
        0.831347,
        0.825372,
        0.826806,
        0.822289,
        0.819945,
        0.826437,
        0.830285,
        0.823116,
        0.812867,
        0.816647,
        0.817699,
        0.805483,
        0.799843,
        0.805633,
        0.814815,
        0.805552,
        0.777411,
        0.736269,
        0.76961,
        0.739536,
        0.668689,
        0.697026,
        0.7527,
        0.785801,
        0.784337,
        0.776986,
        0.760639,
        0.764572,
        0.763127,
        0.760925,
        0.745013,
        0.740673,
        0.737903,
        0.749618,
        0.762001,
        0.745294,
        0.73241,
        0.738141,
        0.7393,
        0.736535,
        0.730827,
        0.727829,
        0.728094,
        0.730448,
        0.722791,
        0.718014,
        0.712456,
        0.711214,
        0.701655,
        0.698483,
        0.703838,
        0.710551,
        0.717957,
        0.719801,
        0.716487,
        0.7192,
        0.721757,
        0.716575,
        0.708521,
        0.70684,
        0.704399,
        0.695138,
        0.695008,
        0.704598,
        0.702009,
        0.704587,
        0.703687,
        0.699293,
        0.688614,
        0.681356,
        0.677964,
        0.674458,
        0.677824,
        0.679727,
        0.678601,
        0.667614,
        0.655712,
        0.650021,
        0.653342,
        0.659679,
        0.662135,
        0.663733,
        0.660389,
        0.658609,
        0.663156,
        0.659905,
        0.654024,
        0.654463,
        0.65323,
        0.646905,
        0.647511,
        0.651434,
        0.648458,
        0.648273,
        0.639072,
        0.625189,
        0.614356,
        0.600915,
        0.568997,
        0.573309,
        0.608163,
        0.615448,
        0.613107,
        0.612258,
        0.612961,
        0.61472,
        0.608209,
        0.608435,
        0.614436,
        0.609356,
        0.606806,
        0.597042,
        0.59919,
        0.60361,
        0.605264,
        0.60481,
        0.600537,
        0.59767,
        0.594617,
        0.598538,
        0.597545,
        0.594816,
        0.592132,
        0.589248,
        0.589036,
        0.58343,
        0.582139,
        0.578249,
        0.579002,
        0.58161,
        0.58231,
        0.579241,
        0.572574,
        0.569069,
        0.571172,
        0.570225,
        0.568709,
        0.568722,
        0.567293,
        0.562594,
        0.562411,
        0.563567,
        0.568553,
        0.560698,
        0.563335,
        0.566112,
        0.563216,
        0.563245,
        0.554628,
        0.553259,
        0.558569,
        0.557844,
        0.551578,
        0.529596,
        0.482219,
        0.491131,
        0.523843,
        0.520724,
        0.510552,
        0.530625,
        0.542609,
        0.539749,
        0.542461,
        0.540028,
        0.529851,
        0.530767,
        0.53552,
        0.534741,
        0.533846,
        0.531436,
        0.528727,
        0.524537,
        0.528255,
        0.530185,
        0.531228,
        0.530535,
        0.522971,
        0.495247,
        0.493421,
        0.519065,
        0.518192,
        0.51707,
        0.514325,
        0.517491,
        0.517771,
        0.513449,
        0.50974,
        0.508317,
        0.507289,
        0.50801,
        0.504963,
        0.506459,
        0.506723,
        0.504102,
        0.503631,
        0.502912,
        0.501676,
        0.499015,
        0.494715,
        0.49326,
        0.496149,
        0.496977,
        0.497255,
        0.496993,
        0.492928,
        0.491178,
        0.490086,
        0.489204,
        0.490798,
        0.488143,
        0.486626,
        0.485521,
        0.484377,
        0.48333,
        0.482358,
        0.481457,
        0.480498,
        0.479465,
        0.478504,
        0.477494,
        0.476474,
        0.475416,
        0.474283,
        0.473147,
        0.472008,
        0.47084,
        0.46971,
        0.468714,
        0.467847,
        0.466831,
        0.465779,
        0.464815,
        0.463735,
        0.462694,
        0.461663,
        0.460685,
        0.459561,
        0.462884,
        0.459585,
        0.455105,
        0.452199,
        0.453519,
        0.451738,
        0.449729,
        0.448984,
        0.448077,
        0.447831,
        0.446174,
        0.446187,
        0.446384,
        0.444249,
        0.44595,
        0.443629,
        0.441217,
        0.434639,
        0.41887,
        0.432992,
        0.438409,
        0.438425,
        0.439032,
        0.440429,
        0.437387,
        0.435388,
        0.436267,
        0.436584,
        0.433512,
        0.434412,
        0.435994,
        0.436619,
        0.434607,
        0.430645,
        0.42998,
        0.429263,
        0.432466,
        0.428524,
        0.417271,
        0.407346,
        0.400664,
        0.397129,
        0.387856,
        0.393272,
        0.395144,
        0.392338,
        0.397196,
        0.41224,
        0.41869,
        0.420736,
        0.415553,
        0.402762,
        0.394722,
        0.394625,
        0.399609,
        0.400811,
        0.397439,
        0.398457,
        0.392675,
        0.390311,
        0.379342,
        0.379938,
        0.391205,
        0.38423,
        0.385174,
        0.382257,
        0.382915,
        0.386601,
        0.386412,
        0.388764,
        0.390027,
        0.386272,
        0.384032,
        0.388117,
        0.387617,
        0.380669,
        0.379571,
        0.380102,
        0.37723,
        0.376005,
        0.374369,
        0.371049,
        0.36909,
        0.371778,
        0.369394,
        0.36772,
        0.372639,
        0.367502,
        0.363631,
        0.363651,
        0.371921,
        0.371423,
        0.3709,
        0.371865,
        0.368806,
        0.368401,
        0.36832,
        0.370978,
        0.367451,
        0.363728,
        0.365436,
        0.363877,
        0.362854,
        0.362056,
        0.361564,
        0.361323,
        0.359202,
        0.360879,
        0.359358,
        0.359995,
        0.359333,
        0.357549,
        0.356108,
        0.354007,
        0.354614,
        0.353856,
        0.353146,
        0.352406,
        0.35167,
        0.350896,
        0.350195,
        0.349463,
        0.348779,
        0.348085,
        0.347347,
        0.346584,
        0.34578,
        0.345027,
        0.344279,
        0.343535,
        0.342797,
        0.342063,
        0.341333,
        0.340606,
        0.339882,
        0.33916,
        0.338439,
        0.337721,
        0.337008,
        0.336264,
        0.335501,
        0.334736,
        0.333992,
        0.333221,
        0.332486,
        0.331741,
        0.33094,
        0.330095,
        0.329394,
        0.328592,
        0.327662,
        0.328054,
        0.327374,
        0.327138,
        0.325655,
        0.325761,
        0.323898,
        0.323816,
        0.324603,
        0.323847,
        0.320556,
        0.321744,
        0.321009,
        0.318568,
        0.317033,
        0.316723,
        0.31921,
        0.316614,
        0.313712,
        0.314696,
        0.314213,
        0.314306,
        0.313672,
        0.312408,
        0.310064,
        0.311411,
        0.31219,
        0.308957,
        0.308687,
        0.309897,
        0.310267,
        0.307745,
        0.304719,
        0.306621,
        0.305031,
        0.305255,
        0.304139,
        0.299807,
        0.300848,
        0.30271,
        0.302452,
        0.298713,
        0.300107,
        0.299569,
        0.29742,
        0.296293,
        0.295656,
        0.296061,
        0.294966,
        0.294237,
        0.294856,
        0.292683,
        0.292816,
        0.294977,
        0.29232,
        0.290747,
        0.289983,
        0.291285,
        0.288477,
        0.288307,
        0.287524,
        0.287874,
        0.287654,
        0.283317,
        0.287247,
        0.286198,
        0.287481,
        0.286922,
        0.284768,
        0.282808,
        0.283589,
        0.28462,
        0.282059,
        0.281411,
        0.283516,
        0.282637,
        0.283121,
        0.281714,
        0.281409,
        0.281921,
        0.279868,
        0.276525,
        0.271244,
        0.272647,
        0.271446,
        0.266231,
        0.264277,
        0.259012,
        0.25769,
        0.265212,
        0.265173,
        0.262184,
        0.269853,
        0.266657,
        0.26618,
        0.268689,
        0.275423,
        0.27646,
        0.273506,
        0.265034,
        0.250852,
        0.240818,
        0.259646,
        0.266005,
        0.266353,
        0.268434,
        0.262802,
        0.260138,
        0.261669,
        0.26119,
        0.25521,
        0.254643,
        0.256991,
        0.255453,
        0.256029,
        0.257494,
        0.252851,
        0.250463,
        0.252272,
        0.253337,
        0.25094,
        0.252777,
        0.251144,
        0.255035,
        0.252589,
        0.251211,
        0.250205,
        0.249462,
        0.249381,
        0.249847,
        0.247174,
        0.245925,
        0.250405,
        0.251283,
        0.245247,
        0.24428,
        0.244627,
        0.243914,
        0.243865,
        0.242449,
        0.242109,
        0.242749,
        0.242246,
        0.242456,
        0.24345,
        0.241148,
        0.241301,
        0.240656,
        0.235772,
        0.235866,
        0.235878,
        0.235557,
        0.234587,
        0.234021,
        0.233336,
        0.231762,
        0.232473,
        0.233285,
        0.232296,
        0.233323,
        0.233843,
        0.229509,
        0.229345,
        0.230708,
        0.226813,
        0.229173,
        0.230955,
        0.230625,
        0.232045,
        0.231072,
        0.230163,
        0.2276,
        0.224457,
        0.224062,
        0.220753,
        0.220055,
        0.22569,
        0.227396,
        0.229379,
        0.231142,
        0.232241,
        0.234465,
        0.232067,
        0.23057,
        0.227491,
        0.224058,
        0.222385,
        0.216145,
        0.212194,
        0.217633,
        0.221019,
        0.224005,
        0.226011,
        0.229321,
        0.228696,
        0.230789,
        0.230037,
        0.226868,
        0.229638,
        0.228682,
        0.226202,
        0.22076,
        0.218472,
        0.216982,
        0.211846,
        0.206931,
        0.21017,
        0.214674,
        0.21673,
        0.216823,
        0.215382,
        0.215406,
        0.22192,
        0.220878,
        0.220926,
        0.220621,
        0.223046,
        0.221504,
        0.214595,
        0.212714,
        0.215348,
        0.214442,
        0.212636,
        0.208454,
        0.204258,
        0.202361,
        0.201221,
        0.195553,
        0.191995,
        0.202423,
        0.204293,
        0.207223,
        0.207554,
        0.212943,
        0.214512,
        0.214878,
        0.215394,
        0.215185,
        0.215366,
        0.217193,
        0.215393,
        0.210449,
        0.209629,
        0.211989,
        0.212695,
        0.211068,
        0.209651,
        0.209008,
        0.205858,
        0.205557,
        0.204905,
        0.201087,
        0.195704,
        0.185281,
        0.186426,
        0.183302,
        0.183604,
        0.187451,
        0.179647,
        0.187344,
        0.190132,
        0.198674,
        0.208119,
        0.209814,
        0.21007,
        0.210123,
        0.206936,
        0.200137,
        0.193818,
        0.190072,
        0.199779,
        0.193759,
        0.196155,
        0.196159,
        0.192542,
        0.194469,
        0.195848,
        0.200877,
        0.199875,
        0.197763,
        0.199884,
        0.190524,
        0.186942,
        0.194114,
        0.198921,
        0.190103,
        0.180032,
        0.191072,
        0.193294,
        0.188811,
        0.184683,
        0.189016,
        0.189335,
        0.191259,
        0.187956,
        0.190018,
        0.189379,
        0.183574,
        0.181261,
        0.181887,
        0.179625,
        0.172895,
        0.178949,
        0.182169,
        0.185671,
        0.192753,
        0.192886,
        0.187387,
        0.193257,
        0.197023,
        0.194322,
        0.19008,
        0.185088,
        0.194687,
        0.189009,
        0.183955,
        0.172659,
        0.174728,
        0.172441,
        0.175448,
        0.171787,
        0.17084,
        0.166265,
        0.160507,
        0.157432,
        0.164915,
        0.155762,
        0.163134,
        0.167341,
        0.162409,
        0.169707,
        0.170452,
        0.183207,
        0.195793,
        0.197021,
        0.186933,
        0.190242,
        0.181186,
        0.174546,
        0.170792,
        0.162715,
        0.163223,
        0.168577,
        0.159174,
        0.163313,
        0.171089,
        0.160501,
        0.155614,
        0.158114,
        0.156897,
        0.165364,
        0.158326,
        0.161103,
        0.167181,
        0.158603,
        0.156164,
        0.166625,
        0.165253,
        0.153627,
        0.144735,
        0.142861,
        0.142755,
        0.150314,
        0.150643,
        0.14918,
        0.147365,
        0.141695,
        0.146668,
        0.147059,
        0.156434,
        0.16378,
        0.161686,
        0.159899,
        0.155641,
        0.156242,
        0.156693,
        0.155782,
        0.158129,
        0.15817,
        0.154677,
        0.153158,
        0.162492,
        0.164416,
        0.162627,
        0.160512,
        0.159459,
        0.158072,
        0.152857,
        0.15341,
        0.157827,
        0.159876,
        0.160745,
        0.158786,
        0.156727,
        0.15843,
        0.157358,
        0.156975,
        0.157064,
        0.157082,
        0.154132,
        0.151024,
        0.150192,
        0.148333,
        0.148738,
        0.146214,
        0.148276,
        0.15407,
        0.156038,
        0.157431,
        0.159362,
        0.154768,
        0.151963,
        0.149103,
        0.149783,
        0.141829,
        0.147993,
        0.144492,
        0.146424,
        0.14152,
        0.142789,
        0.145583,
        0.148821,
        0.149169,
        0.150051,
        0.149984,
        0.149498,
        0.14967,
        0.146697,
        0.141086,
        0.140152,
        0.140798,
        0.142765,
        0.139868,
        0.143901,
        0.150561,
        0.147364,
        0.145367,
        0.145342,
        0.142275,
        0.140423,
        0.140171,
        0.1362,
        0.136122,
        0.14597,
        0.145625,
        0.14204,
        0.139781,
        0.140525,
        0.142521,
        0.139709,
        0.13214,
        0.1413,
        0.136801,
        0.137812,
        0.137279,
        0.136269,
        0.135817,
        0.134731,
        0.132989,
        0.130565,
        0.127575,
        0.124677,
        0.122666,
        0.122337,
        0.124124,
        0.127009,
        0.129614,
        0.130559,
        0.12896,
        0.125903,
        0.12297,
        0.121741,
        0.123283,
        0.126602,
        0.130187,
        0.132531,
        0.132545,
        0.130829,
        0.128408,
        0.126301,
        0.125283,
        0.125124,
        0.125345,
        0.125466,
        0.125126,
        0.124433,
        0.123613,
        0.122892,
        0.122471,
        0.122465,
        0.122963,
        0.124055,
        0.125718,
        0.127474,
        0.128736,
        0.128913,
        0.12761,
        0.125213,
        0.122302,
        0.119457,
        0.117145,
        0.115383,
        0.114072,
        0.113116,
        0.112462,
        0.112233,
        0.112599,
        0.113726,
        0.11562,
        0.117628,
        0.118935,
        0.118724,
        0.116541,
        0.113379,
        0.110594,
        0.10954,
        0.115851,
        0.117448,
        0.11931,
        0.120794,
        0.121411,
        0.121257,
        0.120579,
        0.119621,
        0.11859,
        0.117539,
        0.116478,
        0.115423,
        0.114429,
        0.113732,
        0.113612,
        0.114348,
        0.116045,
        0.118095,
        0.119718,
        0.120129,
        0.118867,
        0.116744,
        0.114897,
        0.114459,
        0.116138,
        0.118942,
        0.121451,
        0.122249,
        0.120409,
        0.116979,
        0.113501,
        0.111514,
        0.112065,
        0.114217,
        0.116539,
        0.117598,
        0.116407,
        0.11374,
        0.110815,
        0.108851
      ],
      "range":1
    }
  }
]
