[
  {
    "model":"Star, type K2(i)",
    "name":"Star, type K2(i)",
    "type":"WB_REF",
    "dataQualityMarker":3,
    "dataSource":"https://www.eso.org/sci/facilities/paranal/decommissioned/isaac/tools/lib.html",
    "manufacturer":"A. Pickles (A.J. Pickles, PASP 110,863, 1998)",
    "version":1,
    "wavelength":{
      "value":[
        1150.0,
        1155.0,
        1160.0,
        1165.0,
        1170.0,
        1175.0,
        1180.0,
        1185.0,
        1190.0,
        1195.0,
        1200.0,
        1205.0,
        1210.0,
        1215.0,
        1220.0,
        1225.0,
        1230.0,
        1235.0,
        1240.0,
        1245.0,
        1250.0,
        1255.0,
        1260.0,
        1265.0,
        1270.0,
        1275.0,
        1280.0,
        1285.0,
        1290.0,
        1295.0,
        1300.0,
        1305.0,
        1310.0,
        1315.0,
        1320.0,
        1325.0,
        1330.0,
        1335.0,
        1340.0,
        1345.0,
        1350.0,
        1355.0,
        1360.0,
        1365.0,
        1370.0,
        1375.0,
        1380.0,
        1385.0,
        1390.0,
        1395.0,
        1400.0,
        1405.0,
        1410.0,
        1415.0,
        1420.0,
        1425.0,
        1430.0,
        1435.0,
        1440.0,
        1445.0,
        1450.0,
        1455.0,
        1460.0,
        1465.0,
        1470.0,
        1475.0,
        1480.0,
        1485.0,
        1490.0,
        1495.0,
        1500.0,
        1505.0,
        1510.0,
        1515.0,
        1520.0,
        1525.0,
        1530.0,
        1535.0,
        1540.0,
        1545.0,
        1550.0,
        1555.0,
        1560.0,
        1565.0,
        1570.0,
        1575.0,
        1580.0,
        1585.0,
        1590.0,
        1595.0,
        1600.0,
        1605.0,
        1610.0,
        1615.0,
        1620.0,
        1625.0,
        1630.0,
        1635.0,
        1640.0,
        1645.0,
        1650.0,
        1655.0,
        1660.0,
        1665.0,
        1670.0,
        1675.0,
        1680.0,
        1685.0,
        1690.0,
        1695.0,
        1700.0,
        1705.0,
        1710.0,
        1715.0,
        1720.0,
        1725.0,
        1730.0,
        1735.0,
        1740.0,
        1745.0,
        1750.0,
        1755.0,
        1760.0,
        1765.0,
        1770.0,
        1775.0,
        1780.0,
        1785.0,
        1790.0,
        1795.0,
        1800.0,
        1805.0,
        1810.0,
        1815.0,
        1820.0,
        1825.0,
        1830.0,
        1835.0,
        1840.0,
        1845.0,
        1850.0,
        1855.0,
        1860.0,
        1865.0,
        1870.0,
        1875.0,
        1880.0,
        1885.0,
        1890.0,
        1895.0,
        1900.0,
        1905.0,
        1910.0,
        1915.0,
        1920.0,
        1925.0,
        1930.0,
        1935.0,
        1940.0,
        1945.0,
        1950.0,
        1955.0,
        1960.0,
        1965.0,
        1970.0,
        1975.0,
        1980.0,
        1985.0,
        1990.0,
        1995.0,
        2000.0,
        2005.0,
        2010.0,
        2015.0,
        2020.0,
        2025.0,
        2030.0,
        2035.0,
        2040.0,
        2045.0,
        2050.0,
        2055.0,
        2060.0,
        2065.0,
        2070.0,
        2075.0,
        2080.0,
        2085.0,
        2090.0,
        2095.0,
        2100.0,
        2105.0,
        2110.0,
        2115.0,
        2120.0,
        2125.0,
        2130.0,
        2135.0,
        2140.0,
        2145.0,
        2150.0,
        2155.0,
        2160.0,
        2165.0,
        2170.0,
        2175.0,
        2180.0,
        2185.0,
        2190.0,
        2195.0,
        2200.0,
        2205.0,
        2210.0,
        2215.0,
        2220.0,
        2225.0,
        2230.0,
        2235.0,
        2240.0,
        2245.0,
        2250.0,
        2255.0,
        2260.0,
        2265.0,
        2270.0,
        2275.0,
        2280.0,
        2285.0,
        2290.0,
        2295.0,
        2300.0,
        2305.0,
        2310.0,
        2315.0,
        2320.0,
        2325.0,
        2330.0,
        2335.0,
        2340.0,
        2345.0,
        2350.0,
        2355.0,
        2360.0,
        2365.0,
        2370.0,
        2375.0,
        2380.0,
        2385.0,
        2390.0,
        2395.0,
        2400.0,
        2405.0,
        2410.0,
        2415.0,
        2420.0,
        2425.0,
        2430.0,
        2435.0,
        2440.0,
        2445.0,
        2450.0,
        2455.0,
        2460.0,
        2465.0,
        2470.0,
        2475.0,
        2480.0,
        2485.0,
        2490.0,
        2495.0,
        2500.0,
        2505.0,
        2510.0,
        2515.0,
        2520.0,
        2525.0,
        2530.0,
        2535.0,
        2540.0,
        2545.0,
        2550.0,
        2555.0,
        2560.0,
        2565.0,
        2570.0,
        2575.0,
        2580.0,
        2585.0,
        2590.0,
        2595.0,
        2600.0,
        2605.0,
        2610.0,
        2615.0,
        2620.0,
        2625.0,
        2630.0,
        2635.0,
        2640.0,
        2645.0,
        2650.0,
        2655.0,
        2660.0,
        2665.0,
        2670.0,
        2675.0,
        2680.0,
        2685.0,
        2690.0,
        2695.0,
        2700.0,
        2705.0,
        2710.0,
        2715.0,
        2720.0,
        2725.0,
        2730.0,
        2735.0,
        2740.0,
        2745.0,
        2750.0,
        2755.0,
        2760.0,
        2765.0,
        2770.0,
        2775.0,
        2780.0,
        2785.0,
        2790.0,
        2795.0,
        2800.0,
        2805.0,
        2810.0,
        2815.0,
        2820.0,
        2825.0,
        2830.0,
        2835.0,
        2840.0,
        2845.0,
        2850.0,
        2855.0,
        2860.0,
        2865.0,
        2870.0,
        2875.0,
        2880.0,
        2885.0,
        2890.0,
        2895.0,
        2900.0,
        2905.0,
        2910.0,
        2915.0,
        2920.0,
        2925.0,
        2930.0,
        2935.0,
        2940.0,
        2945.0,
        2950.0,
        2955.0,
        2960.0,
        2965.0,
        2970.0,
        2975.0,
        2980.0,
        2985.0,
        2990.0,
        2995.0,
        3000.0,
        3005.0,
        3010.0,
        3015.0,
        3020.0,
        3025.0,
        3030.0,
        3035.0,
        3040.0,
        3045.0,
        3050.0,
        3055.0,
        3060.0,
        3065.0,
        3070.0,
        3075.0,
        3080.0,
        3085.0,
        3090.0,
        3095.0,
        3100.0,
        3105.0,
        3110.0,
        3115.0,
        3120.0,
        3125.0,
        3130.0,
        3135.0,
        3140.0,
        3145.0,
        3150.0,
        3155.0,
        3160.0,
        3165.0,
        3170.0,
        3175.0,
        3180.0,
        3185.0,
        3190.0,
        3195.0,
        3200.0,
        3205.0,
        3210.0,
        3215.0,
        3220.0,
        3225.0,
        3230.0,
        3235.0,
        3240.0,
        3245.0,
        3250.0,
        3255.0,
        3260.0,
        3265.0,
        3270.0,
        3275.0,
        3280.0,
        3285.0,
        3290.0,
        3295.0,
        3300.0,
        3305.0,
        3310.0,
        3315.0,
        3320.0,
        3325.0,
        3330.0,
        3335.0,
        3340.0,
        3345.0,
        3350.0,
        3355.0,
        3360.0,
        3365.0,
        3370.0,
        3375.0,
        3380.0,
        3385.0,
        3390.0,
        3395.0,
        3400.0,
        3405.0,
        3410.0,
        3415.0,
        3420.0,
        3425.0,
        3430.0,
        3435.0,
        3440.0,
        3445.0,
        3450.0,
        3455.0,
        3460.0,
        3465.0,
        3470.0,
        3475.0,
        3480.0,
        3485.0,
        3490.0,
        3495.0,
        3500.0,
        3505.0,
        3510.0,
        3515.0,
        3520.0,
        3525.0,
        3530.0,
        3535.0,
        3540.0,
        3545.0,
        3550.0,
        3555.0,
        3560.0,
        3565.0,
        3570.0,
        3575.0,
        3580.0,
        3585.0,
        3590.0,
        3595.0,
        3600.0,
        3605.0,
        3610.0,
        3615.0,
        3620.0,
        3625.0,
        3630.0,
        3635.0,
        3640.0,
        3645.0,
        3650.0,
        3655.0,
        3660.0,
        3665.0,
        3670.0,
        3675.0,
        3680.0,
        3685.0,
        3690.0,
        3695.0,
        3700.0,
        3705.0,
        3710.0,
        3715.0,
        3720.0,
        3725.0,
        3730.0,
        3735.0,
        3740.0,
        3745.0,
        3750.0,
        3755.0,
        3760.0,
        3765.0,
        3770.0,
        3775.0,
        3780.0,
        3785.0,
        3790.0,
        3795.0,
        3800.0,
        3805.0,
        3810.0,
        3815.0,
        3820.0,
        3825.0,
        3830.0,
        3835.0,
        3840.0,
        3845.0,
        3850.0,
        3855.0,
        3860.0,
        3865.0,
        3870.0,
        3875.0,
        3880.0,
        3885.0,
        3890.0,
        3895.0,
        3900.0,
        3905.0,
        3910.0,
        3915.0,
        3920.0,
        3925.0,
        3930.0,
        3935.0,
        3940.0,
        3945.0,
        3950.0,
        3955.0,
        3960.0,
        3965.0,
        3970.0,
        3975.0,
        3980.0,
        3985.0,
        3990.0,
        3995.0,
        4000.0,
        4005.0,
        4010.0,
        4015.0,
        4020.0,
        4025.0,
        4030.0,
        4035.0,
        4040.0,
        4045.0,
        4050.0,
        4055.0,
        4060.0,
        4065.0,
        4070.0,
        4075.0,
        4080.0,
        4085.0,
        4090.0,
        4095.0,
        4100.0,
        4105.0,
        4110.0,
        4115.0,
        4120.0,
        4125.0,
        4130.0,
        4135.0,
        4140.0,
        4145.0,
        4150.0,
        4155.0,
        4160.0,
        4165.0,
        4170.0,
        4175.0,
        4180.0,
        4185.0,
        4190.0,
        4195.0,
        4200.0,
        4205.0,
        4210.0,
        4215.0,
        4220.0,
        4225.0,
        4230.0,
        4235.0,
        4240.0,
        4245.0,
        4250.0,
        4255.0,
        4260.0,
        4265.0,
        4270.0,
        4275.0,
        4280.0,
        4285.0,
        4290.0,
        4295.0,
        4300.0,
        4305.0,
        4310.0,
        4315.0,
        4320.0,
        4325.0,
        4330.0,
        4335.0,
        4340.0,
        4345.0,
        4350.0,
        4355.0,
        4360.0,
        4365.0,
        4370.0,
        4375.0,
        4380.0,
        4385.0,
        4390.0,
        4395.0,
        4400.0,
        4405.0,
        4410.0,
        4415.0,
        4420.0,
        4425.0,
        4430.0,
        4435.0,
        4440.0,
        4445.0,
        4450.0,
        4455.0,
        4460.0,
        4465.0,
        4470.0,
        4475.0,
        4480.0,
        4485.0,
        4490.0,
        4495.0,
        4500.0,
        4505.0,
        4510.0,
        4515.0,
        4520.0,
        4525.0,
        4530.0,
        4535.0,
        4540.0,
        4545.0,
        4550.0,
        4555.0,
        4560.0,
        4565.0,
        4570.0,
        4575.0,
        4580.0,
        4585.0,
        4590.0,
        4595.0,
        4600.0,
        4605.0,
        4610.0,
        4615.0,
        4620.0,
        4625.0,
        4630.0,
        4635.0,
        4640.0,
        4645.0,
        4650.0,
        4655.0,
        4660.0,
        4665.0,
        4670.0,
        4675.0,
        4680.0,
        4685.0,
        4690.0,
        4695.0,
        4700.0,
        4705.0,
        4710.0,
        4715.0,
        4720.0,
        4725.0,
        4730.0,
        4735.0,
        4740.0,
        4745.0,
        4750.0,
        4755.0,
        4760.0,
        4765.0,
        4770.0,
        4775.0,
        4780.0,
        4785.0,
        4790.0,
        4795.0,
        4800.0,
        4805.0,
        4810.0,
        4815.0,
        4820.0,
        4825.0,
        4830.0,
        4835.0,
        4840.0,
        4845.0,
        4850.0,
        4855.0,
        4860.0,
        4865.0,
        4870.0,
        4875.0,
        4880.0,
        4885.0,
        4890.0,
        4895.0,
        4900.0,
        4905.0,
        4910.0,
        4915.0,
        4920.0,
        4925.0,
        4930.0,
        4935.0,
        4940.0,
        4945.0,
        4950.0,
        4955.0,
        4960.0,
        4965.0,
        4970.0,
        4975.0,
        4980.0,
        4985.0,
        4990.0,
        4995.0,
        5000.0,
        5005.0,
        5010.0,
        5015.0,
        5020.0,
        5025.0,
        5030.0,
        5035.0,
        5040.0,
        5045.0,
        5050.0,
        5055.0,
        5060.0,
        5065.0,
        5070.0,
        5075.0,
        5080.0,
        5085.0,
        5090.0,
        5095.0,
        5100.0,
        5105.0,
        5110.0,
        5115.0,
        5120.0,
        5125.0,
        5130.0,
        5135.0,
        5140.0,
        5145.0,
        5150.0,
        5155.0,
        5160.0,
        5165.0,
        5170.0,
        5175.0,
        5180.0,
        5185.0,
        5190.0,
        5195.0,
        5200.0,
        5205.0,
        5210.0,
        5215.0,
        5220.0,
        5225.0,
        5230.0,
        5235.0,
        5240.0,
        5245.0,
        5250.0,
        5255.0,
        5260.0,
        5265.0,
        5270.0,
        5275.0,
        5280.0,
        5285.0,
        5290.0,
        5295.0,
        5300.0,
        5305.0,
        5310.0,
        5315.0,
        5320.0,
        5325.0,
        5330.0,
        5335.0,
        5340.0,
        5345.0,
        5350.0,
        5355.0,
        5360.0,
        5365.0,
        5370.0,
        5375.0,
        5380.0,
        5385.0,
        5390.0,
        5395.0,
        5400.0,
        5405.0,
        5410.0,
        5415.0,
        5420.0,
        5425.0,
        5430.0,
        5435.0,
        5440.0,
        5445.0,
        5450.0,
        5455.0,
        5460.0,
        5465.0,
        5470.0,
        5475.0,
        5480.0,
        5485.0,
        5490.0,
        5495.0,
        5500.0,
        5505.0,
        5510.0,
        5515.0,
        5520.0,
        5525.0,
        5530.0,
        5535.0,
        5540.0,
        5545.0,
        5550.0,
        5555.0,
        5560.0,
        5565.0,
        5570.0,
        5575.0,
        5580.0,
        5585.0,
        5590.0,
        5595.0,
        5600.0,
        5605.0,
        5610.0,
        5615.0,
        5620.0,
        5625.0,
        5630.0,
        5635.0,
        5640.0,
        5645.0,
        5650.0,
        5655.0,
        5660.0,
        5665.0,
        5670.0,
        5675.0,
        5680.0,
        5685.0,
        5690.0,
        5695.0,
        5700.0,
        5705.0,
        5710.0,
        5715.0,
        5720.0,
        5725.0,
        5730.0,
        5735.0,
        5740.0,
        5745.0,
        5750.0,
        5755.0,
        5760.0,
        5765.0,
        5770.0,
        5775.0,
        5780.0,
        5785.0,
        5790.0,
        5795.0,
        5800.0,
        5805.0,
        5810.0,
        5815.0,
        5820.0,
        5825.0,
        5830.0,
        5835.0,
        5840.0,
        5845.0,
        5850.0,
        5855.0,
        5860.0,
        5865.0,
        5870.0,
        5875.0,
        5880.0,
        5885.0,
        5890.0,
        5895.0,
        5900.0,
        5905.0,
        5910.0,
        5915.0,
        5920.0,
        5925.0,
        5930.0,
        5935.0,
        5940.0,
        5945.0,
        5950.0,
        5955.0,
        5960.0,
        5965.0,
        5970.0,
        5975.0,
        5980.0,
        5985.0,
        5990.0,
        5995.0,
        6000.0,
        6005.0,
        6010.0,
        6015.0,
        6020.0,
        6025.0,
        6030.0,
        6035.0,
        6040.0,
        6045.0,
        6050.0,
        6055.0,
        6060.0,
        6065.0,
        6070.0,
        6075.0,
        6080.0,
        6085.0,
        6090.0,
        6095.0,
        6100.0,
        6105.0,
        6110.0,
        6115.0,
        6120.0,
        6125.0,
        6130.0,
        6135.0,
        6140.0,
        6145.0,
        6150.0,
        6155.0,
        6160.0,
        6165.0,
        6170.0,
        6175.0,
        6180.0,
        6185.0,
        6190.0,
        6195.0,
        6200.0,
        6205.0,
        6210.0,
        6215.0,
        6220.0,
        6225.0,
        6230.0,
        6235.0,
        6240.0,
        6245.0,
        6250.0,
        6255.0,
        6260.0,
        6265.0,
        6270.0,
        6275.0,
        6280.0,
        6285.0,
        6290.0,
        6295.0,
        6300.0,
        6305.0,
        6310.0,
        6315.0,
        6320.0,
        6325.0,
        6330.0,
        6335.0,
        6340.0,
        6345.0,
        6350.0,
        6355.0,
        6360.0,
        6365.0,
        6370.0,
        6375.0,
        6380.0,
        6385.0,
        6390.0,
        6395.0,
        6400.0,
        6405.0,
        6410.0,
        6415.0,
        6420.0,
        6425.0,
        6430.0,
        6435.0,
        6440.0,
        6445.0,
        6450.0,
        6455.0,
        6460.0,
        6465.0,
        6470.0,
        6475.0,
        6480.0,
        6485.0,
        6490.0,
        6495.0,
        6500.0,
        6505.0,
        6510.0,
        6515.0,
        6520.0,
        6525.0,
        6530.0,
        6535.0,
        6540.0,
        6545.0,
        6550.0,
        6555.0,
        6560.0,
        6565.0,
        6570.0,
        6575.0,
        6580.0,
        6585.0,
        6590.0,
        6595.0,
        6600.0,
        6605.0,
        6610.0,
        6615.0,
        6620.0,
        6625.0,
        6630.0,
        6635.0,
        6640.0,
        6645.0,
        6650.0,
        6655.0,
        6660.0,
        6665.0,
        6670.0,
        6675.0,
        6680.0,
        6685.0,
        6690.0,
        6695.0,
        6700.0,
        6705.0,
        6710.0,
        6715.0,
        6720.0,
        6725.0,
        6730.0,
        6735.0,
        6740.0,
        6745.0,
        6750.0,
        6755.0,
        6760.0,
        6765.0,
        6770.0,
        6775.0,
        6780.0,
        6785.0,
        6790.0,
        6795.0,
        6800.0,
        6805.0,
        6810.0,
        6815.0,
        6820.0,
        6825.0,
        6830.0,
        6835.0,
        6840.0,
        6845.0,
        6850.0,
        6855.0,
        6860.0,
        6865.0,
        6870.0,
        6875.0,
        6880.0,
        6885.0,
        6890.0,
        6895.0,
        6900.0,
        6905.0,
        6910.0,
        6915.0,
        6920.0,
        6925.0,
        6930.0,
        6935.0,
        6940.0,
        6945.0,
        6950.0,
        6955.0,
        6960.0,
        6965.0,
        6970.0,
        6975.0,
        6980.0,
        6985.0,
        6990.0,
        6995.0,
        7000.0,
        7005.0,
        7010.0,
        7015.0,
        7020.0,
        7025.0,
        7030.0,
        7035.0,
        7040.0,
        7045.0,
        7050.0,
        7055.0,
        7060.0,
        7065.0,
        7070.0,
        7075.0,
        7080.0,
        7085.0,
        7090.0,
        7095.0,
        7100.0,
        7105.0,
        7110.0,
        7115.0,
        7120.0,
        7125.0,
        7130.0,
        7135.0,
        7140.0,
        7145.0,
        7150.0,
        7155.0,
        7160.0,
        7165.0,
        7170.0,
        7175.0,
        7180.0,
        7185.0,
        7190.0,
        7195.0,
        7200.0,
        7205.0,
        7210.0,
        7215.0,
        7220.0,
        7225.0,
        7230.0,
        7235.0,
        7240.0,
        7245.0,
        7250.0,
        7255.0,
        7260.0,
        7265.0,
        7270.0,
        7275.0,
        7280.0,
        7285.0,
        7290.0,
        7295.0,
        7300.0,
        7305.0,
        7310.0,
        7315.0,
        7320.0,
        7325.0,
        7330.0,
        7335.0,
        7340.0,
        7345.0,
        7350.0,
        7355.0,
        7360.0,
        7365.0,
        7370.0,
        7375.0,
        7380.0,
        7385.0,
        7390.0,
        7395.0,
        7400.0,
        7405.0,
        7410.0,
        7415.0,
        7420.0,
        7425.0,
        7430.0,
        7435.0,
        7440.0,
        7445.0,
        7450.0,
        7455.0,
        7460.0,
        7465.0,
        7470.0,
        7475.0,
        7480.0,
        7485.0,
        7490.0,
        7495.0,
        7500.0,
        7505.0,
        7510.0,
        7515.0,
        7520.0,
        7525.0,
        7530.0,
        7535.0,
        7540.0,
        7545.0,
        7550.0,
        7555.0,
        7560.0,
        7565.0,
        7570.0,
        7575.0,
        7580.0,
        7585.0,
        7590.0,
        7595.0,
        7600.0,
        7605.0,
        7610.0,
        7615.0,
        7620.0,
        7625.0,
        7630.0,
        7635.0,
        7640.0,
        7645.0,
        7650.0,
        7655.0,
        7660.0,
        7665.0,
        7670.0,
        7675.0,
        7680.0,
        7685.0,
        7690.0,
        7695.0,
        7700.0,
        7705.0,
        7710.0,
        7715.0,
        7720.0,
        7725.0,
        7730.0,
        7735.0,
        7740.0,
        7745.0,
        7750.0,
        7755.0,
        7760.0,
        7765.0,
        7770.0,
        7775.0,
        7780.0,
        7785.0,
        7790.0,
        7795.0,
        7800.0,
        7805.0,
        7810.0,
        7815.0,
        7820.0,
        7825.0,
        7830.0,
        7835.0,
        7840.0,
        7845.0,
        7850.0,
        7855.0,
        7860.0,
        7865.0,
        7870.0,
        7875.0,
        7880.0,
        7885.0,
        7890.0,
        7895.0,
        7900.0,
        7905.0,
        7910.0,
        7915.0,
        7920.0,
        7925.0,
        7930.0,
        7935.0,
        7940.0,
        7945.0,
        7950.0,
        7955.0,
        7960.0,
        7965.0,
        7970.0,
        7975.0,
        7980.0,
        7985.0,
        7990.0,
        7995.0,
        8000.0,
        8005.0,
        8010.0,
        8015.0,
        8020.0,
        8025.0,
        8030.0,
        8035.0,
        8040.0,
        8045.0,
        8050.0,
        8055.0,
        8060.0,
        8065.0,
        8070.0,
        8075.0,
        8080.0,
        8085.0,
        8090.0,
        8095.0,
        8100.0,
        8105.0,
        8110.0,
        8115.0,
        8120.0,
        8125.0,
        8130.0,
        8135.0,
        8140.0,
        8145.0,
        8150.0,
        8155.0,
        8160.0,
        8165.0,
        8170.0,
        8175.0,
        8180.0,
        8185.0,
        8190.0,
        8195.0,
        8200.0,
        8205.0,
        8210.0,
        8215.0,
        8220.0,
        8225.0,
        8230.0,
        8235.0,
        8240.0,
        8245.0,
        8250.0,
        8255.0,
        8260.0,
        8265.0,
        8270.0,
        8275.0,
        8280.0,
        8285.0,
        8290.0,
        8295.0,
        8300.0,
        8305.0,
        8310.0,
        8315.0,
        8320.0,
        8325.0,
        8330.0,
        8335.0,
        8340.0,
        8345.0,
        8350.0,
        8355.0,
        8360.0,
        8365.0,
        8370.0,
        8375.0,
        8380.0,
        8385.0,
        8390.0,
        8395.0,
        8400.0,
        8405.0,
        8410.0,
        8415.0,
        8420.0,
        8425.0,
        8430.0,
        8435.0,
        8440.0,
        8445.0,
        8450.0,
        8455.0,
        8460.0,
        8465.0,
        8470.0,
        8475.0,
        8480.0,
        8485.0,
        8490.0,
        8495.0,
        8500.0,
        8505.0,
        8510.0,
        8515.0,
        8520.0,
        8525.0,
        8530.0,
        8535.0,
        8540.0,
        8545.0,
        8550.0,
        8555.0,
        8560.0,
        8565.0,
        8570.0,
        8575.0,
        8580.0,
        8585.0,
        8590.0,
        8595.0,
        8600.0,
        8605.0,
        8610.0,
        8615.0,
        8620.0,
        8625.0,
        8630.0,
        8635.0,
        8640.0,
        8645.0,
        8650.0,
        8655.0,
        8660.0,
        8665.0,
        8670.0,
        8675.0,
        8680.0,
        8685.0,
        8690.0,
        8695.0,
        8700.0,
        8705.0,
        8710.0,
        8715.0,
        8720.0,
        8725.0,
        8730.0,
        8735.0,
        8740.0,
        8745.0,
        8750.0,
        8755.0,
        8760.0,
        8765.0,
        8770.0,
        8775.0,
        8780.0,
        8785.0,
        8790.0,
        8795.0,
        8800.0,
        8805.0,
        8810.0,
        8815.0,
        8820.0,
        8825.0,
        8830.0,
        8835.0,
        8840.0,
        8845.0,
        8850.0,
        8855.0,
        8860.0,
        8865.0,
        8870.0,
        8875.0,
        8880.0,
        8885.0,
        8890.0,
        8895.0,
        8900.0,
        8905.0,
        8910.0,
        8915.0,
        8920.0,
        8925.0,
        8930.0,
        8935.0,
        8940.0,
        8945.0,
        8950.0,
        8955.0,
        8960.0,
        8965.0,
        8970.0,
        8975.0,
        8980.0,
        8985.0,
        8990.0,
        8995.0,
        9000.0,
        9005.0,
        9010.0,
        9015.0,
        9020.0,
        9025.0,
        9030.0,
        9035.0,
        9040.0,
        9045.0,
        9050.0,
        9055.0,
        9060.0,
        9065.0,
        9070.0,
        9075.0,
        9080.0,
        9085.0,
        9090.0,
        9095.0,
        9100.0,
        9105.0,
        9110.0,
        9115.0,
        9120.0,
        9125.0,
        9130.0,
        9135.0,
        9140.0,
        9145.0,
        9150.0,
        9155.0,
        9160.0,
        9165.0,
        9170.0,
        9175.0,
        9180.0,
        9185.0,
        9190.0,
        9195.0,
        9200.0,
        9205.0,
        9210.0,
        9215.0,
        9220.0,
        9225.0,
        9230.0,
        9235.0,
        9240.0,
        9245.0,
        9250.0,
        9255.0,
        9260.0,
        9265.0,
        9270.0,
        9275.0,
        9280.0,
        9285.0,
        9290.0,
        9295.0,
        9300.0,
        9305.0,
        9310.0,
        9315.0,
        9320.0,
        9325.0,
        9330.0,
        9335.0,
        9340.0,
        9345.0,
        9350.0,
        9355.0,
        9360.0,
        9365.0,
        9370.0,
        9375.0,
        9380.0,
        9385.0,
        9390.0,
        9395.0,
        9400.0,
        9405.0,
        9410.0,
        9415.0,
        9420.0,
        9425.0,
        9430.0,
        9435.0,
        9440.0,
        9445.0,
        9450.0,
        9455.0,
        9460.0,
        9465.0,
        9470.0,
        9475.0,
        9480.0,
        9485.0,
        9490.0,
        9495.0,
        9500.0,
        9505.0,
        9510.0,
        9515.0,
        9520.0,
        9525.0,
        9530.0,
        9535.0,
        9540.0,
        9545.0,
        9550.0,
        9555.0,
        9560.0,
        9565.0,
        9570.0,
        9575.0,
        9580.0,
        9585.0,
        9590.0,
        9595.0,
        9600.0,
        9605.0,
        9610.0,
        9615.0,
        9620.0,
        9625.0,
        9630.0,
        9635.0,
        9640.0,
        9645.0,
        9650.0,
        9655.0,
        9660.0,
        9665.0,
        9670.0,
        9675.0,
        9680.0,
        9685.0,
        9690.0,
        9695.0,
        9700.0,
        9705.0,
        9710.0,
        9715.0,
        9720.0,
        9725.0,
        9730.0,
        9735.0,
        9740.0,
        9745.0,
        9750.0,
        9755.0,
        9760.0,
        9765.0,
        9770.0,
        9775.0,
        9780.0,
        9785.0,
        9790.0,
        9795.0,
        9800.0,
        9805.0,
        9810.0,
        9815.0,
        9820.0,
        9825.0,
        9830.0,
        9835.0,
        9840.0,
        9845.0,
        9850.0,
        9855.0,
        9860.0,
        9865.0,
        9870.0,
        9875.0,
        9880.0,
        9885.0,
        9890.0,
        9895.0,
        9900.0,
        9905.0,
        9910.0,
        9915.0,
        9920.0,
        9925.0,
        9930.0,
        9935.0,
        9940.0,
        9945.0,
        9950.0,
        9955.0,
        9960.0,
        9965.0,
        9970.0,
        9975.0,
        9980.0,
        9985.0,
        9990.0,
        9995.0,
        10000.0,
        10005.0,
        10010.0,
        10015.0,
        10020.0,
        10025.0,
        10030.0,
        10035.0,
        10040.0,
        10045.0,
        10050.0,
        10055.0,
        10060.0,
        10065.0,
        10070.0,
        10075.0,
        10080.0,
        10085.0,
        10090.0,
        10095.0,
        10100.0,
        10105.0,
        10110.0,
        10115.0,
        10120.0,
        10125.0,
        10130.0,
        10135.0,
        10140.0,
        10145.0,
        10150.0,
        10155.0,
        10160.0,
        10165.0,
        10170.0,
        10175.0,
        10180.0,
        10185.0,
        10190.0,
        10195.0,
        10200.0,
        10205.0,
        10210.0,
        10215.0,
        10220.0,
        10225.0,
        10230.0,
        10235.0,
        10240.0,
        10245.0,
        10250.0,
        10255.0,
        10260.0,
        10265.0,
        10270.0,
        10275.0,
        10280.0,
        10285.0,
        10290.0,
        10295.0,
        10300.0,
        10305.0,
        10310.0,
        10315.0,
        10320.0,
        10325.0,
        10330.0,
        10335.0,
        10340.0,
        10345.0,
        10350.0,
        10355.0,
        10360.0,
        10365.0,
        10370.0,
        10375.0,
        10380.0,
        10385.0,
        10390.0,
        10395.0,
        10400.0,
        10405.0,
        10410.0,
        10415.0,
        10420.0,
        10425.0,
        10430.0,
        10435.0,
        10440.0,
        10445.0,
        10450.0,
        10455.0,
        10460.0,
        10465.0,
        10470.0,
        10475.0,
        10480.0,
        10485.0,
        10490.0,
        10495.0,
        10500.0
      ],
      "units":"angstrom"
    },
    "values":{
      "value":[
        0.0,
        0.0,
        0.0,
        0.0,
        0.0,
        0.0,
        0.0,
        0.0,
        0.0,
        0.0,
        0.0,
        0.0,
        0.0,
        0.0,
        0.0,
        0.0,
        0.0,
        0.0,
        0.0,
        0.0,
        0.0,
        0.0,
        0.0,
        0.0,
        0.0,
        0.0,
        0.0,
        0.0,
        0.0,
        0.0,
        0.0,
        0.0,
        0.0,
        0.0,
        0.0,
        0.0,
        0.0,
        0.0,
        0.0,
        0.0,
        0.0,
        0.0,
        0.0,
        0.0,
        0.0,
        0.0,
        0.0,
        0.0,
        0.0,
        0.0,
        0.0,
        0.0,
        0.0,
        0.0,
        0.0,
        0.0,
        0.0,
        0.0,
        0.0,
        0.0,
        0.0,
        0.0,
        0.0,
        0.0,
        0.0,
        0.0,
        0.0,
        0.0,
        0.0,
        0.0,
        0.0,
        0.0,
        0.0,
        0.0,
        0.0,
        0.0,
        0.0,
        0.0,
        0.0,
        0.0,
        0.0,
        0.0,
        0.0,
        0.0,
        0.0,
        0.0,
        0.0,
        0.0,
        0.0,
        0.0,
        0.0,
        0.0,
        0.0,
        0.0,
        0.0,
        0.0,
        0.0,
        0.0,
        0.0,
        0.0,
        0.0,
        0.0,
        0.0,
        0.0,
        0.0,
        0.0,
        0.0,
        0.0,
        0.0,
        0.0,
        0.0,
        0.0,
        0.0,
        0.0,
        0.0,
        0.0,
        0.0,
        0.0,
        0.0,
        0.0,
        0.0,
        0.0,
        0.0,
        0.0,
        0.0,
        0.0,
        0.0,
        0.0,
        0.0,
        0.0,
        0.0,
        0.0,
        0.0,
        0.0,
        0.0,
        0.0,
        0.0,
        0.0,
        0.0,
        0.0,
        0.0,
        0.0,
        0.0,
        0.0,
        0.0,
        0.0,
        0.0,
        0.0,
        0.0,
        0.0,
        0.0,
        0.0,
        0.0,
        0.0,
        0.0,
        0.0,
        0.0,
        0.0,
        0.0,
        0.0,
        0.0,
        0.0,
        0.0,
        0.0,
        0.0,
        0.0,
        0.0,
        0.0,
        0.0,
        0.0,
        0.0,
        0.0,
        0.0,
        0.0,
        0.0,
        0.0,
        0.0,
        0.0,
        0.0,
        0.0,
        0.0,
        0.0,
        0.0,
        0.0,
        0.0,
        0.0,
        0.0,
        0.0,
        0.0,
        0.0,
        0.0,
        0.0,
        0.0,
        0.0,
        0.0,
        0.0,
        0.0,
        0.0,
        0.0,
        0.0,
        0.0,
        0.0,
        0.0,
        0.0,
        0.0,
        0.0,
        0.0,
        0.0,
        0.0,
        0.0,
        0.0,
        0.0,
        0.0,
        0.0,
        0.0,
        0.0,
        0.0,
        0.0,
        0.0,
        0.0,
        0.0,
        0.0,
        0.0,
        0.0,
        0.0,
        0.0,
        0.0,
        0.0,
        0.0,
        0.0,
        0.0,
        0.0,
        0.0,
        0.0,
        0.0,
        0.0,
        0.0,
        0.0,
        0.0,
        0.0,
        0.0,
        1e-06,
        3e-06,
        4e-06,
        5e-06,
        6e-06,
        7e-06,
        7e-06,
        6e-06,
        3e-06,
        0.0,
        0.0,
        0.0,
        0.0,
        0.0,
        0.0,
        0.0,
        0.0,
        0.0,
        0.0,
        0.0,
        1.7e-05,
        3.7e-05,
        5.8e-05,
        7.6e-05,
        8.9e-05,
        9.5e-05,
        9.2e-05,
        7.7e-05,
        4.7e-05,
        0.0,
        0.0,
        0.0,
        0.0,
        0.0,
        0.0,
        0.0,
        0.0,
        0.0,
        0.0,
        0.0,
        0.000244,
        0.000549,
        0.000904,
        0.001298,
        0.001719,
        0.002156,
        0.002597,
        0.003031,
        0.003447,
        0.003834,
        0.004182,
        0.00449,
        0.004761,
        0.004996,
        0.005197,
        0.005366,
        0.005504,
        0.005613,
        0.005695,
        0.005751,
        0.005784,
        0.005797,
        0.005795,
        0.005784,
        0.005766,
        0.005747,
        0.005732,
        0.005724,
        0.005729,
        0.005751,
        0.005794,
        0.005861,
        0.005956,
        0.006082,
        0.006243,
        0.00644,
        0.006679,
        0.00696,
        0.007289,
        0.007668,
        0.008096,
        0.008561,
        0.009044,
        0.009529,
        0.009998,
        0.010433,
        0.010819,
        0.011137,
        0.01137,
        0.011502,
        0.01152,
        0.011438,
        0.011278,
        0.011057,
        0.010796,
        0.010515,
        0.010233,
        0.009971,
        0.009748,
        0.009585,
        0.009495,
        0.009473,
        0.00951,
        0.009595,
        0.009718,
        0.009869,
        0.010037,
        0.010212,
        0.010384,
        0.010543,
        0.010681,
        0.010799,
        0.010901,
        0.010992,
        0.011074,
        0.011152,
        0.01123,
        0.011312,
        0.011401,
        0.011502,
        0.011617,
        0.011748,
        0.011895,
        0.012059,
        0.01224,
        0.012438,
        0.012655,
        0.01289,
        0.013145,
        0.013419,
        0.013712,
        0.014026,
        0.01436,
        0.014713,
        0.015087,
        0.01548,
        0.015893,
        0.016327,
        0.01678,
        0.017252,
        0.017745,
        0.018257,
        0.018788,
        0.019338,
        0.019905,
        0.020491,
        0.021094,
        0.021714,
        0.022351,
        0.023003,
        0.02367,
        0.024343,
        0.025012,
        0.025667,
        0.026298,
        0.026896,
        0.02745,
        0.027951,
        0.028389,
        0.028754,
        0.029039,
        0.029246,
        0.029381,
        0.029449,
        0.029456,
        0.029406,
        0.029306,
        0.02916,
        0.028975,
        0.028754,
        0.028507,
        0.028254,
        0.028017,
        0.027819,
        0.027685,
        0.027635,
        0.027695,
        0.027886,
        0.028231,
        0.028754,
        0.029467,
        0.030341,
        0.031335,
        0.032411,
        0.033528,
        0.034646,
        0.035727,
        0.036729,
        0.037612,
        0.038339,
        0.038877,
        0.03924,
        0.039447,
        0.03952,
        0.039481,
        0.03935,
        0.03915,
        0.0389,
        0.038623,
        0.038339,
        0.038068,
        0.037825,
        0.037621,
        0.037469,
        0.037381,
        0.03737,
        0.037448,
        0.037627,
        0.03792,
        0.038339,
        0.03889,
        0.039555,
        0.040308,
        0.041127,
        0.041985,
        0.042858,
        0.043721,
        0.04455,
        0.04532,
        0.046006,
        0.046591,
        0.047086,
        0.047506,
        0.04787,
        0.048195,
        0.048498,
        0.048797,
        0.049109,
        0.049451,
        0.04984,
        0.050287,
        0.054049,
        0.053486,
        0.052177,
        0.051654,
        0.054476,
        0.058968,
        0.060281,
        0.057889,
        0.054875,
        0.049464,
        0.044757,
        0.039461,
        0.037145,
        0.035882,
        0.030812,
        0.031772,
        0.04326,
        0.0561,
        0.060627,
        0.052212,
        0.052728,
        0.056784,
        0.062585,
        0.077744,
        0.071746,
        0.07277,
        0.075936,
        0.070326,
        0.073937,
        0.088855,
        0.097875,
        0.092782,
        0.089088,
        0.086679,
        0.081311,
        0.079051,
        0.084833,
        0.093482,
        0.092713,
        0.07582,
        0.077319,
        0.077795,
        0.062014,
        0.06215,
        0.055492,
        0.046345,
        0.049807,
        0.046481,
        0.052861,
        0.065569,
        0.062191,
        0.065404,
        0.082313,
        0.094814,
        0.099742,
        0.086069,
        0.071815,
        0.067808,
        0.073642,
        0.078906,
        0.072595,
        0.056841,
        0.048033,
        0.043904,
        0.045007,
        0.046345,
        0.049707,
        0.056346,
        0.054124,
        0.049388,
        0.048468,
        0.0494,
        0.05242,
        0.058828,
        0.063541,
        0.073714,
        0.091105,
        0.09893,
        0.098244,
        0.100125,
        0.106828,
        0.097949,
        0.078455,
        0.060014,
        0.04095,
        0.038951,
        0.056348,
        0.077116,
        0.093951,
        0.094964,
        0.076258,
        0.051437,
        0.053552,
        0.086464,
        0.120238,
        0.142349,
        0.157439,
        0.168224,
        0.178242,
        0.181912,
        0.188983,
        0.199282,
        0.201464,
        0.200654,
        0.186963,
        0.18223,
        0.186296,
        0.17205,
        0.182072,
        0.179939,
        0.17247,
        0.173798,
        0.18304,
        0.186031,
        0.201458,
        0.227475,
        0.237405,
        0.22519,
        0.211363,
        0.217303,
        0.218903,
        0.216491,
        0.211014,
        0.2058,
        0.196189,
        0.193077,
        0.187616,
        0.176266,
        0.175104,
        0.184301,
        0.202502,
        0.201411,
        0.192725,
        0.186452,
        0.193824,
        0.211196,
        0.214789,
        0.203749,
        0.200547,
        0.219947,
        0.233464,
        0.244731,
        0.25909,
        0.228357,
        0.246951,
        0.268438,
        0.289301,
        0.300061,
        0.278196,
        0.270712,
        0.28258,
        0.298794,
        0.269378,
        0.266513,
        0.286027,
        0.279668,
        0.266253,
        0.250342,
        0.220592,
        0.20754,
        0.238378,
        0.328606,
        0.365369,
        0.344041,
        0.380322,
        0.390378,
        0.367263,
        0.395986,
        0.397021,
        0.399402,
        0.417994,
        0.425125,
        0.398094,
        0.378255,
        0.347443,
        0.314867,
        0.342592,
        0.375465,
        0.377575,
        0.351071,
        0.375553,
        0.393702,
        0.404067,
        0.402351,
        0.39662,
        0.397588,
        0.418583,
        0.434597,
        0.441995,
        0.412814,
        0.393855,
        0.411369,
        0.43971,
        0.474453,
        0.476569,
        0.480411,
        0.46505,
        0.463241,
        0.501565,
        0.545102,
        0.541598,
        0.51774,
        0.519253,
        0.473931,
        0.441974,
        0.471761,
        0.498698,
        0.506216,
        0.504326,
        0.523514,
        0.544118,
        0.541874,
        0.552822,
        0.548365,
        0.531281,
        0.552042,
        0.565485,
        0.540365,
        0.536589,
        0.572158,
        0.614952,
        0.628867,
        0.64097,
        0.646758,
        0.643132,
        0.609265,
        0.581606,
        0.560108,
        0.578776,
        0.619519,
        0.634293,
        0.577434,
        0.582989,
        0.620633,
        0.61551,
        0.617747,
        0.622967,
        0.633044,
        0.615234,
        0.615963,
        0.623594,
        0.647817,
        0.68605,
        0.669091,
        0.624438,
        0.64629,
        0.67394,
        0.697727,
        0.697963,
        0.675161,
        0.663834,
        0.650864,
        0.678758,
        0.71847,
        0.71631,
        0.684742,
        0.698996,
        0.736853,
        0.730634,
        0.72498,
        0.723976,
        0.741881,
        0.743924,
        0.731126,
        0.728673,
        0.733774,
        0.720761,
        0.721556,
        0.725541,
        0.689138,
        0.639552,
        0.645765,
        0.661516,
        0.678268,
        0.703032,
        0.678168,
        0.680027,
        0.745988,
        0.770374,
        0.760036,
        0.748947,
        0.742901,
        0.704437,
        0.720453,
        0.770686,
        0.755197,
        0.74677,
        0.790173,
        0.81125,
        0.785155,
        0.774667,
        0.775863,
        0.772717,
        0.782521,
        0.738788,
        0.718736,
        0.752445,
        0.76349,
        0.736615,
        0.713151,
        0.699896,
        0.677972,
        0.696913,
        0.725568,
        0.75847,
        0.752412,
        0.717188,
        0.749902,
        0.765216,
        0.789361,
        0.809821,
        0.782078,
        0.766379,
        0.75379,
        0.733699,
        0.750934,
        0.786892,
        0.779953,
        0.75501,
        0.755087,
        0.759534,
        0.785467,
        0.771286,
        0.728373,
        0.736433,
        0.754163,
        0.738937,
        0.717843,
        0.715633,
        0.743028,
        0.743872,
        0.653916,
        0.603829,
        0.660753,
        0.687287,
        0.6858,
        0.726138,
        0.740413,
        0.755722,
        0.72325,
        0.728165,
        0.78002,
        0.790918,
        0.749283,
        0.770191,
        0.805828,
        0.839487,
        0.820008,
        0.778715,
        0.795317,
        0.79023,
        0.719517,
        0.71459,
        0.779984,
        0.836688,
        0.871535,
        0.907485,
        0.871255,
        0.854221,
        0.91248,
        0.948063,
        0.935985,
        0.907573,
        0.853146,
        0.836997,
        0.89982,
        0.91644,
        0.911168,
        0.933819,
        0.98289,
        0.990149,
        0.94394,
        0.912331,
        0.946695,
        0.972655,
        0.956142,
        0.92373,
        0.888661,
        0.880124,
        0.862335,
        0.886469,
        0.945728,
        0.960303,
        0.947423,
        0.921586,
        0.914381,
        0.966874,
        0.967602,
        0.957844,
        0.960006,
        0.971853,
        0.971444,
        0.961895,
        0.925368,
        0.91714,
        0.946742,
        0.963033,
        0.977899,
        0.982694,
        0.965163,
        0.952929,
        0.961556,
        1.003707,
        0.995932,
        0.979706,
        0.985483,
        1.013548,
        1.028977,
        1.047031,
        1.045851,
        1.031304,
        1.006089,
        1.003828,
        1.026503,
        1.030418,
        0.988182,
        0.96012,
        0.992437,
        1.008951,
        1.034837,
        1.059275,
        1.017673,
        1.003979,
        1.008245,
        1.036721,
        1.035233,
        1.012045,
        1.01892,
        1.027221,
        1.004288,
        0.978246,
        1.004721,
        1.030253,
        1.063456,
        1.052116,
        1.027694,
        1.038797,
        1.048238,
        1.009198,
        0.975709,
        0.973599,
        1.036738,
        1.089091,
        1.090919,
        1.076056,
        1.080714,
        1.076926,
        1.074617,
        1.057597,
        1.05191,
        1.068673,
        1.092993,
        1.104521,
        1.077079,
        1.00362,
        0.993485,
        1.045553,
        1.074492,
        1.09335,
        1.095953,
        1.100695,
        1.11768,
        1.144153,
        1.155802,
        1.153841,
        1.148801,
        1.15936,
        1.153633,
        1.126255,
        1.096343,
        1.097689,
        1.121016,
        1.141944,
        1.136567,
        1.110645,
        1.035058,
        0.876578,
        0.875835,
        1.012965,
        1.116264,
        1.128336,
        1.111975,
        1.118694,
        1.13586,
        1.131225,
        1.126192,
        1.124936,
        1.119872,
        1.10912,
        1.109817,
        1.142358,
        1.160498,
        1.173009,
        1.145406,
        1.124614,
        1.120062,
        1.133062,
        1.137413,
        1.124387,
        1.109108,
        1.105802,
        1.10046,
        1.098574,
        1.130665,
        1.155416,
        1.17171,
        1.161555,
        1.177543,
        1.18038,
        1.159489,
        1.144667,
        1.144056,
        1.187127,
        1.178226,
        1.124243,
        1.103598,
        1.096553,
        1.10294,
        1.101876,
        1.104785,
        1.135302,
        1.131778,
        1.095376,
        1.086594,
        1.093044,
        1.037977,
        1.052049,
        1.10249,
        1.095645,
        1.088474,
        1.04058,
        1.029965,
        1.050745,
        1.0869,
        1.118928,
        1.101785,
        1.062782,
        1.093945,
        1.11272,
        1.135388,
        1.096816,
        1.031937,
        1.037297,
        1.062109,
        1.040033,
        1.056138,
        1.030839,
        1.015306,
        1.025975,
        0.970342,
        0.991935,
        1.044955,
        1.050741,
        1.043821,
        1.017265,
        1.061637,
        1.083773,
        1.046814,
        1.041599,
        1.059949,
        1.066923,
        1.032015,
        1.04154,
        1.082582,
        1.096053,
        1.073452,
        1.068731,
        1.086393,
        1.109441,
        1.073094,
        1.024379,
        1.05969,
        1.120796,
        1.132697,
        1.120577,
        1.130407,
        1.117883,
        1.101221,
        1.106599,
        1.121301,
        1.107307,
        1.106376,
        1.105531,
        1.13054,
        1.11214,
        1.118579,
        1.135659,
        1.135169,
        1.085778,
        1.098191,
        1.111512,
        1.100253,
        1.11397,
        1.121966,
        1.107789,
        1.096651,
        1.067492,
        0.970638,
        1.026494,
        1.11035,
        1.132113,
        1.12528,
        1.129271,
        1.138192,
        1.1241,
        1.138321,
        1.145081,
        1.12683,
        1.10946,
        1.078095,
        1.008315,
        1.003125,
        1.087672,
        1.096125,
        1.129148,
        1.13532,
        1.121034,
        1.10321,
        1.138939,
        1.126111,
        1.118862,
        1.160895,
        1.171194,
        1.145109,
        1.130419,
        1.136797,
        1.141134,
        1.136175,
        1.15742,
        1.160469,
        1.135704,
        1.117904,
        1.142556,
        1.137056,
        1.143574,
        1.176642,
        1.17606,
        1.15781,
        1.151234,
        1.151569,
        1.139073,
        1.117822,
        1.147476,
        1.167261,
        1.165896,
        1.151575,
        1.124719,
        1.129983,
        1.132876,
        1.152276,
        1.18383,
        1.160973,
        1.139996,
        1.168059,
        1.173871,
        1.154667,
        1.161717,
        1.156065,
        1.162998,
        1.157057,
        1.157549,
        1.160594,
        1.170792,
        1.171395,
        1.165791,
        1.164474,
        1.164112,
        1.162746,
        1.160913,
        1.159238,
        1.157507,
        1.156123,
        1.154431,
        1.152634,
        1.15099,
        1.149704,
        1.148258,
        1.146552,
        1.14496,
        1.143314,
        1.141512,
        1.140589,
        1.139988,
        1.138038,
        1.136029,
        1.133994,
        1.132564,
        1.131044,
        1.129408,
        1.128415,
        1.126933,
        1.125221,
        1.127021,
        1.101556,
        1.08859,
        1.123363,
        1.122594,
        1.118243,
        1.094957,
        1.092567,
        1.096535,
        1.06808,
        1.086682,
        1.086248,
        1.110725,
        1.11548,
        1.137251,
        1.161361,
        1.13968,
        1.133184,
        1.134072,
        1.103414,
        1.114513,
        1.151167,
        1.139817,
        1.094504,
        1.098162,
        1.10584,
        1.108265,
        1.090879,
        1.075233,
        1.084363,
        1.085167,
        1.085458,
        1.074427,
        1.091696,
        1.08992,
        1.087113,
        1.08238,
        1.099456,
        1.100505,
        1.085078,
        1.085255,
        1.072065,
        1.053742,
        1.029377,
        1.021198,
        1.048916,
        1.054662,
        1.056689,
        1.07598,
        1.10105,
        1.103342,
        1.10498,
        1.114878,
        1.107075,
        1.10135,
        1.093913,
        1.083732,
        1.075527,
        1.069492,
        1.075945,
        1.091047,
        1.085882,
        1.071365,
        1.056579,
        1.045012,
        1.071626,
        1.08068,
        1.076642,
        1.074855,
        1.070485,
        1.072414,
        1.071592,
        1.079882,
        1.091648,
        1.101427,
        1.079869,
        1.06547,
        1.038142,
        1.055748,
        1.058692,
        1.090768,
        1.106235,
        1.092572,
        1.054532,
        1.055314,
        1.080792,
        1.088294,
        1.101132,
        1.065279,
        1.045043,
        1.056721,
        1.085726,
        1.096186,
        1.099234,
        1.076517,
        1.072757,
        1.098383,
        1.106034,
        1.073922,
        1.091382,
        1.096866,
        1.080897,
        1.078346,
        1.082753,
        1.069538,
        1.060279,
        1.095668,
        1.091495,
        1.083728,
        1.10725,
        1.107405,
        1.09255,
        1.106132,
        1.120028,
        1.114564,
        1.107989,
        1.109955,
        1.109202,
        1.108572,
        1.108668,
        1.108554,
        1.108274,
        1.108533,
        1.108654,
        1.108496,
        1.108661,
        1.10905,
        1.109212,
        1.109233,
        1.109245,
        1.10922,
        1.109163,
        1.109074,
        1.108954,
        1.108805,
        1.10863,
        1.108432,
        1.108214,
        1.107979,
        1.10774,
        1.107389,
        1.106675,
        1.106026,
        1.106196,
        1.10662,
        1.105973,
        1.105028,
        1.104108,
        1.103349,
        1.102603,
        1.102042,
        1.101244,
        1.104317,
        1.121286,
        1.115309,
        1.07424,
        1.073517,
        1.116737,
        1.125283,
        1.122971,
        1.118395,
        1.116156,
        1.106494,
        1.103235,
        1.099925,
        1.103858,
        1.098074,
        1.102938,
        1.101243,
        1.118732,
        1.122779,
        1.12059,
        1.089665,
        1.07591,
        1.103023,
        1.105774,
        1.083957,
        1.087325,
        1.105301,
        1.106316,
        1.077463,
        1.057324,
        1.048993,
        1.059514,
        1.050316,
        1.008027,
        1.022365,
        1.029463,
        1.001825,
        0.97931,
        0.992151,
        1.003046,
        0.997998,
        0.981192,
        0.956933,
        0.951565,
        0.976883,
        0.982454,
        0.983243,
        0.991598,
        0.99866,
        0.994386,
        0.988857,
        0.984884,
        0.984538,
        0.963599,
        0.957053,
        0.973318,
        0.978506,
        0.988006,
        0.972023,
        0.926497,
        0.94602,
        0.985297,
        0.968522,
        0.926386,
        0.929586,
        0.962605,
        0.961671,
        0.936369,
        0.904917,
        0.909606,
        0.916046,
        0.912733,
        0.88698,
        0.881338,
        0.891481,
        0.890056,
        0.886793,
        0.880421,
        0.886494,
        0.894042,
        0.88634,
        0.889084,
        0.8872,
        0.884212,
        0.881987,
        0.888889,
        0.875258,
        0.876373,
        0.88561,
        0.879921,
        0.87438,
        0.868605,
        0.87764,
        0.867997,
        0.867395,
        0.870576,
        0.88073,
        0.885116,
        0.879379,
        0.878191,
        0.87183,
        0.882575,
        0.88673,
        0.892062,
        0.891669,
        0.883467,
        0.898468,
        0.898988,
        0.893235,
        0.887753,
        0.893214,
        0.890774,
        0.884996,
        0.878098,
        0.879752,
        0.868099,
        0.868024,
        0.882749,
        0.87725,
        0.872042,
        0.865152,
        0.871882,
        0.876367,
        0.874388,
        0.876804,
        0.881729,
        0.880213,
        0.876527,
        0.888897,
        0.884318,
        0.87271,
        0.8599,
        0.873603,
        0.886225,
        0.8857,
        0.888983,
        0.88324,
        0.8781,
        0.872988,
        0.862257,
        0.873961,
        0.846397,
        0.861985,
        0.88028,
        0.892504,
        0.898722,
        0.904512,
        0.885063,
        0.886908,
        0.919589,
        0.913176,
        0.915324,
        0.902192,
        0.794984,
        0.776457,
        0.886066,
        0.895334,
        0.859223,
        0.876949,
        0.878978,
        0.86501,
        0.77992,
        0.617087,
        0.660349,
        0.823092,
        0.882891,
        0.898969,
        0.904268,
        0.906832,
        0.907622,
        0.904921,
        0.907536,
        0.921457,
        0.928277,
        0.93243,
        0.923412,
        0.906962,
        0.916793,
        0.922744,
        0.932428,
        0.940562,
        0.946844,
        0.947919,
        0.931018,
        0.906214,
        0.848233,
        0.694833,
        0.737745,
        0.861446,
        0.886671,
        0.908108,
        0.900525,
        0.90421,
        0.942354,
        0.941798,
        0.950181,
        0.945345,
        0.958004,
        0.972404,
        0.959984,
        0.947371,
        0.948058,
        0.945037,
        0.944275,
        0.937471,
        0.93912,
        0.94508,
        0.933712,
        0.924181,
        0.934938,
        0.952402,
        0.952634,
        0.938027,
        0.934277,
        0.928926,
        0.880659,
        0.909745,
        0.948746,
        0.934706,
        0.931538,
        0.954516,
        0.937111,
        0.931374,
        0.953088,
        0.965228,
        0.964978,
        0.944033,
        0.92946,
        0.944349,
        0.945612,
        0.945434,
        0.962459,
        0.956185,
        0.955704,
        0.961035,
        0.962295,
        0.95634,
        0.950959,
        0.941645,
        0.933545,
        0.945302,
        0.95835,
        0.947961,
        0.92402,
        0.947152,
        0.969845,
        0.965829,
        0.956997,
        0.948645,
        0.939051,
        0.947115,
        0.932057,
        0.916174,
        0.940172,
        0.921102,
        0.921353,
        0.883862,
        0.878638,
        0.895512,
        0.906064,
        0.9511,
        0.972374,
        0.982722,
        0.976485,
        0.975975,
        0.971976,
        0.955834,
        0.941093,
        0.924919,
        0.920061,
        0.893364,
        0.871807,
        0.854963,
        0.89119,
        0.895568,
        0.890622,
        0.898888,
        0.879553,
        0.888211,
        0.917518,
        0.903939,
        0.880914,
        0.84813,
        0.838413,
        0.836281,
        0.828935,
        0.845641,
        0.821929,
        0.764525,
        0.771909,
        0.807667,
        0.814249,
        0.802842,
        0.793518,
        0.792946,
        0.789009,
        0.779832,
        0.775796,
        0.78301,
        0.790419,
        0.788234,
        0.784292,
        0.778251,
        0.778412,
        0.785097,
        0.786441,
        0.794163,
        0.809308,
        0.814185,
        0.809198,
        0.806067,
        0.806383,
        0.803475,
        0.808303,
        0.810433,
        0.803306,
        0.793306,
        0.783334,
        0.785127,
        0.787175,
        0.799685,
        0.789074,
        0.771235,
        0.773981,
        0.797334,
        0.770499,
        0.789417,
        0.80296,
        0.794923,
        0.808487,
        0.804139,
        0.83534,
        0.860477,
        0.872259,
        0.868097,
        0.856809,
        0.836566,
        0.829787,
        0.833616,
        0.809882,
        0.805874,
        0.808017,
        0.777467,
        0.802728,
        0.816244,
        0.803527,
        0.810021,
        0.825323,
        0.833187,
        0.832571,
        0.814418,
        0.838378,
        0.836755,
        0.806636,
        0.803872,
        0.843249,
        0.849979,
        0.823587,
        0.807473,
        0.824204,
        0.83569,
        0.84269,
        0.825515,
        0.808136,
        0.82344,
        0.818238,
        0.824808,
        0.816168,
        0.823754,
        0.831033,
        0.82227,
        0.822263,
        0.823792,
        0.825579,
        0.823784,
        0.824589,
        0.836744,
        0.831099,
        0.828557,
        0.818426,
        0.828012,
        0.808762,
        0.804966,
        0.805011,
        0.809535,
        0.813278,
        0.805182,
        0.805433,
        0.806043,
        0.806496,
        0.817209,
        0.82146,
        0.810829,
        0.821096,
        0.813842,
        0.807694,
        0.819902,
        0.817832,
        0.814099,
        0.806245,
        0.805002,
        0.80081,
        0.797924,
        0.795014,
        0.805288,
        0.809147,
        0.809733,
        0.807608,
        0.811868,
        0.814253,
        0.805477,
        0.799077,
        0.804479,
        0.819372,
        0.819115,
        0.826535,
        0.826298,
        0.830693,
        0.831037,
        0.828351,
        0.824379,
        0.82858,
        0.838361,
        0.835986,
        0.836725,
        0.837894,
        0.832251,
        0.823222,
        0.833149,
        0.832483,
        0.833165,
        0.829928,
        0.834196,
        0.833004,
        0.824962,
        0.836991,
        0.835149,
        0.83768,
        0.8363,
        0.824705,
        0.824684,
        0.835614,
        0.843497,
        0.831065,
        0.829545,
        0.833548,
        0.839208,
        0.836768,
        0.834238,
        0.838338,
        0.83634,
        0.832791,
        0.830183,
        0.828006,
        0.832527,
        0.834326,
        0.831649,
        0.837152,
        0.843374,
        0.838081,
        0.842325,
        0.830875,
        0.837831,
        0.832192,
        0.823419,
        0.830255,
        0.823126,
        0.827171,
        0.821557,
        0.837481,
        0.829479,
        0.8344,
        0.837684,
        0.834914,
        0.83866,
        0.839654,
        0.840149,
        0.827467,
        0.836805,
        0.83897,
        0.836978,
        0.834124,
        0.833773,
        0.833809,
        0.833866,
        0.833944,
        0.834034,
        0.834126,
        0.834208,
        0.834269,
        0.834297,
        0.834282,
        0.834213,
        0.834078,
        0.833866,
        0.83357,
        0.833198,
        0.832765,
        0.832282,
        0.831762,
        0.83122,
        0.830666,
        0.830116,
        0.82958,
        0.829073,
        0.828604,
        0.828164,
        0.827741,
        0.827324,
        0.826901,
        0.82646,
        0.82599,
        0.825478,
        0.824912,
        0.824281,
        0.823913,
        0.82316,
        0.822372,
        0.821554,
        0.820706,
        0.819833,
        0.818937,
        0.818021,
        0.817087,
        0.816139,
        0.815181,
        0.81422,
        0.813265,
        0.812325,
        0.811409,
        0.810527,
        0.809686,
        0.808897,
        0.808167,
        0.807507,
        0.806921,
        0.806403,
        0.805943,
        0.805531,
        0.805158,
        0.804813,
        0.804487,
        0.804169,
        0.80385,
        0.803521,
        0.803172,
        0.802804,
        0.802418,
        0.802018,
        0.801604,
        0.801178,
        0.800742,
        0.800298,
        0.799848,
        0.799394
      ],
      "range":1
    }
  }
]
