[
  {
    "model":"Star, type B3(i)",
    "name":"Star, type B3(i)",
    "type":"WB_REF",
    "dataQualityMarker":3,
    "dataSource":"https://www.eso.org/sci/facilities/paranal/decommissioned/isaac/tools/lib.html",
    "manufacturer":"A. Pickles (A.J. Pickles, PASP 110,863, 1998)",
    "version":1,
    "wavelength":{
      "value":[
        1150.0,
        1155.0,
        1160.0,
        1165.0,
        1170.0,
        1175.0,
        1180.0,
        1185.0,
        1190.0,
        1195.0,
        1200.0,
        1205.0,
        1210.0,
        1215.0,
        1220.0,
        1225.0,
        1230.0,
        1235.0,
        1240.0,
        1245.0,
        1250.0,
        1255.0,
        1260.0,
        1265.0,
        1270.0,
        1275.0,
        1280.0,
        1285.0,
        1290.0,
        1295.0,
        1300.0,
        1305.0,
        1310.0,
        1315.0,
        1320.0,
        1325.0,
        1330.0,
        1335.0,
        1340.0,
        1345.0,
        1350.0,
        1355.0,
        1360.0,
        1365.0,
        1370.0,
        1375.0,
        1380.0,
        1385.0,
        1390.0,
        1395.0,
        1400.0,
        1405.0,
        1410.0,
        1415.0,
        1420.0,
        1425.0,
        1430.0,
        1435.0,
        1440.0,
        1445.0,
        1450.0,
        1455.0,
        1460.0,
        1465.0,
        1470.0,
        1475.0,
        1480.0,
        1485.0,
        1490.0,
        1495.0,
        1500.0,
        1505.0,
        1510.0,
        1515.0,
        1520.0,
        1525.0,
        1530.0,
        1535.0,
        1540.0,
        1545.0,
        1550.0,
        1555.0,
        1560.0,
        1565.0,
        1570.0,
        1575.0,
        1580.0,
        1585.0,
        1590.0,
        1595.0,
        1600.0,
        1605.0,
        1610.0,
        1615.0,
        1620.0,
        1625.0,
        1630.0,
        1635.0,
        1640.0,
        1645.0,
        1650.0,
        1655.0,
        1660.0,
        1665.0,
        1670.0,
        1675.0,
        1680.0,
        1685.0,
        1690.0,
        1695.0,
        1700.0,
        1705.0,
        1710.0,
        1715.0,
        1720.0,
        1725.0,
        1730.0,
        1735.0,
        1740.0,
        1745.0,
        1750.0,
        1755.0,
        1760.0,
        1765.0,
        1770.0,
        1775.0,
        1780.0,
        1785.0,
        1790.0,
        1795.0,
        1800.0,
        1805.0,
        1810.0,
        1815.0,
        1820.0,
        1825.0,
        1830.0,
        1835.0,
        1840.0,
        1845.0,
        1850.0,
        1855.0,
        1860.0,
        1865.0,
        1870.0,
        1875.0,
        1880.0,
        1885.0,
        1890.0,
        1895.0,
        1900.0,
        1905.0,
        1910.0,
        1915.0,
        1920.0,
        1925.0,
        1930.0,
        1935.0,
        1940.0,
        1945.0,
        1950.0,
        1955.0,
        1960.0,
        1965.0,
        1970.0,
        1975.0,
        1980.0,
        1985.0,
        1990.0,
        1995.0,
        2000.0,
        2005.0,
        2010.0,
        2015.0,
        2020.0,
        2025.0,
        2030.0,
        2035.0,
        2040.0,
        2045.0,
        2050.0,
        2055.0,
        2060.0,
        2065.0,
        2070.0,
        2075.0,
        2080.0,
        2085.0,
        2090.0,
        2095.0,
        2100.0,
        2105.0,
        2110.0,
        2115.0,
        2120.0,
        2125.0,
        2130.0,
        2135.0,
        2140.0,
        2145.0,
        2150.0,
        2155.0,
        2160.0,
        2165.0,
        2170.0,
        2175.0,
        2180.0,
        2185.0,
        2190.0,
        2195.0,
        2200.0,
        2205.0,
        2210.0,
        2215.0,
        2220.0,
        2225.0,
        2230.0,
        2235.0,
        2240.0,
        2245.0,
        2250.0,
        2255.0,
        2260.0,
        2265.0,
        2270.0,
        2275.0,
        2280.0,
        2285.0,
        2290.0,
        2295.0,
        2300.0,
        2305.0,
        2310.0,
        2315.0,
        2320.0,
        2325.0,
        2330.0,
        2335.0,
        2340.0,
        2345.0,
        2350.0,
        2355.0,
        2360.0,
        2365.0,
        2370.0,
        2375.0,
        2380.0,
        2385.0,
        2390.0,
        2395.0,
        2400.0,
        2405.0,
        2410.0,
        2415.0,
        2420.0,
        2425.0,
        2430.0,
        2435.0,
        2440.0,
        2445.0,
        2450.0,
        2455.0,
        2460.0,
        2465.0,
        2470.0,
        2475.0,
        2480.0,
        2485.0,
        2490.0,
        2495.0,
        2500.0,
        2505.0,
        2510.0,
        2515.0,
        2520.0,
        2525.0,
        2530.0,
        2535.0,
        2540.0,
        2545.0,
        2550.0,
        2555.0,
        2560.0,
        2565.0,
        2570.0,
        2575.0,
        2580.0,
        2585.0,
        2590.0,
        2595.0,
        2600.0,
        2605.0,
        2610.0,
        2615.0,
        2620.0,
        2625.0,
        2630.0,
        2635.0,
        2640.0,
        2645.0,
        2650.0,
        2655.0,
        2660.0,
        2665.0,
        2670.0,
        2675.0,
        2680.0,
        2685.0,
        2690.0,
        2695.0,
        2700.0,
        2705.0,
        2710.0,
        2715.0,
        2720.0,
        2725.0,
        2730.0,
        2735.0,
        2740.0,
        2745.0,
        2750.0,
        2755.0,
        2760.0,
        2765.0,
        2770.0,
        2775.0,
        2780.0,
        2785.0,
        2790.0,
        2795.0,
        2800.0,
        2805.0,
        2810.0,
        2815.0,
        2820.0,
        2825.0,
        2830.0,
        2835.0,
        2840.0,
        2845.0,
        2850.0,
        2855.0,
        2860.0,
        2865.0,
        2870.0,
        2875.0,
        2880.0,
        2885.0,
        2890.0,
        2895.0,
        2900.0,
        2905.0,
        2910.0,
        2915.0,
        2920.0,
        2925.0,
        2930.0,
        2935.0,
        2940.0,
        2945.0,
        2950.0,
        2955.0,
        2960.0,
        2965.0,
        2970.0,
        2975.0,
        2980.0,
        2985.0,
        2990.0,
        2995.0,
        3000.0,
        3005.0,
        3010.0,
        3015.0,
        3020.0,
        3025.0,
        3030.0,
        3035.0,
        3040.0,
        3045.0,
        3050.0,
        3055.0,
        3060.0,
        3065.0,
        3070.0,
        3075.0,
        3080.0,
        3085.0,
        3090.0,
        3095.0,
        3100.0,
        3105.0,
        3110.0,
        3115.0,
        3120.0,
        3125.0,
        3130.0,
        3135.0,
        3140.0,
        3145.0,
        3150.0,
        3155.0,
        3160.0,
        3165.0,
        3170.0,
        3175.0,
        3180.0,
        3185.0,
        3190.0,
        3195.0,
        3200.0,
        3205.0,
        3210.0,
        3215.0,
        3220.0,
        3225.0,
        3230.0,
        3235.0,
        3240.0,
        3245.0,
        3250.0,
        3255.0,
        3260.0,
        3265.0,
        3270.0,
        3275.0,
        3280.0,
        3285.0,
        3290.0,
        3295.0,
        3300.0,
        3305.0,
        3310.0,
        3315.0,
        3320.0,
        3325.0,
        3330.0,
        3335.0,
        3340.0,
        3345.0,
        3350.0,
        3355.0,
        3360.0,
        3365.0,
        3370.0,
        3375.0,
        3380.0,
        3385.0,
        3390.0,
        3395.0,
        3400.0,
        3405.0,
        3410.0,
        3415.0,
        3420.0,
        3425.0,
        3430.0,
        3435.0,
        3440.0,
        3445.0,
        3450.0,
        3455.0,
        3460.0,
        3465.0,
        3470.0,
        3475.0,
        3480.0,
        3485.0,
        3490.0,
        3495.0,
        3500.0,
        3505.0,
        3510.0,
        3515.0,
        3520.0,
        3525.0,
        3530.0,
        3535.0,
        3540.0,
        3545.0,
        3550.0,
        3555.0,
        3560.0,
        3565.0,
        3570.0,
        3575.0,
        3580.0,
        3585.0,
        3590.0,
        3595.0,
        3600.0,
        3605.0,
        3610.0,
        3615.0,
        3620.0,
        3625.0,
        3630.0,
        3635.0,
        3640.0,
        3645.0,
        3650.0,
        3655.0,
        3660.0,
        3665.0,
        3670.0,
        3675.0,
        3680.0,
        3685.0,
        3690.0,
        3695.0,
        3700.0,
        3705.0,
        3710.0,
        3715.0,
        3720.0,
        3725.0,
        3730.0,
        3735.0,
        3740.0,
        3745.0,
        3750.0,
        3755.0,
        3760.0,
        3765.0,
        3770.0,
        3775.0,
        3780.0,
        3785.0,
        3790.0,
        3795.0,
        3800.0,
        3805.0,
        3810.0,
        3815.0,
        3820.0,
        3825.0,
        3830.0,
        3835.0,
        3840.0,
        3845.0,
        3850.0,
        3855.0,
        3860.0,
        3865.0,
        3870.0,
        3875.0,
        3880.0,
        3885.0,
        3890.0,
        3895.0,
        3900.0,
        3905.0,
        3910.0,
        3915.0,
        3920.0,
        3925.0,
        3930.0,
        3935.0,
        3940.0,
        3945.0,
        3950.0,
        3955.0,
        3960.0,
        3965.0,
        3970.0,
        3975.0,
        3980.0,
        3985.0,
        3990.0,
        3995.0,
        4000.0,
        4005.0,
        4010.0,
        4015.0,
        4020.0,
        4025.0,
        4030.0,
        4035.0,
        4040.0,
        4045.0,
        4050.0,
        4055.0,
        4060.0,
        4065.0,
        4070.0,
        4075.0,
        4080.0,
        4085.0,
        4090.0,
        4095.0,
        4100.0,
        4105.0,
        4110.0,
        4115.0,
        4120.0,
        4125.0,
        4130.0,
        4135.0,
        4140.0,
        4145.0,
        4150.0,
        4155.0,
        4160.0,
        4165.0,
        4170.0,
        4175.0,
        4180.0,
        4185.0,
        4190.0,
        4195.0,
        4200.0,
        4205.0,
        4210.0,
        4215.0,
        4220.0,
        4225.0,
        4230.0,
        4235.0,
        4240.0,
        4245.0,
        4250.0,
        4255.0,
        4260.0,
        4265.0,
        4270.0,
        4275.0,
        4280.0,
        4285.0,
        4290.0,
        4295.0,
        4300.0,
        4305.0,
        4310.0,
        4315.0,
        4320.0,
        4325.0,
        4330.0,
        4335.0,
        4340.0,
        4345.0,
        4350.0,
        4355.0,
        4360.0,
        4365.0,
        4370.0,
        4375.0,
        4380.0,
        4385.0,
        4390.0,
        4395.0,
        4400.0,
        4405.0,
        4410.0,
        4415.0,
        4420.0,
        4425.0,
        4430.0,
        4435.0,
        4440.0,
        4445.0,
        4450.0,
        4455.0,
        4460.0,
        4465.0,
        4470.0,
        4475.0,
        4480.0,
        4485.0,
        4490.0,
        4495.0,
        4500.0,
        4505.0,
        4510.0,
        4515.0,
        4520.0,
        4525.0,
        4530.0,
        4535.0,
        4540.0,
        4545.0,
        4550.0,
        4555.0,
        4560.0,
        4565.0,
        4570.0,
        4575.0,
        4580.0,
        4585.0,
        4590.0,
        4595.0,
        4600.0,
        4605.0,
        4610.0,
        4615.0,
        4620.0,
        4625.0,
        4630.0,
        4635.0,
        4640.0,
        4645.0,
        4650.0,
        4655.0,
        4660.0,
        4665.0,
        4670.0,
        4675.0,
        4680.0,
        4685.0,
        4690.0,
        4695.0,
        4700.0,
        4705.0,
        4710.0,
        4715.0,
        4720.0,
        4725.0,
        4730.0,
        4735.0,
        4740.0,
        4745.0,
        4750.0,
        4755.0,
        4760.0,
        4765.0,
        4770.0,
        4775.0,
        4780.0,
        4785.0,
        4790.0,
        4795.0,
        4800.0,
        4805.0,
        4810.0,
        4815.0,
        4820.0,
        4825.0,
        4830.0,
        4835.0,
        4840.0,
        4845.0,
        4850.0,
        4855.0,
        4860.0,
        4865.0,
        4870.0,
        4875.0,
        4880.0,
        4885.0,
        4890.0,
        4895.0,
        4900.0,
        4905.0,
        4910.0,
        4915.0,
        4920.0,
        4925.0,
        4930.0,
        4935.0,
        4940.0,
        4945.0,
        4950.0,
        4955.0,
        4960.0,
        4965.0,
        4970.0,
        4975.0,
        4980.0,
        4985.0,
        4990.0,
        4995.0,
        5000.0,
        5005.0,
        5010.0,
        5015.0,
        5020.0,
        5025.0,
        5030.0,
        5035.0,
        5040.0,
        5045.0,
        5050.0,
        5055.0,
        5060.0,
        5065.0,
        5070.0,
        5075.0,
        5080.0,
        5085.0,
        5090.0,
        5095.0,
        5100.0,
        5105.0,
        5110.0,
        5115.0,
        5120.0,
        5125.0,
        5130.0,
        5135.0,
        5140.0,
        5145.0,
        5150.0,
        5155.0,
        5160.0,
        5165.0,
        5170.0,
        5175.0,
        5180.0,
        5185.0,
        5190.0,
        5195.0,
        5200.0,
        5205.0,
        5210.0,
        5215.0,
        5220.0,
        5225.0,
        5230.0,
        5235.0,
        5240.0,
        5245.0,
        5250.0,
        5255.0,
        5260.0,
        5265.0,
        5270.0,
        5275.0,
        5280.0,
        5285.0,
        5290.0,
        5295.0,
        5300.0,
        5305.0,
        5310.0,
        5315.0,
        5320.0,
        5325.0,
        5330.0,
        5335.0,
        5340.0,
        5345.0,
        5350.0,
        5355.0,
        5360.0,
        5365.0,
        5370.0,
        5375.0,
        5380.0,
        5385.0,
        5390.0,
        5395.0,
        5400.0,
        5405.0,
        5410.0,
        5415.0,
        5420.0,
        5425.0,
        5430.0,
        5435.0,
        5440.0,
        5445.0,
        5450.0,
        5455.0,
        5460.0,
        5465.0,
        5470.0,
        5475.0,
        5480.0,
        5485.0,
        5490.0,
        5495.0,
        5500.0,
        5505.0,
        5510.0,
        5515.0,
        5520.0,
        5525.0,
        5530.0,
        5535.0,
        5540.0,
        5545.0,
        5550.0,
        5555.0,
        5560.0,
        5565.0,
        5570.0,
        5575.0,
        5580.0,
        5585.0,
        5590.0,
        5595.0,
        5600.0,
        5605.0,
        5610.0,
        5615.0,
        5620.0,
        5625.0,
        5630.0,
        5635.0,
        5640.0,
        5645.0,
        5650.0,
        5655.0,
        5660.0,
        5665.0,
        5670.0,
        5675.0,
        5680.0,
        5685.0,
        5690.0,
        5695.0,
        5700.0,
        5705.0,
        5710.0,
        5715.0,
        5720.0,
        5725.0,
        5730.0,
        5735.0,
        5740.0,
        5745.0,
        5750.0,
        5755.0,
        5760.0,
        5765.0,
        5770.0,
        5775.0,
        5780.0,
        5785.0,
        5790.0,
        5795.0,
        5800.0,
        5805.0,
        5810.0,
        5815.0,
        5820.0,
        5825.0,
        5830.0,
        5835.0,
        5840.0,
        5845.0,
        5850.0,
        5855.0,
        5860.0,
        5865.0,
        5870.0,
        5875.0,
        5880.0,
        5885.0,
        5890.0,
        5895.0,
        5900.0,
        5905.0,
        5910.0,
        5915.0,
        5920.0,
        5925.0,
        5930.0,
        5935.0,
        5940.0,
        5945.0,
        5950.0,
        5955.0,
        5960.0,
        5965.0,
        5970.0,
        5975.0,
        5980.0,
        5985.0,
        5990.0,
        5995.0,
        6000.0,
        6005.0,
        6010.0,
        6015.0,
        6020.0,
        6025.0,
        6030.0,
        6035.0,
        6040.0,
        6045.0,
        6050.0,
        6055.0,
        6060.0,
        6065.0,
        6070.0,
        6075.0,
        6080.0,
        6085.0,
        6090.0,
        6095.0,
        6100.0,
        6105.0,
        6110.0,
        6115.0,
        6120.0,
        6125.0,
        6130.0,
        6135.0,
        6140.0,
        6145.0,
        6150.0,
        6155.0,
        6160.0,
        6165.0,
        6170.0,
        6175.0,
        6180.0,
        6185.0,
        6190.0,
        6195.0,
        6200.0,
        6205.0,
        6210.0,
        6215.0,
        6220.0,
        6225.0,
        6230.0,
        6235.0,
        6240.0,
        6245.0,
        6250.0,
        6255.0,
        6260.0,
        6265.0,
        6270.0,
        6275.0,
        6280.0,
        6285.0,
        6290.0,
        6295.0,
        6300.0,
        6305.0,
        6310.0,
        6315.0,
        6320.0,
        6325.0,
        6330.0,
        6335.0,
        6340.0,
        6345.0,
        6350.0,
        6355.0,
        6360.0,
        6365.0,
        6370.0,
        6375.0,
        6380.0,
        6385.0,
        6390.0,
        6395.0,
        6400.0,
        6405.0,
        6410.0,
        6415.0,
        6420.0,
        6425.0,
        6430.0,
        6435.0,
        6440.0,
        6445.0,
        6450.0,
        6455.0,
        6460.0,
        6465.0,
        6470.0,
        6475.0,
        6480.0,
        6485.0,
        6490.0,
        6495.0,
        6500.0,
        6505.0,
        6510.0,
        6515.0,
        6520.0,
        6525.0,
        6530.0,
        6535.0,
        6540.0,
        6545.0,
        6550.0,
        6555.0,
        6560.0,
        6565.0,
        6570.0,
        6575.0,
        6580.0,
        6585.0,
        6590.0,
        6595.0,
        6600.0,
        6605.0,
        6610.0,
        6615.0,
        6620.0,
        6625.0,
        6630.0,
        6635.0,
        6640.0,
        6645.0,
        6650.0,
        6655.0,
        6660.0,
        6665.0,
        6670.0,
        6675.0,
        6680.0,
        6685.0,
        6690.0,
        6695.0,
        6700.0,
        6705.0,
        6710.0,
        6715.0,
        6720.0,
        6725.0,
        6730.0,
        6735.0,
        6740.0,
        6745.0,
        6750.0,
        6755.0,
        6760.0,
        6765.0,
        6770.0,
        6775.0,
        6780.0,
        6785.0,
        6790.0,
        6795.0,
        6800.0,
        6805.0,
        6810.0,
        6815.0,
        6820.0,
        6825.0,
        6830.0,
        6835.0,
        6840.0,
        6845.0,
        6850.0,
        6855.0,
        6860.0,
        6865.0,
        6870.0,
        6875.0,
        6880.0,
        6885.0,
        6890.0,
        6895.0,
        6900.0,
        6905.0,
        6910.0,
        6915.0,
        6920.0,
        6925.0,
        6930.0,
        6935.0,
        6940.0,
        6945.0,
        6950.0,
        6955.0,
        6960.0,
        6965.0,
        6970.0,
        6975.0,
        6980.0,
        6985.0,
        6990.0,
        6995.0,
        7000.0,
        7005.0,
        7010.0,
        7015.0,
        7020.0,
        7025.0,
        7030.0,
        7035.0,
        7040.0,
        7045.0,
        7050.0,
        7055.0,
        7060.0,
        7065.0,
        7070.0,
        7075.0,
        7080.0,
        7085.0,
        7090.0,
        7095.0,
        7100.0,
        7105.0,
        7110.0,
        7115.0,
        7120.0,
        7125.0,
        7130.0,
        7135.0,
        7140.0,
        7145.0,
        7150.0,
        7155.0,
        7160.0,
        7165.0,
        7170.0,
        7175.0,
        7180.0,
        7185.0,
        7190.0,
        7195.0,
        7200.0,
        7205.0,
        7210.0,
        7215.0,
        7220.0,
        7225.0,
        7230.0,
        7235.0,
        7240.0,
        7245.0,
        7250.0,
        7255.0,
        7260.0,
        7265.0,
        7270.0,
        7275.0,
        7280.0,
        7285.0,
        7290.0,
        7295.0,
        7300.0,
        7305.0,
        7310.0,
        7315.0,
        7320.0,
        7325.0,
        7330.0,
        7335.0,
        7340.0,
        7345.0,
        7350.0,
        7355.0,
        7360.0,
        7365.0,
        7370.0,
        7375.0,
        7380.0,
        7385.0,
        7390.0,
        7395.0,
        7400.0,
        7405.0,
        7410.0,
        7415.0,
        7420.0,
        7425.0,
        7430.0,
        7435.0,
        7440.0,
        7445.0,
        7450.0,
        7455.0,
        7460.0,
        7465.0,
        7470.0,
        7475.0,
        7480.0,
        7485.0,
        7490.0,
        7495.0,
        7500.0,
        7505.0,
        7510.0,
        7515.0,
        7520.0,
        7525.0,
        7530.0,
        7535.0,
        7540.0,
        7545.0,
        7550.0,
        7555.0,
        7560.0,
        7565.0,
        7570.0,
        7575.0,
        7580.0,
        7585.0,
        7590.0,
        7595.0,
        7600.0,
        7605.0,
        7610.0,
        7615.0,
        7620.0,
        7625.0,
        7630.0,
        7635.0,
        7640.0,
        7645.0,
        7650.0,
        7655.0,
        7660.0,
        7665.0,
        7670.0,
        7675.0,
        7680.0,
        7685.0,
        7690.0,
        7695.0,
        7700.0,
        7705.0,
        7710.0,
        7715.0,
        7720.0,
        7725.0,
        7730.0,
        7735.0,
        7740.0,
        7745.0,
        7750.0,
        7755.0,
        7760.0,
        7765.0,
        7770.0,
        7775.0,
        7780.0,
        7785.0,
        7790.0,
        7795.0,
        7800.0,
        7805.0,
        7810.0,
        7815.0,
        7820.0,
        7825.0,
        7830.0,
        7835.0,
        7840.0,
        7845.0,
        7850.0,
        7855.0,
        7860.0,
        7865.0,
        7870.0,
        7875.0,
        7880.0,
        7885.0,
        7890.0,
        7895.0,
        7900.0,
        7905.0,
        7910.0,
        7915.0,
        7920.0,
        7925.0,
        7930.0,
        7935.0,
        7940.0,
        7945.0,
        7950.0,
        7955.0,
        7960.0,
        7965.0,
        7970.0,
        7975.0,
        7980.0,
        7985.0,
        7990.0,
        7995.0,
        8000.0,
        8005.0,
        8010.0,
        8015.0,
        8020.0,
        8025.0,
        8030.0,
        8035.0,
        8040.0,
        8045.0,
        8050.0,
        8055.0,
        8060.0,
        8065.0,
        8070.0,
        8075.0,
        8080.0,
        8085.0,
        8090.0,
        8095.0,
        8100.0,
        8105.0,
        8110.0,
        8115.0,
        8120.0,
        8125.0,
        8130.0,
        8135.0,
        8140.0,
        8145.0,
        8150.0,
        8155.0,
        8160.0,
        8165.0,
        8170.0,
        8175.0,
        8180.0,
        8185.0,
        8190.0,
        8195.0,
        8200.0,
        8205.0,
        8210.0,
        8215.0,
        8220.0,
        8225.0,
        8230.0,
        8235.0,
        8240.0,
        8245.0,
        8250.0,
        8255.0,
        8260.0,
        8265.0,
        8270.0,
        8275.0,
        8280.0,
        8285.0,
        8290.0,
        8295.0,
        8300.0,
        8305.0,
        8310.0,
        8315.0,
        8320.0,
        8325.0,
        8330.0,
        8335.0,
        8340.0,
        8345.0,
        8350.0,
        8355.0,
        8360.0,
        8365.0,
        8370.0,
        8375.0,
        8380.0,
        8385.0,
        8390.0,
        8395.0,
        8400.0,
        8405.0,
        8410.0,
        8415.0,
        8420.0,
        8425.0,
        8430.0,
        8435.0,
        8440.0,
        8445.0,
        8450.0,
        8455.0,
        8460.0,
        8465.0,
        8470.0,
        8475.0,
        8480.0,
        8485.0,
        8490.0,
        8495.0,
        8500.0,
        8505.0,
        8510.0,
        8515.0,
        8520.0,
        8525.0,
        8530.0,
        8535.0,
        8540.0,
        8545.0,
        8550.0,
        8555.0,
        8560.0,
        8565.0,
        8570.0,
        8575.0,
        8580.0,
        8585.0,
        8590.0,
        8595.0,
        8600.0,
        8605.0,
        8610.0,
        8615.0,
        8620.0,
        8625.0,
        8630.0,
        8635.0,
        8640.0,
        8645.0,
        8650.0,
        8655.0,
        8660.0,
        8665.0,
        8670.0,
        8675.0,
        8680.0,
        8685.0,
        8690.0,
        8695.0,
        8700.0,
        8705.0,
        8710.0,
        8715.0,
        8720.0,
        8725.0,
        8730.0,
        8735.0,
        8740.0,
        8745.0,
        8750.0,
        8755.0,
        8760.0,
        8765.0,
        8770.0,
        8775.0,
        8780.0,
        8785.0,
        8790.0,
        8795.0,
        8800.0,
        8805.0,
        8810.0,
        8815.0,
        8820.0,
        8825.0,
        8830.0,
        8835.0,
        8840.0,
        8845.0,
        8850.0,
        8855.0,
        8860.0,
        8865.0,
        8870.0,
        8875.0,
        8880.0,
        8885.0,
        8890.0,
        8895.0,
        8900.0,
        8905.0,
        8910.0,
        8915.0,
        8920.0,
        8925.0,
        8930.0,
        8935.0,
        8940.0,
        8945.0,
        8950.0,
        8955.0,
        8960.0,
        8965.0,
        8970.0,
        8975.0,
        8980.0,
        8985.0,
        8990.0,
        8995.0,
        9000.0,
        9005.0,
        9010.0,
        9015.0,
        9020.0,
        9025.0,
        9030.0,
        9035.0,
        9040.0,
        9045.0,
        9050.0,
        9055.0,
        9060.0,
        9065.0,
        9070.0,
        9075.0,
        9080.0,
        9085.0,
        9090.0,
        9095.0,
        9100.0,
        9105.0,
        9110.0,
        9115.0,
        9120.0,
        9125.0,
        9130.0,
        9135.0,
        9140.0,
        9145.0,
        9150.0,
        9155.0,
        9160.0,
        9165.0,
        9170.0,
        9175.0,
        9180.0,
        9185.0,
        9190.0,
        9195.0,
        9200.0,
        9205.0,
        9210.0,
        9215.0,
        9220.0,
        9225.0,
        9230.0,
        9235.0,
        9240.0,
        9245.0,
        9250.0,
        9255.0,
        9260.0,
        9265.0,
        9270.0,
        9275.0,
        9280.0,
        9285.0,
        9290.0,
        9295.0,
        9300.0,
        9305.0,
        9310.0,
        9315.0,
        9320.0,
        9325.0,
        9330.0,
        9335.0,
        9340.0,
        9345.0,
        9350.0,
        9355.0,
        9360.0,
        9365.0,
        9370.0,
        9375.0,
        9380.0,
        9385.0,
        9390.0,
        9395.0,
        9400.0,
        9405.0,
        9410.0,
        9415.0,
        9420.0,
        9425.0,
        9430.0,
        9435.0,
        9440.0,
        9445.0,
        9450.0,
        9455.0,
        9460.0,
        9465.0,
        9470.0,
        9475.0,
        9480.0,
        9485.0,
        9490.0,
        9495.0,
        9500.0,
        9505.0,
        9510.0,
        9515.0,
        9520.0,
        9525.0,
        9530.0,
        9535.0,
        9540.0,
        9545.0,
        9550.0,
        9555.0,
        9560.0,
        9565.0,
        9570.0,
        9575.0,
        9580.0,
        9585.0,
        9590.0,
        9595.0,
        9600.0,
        9605.0,
        9610.0,
        9615.0,
        9620.0,
        9625.0,
        9630.0,
        9635.0,
        9640.0,
        9645.0,
        9650.0,
        9655.0,
        9660.0,
        9665.0,
        9670.0,
        9675.0,
        9680.0,
        9685.0,
        9690.0,
        9695.0,
        9700.0,
        9705.0,
        9710.0,
        9715.0,
        9720.0,
        9725.0,
        9730.0,
        9735.0,
        9740.0,
        9745.0,
        9750.0,
        9755.0,
        9760.0,
        9765.0,
        9770.0,
        9775.0,
        9780.0,
        9785.0,
        9790.0,
        9795.0,
        9800.0,
        9805.0,
        9810.0,
        9815.0,
        9820.0,
        9825.0,
        9830.0,
        9835.0,
        9840.0,
        9845.0,
        9850.0,
        9855.0,
        9860.0,
        9865.0,
        9870.0,
        9875.0,
        9880.0,
        9885.0,
        9890.0,
        9895.0,
        9900.0,
        9905.0,
        9910.0,
        9915.0,
        9920.0,
        9925.0,
        9930.0,
        9935.0,
        9940.0,
        9945.0,
        9950.0,
        9955.0,
        9960.0,
        9965.0,
        9970.0,
        9975.0,
        9980.0,
        9985.0,
        9990.0,
        9995.0,
        10000.0,
        10005.0,
        10010.0,
        10015.0,
        10020.0,
        10025.0,
        10030.0,
        10035.0,
        10040.0,
        10045.0,
        10050.0,
        10055.0,
        10060.0,
        10065.0,
        10070.0,
        10075.0,
        10080.0,
        10085.0,
        10090.0,
        10095.0,
        10100.0,
        10105.0,
        10110.0,
        10115.0,
        10120.0,
        10125.0,
        10130.0,
        10135.0,
        10140.0,
        10145.0,
        10150.0,
        10155.0,
        10160.0,
        10165.0,
        10170.0,
        10175.0,
        10180.0,
        10185.0,
        10190.0,
        10195.0,
        10200.0,
        10205.0,
        10210.0,
        10215.0,
        10220.0,
        10225.0,
        10230.0,
        10235.0,
        10240.0,
        10245.0,
        10250.0,
        10255.0,
        10260.0,
        10265.0,
        10270.0,
        10275.0,
        10280.0,
        10285.0,
        10290.0,
        10295.0,
        10300.0,
        10305.0,
        10310.0,
        10315.0,
        10320.0,
        10325.0,
        10330.0,
        10335.0,
        10340.0,
        10345.0,
        10350.0,
        10355.0,
        10360.0,
        10365.0,
        10370.0,
        10375.0,
        10380.0,
        10385.0,
        10390.0,
        10395.0,
        10400.0,
        10405.0,
        10410.0,
        10415.0,
        10420.0,
        10425.0,
        10430.0,
        10435.0,
        10440.0,
        10445.0,
        10450.0,
        10455.0,
        10460.0,
        10465.0,
        10470.0,
        10475.0,
        10480.0,
        10485.0,
        10490.0,
        10495.0,
        10500.0
      ],
      "units":"angstrom"
    },
    "values":{
      "value":[
        10.277709,
        8.377217,
        7.936257,
        8.323269,
        7.055511,
        5.694718,
        7.224735,
        8.084704,
        6.196263,
        5.066886,
        4.258538,
        2.355778,
        2.242455,
        2.073498,
        4.213542,
        5.669512,
        6.364416,
        8.310771,
        10.398778,
        9.657912,
        8.22566,
        8.729335,
        7.493419,
        7.555439,
        9.023658,
        8.977379,
        9.135174,
        8.277356,
        7.213993,
        5.881287,
        5.481084,
        6.945757,
        8.845069,
        9.899487,
        10.032453,
        8.552743,
        7.44557,
        7.569311,
        9.216653,
        8.753964,
        9.536081,
        9.802718,
        9.422842,
        8.791453,
        8.680458,
        7.881489,
        7.691145,
        7.821867,
        6.946896,
        6.557394,
        7.165282,
        8.532839,
        8.60863,
        7.915738,
        7.42789,
        8.192764,
        8.898673,
        8.870767,
        9.271611,
        9.149354,
        9.401783,
        8.997087,
        9.281334,
        8.791833,
        8.245023,
        8.171882,
        8.245081,
        8.621533,
        9.017461,
        8.108274,
        7.561114,
        7.431353,
        7.381595,
        7.076334,
        7.673853,
        7.032627,
        6.130529,
        5.798634,
        5.884028,
        5.39565,
        7.096327,
        7.837659,
        6.900173,
        6.771106,
        6.854515,
        7.035464,
        7.094765,
        7.545028,
        7.822956,
        7.295528,
        6.927829,
        6.523828,
        6.403255,
        6.764768,
        6.893658,
        6.910854,
        6.865196,
        7.219674,
        7.401273,
        7.695653,
        7.674196,
        7.145671,
        6.97577,
        7.284713,
        7.236509,
        7.304541,
        7.639642,
        7.702495,
        7.127398,
        6.736904,
        6.904277,
        6.621723,
        5.935454,
        5.55409,
        5.090903,
        5.693442,
        6.533632,
        6.703651,
        6.486789,
        6.019352,
        6.001526,
        6.763338,
        6.919333,
        6.62663,
        6.046245,
        5.89299,
        6.743637,
        6.715726,
        5.962167,
        6.921725,
        7.803958,
        7.596396,
        6.960474,
        6.550095,
        6.515735,
        6.646003,
        6.661601,
        6.413379,
        5.805017,
        4.883004,
        4.339304,
        4.827968,
        5.269483,
        5.630766,
        5.913666,
        5.978544,
        5.109012,
        4.160526,
        3.75104,
        4.001487,
        4.570061,
        4.597343,
        4.421146,
        4.03301,
        3.894261,
        3.786315,
        4.121559,
        4.725405,
        4.717888,
        4.765872,
        4.419002,
        4.227437,
        3.781096,
        3.546242,
        3.658728,
        4.750617,
        5.037118,
        5.127407,
        4.660585,
        4.123725,
        3.767849,
        4.161553,
        4.220773,
        4.745977,
        5.032046,
        5.438131,
        5.887423,
        5.881728,
        5.350406,
        4.390413,
        4.567683,
        4.956131,
        4.975492,
        4.640472,
        4.974538,
        5.432525,
        5.713606,
        5.923181,
        5.63642,
        4.984327,
        4.851808,
        4.862775,
        4.921061,
        5.464712,
        5.37238,
        5.083711,
        5.525495,
        5.973526,
        6.032779,
        5.676974,
        4.986349,
        4.886577,
        5.4715,
        5.601171,
        5.703205,
        5.476244,
        5.383813,
        5.48759,
        5.695791,
        5.807936,
        5.917401,
        5.837944,
        5.32376,
        5.228223,
        5.137443,
        4.972635,
        4.824605,
        4.997943,
        5.114806,
        5.046309,
        5.275707,
        5.218322,
        4.991113,
        4.713698,
        5.045127,
        5.318826,
        5.284162,
        5.192894,
        5.606518,
        5.550897,
        5.074947,
        4.690254,
        5.12756,
        5.516922,
        5.224828,
        4.959097,
        4.795264,
        4.854336,
        4.702047,
        4.653965,
        4.450277,
        4.70282,
        5.079316,
        4.991478,
        4.84483,
        4.833836,
        4.827037,
        4.811517,
        4.596106,
        4.618009,
        4.726925,
        4.811791,
        4.650477,
        4.523459,
        4.55822,
        4.708394,
        4.982697,
        4.93727,
        4.725852,
        4.682407,
        4.827713,
        4.929191,
        5.112308,
        5.08724,
        4.838854,
        4.686449,
        4.791314,
        4.788483,
        4.640751,
        4.54971,
        4.687314,
        4.758463,
        4.819614,
        4.666363,
        4.450275,
        4.498981,
        4.602979,
        4.454309,
        4.426081,
        4.122981,
        4.208589,
        4.476792,
        4.730182,
        4.728045,
        4.450717,
        4.576565,
        4.113874,
        3.965456,
        4.458904,
        4.540211,
        4.693779,
        4.51,
        4.558309,
        4.545074,
        4.574239,
        4.59333,
        4.524899,
        4.536489,
        4.713177,
        4.995937,
        4.947657,
        4.958678,
        5.012756,
        4.804102,
        4.675882,
        4.651492,
        4.904062,
        4.880037,
        4.933202,
        4.755039,
        4.405487,
        4.419426,
        4.452293,
        4.332366,
        4.3509,
        4.550941,
        4.703783,
        4.72211,
        4.524137,
        4.193021,
        4.204561,
        4.004997,
        4.183454,
        4.975475,
        4.808034,
        4.395271,
        4.43803,
        4.351859,
        4.295117,
        4.213952,
        3.721569,
        3.683912,
        4.051059,
        4.439089,
        4.464475,
        4.398848,
        4.223469,
        4.116827,
        4.11062,
        4.05446,
        4.151393,
        4.133696,
        4.141829,
        4.237001,
        4.376415,
        4.215962,
        4.107402,
        4.302176,
        4.285616,
        4.390532,
        4.279331,
        4.111824,
        4.211908,
        4.20956,
        4.148506,
        4.117376,
        3.995529,
        4.035691,
        4.115662,
        4.178915,
        4.016589,
        4.063237,
        4.099142,
        3.955965,
        4.098199,
        4.172331,
        4.017648,
        3.963133,
        3.833807,
        3.801254,
        3.882725,
        3.896271,
        3.929901,
        3.798886,
        3.745189,
        3.764863,
        3.792441,
        3.812346,
        3.813468,
        3.664701,
        3.697375,
        3.839771,
        3.706688,
        3.745474,
        3.810296,
        3.715922,
        3.85569,
        3.782197,
        3.758743,
        3.701906,
        3.489267,
        3.68387,
        3.874645,
        3.901716,
        3.839899,
        3.803132,
        3.820568,
        3.905824,
        3.880121,
        3.844065,
        3.973972,
        3.72273,
        3.593864,
        3.625944,
        3.700187,
        3.750519,
        3.703152,
        3.660063,
        3.713831,
        3.691684,
        3.65728,
        3.649024,
        3.642473,
        3.63733,
        3.633303,
        3.630096,
        3.627416,
        3.624967,
        3.622457,
        3.61959,
        3.616071,
        3.611651,
        3.60625,
        3.59983,
        3.592357,
        3.583793,
        3.574103,
        3.56325,
        3.551198,
        3.537911,
        3.523352,
        3.507523,
        3.490579,
        3.47271,
        3.454111,
        3.434972,
        3.415486,
        3.395845,
        3.376241,
        3.356866,
        3.337912,
        3.319531,
        3.301711,
        3.2844,
        3.267545,
        3.251095,
        3.234996,
        3.219198,
        3.203646,
        3.18829,
        3.173077,
        3.157966,
        3.142963,
        3.128084,
        3.113347,
        3.098768,
        3.084365,
        3.070154,
        3.056153,
        3.042377,
        3.028846,
        3.015569,
        3.002538,
        2.989735,
        2.977146,
        2.964755,
        2.952546,
        2.940503,
        2.928612,
        2.916856,
        2.90522,
        2.893688,
        2.631194,
        2.630781,
        2.651968,
        2.666178,
        2.645329,
        2.612126,
        2.6027,
        2.609078,
        2.59891,
        2.57476,
        2.548505,
        2.571596,
        2.570453,
        2.530504,
        2.508671,
        2.469813,
        2.435546,
        2.458667,
        2.33512,
        2.35838,
        2.389436,
        2.384384,
        2.359449,
        2.351982,
        2.337411,
        2.292674,
        2.31813,
        2.364285,
        2.376088,
        2.411301,
        2.403059,
        2.378556,
        2.401465,
        2.366227,
        2.380306,
        2.387667,
        2.408927,
        2.427085,
        2.45751,
        2.467953,
        2.509173,
        2.609081,
        2.648122,
        2.695486,
        2.708497,
        2.631138,
        2.871827,
        2.876604,
        2.669007,
        2.852293,
        3.006781,
        2.863217,
        2.665048,
        2.894677,
        3.193284,
        3.189244,
        3.049607,
        2.763266,
        2.749534,
        3.072917,
        3.270729,
        3.222576,
        3.126714,
        3.091671,
        2.817072,
        2.612493,
        2.919078,
        3.166079,
        3.221103,
        3.164822,
        3.12271,
        3.091976,
        3.057132,
        3.038659,
        2.901022,
        2.57125,
        2.522651,
        2.877554,
        3.067698,
        3.079947,
        3.088364,
        3.034446,
        2.954473,
        2.892272,
        2.792748,
        2.818389,
        2.944633,
        2.993682,
        2.956878,
        2.883389,
        2.728284,
        2.393407,
        2.232303,
        2.543921,
        2.768558,
        2.828944,
        2.821998,
        2.787376,
        2.755751,
        2.721494,
        2.712998,
        2.731368,
        2.673788,
        2.572306,
        2.605337,
        2.673107,
        2.692916,
        2.693642,
        2.686694,
        2.700749,
        2.716692,
        2.702966,
        2.668926,
        2.649434,
        2.637556,
        2.602934,
        2.530146,
        2.34024,
        2.10985,
        2.195764,
        2.42788,
        2.516927,
        2.493119,
        2.463315,
        2.454442,
        2.451899,
        2.408709,
        2.39099,
        2.441611,
        2.490943,
        2.481201,
        2.427766,
        2.407517,
        2.42439,
        2.432515,
        2.41955,
        2.41384,
        2.394585,
        2.384879,
        2.386047,
        2.382312,
        2.38306,
        2.373971,
        2.358488,
        2.334883,
        2.319994,
        2.322025,
        2.32304,
        2.315973,
        2.304821,
        2.274209,
        2.229994,
        2.214834,
        2.24054,
        2.242197,
        2.236263,
        2.232235,
        2.225095,
        2.218596,
        2.218442,
        2.211473,
        2.19898,
        2.181914,
        2.147453,
        2.073169,
        1.900091,
        1.746811,
        1.866187,
        2.036326,
        2.112769,
        2.131552,
        2.123372,
        2.108119,
        2.105603,
        2.092117,
        2.019217,
        2.00348,
        2.047946,
        2.04394,
        2.033071,
        2.005909,
        1.953443,
        1.922458,
        1.890378,
        1.862412,
        1.86693,
        1.913051,
        1.941182,
        1.950548,
        1.959055,
        1.950876,
        1.902538,
        1.802834,
        1.804815,
        1.82467,
        1.872405,
        1.900309,
        1.903671,
        1.907577,
        1.892801,
        1.887998,
        1.889688,
        1.897424,
        1.879042,
        1.864855,
        1.871687,
        1.859348,
        1.844231,
        1.800577,
        1.797957,
        1.809808,
        1.800923,
        1.794163,
        1.781904,
        1.780762,
        1.773849,
        1.752397,
        1.755177,
        1.742387,
        1.733346,
        1.738643,
        1.733742,
        1.723024,
        1.718035,
        1.686734,
        1.680398,
        1.692684,
        1.702374,
        1.701379,
        1.70273,
        1.706099,
        1.680838,
        1.671208,
        1.68313,
        1.675262,
        1.679033,
        1.667697,
        1.657475,
        1.63982,
        1.634354,
        1.613774,
        1.588659,
        1.601411,
        1.588439,
        1.585533,
        1.591162,
        1.582649,
        1.577867,
        1.56966,
        1.557597,
        1.558436,
        1.548484,
        1.545566,
        1.537863,
        1.521488,
        1.526734,
        1.531548,
        1.529064,
        1.510308,
        1.505506,
        1.499877,
        1.494481,
        1.49288,
        1.496149,
        1.492551,
        1.492528,
        1.487776,
        1.462888,
        1.421558,
        1.330889,
        1.208527,
        1.251709,
        1.386179,
        1.395048,
        1.384374,
        1.395505,
        1.407257,
        1.422226,
        1.424357,
        1.41473,
        1.415395,
        1.39089,
        1.32925,
        1.33391,
        1.398882,
        1.40852,
        1.41015,
        1.414613,
        1.411361,
        1.400818,
        1.396499,
        1.380029,
        1.367235,
        1.369678,
        1.362984,
        1.36047,
        1.356925,
        1.352847,
        1.339206,
        1.306752,
        1.292883,
        1.272089,
        1.295574,
        1.325166,
        1.317221,
        1.313579,
        1.302842,
        1.283998,
        1.286301,
        1.288163,
        1.289822,
        1.301733,
        1.299889,
        1.294134,
        1.289199,
        1.287389,
        1.290883,
        1.290333,
        1.280441,
        1.273578,
        1.270465,
        1.269682,
        1.264617,
        1.261438,
        1.259277,
        1.257147,
        1.252066,
        1.25432,
        1.256958,
        1.248122,
        1.241349,
        1.230845,
        1.215604,
        1.2251,
        1.232837,
        1.226531,
        1.227051,
        1.231739,
        1.226085,
        1.219725,
        1.211021,
        1.207941,
        1.207708,
        1.202343,
        1.20443,
        1.195919,
        1.18608,
        1.182295,
        1.178837,
        1.181299,
        1.182219,
        1.177212,
        1.169019,
        1.160339,
        1.155178,
        1.154268,
        1.153643,
        1.149087,
        1.144501,
        1.147629,
        1.14865,
        1.138442,
        1.127633,
        1.129386,
        1.124199,
        1.123838,
        1.12326,
        1.118925,
        1.121415,
        1.121128,
        1.102574,
        1.101707,
        1.111526,
        1.106573,
        1.107707,
        1.100365,
        1.097358,
        1.090332,
        1.083654,
        1.08231,
        1.085264,
        1.081315,
        1.071997,
        1.062368,
        1.051567,
        1.050476,
        1.048092,
        1.039376,
        1.034225,
        1.022807,
        1.032559,
        1.0428,
        1.044774,
        1.041501,
        1.036811,
        1.029367,
        1.024815,
        1.030496,
        1.034667,
        1.019556,
        1.007991,
        1.020282,
        1.01776,
        1.007317,
        1.001945,
        0.997521,
        1.000342,
        1.00391,
        1.006532,
        1.003784,
        1.001292,
        0.998269,
        0.99455,
        0.993344,
        0.996519,
        1.000661,
        0.993604,
        0.989375,
        0.983116,
        0.974852,
        0.97295,
        0.973338,
        0.972483,
        0.969136,
        0.963271,
        0.954402,
        0.940742,
        0.942843,
        0.947909,
        0.953357,
        0.940768,
        0.92482,
        0.923613,
        0.924209,
        0.919561,
        0.923381,
        0.923601,
        0.919722,
        0.91313,
        0.90382,
        0.906122,
        0.911746,
        0.910168,
        0.901918,
        0.903675,
        0.899562,
        0.890191,
        0.887744,
        0.886554,
        0.885654,
        0.887489,
        0.883348,
        0.874234,
        0.848362,
        0.817067,
        0.834885,
        0.850743,
        0.844136,
        0.850288,
        0.86049,
        0.859513,
        0.856643,
        0.853957,
        0.853319,
        0.850018,
        0.847957,
        0.843211,
        0.842379,
        0.835087,
        0.837829,
        0.84047,
        0.832205,
        0.80476,
        0.758116,
        0.785927,
        0.781768,
        0.707164,
        0.7083,
        0.769668,
        0.817717,
        0.807017,
        0.80982,
        0.801124,
        0.798918,
        0.799725,
        0.796654,
        0.790405,
        0.782051,
        0.783302,
        0.784693,
        0.784468,
        0.78534,
        0.779599,
        0.774896,
        0.773131,
        0.773332,
        0.770218,
        0.769714,
        0.76695,
        0.763709,
        0.761399,
        0.759819,
        0.760745,
        0.761109,
        0.761999,
        0.7499,
        0.748164,
        0.749774,
        0.748971,
        0.747274,
        0.746431,
        0.747753,
        0.745066,
        0.739341,
        0.738471,
        0.738331,
        0.738662,
        0.733103,
        0.729618,
        0.728226,
        0.728386,
        0.728561,
        0.730237,
        0.727305,
        0.722234,
        0.719465,
        0.713626,
        0.711307,
        0.712564,
        0.708129,
        0.702992,
        0.700624,
        0.696934,
        0.692702,
        0.691117,
        0.689587,
        0.689895,
        0.688322,
        0.686191,
        0.6843,
        0.685532,
        0.686122,
        0.685108,
        0.684693,
        0.683044,
        0.683057,
        0.684221,
        0.681756,
        0.677355,
        0.675394,
        0.674074,
        0.666916,
        0.6577,
        0.642552,
        0.612539,
        0.611116,
        0.637795,
        0.651222,
        0.649242,
        0.647267,
        0.646447,
        0.647567,
        0.649532,
        0.650206,
        0.647077,
        0.64402,
        0.64021,
        0.629418,
        0.627947,
        0.639687,
        0.64153,
        0.638433,
        0.627012,
        0.621719,
        0.625875,
        0.630697,
        0.635197,
        0.631696,
        0.626032,
        0.624869,
        0.630279,
        0.629349,
        0.630104,
        0.629182,
        0.62727,
        0.626391,
        0.621122,
        0.613618,
        0.611346,
        0.609774,
        0.609692,
        0.607729,
        0.605383,
        0.602795,
        0.60116,
        0.597092,
        0.59772,
        0.597736,
        0.599986,
        0.598734,
        0.599537,
        0.597241,
        0.599059,
        0.597364,
        0.592945,
        0.592986,
        0.593457,
        0.591692,
        0.588832,
        0.585758,
        0.576315,
        0.566906,
        0.572948,
        0.572176,
        0.555707,
        0.561549,
        0.57518,
        0.5771,
        0.575273,
        0.574884,
        0.568985,
        0.565374,
        0.566773,
        0.569358,
        0.567687,
        0.564672,
        0.563157,
        0.561787,
        0.562658,
        0.559369,
        0.555984,
        0.5525,
        0.546403,
        0.52623,
        0.508962,
        0.533849,
        0.547532,
        0.547991,
        0.546231,
        0.544582,
        0.542878,
        0.540672,
        0.539808,
        0.538651,
        0.536567,
        0.535266,
        0.532752,
        0.531703,
        0.532909,
        0.531035,
        0.529732,
        0.529165,
        0.527227,
        0.524759,
        0.524317,
        0.522723,
        0.521149,
        0.52136,
        0.520395,
        0.519375,
        0.518978,
        0.518241,
        0.516408,
        0.513243,
        0.511766,
        0.510359,
        0.509949,
        0.508732,
        0.507451,
        0.506255,
        0.505081,
        0.503913,
        0.502765,
        0.501601,
        0.500487,
        0.499369,
        0.498262,
        0.497148,
        0.496031,
        0.494913,
        0.493796,
        0.492677,
        0.491599,
        0.490525,
        0.489491,
        0.488478,
        0.487448,
        0.486455,
        0.485462,
        0.484409,
        0.483351,
        0.482281,
        0.481235,
        0.483046,
        0.480297,
        0.477406,
        0.470565,
        0.47106,
        0.470935,
        0.468294,
        0.469295,
        0.468887,
        0.465698,
        0.462027,
        0.462152,
        0.465823,
        0.46734,
        0.465403,
        0.463346,
        0.463081,
        0.451858,
        0.434513,
        0.446129,
        0.459142,
        0.460632,
        0.461656,
        0.462237,
        0.45954,
        0.455705,
        0.453923,
        0.453751,
        0.452222,
        0.453252,
        0.454475,
        0.453084,
        0.453421,
        0.451582,
        0.449681,
        0.451304,
        0.448038,
        0.444117,
        0.440865,
        0.433599,
        0.424962,
        0.424064,
        0.418859,
        0.420409,
        0.421103,
        0.419777,
        0.420749,
        0.430797,
        0.435242,
        0.436219,
        0.429785,
        0.42144,
        0.415693,
        0.416005,
        0.418443,
        0.417411,
        0.414301,
        0.416234,
        0.415627,
        0.413641,
        0.404956,
        0.403566,
        0.404197,
        0.404325,
        0.407209,
        0.407546,
        0.403623,
        0.405525,
        0.403408,
        0.402279,
        0.404119,
        0.40261,
        0.399349,
        0.397805,
        0.398306,
        0.395668,
        0.394619,
        0.39373,
        0.390655,
        0.388983,
        0.389028,
        0.389321,
        0.390107,
        0.390875,
        0.387479,
        0.386405,
        0.387384,
        0.384903,
        0.387312,
        0.387685,
        0.382373,
        0.382087,
        0.381466,
        0.380619,
        0.3809,
        0.381206,
        0.379914,
        0.379551,
        0.377806,
        0.376067,
        0.375931,
        0.37509,
        0.374971,
        0.373441,
        0.373478,
        0.372599,
        0.371361,
        0.371881,
        0.37133,
        0.369882,
        0.368596,
        0.367459,
        0.365229,
        0.365031,
        0.36402,
        0.361894,
        0.361073,
        0.360179,
        0.359285,
        0.358373,
        0.357483,
        0.356591,
        0.355692,
        0.354796,
        0.353899,
        0.352973,
        0.352067,
        0.351144,
        0.350199,
        0.349255,
        0.348311,
        0.347365,
        0.346419,
        0.345472,
        0.344526,
        0.343582,
        0.342639,
        0.341698,
        0.34076,
        0.339834,
        0.338933,
        0.338034,
        0.337141,
        0.336248,
        0.335341,
        0.334463,
        0.33363,
        0.332935,
        0.332521,
        0.331929,
        0.331105,
        0.329942,
        0.328884,
        0.328301,
        0.327689,
        0.327539,
        0.326963,
        0.324632,
        0.321004,
        0.308329,
        0.29986,
        0.314467,
        0.322462,
        0.322489,
        0.322431,
        0.321505,
        0.320323,
        0.320332,
        0.318607,
        0.318137,
        0.317585,
        0.31637,
        0.315491,
        0.314651,
        0.314233,
        0.316049,
        0.314586,
        0.313187,
        0.310414,
        0.31033,
        0.30858,
        0.308109,
        0.308371,
        0.306649,
        0.303942,
        0.303508,
        0.304704,
        0.305358,
        0.303639,
        0.30164,
        0.300352,
        0.299453,
        0.300039,
        0.299621,
        0.299516,
        0.297679,
        0.297057,
        0.296736,
        0.294891,
        0.295494,
        0.295642,
        0.295621,
        0.293947,
        0.294652,
        0.293999,
        0.291705,
        0.291514,
        0.291293,
        0.28945,
        0.289675,
        0.288131,
        0.287254,
        0.285817,
        0.285534,
        0.286519,
        0.286483,
        0.286073,
        0.285189,
        0.284939,
        0.283423,
        0.28365,
        0.282452,
        0.280191,
        0.281434,
        0.281497,
        0.280906,
        0.280856,
        0.279749,
        0.279539,
        0.278747,
        0.278219,
        0.277278,
        0.276031,
        0.275499,
        0.274742,
        0.272318,
        0.270448,
        0.269478,
        0.265222,
        0.267722,
        0.269381,
        0.267356,
        0.269281,
        0.268493,
        0.268592,
        0.267425,
        0.270162,
        0.271248,
        0.268905,
        0.266557,
        0.2618,
        0.255227,
        0.260022,
        0.264801,
        0.264764,
        0.266128,
        0.263508,
        0.261382,
        0.261789,
        0.261507,
        0.258656,
        0.257593,
        0.257971,
        0.257178,
        0.256469,
        0.256684,
        0.255387,
        0.25532,
        0.253785,
        0.252764,
        0.25309,
        0.253801,
        0.2532,
        0.251831,
        0.251622,
        0.252033,
        0.251169,
        0.249163,
        0.249235,
        0.250042,
        0.247113,
        0.247496,
        0.24871,
        0.246722,
        0.245641,
        0.24619,
        0.2465,
        0.241884,
        0.23934,
        0.244616,
        0.249697,
        0.246362,
        0.237496,
        0.231374,
        0.23379,
        0.241433,
        0.246691,
        0.24201,
        0.232015,
        0.232263,
        0.240793,
        0.246065,
        0.247242,
        0.245292,
        0.237516,
        0.225349,
        0.222829,
        0.233936,
        0.240863,
        0.244123,
        0.243829,
        0.241128,
        0.235683,
        0.224977,
        0.214638,
        0.220094,
        0.231914,
        0.237894,
        0.240032,
        0.239537,
        0.237706,
        0.233919,
        0.22944,
        0.224122,
        0.211968,
        0.205812,
        0.218472,
        0.230633,
        0.233437,
        0.233491,
        0.234814,
        0.235965,
        0.234204,
        0.233071,
        0.230519,
        0.226799,
        0.221269,
        0.20918,
        0.197642,
        0.205385,
        0.218546,
        0.222527,
        0.224845,
        0.229062,
        0.231527,
        0.231709,
        0.230196,
        0.230121,
        0.232125,
        0.22967,
        0.228283,
        0.225288,
        0.221273,
        0.215817,
        0.203321,
        0.191314,
        0.197445,
        0.214088,
        0.221006,
        0.222128,
        0.219383,
        0.21789,
        0.220403,
        0.222294,
        0.222229,
        0.223276,
        0.223643,
        0.223848,
        0.222565,
        0.221448,
        0.221824,
        0.221108,
        0.220225,
        0.217823,
        0.212361,
        0.208867,
        0.200662,
        0.188475,
        0.184721,
        0.199956,
        0.209155,
        0.214275,
        0.217059,
        0.218216,
        0.21783,
        0.218518,
        0.218209,
        0.217772,
        0.21676,
        0.217331,
        0.215757,
        0.214583,
        0.214257,
        0.214606,
        0.215055,
        0.211548,
        0.210083,
        0.21028,
        0.206611,
        0.205802,
        0.20447,
        0.204546,
        0.200978,
        0.190144,
        0.193957,
        0.192163,
        0.18848,
        0.184196,
        0.167844,
        0.173146,
        0.18603,
        0.197911,
        0.205637,
        0.208004,
        0.208263,
        0.207754,
        0.203877,
        0.20421,
        0.195381,
        0.192355,
        0.194408,
        0.195286,
        0.191828,
        0.19312,
        0.197631,
        0.194148,
        0.195468,
        0.196596,
        0.198879,
        0.197345,
        0.198149,
        0.195363,
        0.190385,
        0.192788,
        0.19733,
        0.194025,
        0.182453,
        0.187573,
        0.193222,
        0.192061,
        0.18487,
        0.190182,
        0.193685,
        0.196689,
        0.194644,
        0.195545,
        0.197598,
        0.190481,
        0.186265,
        0.186354,
        0.179797,
        0.165149,
        0.170997,
        0.184319,
        0.188818,
        0.188191,
        0.193792,
        0.18696,
        0.188559,
        0.194981,
        0.198703,
        0.196724,
        0.199589,
        0.199064,
        0.194626,
        0.187099,
        0.186678,
        0.181094,
        0.173289,
        0.165491,
        0.167113,
        0.171885,
        0.163059,
        0.155516,
        0.140482,
        0.167452,
        0.159477,
        0.160038,
        0.170732,
        0.163519,
        0.16643,
        0.164818,
        0.174698,
        0.194023,
        0.208723,
        0.19902,
        0.198895,
        0.196757,
        0.192137,
        0.18586,
        0.176537,
        0.161015,
        0.174672,
        0.154354,
        0.155789,
        0.173902,
        0.16736,
        0.158824,
        0.166485,
        0.172493,
        0.17482,
        0.168017,
        0.167618,
        0.185427,
        0.168704,
        0.155416,
        0.170826,
        0.185809,
        0.175269,
        0.157794,
        0.156405,
        0.148407,
        0.15607,
        0.158584,
        0.145075,
        0.14399,
        0.152133,
        0.163906,
        0.165347,
        0.169816,
        0.175734,
        0.171904,
        0.163519,
        0.159448,
        0.157001,
        0.162391,
        0.16373,
        0.167086,
        0.165225,
        0.159788,
        0.152162,
        0.16094,
        0.161179,
        0.154237,
        0.156633,
        0.157685,
        0.163618,
        0.159371,
        0.153305,
        0.160572,
        0.162023,
        0.161553,
        0.161258,
        0.162771,
        0.163473,
        0.161152,
        0.158284,
        0.160036,
        0.158246,
        0.153268,
        0.152781,
        0.154082,
        0.152513,
        0.15477,
        0.156336,
        0.152921,
        0.153201,
        0.14933,
        0.148917,
        0.154901,
        0.152711,
        0.151559,
        0.151632,
        0.152714,
        0.149372,
        0.152452,
        0.151793,
        0.149843,
        0.149389,
        0.151414,
        0.149139,
        0.145557,
        0.149385,
        0.148694,
        0.147556,
        0.14706,
        0.149897,
        0.14666,
        0.1494,
        0.151976,
        0.146356,
        0.141844,
        0.14546,
        0.14575,
        0.145256,
        0.146372,
        0.148687,
        0.14506,
        0.148124,
        0.142203,
        0.142088,
        0.146439,
        0.145955,
        0.144943,
        0.143747,
        0.140919,
        0.141012,
        0.145032,
        0.147469,
        0.138375,
        0.136064,
        0.142846,
        0.139396,
        0.142387,
        0.142233,
        0.141347,
        0.141499,
        0.143644,
        0.141473,
        0.136782,
        0.139548,
        0.13795,
        0.141011,
        0.131616,
        0.1256,
        0.120809,
        0.121174,
        0.131105,
        0.128448,
        0.131072,
        0.135785,
        0.134108,
        0.138949,
        0.136399,
        0.133557,
        0.140066,
        0.136749,
        0.137613,
        0.13599,
        0.136967,
        0.135518,
        0.133936,
        0.136805,
        0.134119,
        0.131522,
        0.132898,
        0.132666,
        0.132458,
        0.132267,
        0.132086,
        0.131908,
        0.131727,
        0.131537,
        0.131329,
        0.131099,
        0.130838,
        0.130543,
        0.13022,
        0.129879,
        0.129529,
        0.129179,
        0.128837,
        0.128514,
        0.128219,
        0.12796,
        0.127747,
        0.127586,
        0.127468,
        0.127382,
        0.127317,
        0.127261,
        0.127203,
        0.127131,
        0.127034,
        0.126899,
        0.126717,
        0.125883,
        0.125654,
        0.125407,
        0.125149,
        0.124885,
        0.124622,
        0.124364,
        0.124119,
        0.123891,
        0.123688,
        0.123513,
        0.123363,
        0.12323,
        0.123111,
        0.122997,
        0.122885,
        0.122768,
        0.12264,
        0.122494,
        0.122327,
        0.122132,
        0.121914,
        0.121678,
        0.121428,
        0.12117,
        0.12091,
        0.120652,
        0.120401,
        0.120162,
        0.119942,
        0.119742,
        0.119564,
        0.119403,
        0.119258,
        0.119127,
        0.119007,
        0.118896,
        0.118791,
        0.118691,
        0.118593
      ],
      "range":1
    }
  }
]
