[
  {
    "model":"Star, type B2(ii)",
    "name":"Star, type B2(ii)",
    "type":"WB_REF",
    "dataQualityMarker":3,
    "dataSource":"https://www.eso.org/sci/facilities/paranal/decommissioned/isaac/tools/lib.html",
    "manufacturer":"A. Pickles (A.J. Pickles, PASP 110,863, 1998)",
    "version":1,
    "wavelength":{
      "value":[
        1150.0,
        1155.0,
        1160.0,
        1165.0,
        1170.0,
        1175.0,
        1180.0,
        1185.0,
        1190.0,
        1195.0,
        1200.0,
        1205.0,
        1210.0,
        1215.0,
        1220.0,
        1225.0,
        1230.0,
        1235.0,
        1240.0,
        1245.0,
        1250.0,
        1255.0,
        1260.0,
        1265.0,
        1270.0,
        1275.0,
        1280.0,
        1285.0,
        1290.0,
        1295.0,
        1300.0,
        1305.0,
        1310.0,
        1315.0,
        1320.0,
        1325.0,
        1330.0,
        1335.0,
        1340.0,
        1345.0,
        1350.0,
        1355.0,
        1360.0,
        1365.0,
        1370.0,
        1375.0,
        1380.0,
        1385.0,
        1390.0,
        1395.0,
        1400.0,
        1405.0,
        1410.0,
        1415.0,
        1420.0,
        1425.0,
        1430.0,
        1435.0,
        1440.0,
        1445.0,
        1450.0,
        1455.0,
        1460.0,
        1465.0,
        1470.0,
        1475.0,
        1480.0,
        1485.0,
        1490.0,
        1495.0,
        1500.0,
        1505.0,
        1510.0,
        1515.0,
        1520.0,
        1525.0,
        1530.0,
        1535.0,
        1540.0,
        1545.0,
        1550.0,
        1555.0,
        1560.0,
        1565.0,
        1570.0,
        1575.0,
        1580.0,
        1585.0,
        1590.0,
        1595.0,
        1600.0,
        1605.0,
        1610.0,
        1615.0,
        1620.0,
        1625.0,
        1630.0,
        1635.0,
        1640.0,
        1645.0,
        1650.0,
        1655.0,
        1660.0,
        1665.0,
        1670.0,
        1675.0,
        1680.0,
        1685.0,
        1690.0,
        1695.0,
        1700.0,
        1705.0,
        1710.0,
        1715.0,
        1720.0,
        1725.0,
        1730.0,
        1735.0,
        1740.0,
        1745.0,
        1750.0,
        1755.0,
        1760.0,
        1765.0,
        1770.0,
        1775.0,
        1780.0,
        1785.0,
        1790.0,
        1795.0,
        1800.0,
        1805.0,
        1810.0,
        1815.0,
        1820.0,
        1825.0,
        1830.0,
        1835.0,
        1840.0,
        1845.0,
        1850.0,
        1855.0,
        1860.0,
        1865.0,
        1870.0,
        1875.0,
        1880.0,
        1885.0,
        1890.0,
        1895.0,
        1900.0,
        1905.0,
        1910.0,
        1915.0,
        1920.0,
        1925.0,
        1930.0,
        1935.0,
        1940.0,
        1945.0,
        1950.0,
        1955.0,
        1960.0,
        1965.0,
        1970.0,
        1975.0,
        1980.0,
        1985.0,
        1990.0,
        1995.0,
        2000.0,
        2005.0,
        2010.0,
        2015.0,
        2020.0,
        2025.0,
        2030.0,
        2035.0,
        2040.0,
        2045.0,
        2050.0,
        2055.0,
        2060.0,
        2065.0,
        2070.0,
        2075.0,
        2080.0,
        2085.0,
        2090.0,
        2095.0,
        2100.0,
        2105.0,
        2110.0,
        2115.0,
        2120.0,
        2125.0,
        2130.0,
        2135.0,
        2140.0,
        2145.0,
        2150.0,
        2155.0,
        2160.0,
        2165.0,
        2170.0,
        2175.0,
        2180.0,
        2185.0,
        2190.0,
        2195.0,
        2200.0,
        2205.0,
        2210.0,
        2215.0,
        2220.0,
        2225.0,
        2230.0,
        2235.0,
        2240.0,
        2245.0,
        2250.0,
        2255.0,
        2260.0,
        2265.0,
        2270.0,
        2275.0,
        2280.0,
        2285.0,
        2290.0,
        2295.0,
        2300.0,
        2305.0,
        2310.0,
        2315.0,
        2320.0,
        2325.0,
        2330.0,
        2335.0,
        2340.0,
        2345.0,
        2350.0,
        2355.0,
        2360.0,
        2365.0,
        2370.0,
        2375.0,
        2380.0,
        2385.0,
        2390.0,
        2395.0,
        2400.0,
        2405.0,
        2410.0,
        2415.0,
        2420.0,
        2425.0,
        2430.0,
        2435.0,
        2440.0,
        2445.0,
        2450.0,
        2455.0,
        2460.0,
        2465.0,
        2470.0,
        2475.0,
        2480.0,
        2485.0,
        2490.0,
        2495.0,
        2500.0,
        2505.0,
        2510.0,
        2515.0,
        2520.0,
        2525.0,
        2530.0,
        2535.0,
        2540.0,
        2545.0,
        2550.0,
        2555.0,
        2560.0,
        2565.0,
        2570.0,
        2575.0,
        2580.0,
        2585.0,
        2590.0,
        2595.0,
        2600.0,
        2605.0,
        2610.0,
        2615.0,
        2620.0,
        2625.0,
        2630.0,
        2635.0,
        2640.0,
        2645.0,
        2650.0,
        2655.0,
        2660.0,
        2665.0,
        2670.0,
        2675.0,
        2680.0,
        2685.0,
        2690.0,
        2695.0,
        2700.0,
        2705.0,
        2710.0,
        2715.0,
        2720.0,
        2725.0,
        2730.0,
        2735.0,
        2740.0,
        2745.0,
        2750.0,
        2755.0,
        2760.0,
        2765.0,
        2770.0,
        2775.0,
        2780.0,
        2785.0,
        2790.0,
        2795.0,
        2800.0,
        2805.0,
        2810.0,
        2815.0,
        2820.0,
        2825.0,
        2830.0,
        2835.0,
        2840.0,
        2845.0,
        2850.0,
        2855.0,
        2860.0,
        2865.0,
        2870.0,
        2875.0,
        2880.0,
        2885.0,
        2890.0,
        2895.0,
        2900.0,
        2905.0,
        2910.0,
        2915.0,
        2920.0,
        2925.0,
        2930.0,
        2935.0,
        2940.0,
        2945.0,
        2950.0,
        2955.0,
        2960.0,
        2965.0,
        2970.0,
        2975.0,
        2980.0,
        2985.0,
        2990.0,
        2995.0,
        3000.0,
        3005.0,
        3010.0,
        3015.0,
        3020.0,
        3025.0,
        3030.0,
        3035.0,
        3040.0,
        3045.0,
        3050.0,
        3055.0,
        3060.0,
        3065.0,
        3070.0,
        3075.0,
        3080.0,
        3085.0,
        3090.0,
        3095.0,
        3100.0,
        3105.0,
        3110.0,
        3115.0,
        3120.0,
        3125.0,
        3130.0,
        3135.0,
        3140.0,
        3145.0,
        3150.0,
        3155.0,
        3160.0,
        3165.0,
        3170.0,
        3175.0,
        3180.0,
        3185.0,
        3190.0,
        3195.0,
        3200.0,
        3205.0,
        3210.0,
        3215.0,
        3220.0,
        3225.0,
        3230.0,
        3235.0,
        3240.0,
        3245.0,
        3250.0,
        3255.0,
        3260.0,
        3265.0,
        3270.0,
        3275.0,
        3280.0,
        3285.0,
        3290.0,
        3295.0,
        3300.0,
        3305.0,
        3310.0,
        3315.0,
        3320.0,
        3325.0,
        3330.0,
        3335.0,
        3340.0,
        3345.0,
        3350.0,
        3355.0,
        3360.0,
        3365.0,
        3370.0,
        3375.0,
        3380.0,
        3385.0,
        3390.0,
        3395.0,
        3400.0,
        3405.0,
        3410.0,
        3415.0,
        3420.0,
        3425.0,
        3430.0,
        3435.0,
        3440.0,
        3445.0,
        3450.0,
        3455.0,
        3460.0,
        3465.0,
        3470.0,
        3475.0,
        3480.0,
        3485.0,
        3490.0,
        3495.0,
        3500.0,
        3505.0,
        3510.0,
        3515.0,
        3520.0,
        3525.0,
        3530.0,
        3535.0,
        3540.0,
        3545.0,
        3550.0,
        3555.0,
        3560.0,
        3565.0,
        3570.0,
        3575.0,
        3580.0,
        3585.0,
        3590.0,
        3595.0,
        3600.0,
        3605.0,
        3610.0,
        3615.0,
        3620.0,
        3625.0,
        3630.0,
        3635.0,
        3640.0,
        3645.0,
        3650.0,
        3655.0,
        3660.0,
        3665.0,
        3670.0,
        3675.0,
        3680.0,
        3685.0,
        3690.0,
        3695.0,
        3700.0,
        3705.0,
        3710.0,
        3715.0,
        3720.0,
        3725.0,
        3730.0,
        3735.0,
        3740.0,
        3745.0,
        3750.0,
        3755.0,
        3760.0,
        3765.0,
        3770.0,
        3775.0,
        3780.0,
        3785.0,
        3790.0,
        3795.0,
        3800.0,
        3805.0,
        3810.0,
        3815.0,
        3820.0,
        3825.0,
        3830.0,
        3835.0,
        3840.0,
        3845.0,
        3850.0,
        3855.0,
        3860.0,
        3865.0,
        3870.0,
        3875.0,
        3880.0,
        3885.0,
        3890.0,
        3895.0,
        3900.0,
        3905.0,
        3910.0,
        3915.0,
        3920.0,
        3925.0,
        3930.0,
        3935.0,
        3940.0,
        3945.0,
        3950.0,
        3955.0,
        3960.0,
        3965.0,
        3970.0,
        3975.0,
        3980.0,
        3985.0,
        3990.0,
        3995.0,
        4000.0,
        4005.0,
        4010.0,
        4015.0,
        4020.0,
        4025.0,
        4030.0,
        4035.0,
        4040.0,
        4045.0,
        4050.0,
        4055.0,
        4060.0,
        4065.0,
        4070.0,
        4075.0,
        4080.0,
        4085.0,
        4090.0,
        4095.0,
        4100.0,
        4105.0,
        4110.0,
        4115.0,
        4120.0,
        4125.0,
        4130.0,
        4135.0,
        4140.0,
        4145.0,
        4150.0,
        4155.0,
        4160.0,
        4165.0,
        4170.0,
        4175.0,
        4180.0,
        4185.0,
        4190.0,
        4195.0,
        4200.0,
        4205.0,
        4210.0,
        4215.0,
        4220.0,
        4225.0,
        4230.0,
        4235.0,
        4240.0,
        4245.0,
        4250.0,
        4255.0,
        4260.0,
        4265.0,
        4270.0,
        4275.0,
        4280.0,
        4285.0,
        4290.0,
        4295.0,
        4300.0,
        4305.0,
        4310.0,
        4315.0,
        4320.0,
        4325.0,
        4330.0,
        4335.0,
        4340.0,
        4345.0,
        4350.0,
        4355.0,
        4360.0,
        4365.0,
        4370.0,
        4375.0,
        4380.0,
        4385.0,
        4390.0,
        4395.0,
        4400.0,
        4405.0,
        4410.0,
        4415.0,
        4420.0,
        4425.0,
        4430.0,
        4435.0,
        4440.0,
        4445.0,
        4450.0,
        4455.0,
        4460.0,
        4465.0,
        4470.0,
        4475.0,
        4480.0,
        4485.0,
        4490.0,
        4495.0,
        4500.0,
        4505.0,
        4510.0,
        4515.0,
        4520.0,
        4525.0,
        4530.0,
        4535.0,
        4540.0,
        4545.0,
        4550.0,
        4555.0,
        4560.0,
        4565.0,
        4570.0,
        4575.0,
        4580.0,
        4585.0,
        4590.0,
        4595.0,
        4600.0,
        4605.0,
        4610.0,
        4615.0,
        4620.0,
        4625.0,
        4630.0,
        4635.0,
        4640.0,
        4645.0,
        4650.0,
        4655.0,
        4660.0,
        4665.0,
        4670.0,
        4675.0,
        4680.0,
        4685.0,
        4690.0,
        4695.0,
        4700.0,
        4705.0,
        4710.0,
        4715.0,
        4720.0,
        4725.0,
        4730.0,
        4735.0,
        4740.0,
        4745.0,
        4750.0,
        4755.0,
        4760.0,
        4765.0,
        4770.0,
        4775.0,
        4780.0,
        4785.0,
        4790.0,
        4795.0,
        4800.0,
        4805.0,
        4810.0,
        4815.0,
        4820.0,
        4825.0,
        4830.0,
        4835.0,
        4840.0,
        4845.0,
        4850.0,
        4855.0,
        4860.0,
        4865.0,
        4870.0,
        4875.0,
        4880.0,
        4885.0,
        4890.0,
        4895.0,
        4900.0,
        4905.0,
        4910.0,
        4915.0,
        4920.0,
        4925.0,
        4930.0,
        4935.0,
        4940.0,
        4945.0,
        4950.0,
        4955.0,
        4960.0,
        4965.0,
        4970.0,
        4975.0,
        4980.0,
        4985.0,
        4990.0,
        4995.0,
        5000.0,
        5005.0,
        5010.0,
        5015.0,
        5020.0,
        5025.0,
        5030.0,
        5035.0,
        5040.0,
        5045.0,
        5050.0,
        5055.0,
        5060.0,
        5065.0,
        5070.0,
        5075.0,
        5080.0,
        5085.0,
        5090.0,
        5095.0,
        5100.0,
        5105.0,
        5110.0,
        5115.0,
        5120.0,
        5125.0,
        5130.0,
        5135.0,
        5140.0,
        5145.0,
        5150.0,
        5155.0,
        5160.0,
        5165.0,
        5170.0,
        5175.0,
        5180.0,
        5185.0,
        5190.0,
        5195.0,
        5200.0,
        5205.0,
        5210.0,
        5215.0,
        5220.0,
        5225.0,
        5230.0,
        5235.0,
        5240.0,
        5245.0,
        5250.0,
        5255.0,
        5260.0,
        5265.0,
        5270.0,
        5275.0,
        5280.0,
        5285.0,
        5290.0,
        5295.0,
        5300.0,
        5305.0,
        5310.0,
        5315.0,
        5320.0,
        5325.0,
        5330.0,
        5335.0,
        5340.0,
        5345.0,
        5350.0,
        5355.0,
        5360.0,
        5365.0,
        5370.0,
        5375.0,
        5380.0,
        5385.0,
        5390.0,
        5395.0,
        5400.0,
        5405.0,
        5410.0,
        5415.0,
        5420.0,
        5425.0,
        5430.0,
        5435.0,
        5440.0,
        5445.0,
        5450.0,
        5455.0,
        5460.0,
        5465.0,
        5470.0,
        5475.0,
        5480.0,
        5485.0,
        5490.0,
        5495.0,
        5500.0,
        5505.0,
        5510.0,
        5515.0,
        5520.0,
        5525.0,
        5530.0,
        5535.0,
        5540.0,
        5545.0,
        5550.0,
        5555.0,
        5560.0,
        5565.0,
        5570.0,
        5575.0,
        5580.0,
        5585.0,
        5590.0,
        5595.0,
        5600.0,
        5605.0,
        5610.0,
        5615.0,
        5620.0,
        5625.0,
        5630.0,
        5635.0,
        5640.0,
        5645.0,
        5650.0,
        5655.0,
        5660.0,
        5665.0,
        5670.0,
        5675.0,
        5680.0,
        5685.0,
        5690.0,
        5695.0,
        5700.0,
        5705.0,
        5710.0,
        5715.0,
        5720.0,
        5725.0,
        5730.0,
        5735.0,
        5740.0,
        5745.0,
        5750.0,
        5755.0,
        5760.0,
        5765.0,
        5770.0,
        5775.0,
        5780.0,
        5785.0,
        5790.0,
        5795.0,
        5800.0,
        5805.0,
        5810.0,
        5815.0,
        5820.0,
        5825.0,
        5830.0,
        5835.0,
        5840.0,
        5845.0,
        5850.0,
        5855.0,
        5860.0,
        5865.0,
        5870.0,
        5875.0,
        5880.0,
        5885.0,
        5890.0,
        5895.0,
        5900.0,
        5905.0,
        5910.0,
        5915.0,
        5920.0,
        5925.0,
        5930.0,
        5935.0,
        5940.0,
        5945.0,
        5950.0,
        5955.0,
        5960.0,
        5965.0,
        5970.0,
        5975.0,
        5980.0,
        5985.0,
        5990.0,
        5995.0,
        6000.0,
        6005.0,
        6010.0,
        6015.0,
        6020.0,
        6025.0,
        6030.0,
        6035.0,
        6040.0,
        6045.0,
        6050.0,
        6055.0,
        6060.0,
        6065.0,
        6070.0,
        6075.0,
        6080.0,
        6085.0,
        6090.0,
        6095.0,
        6100.0,
        6105.0,
        6110.0,
        6115.0,
        6120.0,
        6125.0,
        6130.0,
        6135.0,
        6140.0,
        6145.0,
        6150.0,
        6155.0,
        6160.0,
        6165.0,
        6170.0,
        6175.0,
        6180.0,
        6185.0,
        6190.0,
        6195.0,
        6200.0,
        6205.0,
        6210.0,
        6215.0,
        6220.0,
        6225.0,
        6230.0,
        6235.0,
        6240.0,
        6245.0,
        6250.0,
        6255.0,
        6260.0,
        6265.0,
        6270.0,
        6275.0,
        6280.0,
        6285.0,
        6290.0,
        6295.0,
        6300.0,
        6305.0,
        6310.0,
        6315.0,
        6320.0,
        6325.0,
        6330.0,
        6335.0,
        6340.0,
        6345.0,
        6350.0,
        6355.0,
        6360.0,
        6365.0,
        6370.0,
        6375.0,
        6380.0,
        6385.0,
        6390.0,
        6395.0,
        6400.0,
        6405.0,
        6410.0,
        6415.0,
        6420.0,
        6425.0,
        6430.0,
        6435.0,
        6440.0,
        6445.0,
        6450.0,
        6455.0,
        6460.0,
        6465.0,
        6470.0,
        6475.0,
        6480.0,
        6485.0,
        6490.0,
        6495.0,
        6500.0,
        6505.0,
        6510.0,
        6515.0,
        6520.0,
        6525.0,
        6530.0,
        6535.0,
        6540.0,
        6545.0,
        6550.0,
        6555.0,
        6560.0,
        6565.0,
        6570.0,
        6575.0,
        6580.0,
        6585.0,
        6590.0,
        6595.0,
        6600.0,
        6605.0,
        6610.0,
        6615.0,
        6620.0,
        6625.0,
        6630.0,
        6635.0,
        6640.0,
        6645.0,
        6650.0,
        6655.0,
        6660.0,
        6665.0,
        6670.0,
        6675.0,
        6680.0,
        6685.0,
        6690.0,
        6695.0,
        6700.0,
        6705.0,
        6710.0,
        6715.0,
        6720.0,
        6725.0,
        6730.0,
        6735.0,
        6740.0,
        6745.0,
        6750.0,
        6755.0,
        6760.0,
        6765.0,
        6770.0,
        6775.0,
        6780.0,
        6785.0,
        6790.0,
        6795.0,
        6800.0,
        6805.0,
        6810.0,
        6815.0,
        6820.0,
        6825.0,
        6830.0,
        6835.0,
        6840.0,
        6845.0,
        6850.0,
        6855.0,
        6860.0,
        6865.0,
        6870.0,
        6875.0,
        6880.0,
        6885.0,
        6890.0,
        6895.0,
        6900.0,
        6905.0,
        6910.0,
        6915.0,
        6920.0,
        6925.0,
        6930.0,
        6935.0,
        6940.0,
        6945.0,
        6950.0,
        6955.0,
        6960.0,
        6965.0,
        6970.0,
        6975.0,
        6980.0,
        6985.0,
        6990.0,
        6995.0,
        7000.0,
        7005.0,
        7010.0,
        7015.0,
        7020.0,
        7025.0,
        7030.0,
        7035.0,
        7040.0,
        7045.0,
        7050.0,
        7055.0,
        7060.0,
        7065.0,
        7070.0,
        7075.0,
        7080.0,
        7085.0,
        7090.0,
        7095.0,
        7100.0,
        7105.0,
        7110.0,
        7115.0,
        7120.0,
        7125.0,
        7130.0,
        7135.0,
        7140.0,
        7145.0,
        7150.0,
        7155.0,
        7160.0,
        7165.0,
        7170.0,
        7175.0,
        7180.0,
        7185.0,
        7190.0,
        7195.0,
        7200.0,
        7205.0,
        7210.0,
        7215.0,
        7220.0,
        7225.0,
        7230.0,
        7235.0,
        7240.0,
        7245.0,
        7250.0,
        7255.0,
        7260.0,
        7265.0,
        7270.0,
        7275.0,
        7280.0,
        7285.0,
        7290.0,
        7295.0,
        7300.0,
        7305.0,
        7310.0,
        7315.0,
        7320.0,
        7325.0,
        7330.0,
        7335.0,
        7340.0,
        7345.0,
        7350.0,
        7355.0,
        7360.0,
        7365.0,
        7370.0,
        7375.0,
        7380.0,
        7385.0,
        7390.0,
        7395.0,
        7400.0,
        7405.0,
        7410.0,
        7415.0,
        7420.0,
        7425.0,
        7430.0,
        7435.0,
        7440.0,
        7445.0,
        7450.0,
        7455.0,
        7460.0,
        7465.0,
        7470.0,
        7475.0,
        7480.0,
        7485.0,
        7490.0,
        7495.0,
        7500.0,
        7505.0,
        7510.0,
        7515.0,
        7520.0,
        7525.0,
        7530.0,
        7535.0,
        7540.0,
        7545.0,
        7550.0,
        7555.0,
        7560.0,
        7565.0,
        7570.0,
        7575.0,
        7580.0,
        7585.0,
        7590.0,
        7595.0,
        7600.0,
        7605.0,
        7610.0,
        7615.0,
        7620.0,
        7625.0,
        7630.0,
        7635.0,
        7640.0,
        7645.0,
        7650.0,
        7655.0,
        7660.0,
        7665.0,
        7670.0,
        7675.0,
        7680.0,
        7685.0,
        7690.0,
        7695.0,
        7700.0,
        7705.0,
        7710.0,
        7715.0,
        7720.0,
        7725.0,
        7730.0,
        7735.0,
        7740.0,
        7745.0,
        7750.0,
        7755.0,
        7760.0,
        7765.0,
        7770.0,
        7775.0,
        7780.0,
        7785.0,
        7790.0,
        7795.0,
        7800.0,
        7805.0,
        7810.0,
        7815.0,
        7820.0,
        7825.0,
        7830.0,
        7835.0,
        7840.0,
        7845.0,
        7850.0,
        7855.0,
        7860.0,
        7865.0,
        7870.0,
        7875.0,
        7880.0,
        7885.0,
        7890.0,
        7895.0,
        7900.0,
        7905.0,
        7910.0,
        7915.0,
        7920.0,
        7925.0,
        7930.0,
        7935.0,
        7940.0,
        7945.0,
        7950.0,
        7955.0,
        7960.0,
        7965.0,
        7970.0,
        7975.0,
        7980.0,
        7985.0,
        7990.0,
        7995.0,
        8000.0,
        8005.0,
        8010.0,
        8015.0,
        8020.0,
        8025.0,
        8030.0,
        8035.0,
        8040.0,
        8045.0,
        8050.0,
        8055.0,
        8060.0,
        8065.0,
        8070.0,
        8075.0,
        8080.0,
        8085.0,
        8090.0,
        8095.0,
        8100.0,
        8105.0,
        8110.0,
        8115.0,
        8120.0,
        8125.0,
        8130.0,
        8135.0,
        8140.0,
        8145.0,
        8150.0,
        8155.0,
        8160.0,
        8165.0,
        8170.0,
        8175.0,
        8180.0,
        8185.0,
        8190.0,
        8195.0,
        8200.0,
        8205.0,
        8210.0,
        8215.0,
        8220.0,
        8225.0,
        8230.0,
        8235.0,
        8240.0,
        8245.0,
        8250.0,
        8255.0,
        8260.0,
        8265.0,
        8270.0,
        8275.0,
        8280.0,
        8285.0,
        8290.0,
        8295.0,
        8300.0,
        8305.0,
        8310.0,
        8315.0,
        8320.0,
        8325.0,
        8330.0,
        8335.0,
        8340.0,
        8345.0,
        8350.0,
        8355.0,
        8360.0,
        8365.0,
        8370.0,
        8375.0,
        8380.0,
        8385.0,
        8390.0,
        8395.0,
        8400.0,
        8405.0,
        8410.0,
        8415.0,
        8420.0,
        8425.0,
        8430.0,
        8435.0,
        8440.0,
        8445.0,
        8450.0,
        8455.0,
        8460.0,
        8465.0,
        8470.0,
        8475.0,
        8480.0,
        8485.0,
        8490.0,
        8495.0,
        8500.0,
        8505.0,
        8510.0,
        8515.0,
        8520.0,
        8525.0,
        8530.0,
        8535.0,
        8540.0,
        8545.0,
        8550.0,
        8555.0,
        8560.0,
        8565.0,
        8570.0,
        8575.0,
        8580.0,
        8585.0,
        8590.0,
        8595.0,
        8600.0,
        8605.0,
        8610.0,
        8615.0,
        8620.0,
        8625.0,
        8630.0,
        8635.0,
        8640.0,
        8645.0,
        8650.0,
        8655.0,
        8660.0,
        8665.0,
        8670.0,
        8675.0,
        8680.0,
        8685.0,
        8690.0,
        8695.0,
        8700.0,
        8705.0,
        8710.0,
        8715.0,
        8720.0,
        8725.0,
        8730.0,
        8735.0,
        8740.0,
        8745.0,
        8750.0,
        8755.0,
        8760.0,
        8765.0,
        8770.0,
        8775.0,
        8780.0,
        8785.0,
        8790.0,
        8795.0,
        8800.0,
        8805.0,
        8810.0,
        8815.0,
        8820.0,
        8825.0,
        8830.0,
        8835.0,
        8840.0,
        8845.0,
        8850.0,
        8855.0,
        8860.0,
        8865.0,
        8870.0,
        8875.0,
        8880.0,
        8885.0,
        8890.0,
        8895.0,
        8900.0,
        8905.0,
        8910.0,
        8915.0,
        8920.0,
        8925.0,
        8930.0,
        8935.0,
        8940.0,
        8945.0,
        8950.0,
        8955.0,
        8960.0,
        8965.0,
        8970.0,
        8975.0,
        8980.0,
        8985.0,
        8990.0,
        8995.0,
        9000.0,
        9005.0,
        9010.0,
        9015.0,
        9020.0,
        9025.0,
        9030.0,
        9035.0,
        9040.0,
        9045.0,
        9050.0,
        9055.0,
        9060.0,
        9065.0,
        9070.0,
        9075.0,
        9080.0,
        9085.0,
        9090.0,
        9095.0,
        9100.0,
        9105.0,
        9110.0,
        9115.0,
        9120.0,
        9125.0,
        9130.0,
        9135.0,
        9140.0,
        9145.0,
        9150.0,
        9155.0,
        9160.0,
        9165.0,
        9170.0,
        9175.0,
        9180.0,
        9185.0,
        9190.0,
        9195.0,
        9200.0,
        9205.0,
        9210.0,
        9215.0,
        9220.0,
        9225.0,
        9230.0,
        9235.0,
        9240.0,
        9245.0,
        9250.0,
        9255.0,
        9260.0,
        9265.0,
        9270.0,
        9275.0,
        9280.0,
        9285.0,
        9290.0,
        9295.0,
        9300.0,
        9305.0,
        9310.0,
        9315.0,
        9320.0,
        9325.0,
        9330.0,
        9335.0,
        9340.0,
        9345.0,
        9350.0,
        9355.0,
        9360.0,
        9365.0,
        9370.0,
        9375.0,
        9380.0,
        9385.0,
        9390.0,
        9395.0,
        9400.0,
        9405.0,
        9410.0,
        9415.0,
        9420.0,
        9425.0,
        9430.0,
        9435.0,
        9440.0,
        9445.0,
        9450.0,
        9455.0,
        9460.0,
        9465.0,
        9470.0,
        9475.0,
        9480.0,
        9485.0,
        9490.0,
        9495.0,
        9500.0,
        9505.0,
        9510.0,
        9515.0,
        9520.0,
        9525.0,
        9530.0,
        9535.0,
        9540.0,
        9545.0,
        9550.0,
        9555.0,
        9560.0,
        9565.0,
        9570.0,
        9575.0,
        9580.0,
        9585.0,
        9590.0,
        9595.0,
        9600.0,
        9605.0,
        9610.0,
        9615.0,
        9620.0,
        9625.0,
        9630.0,
        9635.0,
        9640.0,
        9645.0,
        9650.0,
        9655.0,
        9660.0,
        9665.0,
        9670.0,
        9675.0,
        9680.0,
        9685.0,
        9690.0,
        9695.0,
        9700.0,
        9705.0,
        9710.0,
        9715.0,
        9720.0,
        9725.0,
        9730.0,
        9735.0,
        9740.0,
        9745.0,
        9750.0,
        9755.0,
        9760.0,
        9765.0,
        9770.0,
        9775.0,
        9780.0,
        9785.0,
        9790.0,
        9795.0,
        9800.0,
        9805.0,
        9810.0,
        9815.0,
        9820.0,
        9825.0,
        9830.0,
        9835.0,
        9840.0,
        9845.0,
        9850.0,
        9855.0,
        9860.0,
        9865.0,
        9870.0,
        9875.0,
        9880.0,
        9885.0,
        9890.0,
        9895.0,
        9900.0,
        9905.0,
        9910.0,
        9915.0,
        9920.0,
        9925.0,
        9930.0,
        9935.0,
        9940.0,
        9945.0,
        9950.0,
        9955.0,
        9960.0,
        9965.0,
        9970.0,
        9975.0,
        9980.0,
        9985.0,
        9990.0,
        9995.0,
        10000.0,
        10005.0,
        10010.0,
        10015.0,
        10020.0,
        10025.0,
        10030.0,
        10035.0,
        10040.0,
        10045.0,
        10050.0,
        10055.0,
        10060.0,
        10065.0,
        10070.0,
        10075.0,
        10080.0,
        10085.0,
        10090.0,
        10095.0,
        10100.0,
        10105.0,
        10110.0,
        10115.0,
        10120.0,
        10125.0,
        10130.0,
        10135.0,
        10140.0,
        10145.0,
        10150.0,
        10155.0,
        10160.0,
        10165.0,
        10170.0,
        10175.0,
        10180.0,
        10185.0,
        10190.0,
        10195.0,
        10200.0,
        10205.0,
        10210.0,
        10215.0,
        10220.0,
        10225.0,
        10230.0,
        10235.0,
        10240.0,
        10245.0,
        10250.0,
        10255.0,
        10260.0,
        10265.0,
        10270.0,
        10275.0,
        10280.0,
        10285.0,
        10290.0,
        10295.0,
        10300.0,
        10305.0,
        10310.0,
        10315.0,
        10320.0,
        10325.0,
        10330.0,
        10335.0,
        10340.0,
        10345.0,
        10350.0,
        10355.0,
        10360.0,
        10365.0,
        10370.0,
        10375.0,
        10380.0,
        10385.0,
        10390.0,
        10395.0,
        10400.0,
        10405.0,
        10410.0,
        10415.0,
        10420.0,
        10425.0,
        10430.0,
        10435.0,
        10440.0,
        10445.0,
        10450.0,
        10455.0,
        10460.0,
        10465.0,
        10470.0,
        10475.0,
        10480.0,
        10485.0,
        10490.0,
        10495.0,
        10500.0
      ],
      "units":"angstrom"
    },
    "values":{
      "value":[
        18.542936,
        14.136545,
        11.919143,
        11.779259,
        9.762265,
        7.220887,
        8.682664,
        9.957264,
        8.45776,
        6.953805,
        6.227396,
        4.113087,
        2.30557,
        1.430713,
        2.270001,
        4.93245,
        7.242015,
        8.517392,
        10.999514,
        12.740422,
        11.770794,
        11.528381,
        11.624524,
        12.365453,
        13.371647,
        13.174253,
        13.423655,
        13.620823,
        13.066373,
        11.582065,
        10.503545,
        11.337629,
        13.339665,
        13.905221,
        13.874176,
        13.134554,
        12.728038,
        12.122665,
        12.642124,
        13.04595,
        13.440733,
        13.362515,
        13.376679,
        12.916781,
        12.877142,
        12.522546,
        11.733785,
        10.257283,
        8.39993,
        7.539846,
        8.454216,
        11.062323,
        11.937019,
        11.267971,
        10.752566,
        10.699656,
        10.857351,
        11.32867,
        11.648527,
        11.664165,
        11.602025,
        11.425522,
        11.63642,
        11.678591,
        11.396524,
        11.613752,
        11.681073,
        11.8009,
        12.2184,
        11.728424,
        10.859453,
        10.490219,
        10.932198,
        10.496234,
        10.712584,
        10.094133,
        8.887795,
        7.928061,
        7.030559,
        6.091876,
        7.285466,
        9.459193,
        9.293335,
        8.596461,
        8.875094,
        9.207455,
        9.200174,
        9.720006,
        10.145975,
        9.652195,
        8.956169,
        8.448747,
        8.054263,
        8.048204,
        8.223859,
        8.387957,
        8.344771,
        8.695971,
        9.086147,
        9.523942,
        9.577396,
        8.889486,
        8.393157,
        8.724938,
        8.785401,
        8.820661,
        9.523176,
        9.644064,
        9.313076,
        9.005668,
        8.984389,
        8.759663,
        8.400834,
        8.120222,
        7.646191,
        7.774899,
        8.537568,
        9.056209,
        9.05869,
        8.901229,
        8.76389,
        8.848495,
        9.296968,
        9.215663,
        8.972475,
        8.646343,
        8.65992,
        8.536419,
        7.614342,
        7.959579,
        8.987189,
        8.7211,
        8.25255,
        8.276275,
        8.504154,
        8.48659,
        8.353345,
        8.316643,
        7.847392,
        7.352848,
        7.067659,
        6.927184,
        7.108367,
        7.26584,
        7.406098,
        7.448066,
        7.210659,
        6.549748,
        6.208361,
        6.230752,
        6.41712,
        6.359452,
        6.272472,
        6.016985,
        5.804446,
        5.619148,
        5.808922,
        6.280735,
        6.257058,
        6.236588,
        6.096031,
        5.794066,
        5.552063,
        5.309665,
        5.600739,
        6.318017,
        6.178501,
        6.040146,
        5.318582,
        4.706917,
        4.847108,
        5.117179,
        5.138269,
        5.291081,
        5.439746,
        5.433032,
        5.183762,
        5.024814,
        5.165782,
        5.020845,
        4.993746,
        4.646531,
        4.241974,
        4.180802,
        4.275816,
        4.647382,
        4.755407,
        4.520142,
        4.415207,
        4.135436,
        3.961527,
        3.9863,
        4.089375,
        4.273704,
        4.368634,
        4.272621,
        4.20849,
        4.058974,
        3.834387,
        3.863133,
        3.547711,
        3.931473,
        3.925395,
        3.662981,
        3.699032,
        3.523032,
        3.546777,
        3.742956,
        3.910283,
        3.995132,
        4.009558,
        3.812891,
        3.554938,
        3.327727,
        3.302611,
        3.468048,
        3.304319,
        3.336909,
        3.315953,
        3.195403,
        3.539948,
        3.90841,
        4.010441,
        3.770591,
        3.629416,
        3.851817,
        3.768367,
        3.83186,
        3.930554,
        3.927634,
        3.743139,
        3.811755,
        4.1358,
        4.407317,
        4.393211,
        4.190468,
        4.191853,
        4.37832,
        4.329858,
        4.385186,
        4.467404,
        4.598412,
        4.559661,
        4.476523,
        4.622719,
        4.774196,
        4.593729,
        4.601943,
        4.6483,
        4.640501,
        4.596341,
        4.611214,
        4.572929,
        4.584638,
        4.875064,
        4.822049,
        4.997796,
        5.029665,
        5.079566,
        5.247103,
        5.294883,
        5.424548,
        5.56686,
        5.624485,
        5.466976,
        5.162396,
        5.080262,
        5.433449,
        5.229093,
        5.193369,
        5.370658,
        5.472531,
        5.389216,
        5.314604,
        5.214188,
        5.240231,
        5.464796,
        5.663929,
        5.423917,
        5.289586,
        5.318153,
        5.352921,
        5.328529,
        5.452967,
        5.625252,
        5.697624,
        5.112537,
        4.717954,
        5.008236,
        5.457837,
        5.525336,
        5.41398,
        5.42965,
        5.583526,
        5.497127,
        5.690047,
        5.803455,
        5.801643,
        5.836733,
        5.721546,
        5.783431,
        5.951793,
        5.814925,
        5.674065,
        5.628393,
        5.62907,
        5.759202,
        5.882964,
        5.91693,
        5.578369,
        5.358015,
        5.452516,
        5.651389,
        5.519418,
        5.434038,
        5.354515,
        5.445206,
        5.641909,
        5.643839,
        5.473291,
        5.610202,
        5.548785,
        5.422689,
        5.468332,
        5.475341,
        5.501182,
        5.581436,
        5.484647,
        5.308837,
        5.16009,
        5.014067,
        5.120607,
        5.493486,
        5.664132,
        5.974752,
        5.709206,
        5.391561,
        5.364685,
        5.477468,
        5.510857,
        5.425962,
        5.275211,
        5.302787,
        5.449719,
        5.435294,
        5.489979,
        5.44665,
        5.464684,
        5.460788,
        5.618126,
        5.551094,
        5.509744,
        5.540871,
        5.616774,
        5.631705,
        5.509925,
        5.373263,
        5.359009,
        5.352992,
        5.403937,
        5.407618,
        5.483195,
        5.616919,
        5.482148,
        5.433568,
        5.554985,
        5.506912,
        5.336886,
        5.285298,
        5.261422,
        5.237612,
        5.073892,
        5.192192,
        5.153139,
        5.051691,
        4.899586,
        4.772616,
        5.030966,
        5.129155,
        5.074172,
        4.984714,
        5.088811,
        4.988318,
        4.985002,
        5.121455,
        5.256927,
        5.309022,
        5.279019,
        5.326923,
        5.228771,
        5.112443,
        5.086141,
        5.099545,
        5.17416,
        5.122864,
        5.160694,
        5.195555,
        5.115995,
        5.1074,
        5.105506,
        5.159288,
        5.100055,
        5.046724,
        5.117314,
        5.179922,
        5.12002,
        4.954012,
        5.023386,
        5.261084,
        4.871056,
        4.742268,
        4.723442,
        4.705264,
        4.687598,
        4.670311,
        4.653269,
        4.636336,
        4.619378,
        4.60226,
        4.584849,
        4.56701,
        4.548644,
        4.529795,
        4.510541,
        4.490964,
        4.471142,
        4.451153,
        4.431079,
        4.410998,
        4.39099,
        4.371134,
        4.351486,
        4.33201,
        4.312647,
        4.293337,
        4.27402,
        4.254637,
        4.23513,
        4.215436,
        4.195499,
        4.175258,
        4.154689,
        4.133916,
        4.113097,
        4.092389,
        4.071952,
        4.051945,
        4.032526,
        4.013853,
        3.996086,
        3.979382,
        3.963829,
        3.949233,
        3.935328,
        3.92185,
        3.908531,
        3.895107,
        3.881313,
        3.866883,
        3.85155,
        3.835052,
        3.817201,
        3.798142,
        3.778095,
        3.757285,
        3.735934,
        3.714265,
        3.692501,
        3.670864,
        3.649578,
        3.628866,
        3.608901,
        3.429543,
        3.423938,
        3.417347,
        3.392001,
        3.402406,
        3.478113,
        3.431382,
        3.359269,
        3.321185,
        3.30846,
        3.352962,
        3.35589,
        3.350457,
        3.324009,
        3.311741,
        3.266169,
        3.25987,
        3.229666,
        3.154844,
        3.20852,
        3.231754,
        3.13921,
        3.201274,
        3.200153,
        3.011303,
        2.954048,
        3.09657,
        3.08591,
        3.10115,
        3.101083,
        3.115252,
        3.106951,
        3.083442,
        3.135098,
        3.121872,
        3.065509,
        3.071783,
        3.016466,
        3.007968,
        2.911268,
        3.052044,
        3.187859,
        3.084663,
        3.128487,
        3.197772,
        3.08587,
        3.360993,
        3.308505,
        3.034148,
        3.256056,
        3.415236,
        3.261799,
        3.061951,
        3.286268,
        3.446079,
        3.407203,
        3.356056,
        3.108603,
        3.100788,
        3.316078,
        3.445807,
        3.363542,
        3.234468,
        3.293835,
        3.100412,
        2.801269,
        3.049429,
        3.235647,
        3.264982,
        3.256268,
        3.250956,
        3.188838,
        3.153281,
        3.179305,
        3.176559,
        2.973772,
        2.780901,
        3.07566,
        3.190658,
        3.225214,
        3.15631,
        3.087626,
        3.003518,
        2.973977,
        2.891438,
        2.884478,
        3.067256,
        3.101714,
        3.070925,
        3.02748,
        2.971784,
        2.679076,
        2.473683,
        2.851043,
        2.986284,
        2.974729,
        2.959828,
        2.848335,
        2.884041,
        2.829105,
        2.802388,
        2.869693,
        2.800618,
        2.616787,
        2.746608,
        2.789818,
        2.719918,
        2.713592,
        2.749013,
        2.720338,
        2.712235,
        2.669138,
        2.579947,
        2.553409,
        2.587605,
        2.579479,
        2.567555,
        2.481457,
        2.266193,
        2.405041,
        2.590069,
        2.534445,
        2.488911,
        2.551997,
        2.556989,
        2.536048,
        2.464215,
        2.482469,
        2.557415,
        2.531684,
        2.518767,
        2.510872,
        2.483027,
        2.438762,
        2.446309,
        2.444057,
        2.426139,
        2.428812,
        2.410853,
        2.424555,
        2.437006,
        2.439065,
        2.387807,
        2.350751,
        2.375497,
        2.382778,
        2.343676,
        2.334279,
        2.331599,
        2.325214,
        2.32715,
        2.292152,
        2.280951,
        2.275069,
        2.279409,
        2.268791,
        2.298856,
        2.266306,
        2.254178,
        2.304303,
        2.292745,
        2.229102,
        2.225754,
        2.250612,
        2.207435,
        2.089776,
        1.92623,
        1.990057,
        2.084209,
        2.186278,
        2.203703,
        2.157266,
        2.163799,
        2.18975,
        2.148814,
        2.066877,
        2.066079,
        2.154936,
        2.155372,
        2.129954,
        2.072661,
        2.012531,
        2.004404,
        1.979682,
        1.935472,
        1.956416,
        2.013014,
        2.016873,
        2.021617,
        2.058594,
        2.085881,
        2.016951,
        1.893638,
        1.940715,
        1.985148,
        2.052221,
        2.08415,
        2.084294,
        2.061444,
        2.03604,
        2.00875,
        2.005816,
        2.018928,
        1.996256,
        2.00728,
        2.028233,
        1.986975,
        1.92845,
        1.856194,
        1.872308,
        1.938182,
        1.881973,
        1.894549,
        1.898947,
        1.931248,
        1.904368,
        1.86929,
        1.870223,
        1.838723,
        1.832204,
        1.853039,
        1.868581,
        1.852394,
        1.848506,
        1.797748,
        1.81945,
        1.755905,
        1.765655,
        1.761948,
        1.836479,
        1.833506,
        1.845989,
        1.848025,
        1.816752,
        1.845384,
        1.832237,
        1.804241,
        1.792616,
        1.80233,
        1.785012,
        1.740752,
        1.726955,
        1.773543,
        1.756253,
        1.729349,
        1.705313,
        1.719123,
        1.737093,
        1.738935,
        1.72034,
        1.696008,
        1.690686,
        1.705536,
        1.685225,
        1.673869,
        1.674757,
        1.683672,
        1.680187,
        1.651774,
        1.632723,
        1.642548,
        1.647905,
        1.653353,
        1.641035,
        1.663729,
        1.696638,
        1.728305,
        1.687173,
        1.615114,
        1.48952,
        1.318068,
        1.456017,
        1.603037,
        1.612845,
        1.617812,
        1.61655,
        1.607221,
        1.607261,
        1.586258,
        1.606337,
        1.58749,
        1.566103,
        1.468704,
        1.47872,
        1.529275,
        1.574217,
        1.585923,
        1.5844,
        1.578917,
        1.573929,
        1.547766,
        1.532031,
        1.510492,
        1.514321,
        1.515823,
        1.513543,
        1.528838,
        1.517547,
        1.47587,
        1.469293,
        1.454944,
        1.424716,
        1.460114,
        1.441434,
        1.429422,
        1.428785,
        1.389626,
        1.385463,
        1.422352,
        1.411685,
        1.412527,
        1.42254,
        1.407515,
        1.393436,
        1.402369,
        1.403156,
        1.417846,
        1.410343,
        1.396537,
        1.393135,
        1.367245,
        1.382906,
        1.374254,
        1.352798,
        1.347187,
        1.34543,
        1.347272,
        1.345391,
        1.334316,
        1.319436,
        1.338213,
        1.332534,
        1.313406,
        1.289124,
        1.294199,
        1.305176,
        1.315483,
        1.325588,
        1.317898,
        1.302764,
        1.296579,
        1.282948,
        1.269548,
        1.28573,
        1.273689,
        1.260424,
        1.245394,
        1.248223,
        1.249643,
        1.23937,
        1.235395,
        1.236897,
        1.239061,
        1.234635,
        1.224302,
        1.19972,
        1.194717,
        1.195646,
        1.194233,
        1.191382,
        1.20618,
        1.205258,
        1.183944,
        1.182527,
        1.189936,
        1.180284,
        1.154471,
        1.158355,
        1.156334,
        1.142545,
        1.135848,
        1.141437,
        1.161326,
        1.166728,
        1.162673,
        1.133994,
        1.137442,
        1.121066,
        1.105071,
        1.094066,
        1.097488,
        1.111804,
        1.104474,
        1.106399,
        1.102154,
        1.091601,
        1.08594,
        1.086559,
        1.066421,
        1.068132,
        1.066704,
        1.063345,
        1.060191,
        1.037932,
        1.034625,
        1.045127,
        1.038793,
        1.051696,
        1.066354,
        1.056648,
        1.035767,
        1.037285,
        1.029352,
        1.018348,
        1.014162,
        1.006132,
        0.993013,
        0.997057,
        0.995339,
        1.004414,
        1.003566,
        0.983864,
        0.979161,
        0.978567,
        0.979152,
        0.97867,
        0.985387,
        0.975158,
        0.978956,
        0.980248,
        0.958784,
        0.952305,
        0.959961,
        0.943179,
        0.932737,
        0.933267,
        0.931161,
        0.939256,
        0.945646,
        0.941751,
        0.931917,
        0.915374,
        0.911729,
        0.894162,
        0.895599,
        0.902099,
        0.900083,
        0.883642,
        0.889534,
        0.894531,
        0.89662,
        0.891013,
        0.8856,
        0.879461,
        0.866053,
        0.865648,
        0.854624,
        0.858194,
        0.858308,
        0.869123,
        0.880785,
        0.87181,
        0.854495,
        0.83799,
        0.820663,
        0.834828,
        0.839562,
        0.830678,
        0.848681,
        0.854205,
        0.838658,
        0.829687,
        0.836544,
        0.843412,
        0.836598,
        0.827291,
        0.827161,
        0.844559,
        0.837854,
        0.826937,
        0.826175,
        0.824912,
        0.805219,
        0.758783,
        0.773061,
        0.793307,
        0.750312,
        0.758653,
        0.794086,
        0.813692,
        0.810625,
        0.806745,
        0.796947,
        0.799453,
        0.796635,
        0.786127,
        0.777842,
        0.770307,
        0.766722,
        0.770629,
        0.774589,
        0.773821,
        0.771076,
        0.769639,
        0.766322,
        0.761025,
        0.759265,
        0.759476,
        0.762804,
        0.7624,
        0.757659,
        0.756142,
        0.752275,
        0.758071,
        0.765183,
        0.74624,
        0.742481,
        0.747805,
        0.742472,
        0.734902,
        0.734982,
        0.735173,
        0.732065,
        0.730551,
        0.724031,
        0.725675,
        0.724401,
        0.721371,
        0.714984,
        0.716705,
        0.718296,
        0.713765,
        0.710579,
        0.709461,
        0.707859,
        0.707661,
        0.70267,
        0.700009,
        0.697834,
        0.694133,
        0.693717,
        0.691651,
        0.689123,
        0.686304,
        0.693719,
        0.689902,
        0.68334,
        0.683139,
        0.678157,
        0.679456,
        0.674149,
        0.671279,
        0.673397,
        0.670216,
        0.667604,
        0.670159,
        0.668572,
        0.66749,
        0.665544,
        0.662453,
        0.664247,
        0.659696,
        0.654643,
        0.647086,
        0.629039,
        0.636459,
        0.643817,
        0.635982,
        0.634379,
        0.636551,
        0.636579,
        0.636579,
        0.637643,
        0.635457,
        0.634405,
        0.634183,
        0.63271,
        0.628861,
        0.628092,
        0.627061,
        0.625441,
        0.622494,
        0.623366,
        0.620587,
        0.616979,
        0.614986,
        0.612568,
        0.609916,
        0.607507,
        0.604103,
        0.60585,
        0.605689,
        0.604165,
        0.605185,
        0.601888,
        0.600886,
        0.600392,
        0.595011,
        0.595275,
        0.593941,
        0.59391,
        0.59039,
        0.584587,
        0.581069,
        0.578013,
        0.573659,
        0.574118,
        0.572479,
        0.5758,
        0.576692,
        0.578739,
        0.573916,
        0.574801,
        0.572694,
        0.571006,
        0.567981,
        0.567044,
        0.56214,
        0.552288,
        0.533525,
        0.494757,
        0.433903,
        0.492274,
        0.537006,
        0.54004,
        0.546863,
        0.554403,
        0.556579,
        0.553129,
        0.554275,
        0.554183,
        0.550721,
        0.549579,
        0.547584,
        0.539714,
        0.536867,
        0.53449,
        0.53176,
        0.533476,
        0.530503,
        0.529591,
        0.52597,
        0.525262,
        0.511948,
        0.480373,
        0.503385,
        0.520936,
        0.520518,
        0.517731,
        0.515968,
        0.516474,
        0.513526,
        0.511877,
        0.506977,
        0.51096,
        0.509738,
        0.507655,
        0.505091,
        0.504152,
        0.501915,
        0.500176,
        0.501858,
        0.49821,
        0.497523,
        0.495828,
        0.489314,
        0.492168,
        0.493408,
        0.490831,
        0.491524,
        0.49086,
        0.491187,
        0.48909,
        0.489022,
        0.486573,
        0.485505,
        0.484433,
        0.483313,
        0.482019,
        0.480892,
        0.479831,
        0.478716,
        0.477674,
        0.476629,
        0.475639,
        0.474608,
        0.473598,
        0.472534,
        0.471464,
        0.47039,
        0.469312,
        0.468228,
        0.467196,
        0.466208,
        0.465338,
        0.464461,
        0.463569,
        0.462699,
        0.461825,
        0.460923,
        0.459942,
        0.45901,
        0.458016,
        0.456995,
        0.454349,
        0.452177,
        0.447883,
        0.447594,
        0.446436,
        0.445305,
        0.445424,
        0.444106,
        0.44537,
        0.44225,
        0.441868,
        0.443231,
        0.442298,
        0.440922,
        0.439757,
        0.435862,
        0.433663,
        0.417537,
        0.416872,
        0.434102,
        0.43267,
        0.431716,
        0.430965,
        0.429762,
        0.427439,
        0.42775,
        0.428087,
        0.428063,
        0.426072,
        0.427547,
        0.426637,
        0.426364,
        0.427632,
        0.423686,
        0.423608,
        0.423272,
        0.421447,
        0.416765,
        0.40728,
        0.399756,
        0.39749,
        0.390362,
        0.385687,
        0.391404,
        0.393164,
        0.39146,
        0.403535,
        0.413903,
        0.414301,
        0.414155,
        0.407973,
        0.39116,
        0.392745,
        0.393508,
        0.397403,
        0.392116,
        0.399016,
        0.392446,
        0.392475,
        0.385319,
        0.37664,
        0.382305,
        0.385098,
        0.385878,
        0.388909,
        0.383724,
        0.386502,
        0.384465,
        0.381445,
        0.385999,
        0.386118,
        0.385777,
        0.387003,
        0.384465,
        0.381326,
        0.380795,
        0.37868,
        0.377016,
        0.375385,
        0.376159,
        0.37575,
        0.373378,
        0.373637,
        0.37177,
        0.370643,
        0.371214,
        0.369935,
        0.368991,
        0.365749,
        0.366865,
        0.365909,
        0.364392,
        0.363946,
        0.362768,
        0.36274,
        0.361601,
        0.360804,
        0.361291,
        0.359947,
        0.358907,
        0.356476,
        0.35637,
        0.353272,
        0.352797,
        0.35186,
        0.350406,
        0.3503,
        0.348988,
        0.349573,
        0.348187,
        0.348486,
        0.347285,
        0.345342,
        0.346221,
        0.344018,
        0.343509,
        0.342757,
        0.34203,
        0.341284,
        0.34057,
        0.339836,
        0.339146,
        0.338454,
        0.337775,
        0.337083,
        0.336353,
        0.335663,
        0.334924,
        0.334188,
        0.333447,
        0.332701,
        0.331949,
        0.331188,
        0.330419,
        0.32964,
        0.328851,
        0.32805,
        0.327238,
        0.32643,
        0.325594,
        0.324749,
        0.323854,
        0.322965,
        0.322105,
        0.321248,
        0.320392,
        0.319577,
        0.318874,
        0.318117,
        0.317269,
        0.31594,
        0.31578,
        0.314684,
        0.314947,
        0.313924,
        0.311817,
        0.31145,
        0.310321,
        0.308277,
        0.304839,
        0.305838,
        0.308249,
        0.306514,
        0.306476,
        0.30455,
        0.304096,
        0.303943,
        0.301276,
        0.301311,
        0.30079,
        0.30058,
        0.299702,
        0.299439,
        0.299054,
        0.298412,
        0.297669,
        0.296259,
        0.295243,
        0.294955,
        0.293794,
        0.291888,
        0.291943,
        0.291732,
        0.288623,
        0.287908,
        0.288925,
        0.288305,
        0.287104,
        0.286499,
        0.285305,
        0.285036,
        0.287271,
        0.286229,
        0.284282,
        0.283022,
        0.28233,
        0.281243,
        0.279037,
        0.279708,
        0.279107,
        0.280512,
        0.279423,
        0.278301,
        0.278896,
        0.275634,
        0.27491,
        0.275322,
        0.274199,
        0.272775,
        0.272415,
        0.272986,
        0.273303,
        0.271207,
        0.270707,
        0.271119,
        0.270904,
        0.269168,
        0.270321,
        0.268913,
        0.268902,
        0.268815,
        0.267836,
        0.267351,
        0.267371,
        0.268409,
        0.270433,
        0.267921,
        0.267204,
        0.268907,
        0.266813,
        0.263321,
        0.261349,
        0.261235,
        0.257975,
        0.254218,
        0.252078,
        0.249777,
        0.24346,
        0.249485,
        0.254259,
        0.248955,
        0.253983,
        0.255043,
        0.254438,
        0.252756,
        0.260073,
        0.262452,
        0.25961,
        0.256437,
        0.244951,
        0.22893,
        0.240485,
        0.252543,
        0.252657,
        0.255465,
        0.251843,
        0.248591,
        0.25059,
        0.250925,
        0.243553,
        0.243357,
        0.244198,
        0.242462,
        0.242748,
        0.243756,
        0.24165,
        0.24354,
        0.243505,
        0.239566,
        0.241213,
        0.243304,
        0.242371,
        0.240459,
        0.240593,
        0.241687,
        0.24052,
        0.238768,
        0.237949,
        0.239076,
        0.237837,
        0.238022,
        0.237995,
        0.236684,
        0.236995,
        0.236653,
        0.235232,
        0.23372,
        0.234133,
        0.233446,
        0.234541,
        0.233304,
        0.231299,
        0.230466,
        0.227636,
        0.229417,
        0.230182,
        0.229682,
        0.227862,
        0.228179,
        0.22814,
        0.228759,
        0.228662,
        0.228645,
        0.225315,
        0.223761,
        0.223418,
        0.223538,
        0.225069,
        0.224854,
        0.227416,
        0.224625,
        0.223078,
        0.221376,
        0.217792,
        0.216393,
        0.222002,
        0.223157,
        0.224258,
        0.224537,
        0.22366,
        0.220273,
        0.218448,
        0.217416,
        0.213054,
        0.209286,
        0.214517,
        0.219521,
        0.222301,
        0.223344,
        0.222996,
        0.225396,
        0.225264,
        0.224701,
        0.222742,
        0.219753,
        0.216859,
        0.211755,
        0.205148,
        0.206005,
        0.212493,
        0.217812,
        0.220346,
        0.222734,
        0.223987,
        0.228197,
        0.228341,
        0.225544,
        0.227338,
        0.224578,
        0.223295,
        0.220323,
        0.215593,
        0.212139,
        0.205371,
        0.198848,
        0.197873,
        0.2037,
        0.210344,
        0.212282,
        0.211542,
        0.213657,
        0.21561,
        0.217084,
        0.217035,
        0.21668,
        0.219001,
        0.217295,
        0.217052,
        0.217458,
        0.213271,
        0.21323,
        0.211659,
        0.210112,
        0.205647,
        0.202448,
        0.197171,
        0.187827,
        0.182971,
        0.189374,
        0.196562,
        0.202028,
        0.204466,
        0.207998,
        0.209002,
        0.209274,
        0.211015,
        0.210427,
        0.207225,
        0.208456,
        0.20813,
        0.20643,
        0.20592,
        0.207115,
        0.204268,
        0.202569,
        0.200998,
        0.201865,
        0.196176,
        0.19667,
        0.1959,
        0.195972,
        0.190257,
        0.179079,
        0.181362,
        0.18096,
        0.176846,
        0.172874,
        0.163364,
        0.1675,
        0.177828,
        0.187139,
        0.197175,
        0.201597,
        0.200915,
        0.202681,
        0.199039,
        0.19588,
        0.189086,
        0.185623,
        0.184135,
        0.18609,
        0.18194,
        0.182722,
        0.18645,
        0.184374,
        0.183797,
        0.185888,
        0.190615,
        0.186525,
        0.189141,
        0.183518,
        0.17774,
        0.180128,
        0.186132,
        0.182454,
        0.170416,
        0.176839,
        0.183941,
        0.181722,
        0.172588,
        0.175363,
        0.183403,
        0.183483,
        0.181292,
        0.182648,
        0.18102,
        0.176295,
        0.171541,
        0.168705,
        0.162858,
        0.153467,
        0.157035,
        0.165276,
        0.170825,
        0.175653,
        0.181853,
        0.181513,
        0.183857,
        0.188182,
        0.187358,
        0.182945,
        0.182328,
        0.183644,
        0.181068,
        0.173019,
        0.172538,
        0.168177,
        0.159079,
        0.147617,
        0.152836,
        0.15296,
        0.145561,
        0.140444,
        0.127312,
        0.152478,
        0.14716,
        0.142956,
        0.156787,
        0.148029,
        0.151849,
        0.150359,
        0.159319,
        0.180377,
        0.196253,
        0.189039,
        0.187042,
        0.180644,
        0.181444,
        0.179328,
        0.16957,
        0.149439,
        0.161556,
        0.149896,
        0.142397,
        0.161105,
        0.156365,
        0.144839,
        0.151947,
        0.159707,
        0.16596,
        0.160235,
        0.156929,
        0.177221,
        0.158785,
        0.144702,
        0.158308,
        0.17775,
        0.167414,
        0.142819,
        0.142667,
        0.137266,
        0.142739,
        0.146134,
        0.136617,
        0.13477,
        0.139202,
        0.144522,
        0.151295,
        0.150715,
        0.16416,
        0.16196,
        0.153477,
        0.149531,
        0.14868,
        0.15496,
        0.154661,
        0.152869,
        0.157869,
        0.153127,
        0.142433,
        0.150445,
        0.150871,
        0.14725,
        0.148776,
        0.147139,
        0.151342,
        0.14954,
        0.143495,
        0.147268,
        0.154285,
        0.154445,
        0.152476,
        0.153305,
        0.155385,
        0.153082,
        0.152324,
        0.151723,
        0.148213,
        0.152852,
        0.14662,
        0.148043,
        0.141635,
        0.142555,
        0.142466,
        0.140215,
        0.137122,
        0.143815,
        0.139917,
        0.147955,
        0.145201,
        0.144058,
        0.140712,
        0.144458,
        0.142993,
        0.14101,
        0.140565,
        0.145511,
        0.142385,
        0.140336,
        0.138228,
        0.141814,
        0.142894,
        0.143319,
        0.140365,
        0.13835,
        0.138965,
        0.140361,
        0.138528,
        0.140201,
        0.136342,
        0.14193,
        0.137537,
        0.138165,
        0.137746,
        0.139792,
        0.140896,
        0.140893,
        0.134811,
        0.139077,
        0.138415,
        0.137951,
        0.136152,
        0.138946,
        0.140585,
        0.135287,
        0.129468,
        0.136288,
        0.13518,
        0.131858,
        0.132693,
        0.134565,
        0.131755,
        0.134631,
        0.133197,
        0.134154,
        0.131798,
        0.131282,
        0.130171,
        0.12989,
        0.126662,
        0.123504,
        0.121138,
        0.120386,
        0.119148,
        0.116048,
        0.117697,
        0.1182,
        0.122834,
        0.123136,
        0.122698,
        0.127109,
        0.125395,
        0.126442,
        0.127393,
        0.128152,
        0.125597,
        0.128979,
        0.126784,
        0.124243,
        0.12465,
        0.12653,
        0.126274,
        0.126484,
        0.12544,
        0.124742,
        0.124574,
        0.12445,
        0.124361,
        0.124293,
        0.124237,
        0.124179,
        0.124109,
        0.124016,
        0.123887,
        0.123711,
        0.123481,
        0.123204,
        0.12289,
        0.122552,
        0.1222,
        0.121845,
        0.121498,
        0.121171,
        0.120874,
        0.120619,
        0.120413,
        0.120252,
        0.120127,
        0.120031,
        0.119954,
        0.11989,
        0.119829,
        0.119764,
        0.119686,
        0.119588,
        0.119327,
        0.11916,
        0.118981,
        0.118793,
        0.118596,
        0.118393,
        0.118183,
        0.117971,
        0.117756,
        0.117541,
        0.117325,
        0.117113,
        0.116902,
        0.116697,
        0.116496,
        0.116302,
        0.116116,
        0.115938,
        0.115771,
        0.115615,
        0.115471,
        0.115336,
        0.115207,
        0.115082,
        0.114956,
        0.114828,
        0.114693,
        0.114549,
        0.114392,
        0.11422,
        0.114031,
        0.113824,
        0.113603,
        0.113369,
        0.113124,
        0.112871,
        0.112611,
        0.112346,
        0.112078,
        0.111808
      ],
      "range":1
    }
  }
]
