[
  {
    "model":"Star, type M3(ii)",
    "name":"Star, type M3(ii)",
    "type":"WB_REF",
    "dataQualityMarker":3,
    "dataSource":"https://www.eso.org/sci/facilities/paranal/decommissioned/isaac/tools/lib.html",
    "manufacturer":"A. Pickles (A.J. Pickles, PASP 110,863, 1998)",
    "version":1,
    "wavelength":{
      "value":[
        1150.0,
        1155.0,
        1160.0,
        1165.0,
        1170.0,
        1175.0,
        1180.0,
        1185.0,
        1190.0,
        1195.0,
        1200.0,
        1205.0,
        1210.0,
        1215.0,
        1220.0,
        1225.0,
        1230.0,
        1235.0,
        1240.0,
        1245.0,
        1250.0,
        1255.0,
        1260.0,
        1265.0,
        1270.0,
        1275.0,
        1280.0,
        1285.0,
        1290.0,
        1295.0,
        1300.0,
        1305.0,
        1310.0,
        1315.0,
        1320.0,
        1325.0,
        1330.0,
        1335.0,
        1340.0,
        1345.0,
        1350.0,
        1355.0,
        1360.0,
        1365.0,
        1370.0,
        1375.0,
        1380.0,
        1385.0,
        1390.0,
        1395.0,
        1400.0,
        1405.0,
        1410.0,
        1415.0,
        1420.0,
        1425.0,
        1430.0,
        1435.0,
        1440.0,
        1445.0,
        1450.0,
        1455.0,
        1460.0,
        1465.0,
        1470.0,
        1475.0,
        1480.0,
        1485.0,
        1490.0,
        1495.0,
        1500.0,
        1505.0,
        1510.0,
        1515.0,
        1520.0,
        1525.0,
        1530.0,
        1535.0,
        1540.0,
        1545.0,
        1550.0,
        1555.0,
        1560.0,
        1565.0,
        1570.0,
        1575.0,
        1580.0,
        1585.0,
        1590.0,
        1595.0,
        1600.0,
        1605.0,
        1610.0,
        1615.0,
        1620.0,
        1625.0,
        1630.0,
        1635.0,
        1640.0,
        1645.0,
        1650.0,
        1655.0,
        1660.0,
        1665.0,
        1670.0,
        1675.0,
        1680.0,
        1685.0,
        1690.0,
        1695.0,
        1700.0,
        1705.0,
        1710.0,
        1715.0,
        1720.0,
        1725.0,
        1730.0,
        1735.0,
        1740.0,
        1745.0,
        1750.0,
        1755.0,
        1760.0,
        1765.0,
        1770.0,
        1775.0,
        1780.0,
        1785.0,
        1790.0,
        1795.0,
        1800.0,
        1805.0,
        1810.0,
        1815.0,
        1820.0,
        1825.0,
        1830.0,
        1835.0,
        1840.0,
        1845.0,
        1850.0,
        1855.0,
        1860.0,
        1865.0,
        1870.0,
        1875.0,
        1880.0,
        1885.0,
        1890.0,
        1895.0,
        1900.0,
        1905.0,
        1910.0,
        1915.0,
        1920.0,
        1925.0,
        1930.0,
        1935.0,
        1940.0,
        1945.0,
        1950.0,
        1955.0,
        1960.0,
        1965.0,
        1970.0,
        1975.0,
        1980.0,
        1985.0,
        1990.0,
        1995.0,
        2000.0,
        2005.0,
        2010.0,
        2015.0,
        2020.0,
        2025.0,
        2030.0,
        2035.0,
        2040.0,
        2045.0,
        2050.0,
        2055.0,
        2060.0,
        2065.0,
        2070.0,
        2075.0,
        2080.0,
        2085.0,
        2090.0,
        2095.0,
        2100.0,
        2105.0,
        2110.0,
        2115.0,
        2120.0,
        2125.0,
        2130.0,
        2135.0,
        2140.0,
        2145.0,
        2150.0,
        2155.0,
        2160.0,
        2165.0,
        2170.0,
        2175.0,
        2180.0,
        2185.0,
        2190.0,
        2195.0,
        2200.0,
        2205.0,
        2210.0,
        2215.0,
        2220.0,
        2225.0,
        2230.0,
        2235.0,
        2240.0,
        2245.0,
        2250.0,
        2255.0,
        2260.0,
        2265.0,
        2270.0,
        2275.0,
        2280.0,
        2285.0,
        2290.0,
        2295.0,
        2300.0,
        2305.0,
        2310.0,
        2315.0,
        2320.0,
        2325.0,
        2330.0,
        2335.0,
        2340.0,
        2345.0,
        2350.0,
        2355.0,
        2360.0,
        2365.0,
        2370.0,
        2375.0,
        2380.0,
        2385.0,
        2390.0,
        2395.0,
        2400.0,
        2405.0,
        2410.0,
        2415.0,
        2420.0,
        2425.0,
        2430.0,
        2435.0,
        2440.0,
        2445.0,
        2450.0,
        2455.0,
        2460.0,
        2465.0,
        2470.0,
        2475.0,
        2480.0,
        2485.0,
        2490.0,
        2495.0,
        2500.0,
        2505.0,
        2510.0,
        2515.0,
        2520.0,
        2525.0,
        2530.0,
        2535.0,
        2540.0,
        2545.0,
        2550.0,
        2555.0,
        2560.0,
        2565.0,
        2570.0,
        2575.0,
        2580.0,
        2585.0,
        2590.0,
        2595.0,
        2600.0,
        2605.0,
        2610.0,
        2615.0,
        2620.0,
        2625.0,
        2630.0,
        2635.0,
        2640.0,
        2645.0,
        2650.0,
        2655.0,
        2660.0,
        2665.0,
        2670.0,
        2675.0,
        2680.0,
        2685.0,
        2690.0,
        2695.0,
        2700.0,
        2705.0,
        2710.0,
        2715.0,
        2720.0,
        2725.0,
        2730.0,
        2735.0,
        2740.0,
        2745.0,
        2750.0,
        2755.0,
        2760.0,
        2765.0,
        2770.0,
        2775.0,
        2780.0,
        2785.0,
        2790.0,
        2795.0,
        2800.0,
        2805.0,
        2810.0,
        2815.0,
        2820.0,
        2825.0,
        2830.0,
        2835.0,
        2840.0,
        2845.0,
        2850.0,
        2855.0,
        2860.0,
        2865.0,
        2870.0,
        2875.0,
        2880.0,
        2885.0,
        2890.0,
        2895.0,
        2900.0,
        2905.0,
        2910.0,
        2915.0,
        2920.0,
        2925.0,
        2930.0,
        2935.0,
        2940.0,
        2945.0,
        2950.0,
        2955.0,
        2960.0,
        2965.0,
        2970.0,
        2975.0,
        2980.0,
        2985.0,
        2990.0,
        2995.0,
        3000.0,
        3005.0,
        3010.0,
        3015.0,
        3020.0,
        3025.0,
        3030.0,
        3035.0,
        3040.0,
        3045.0,
        3050.0,
        3055.0,
        3060.0,
        3065.0,
        3070.0,
        3075.0,
        3080.0,
        3085.0,
        3090.0,
        3095.0,
        3100.0,
        3105.0,
        3110.0,
        3115.0,
        3120.0,
        3125.0,
        3130.0,
        3135.0,
        3140.0,
        3145.0,
        3150.0,
        3155.0,
        3160.0,
        3165.0,
        3170.0,
        3175.0,
        3180.0,
        3185.0,
        3190.0,
        3195.0,
        3200.0,
        3205.0,
        3210.0,
        3215.0,
        3220.0,
        3225.0,
        3230.0,
        3235.0,
        3240.0,
        3245.0,
        3250.0,
        3255.0,
        3260.0,
        3265.0,
        3270.0,
        3275.0,
        3280.0,
        3285.0,
        3290.0,
        3295.0,
        3300.0,
        3305.0,
        3310.0,
        3315.0,
        3320.0,
        3325.0,
        3330.0,
        3335.0,
        3340.0,
        3345.0,
        3350.0,
        3355.0,
        3360.0,
        3365.0,
        3370.0,
        3375.0,
        3380.0,
        3385.0,
        3390.0,
        3395.0,
        3400.0,
        3405.0,
        3410.0,
        3415.0,
        3420.0,
        3425.0,
        3430.0,
        3435.0,
        3440.0,
        3445.0,
        3450.0,
        3455.0,
        3460.0,
        3465.0,
        3470.0,
        3475.0,
        3480.0,
        3485.0,
        3490.0,
        3495.0,
        3500.0,
        3505.0,
        3510.0,
        3515.0,
        3520.0,
        3525.0,
        3530.0,
        3535.0,
        3540.0,
        3545.0,
        3550.0,
        3555.0,
        3560.0,
        3565.0,
        3570.0,
        3575.0,
        3580.0,
        3585.0,
        3590.0,
        3595.0,
        3600.0,
        3605.0,
        3610.0,
        3615.0,
        3620.0,
        3625.0,
        3630.0,
        3635.0,
        3640.0,
        3645.0,
        3650.0,
        3655.0,
        3660.0,
        3665.0,
        3670.0,
        3675.0,
        3680.0,
        3685.0,
        3690.0,
        3695.0,
        3700.0,
        3705.0,
        3710.0,
        3715.0,
        3720.0,
        3725.0,
        3730.0,
        3735.0,
        3740.0,
        3745.0,
        3750.0,
        3755.0,
        3760.0,
        3765.0,
        3770.0,
        3775.0,
        3780.0,
        3785.0,
        3790.0,
        3795.0,
        3800.0,
        3805.0,
        3810.0,
        3815.0,
        3820.0,
        3825.0,
        3830.0,
        3835.0,
        3840.0,
        3845.0,
        3850.0,
        3855.0,
        3860.0,
        3865.0,
        3870.0,
        3875.0,
        3880.0,
        3885.0,
        3890.0,
        3895.0,
        3900.0,
        3905.0,
        3910.0,
        3915.0,
        3920.0,
        3925.0,
        3930.0,
        3935.0,
        3940.0,
        3945.0,
        3950.0,
        3955.0,
        3960.0,
        3965.0,
        3970.0,
        3975.0,
        3980.0,
        3985.0,
        3990.0,
        3995.0,
        4000.0,
        4005.0,
        4010.0,
        4015.0,
        4020.0,
        4025.0,
        4030.0,
        4035.0,
        4040.0,
        4045.0,
        4050.0,
        4055.0,
        4060.0,
        4065.0,
        4070.0,
        4075.0,
        4080.0,
        4085.0,
        4090.0,
        4095.0,
        4100.0,
        4105.0,
        4110.0,
        4115.0,
        4120.0,
        4125.0,
        4130.0,
        4135.0,
        4140.0,
        4145.0,
        4150.0,
        4155.0,
        4160.0,
        4165.0,
        4170.0,
        4175.0,
        4180.0,
        4185.0,
        4190.0,
        4195.0,
        4200.0,
        4205.0,
        4210.0,
        4215.0,
        4220.0,
        4225.0,
        4230.0,
        4235.0,
        4240.0,
        4245.0,
        4250.0,
        4255.0,
        4260.0,
        4265.0,
        4270.0,
        4275.0,
        4280.0,
        4285.0,
        4290.0,
        4295.0,
        4300.0,
        4305.0,
        4310.0,
        4315.0,
        4320.0,
        4325.0,
        4330.0,
        4335.0,
        4340.0,
        4345.0,
        4350.0,
        4355.0,
        4360.0,
        4365.0,
        4370.0,
        4375.0,
        4380.0,
        4385.0,
        4390.0,
        4395.0,
        4400.0,
        4405.0,
        4410.0,
        4415.0,
        4420.0,
        4425.0,
        4430.0,
        4435.0,
        4440.0,
        4445.0,
        4450.0,
        4455.0,
        4460.0,
        4465.0,
        4470.0,
        4475.0,
        4480.0,
        4485.0,
        4490.0,
        4495.0,
        4500.0,
        4505.0,
        4510.0,
        4515.0,
        4520.0,
        4525.0,
        4530.0,
        4535.0,
        4540.0,
        4545.0,
        4550.0,
        4555.0,
        4560.0,
        4565.0,
        4570.0,
        4575.0,
        4580.0,
        4585.0,
        4590.0,
        4595.0,
        4600.0,
        4605.0,
        4610.0,
        4615.0,
        4620.0,
        4625.0,
        4630.0,
        4635.0,
        4640.0,
        4645.0,
        4650.0,
        4655.0,
        4660.0,
        4665.0,
        4670.0,
        4675.0,
        4680.0,
        4685.0,
        4690.0,
        4695.0,
        4700.0,
        4705.0,
        4710.0,
        4715.0,
        4720.0,
        4725.0,
        4730.0,
        4735.0,
        4740.0,
        4745.0,
        4750.0,
        4755.0,
        4760.0,
        4765.0,
        4770.0,
        4775.0,
        4780.0,
        4785.0,
        4790.0,
        4795.0,
        4800.0,
        4805.0,
        4810.0,
        4815.0,
        4820.0,
        4825.0,
        4830.0,
        4835.0,
        4840.0,
        4845.0,
        4850.0,
        4855.0,
        4860.0,
        4865.0,
        4870.0,
        4875.0,
        4880.0,
        4885.0,
        4890.0,
        4895.0,
        4900.0,
        4905.0,
        4910.0,
        4915.0,
        4920.0,
        4925.0,
        4930.0,
        4935.0,
        4940.0,
        4945.0,
        4950.0,
        4955.0,
        4960.0,
        4965.0,
        4970.0,
        4975.0,
        4980.0,
        4985.0,
        4990.0,
        4995.0,
        5000.0,
        5005.0,
        5010.0,
        5015.0,
        5020.0,
        5025.0,
        5030.0,
        5035.0,
        5040.0,
        5045.0,
        5050.0,
        5055.0,
        5060.0,
        5065.0,
        5070.0,
        5075.0,
        5080.0,
        5085.0,
        5090.0,
        5095.0,
        5100.0,
        5105.0,
        5110.0,
        5115.0,
        5120.0,
        5125.0,
        5130.0,
        5135.0,
        5140.0,
        5145.0,
        5150.0,
        5155.0,
        5160.0,
        5165.0,
        5170.0,
        5175.0,
        5180.0,
        5185.0,
        5190.0,
        5195.0,
        5200.0,
        5205.0,
        5210.0,
        5215.0,
        5220.0,
        5225.0,
        5230.0,
        5235.0,
        5240.0,
        5245.0,
        5250.0,
        5255.0,
        5260.0,
        5265.0,
        5270.0,
        5275.0,
        5280.0,
        5285.0,
        5290.0,
        5295.0,
        5300.0,
        5305.0,
        5310.0,
        5315.0,
        5320.0,
        5325.0,
        5330.0,
        5335.0,
        5340.0,
        5345.0,
        5350.0,
        5355.0,
        5360.0,
        5365.0,
        5370.0,
        5375.0,
        5380.0,
        5385.0,
        5390.0,
        5395.0,
        5400.0,
        5405.0,
        5410.0,
        5415.0,
        5420.0,
        5425.0,
        5430.0,
        5435.0,
        5440.0,
        5445.0,
        5450.0,
        5455.0,
        5460.0,
        5465.0,
        5470.0,
        5475.0,
        5480.0,
        5485.0,
        5490.0,
        5495.0,
        5500.0,
        5505.0,
        5510.0,
        5515.0,
        5520.0,
        5525.0,
        5530.0,
        5535.0,
        5540.0,
        5545.0,
        5550.0,
        5555.0,
        5560.0,
        5565.0,
        5570.0,
        5575.0,
        5580.0,
        5585.0,
        5590.0,
        5595.0,
        5600.0,
        5605.0,
        5610.0,
        5615.0,
        5620.0,
        5625.0,
        5630.0,
        5635.0,
        5640.0,
        5645.0,
        5650.0,
        5655.0,
        5660.0,
        5665.0,
        5670.0,
        5675.0,
        5680.0,
        5685.0,
        5690.0,
        5695.0,
        5700.0,
        5705.0,
        5710.0,
        5715.0,
        5720.0,
        5725.0,
        5730.0,
        5735.0,
        5740.0,
        5745.0,
        5750.0,
        5755.0,
        5760.0,
        5765.0,
        5770.0,
        5775.0,
        5780.0,
        5785.0,
        5790.0,
        5795.0,
        5800.0,
        5805.0,
        5810.0,
        5815.0,
        5820.0,
        5825.0,
        5830.0,
        5835.0,
        5840.0,
        5845.0,
        5850.0,
        5855.0,
        5860.0,
        5865.0,
        5870.0,
        5875.0,
        5880.0,
        5885.0,
        5890.0,
        5895.0,
        5900.0,
        5905.0,
        5910.0,
        5915.0,
        5920.0,
        5925.0,
        5930.0,
        5935.0,
        5940.0,
        5945.0,
        5950.0,
        5955.0,
        5960.0,
        5965.0,
        5970.0,
        5975.0,
        5980.0,
        5985.0,
        5990.0,
        5995.0,
        6000.0,
        6005.0,
        6010.0,
        6015.0,
        6020.0,
        6025.0,
        6030.0,
        6035.0,
        6040.0,
        6045.0,
        6050.0,
        6055.0,
        6060.0,
        6065.0,
        6070.0,
        6075.0,
        6080.0,
        6085.0,
        6090.0,
        6095.0,
        6100.0,
        6105.0,
        6110.0,
        6115.0,
        6120.0,
        6125.0,
        6130.0,
        6135.0,
        6140.0,
        6145.0,
        6150.0,
        6155.0,
        6160.0,
        6165.0,
        6170.0,
        6175.0,
        6180.0,
        6185.0,
        6190.0,
        6195.0,
        6200.0,
        6205.0,
        6210.0,
        6215.0,
        6220.0,
        6225.0,
        6230.0,
        6235.0,
        6240.0,
        6245.0,
        6250.0,
        6255.0,
        6260.0,
        6265.0,
        6270.0,
        6275.0,
        6280.0,
        6285.0,
        6290.0,
        6295.0,
        6300.0,
        6305.0,
        6310.0,
        6315.0,
        6320.0,
        6325.0,
        6330.0,
        6335.0,
        6340.0,
        6345.0,
        6350.0,
        6355.0,
        6360.0,
        6365.0,
        6370.0,
        6375.0,
        6380.0,
        6385.0,
        6390.0,
        6395.0,
        6400.0,
        6405.0,
        6410.0,
        6415.0,
        6420.0,
        6425.0,
        6430.0,
        6435.0,
        6440.0,
        6445.0,
        6450.0,
        6455.0,
        6460.0,
        6465.0,
        6470.0,
        6475.0,
        6480.0,
        6485.0,
        6490.0,
        6495.0,
        6500.0,
        6505.0,
        6510.0,
        6515.0,
        6520.0,
        6525.0,
        6530.0,
        6535.0,
        6540.0,
        6545.0,
        6550.0,
        6555.0,
        6560.0,
        6565.0,
        6570.0,
        6575.0,
        6580.0,
        6585.0,
        6590.0,
        6595.0,
        6600.0,
        6605.0,
        6610.0,
        6615.0,
        6620.0,
        6625.0,
        6630.0,
        6635.0,
        6640.0,
        6645.0,
        6650.0,
        6655.0,
        6660.0,
        6665.0,
        6670.0,
        6675.0,
        6680.0,
        6685.0,
        6690.0,
        6695.0,
        6700.0,
        6705.0,
        6710.0,
        6715.0,
        6720.0,
        6725.0,
        6730.0,
        6735.0,
        6740.0,
        6745.0,
        6750.0,
        6755.0,
        6760.0,
        6765.0,
        6770.0,
        6775.0,
        6780.0,
        6785.0,
        6790.0,
        6795.0,
        6800.0,
        6805.0,
        6810.0,
        6815.0,
        6820.0,
        6825.0,
        6830.0,
        6835.0,
        6840.0,
        6845.0,
        6850.0,
        6855.0,
        6860.0,
        6865.0,
        6870.0,
        6875.0,
        6880.0,
        6885.0,
        6890.0,
        6895.0,
        6900.0,
        6905.0,
        6910.0,
        6915.0,
        6920.0,
        6925.0,
        6930.0,
        6935.0,
        6940.0,
        6945.0,
        6950.0,
        6955.0,
        6960.0,
        6965.0,
        6970.0,
        6975.0,
        6980.0,
        6985.0,
        6990.0,
        6995.0,
        7000.0,
        7005.0,
        7010.0,
        7015.0,
        7020.0,
        7025.0,
        7030.0,
        7035.0,
        7040.0,
        7045.0,
        7050.0,
        7055.0,
        7060.0,
        7065.0,
        7070.0,
        7075.0,
        7080.0,
        7085.0,
        7090.0,
        7095.0,
        7100.0,
        7105.0,
        7110.0,
        7115.0,
        7120.0,
        7125.0,
        7130.0,
        7135.0,
        7140.0,
        7145.0,
        7150.0,
        7155.0,
        7160.0,
        7165.0,
        7170.0,
        7175.0,
        7180.0,
        7185.0,
        7190.0,
        7195.0,
        7200.0,
        7205.0,
        7210.0,
        7215.0,
        7220.0,
        7225.0,
        7230.0,
        7235.0,
        7240.0,
        7245.0,
        7250.0,
        7255.0,
        7260.0,
        7265.0,
        7270.0,
        7275.0,
        7280.0,
        7285.0,
        7290.0,
        7295.0,
        7300.0,
        7305.0,
        7310.0,
        7315.0,
        7320.0,
        7325.0,
        7330.0,
        7335.0,
        7340.0,
        7345.0,
        7350.0,
        7355.0,
        7360.0,
        7365.0,
        7370.0,
        7375.0,
        7380.0,
        7385.0,
        7390.0,
        7395.0,
        7400.0,
        7405.0,
        7410.0,
        7415.0,
        7420.0,
        7425.0,
        7430.0,
        7435.0,
        7440.0,
        7445.0,
        7450.0,
        7455.0,
        7460.0,
        7465.0,
        7470.0,
        7475.0,
        7480.0,
        7485.0,
        7490.0,
        7495.0,
        7500.0,
        7505.0,
        7510.0,
        7515.0,
        7520.0,
        7525.0,
        7530.0,
        7535.0,
        7540.0,
        7545.0,
        7550.0,
        7555.0,
        7560.0,
        7565.0,
        7570.0,
        7575.0,
        7580.0,
        7585.0,
        7590.0,
        7595.0,
        7600.0,
        7605.0,
        7610.0,
        7615.0,
        7620.0,
        7625.0,
        7630.0,
        7635.0,
        7640.0,
        7645.0,
        7650.0,
        7655.0,
        7660.0,
        7665.0,
        7670.0,
        7675.0,
        7680.0,
        7685.0,
        7690.0,
        7695.0,
        7700.0,
        7705.0,
        7710.0,
        7715.0,
        7720.0,
        7725.0,
        7730.0,
        7735.0,
        7740.0,
        7745.0,
        7750.0,
        7755.0,
        7760.0,
        7765.0,
        7770.0,
        7775.0,
        7780.0,
        7785.0,
        7790.0,
        7795.0,
        7800.0,
        7805.0,
        7810.0,
        7815.0,
        7820.0,
        7825.0,
        7830.0,
        7835.0,
        7840.0,
        7845.0,
        7850.0,
        7855.0,
        7860.0,
        7865.0,
        7870.0,
        7875.0,
        7880.0,
        7885.0,
        7890.0,
        7895.0,
        7900.0,
        7905.0,
        7910.0,
        7915.0,
        7920.0,
        7925.0,
        7930.0,
        7935.0,
        7940.0,
        7945.0,
        7950.0,
        7955.0,
        7960.0,
        7965.0,
        7970.0,
        7975.0,
        7980.0,
        7985.0,
        7990.0,
        7995.0,
        8000.0,
        8005.0,
        8010.0,
        8015.0,
        8020.0,
        8025.0,
        8030.0,
        8035.0,
        8040.0,
        8045.0,
        8050.0,
        8055.0,
        8060.0,
        8065.0,
        8070.0,
        8075.0,
        8080.0,
        8085.0,
        8090.0,
        8095.0,
        8100.0,
        8105.0,
        8110.0,
        8115.0,
        8120.0,
        8125.0,
        8130.0,
        8135.0,
        8140.0,
        8145.0,
        8150.0,
        8155.0,
        8160.0,
        8165.0,
        8170.0,
        8175.0,
        8180.0,
        8185.0,
        8190.0,
        8195.0,
        8200.0,
        8205.0,
        8210.0,
        8215.0,
        8220.0,
        8225.0,
        8230.0,
        8235.0,
        8240.0,
        8245.0,
        8250.0,
        8255.0,
        8260.0,
        8265.0,
        8270.0,
        8275.0,
        8280.0,
        8285.0,
        8290.0,
        8295.0,
        8300.0,
        8305.0,
        8310.0,
        8315.0,
        8320.0,
        8325.0,
        8330.0,
        8335.0,
        8340.0,
        8345.0,
        8350.0,
        8355.0,
        8360.0,
        8365.0,
        8370.0,
        8375.0,
        8380.0,
        8385.0,
        8390.0,
        8395.0,
        8400.0,
        8405.0,
        8410.0,
        8415.0,
        8420.0,
        8425.0,
        8430.0,
        8435.0,
        8440.0,
        8445.0,
        8450.0,
        8455.0,
        8460.0,
        8465.0,
        8470.0,
        8475.0,
        8480.0,
        8485.0,
        8490.0,
        8495.0,
        8500.0,
        8505.0,
        8510.0,
        8515.0,
        8520.0,
        8525.0,
        8530.0,
        8535.0,
        8540.0,
        8545.0,
        8550.0,
        8555.0,
        8560.0,
        8565.0,
        8570.0,
        8575.0,
        8580.0,
        8585.0,
        8590.0,
        8595.0,
        8600.0,
        8605.0,
        8610.0,
        8615.0,
        8620.0,
        8625.0,
        8630.0,
        8635.0,
        8640.0,
        8645.0,
        8650.0,
        8655.0,
        8660.0,
        8665.0,
        8670.0,
        8675.0,
        8680.0,
        8685.0,
        8690.0,
        8695.0,
        8700.0,
        8705.0,
        8710.0,
        8715.0,
        8720.0,
        8725.0,
        8730.0,
        8735.0,
        8740.0,
        8745.0,
        8750.0,
        8755.0,
        8760.0,
        8765.0,
        8770.0,
        8775.0,
        8780.0,
        8785.0,
        8790.0,
        8795.0,
        8800.0,
        8805.0,
        8810.0,
        8815.0,
        8820.0,
        8825.0,
        8830.0,
        8835.0,
        8840.0,
        8845.0,
        8850.0,
        8855.0,
        8860.0,
        8865.0,
        8870.0,
        8875.0,
        8880.0,
        8885.0,
        8890.0,
        8895.0,
        8900.0,
        8905.0,
        8910.0,
        8915.0,
        8920.0,
        8925.0,
        8930.0,
        8935.0,
        8940.0,
        8945.0,
        8950.0,
        8955.0,
        8960.0,
        8965.0,
        8970.0,
        8975.0,
        8980.0,
        8985.0,
        8990.0,
        8995.0,
        9000.0,
        9005.0,
        9010.0,
        9015.0,
        9020.0,
        9025.0,
        9030.0,
        9035.0,
        9040.0,
        9045.0,
        9050.0,
        9055.0,
        9060.0,
        9065.0,
        9070.0,
        9075.0,
        9080.0,
        9085.0,
        9090.0,
        9095.0,
        9100.0,
        9105.0,
        9110.0,
        9115.0,
        9120.0,
        9125.0,
        9130.0,
        9135.0,
        9140.0,
        9145.0,
        9150.0,
        9155.0,
        9160.0,
        9165.0,
        9170.0,
        9175.0,
        9180.0,
        9185.0,
        9190.0,
        9195.0,
        9200.0,
        9205.0,
        9210.0,
        9215.0,
        9220.0,
        9225.0,
        9230.0,
        9235.0,
        9240.0,
        9245.0,
        9250.0,
        9255.0,
        9260.0,
        9265.0,
        9270.0,
        9275.0,
        9280.0,
        9285.0,
        9290.0,
        9295.0,
        9300.0,
        9305.0,
        9310.0,
        9315.0,
        9320.0,
        9325.0,
        9330.0,
        9335.0,
        9340.0,
        9345.0,
        9350.0,
        9355.0,
        9360.0,
        9365.0,
        9370.0,
        9375.0,
        9380.0,
        9385.0,
        9390.0,
        9395.0,
        9400.0,
        9405.0,
        9410.0,
        9415.0,
        9420.0,
        9425.0,
        9430.0,
        9435.0,
        9440.0,
        9445.0,
        9450.0,
        9455.0,
        9460.0,
        9465.0,
        9470.0,
        9475.0,
        9480.0,
        9485.0,
        9490.0,
        9495.0,
        9500.0,
        9505.0,
        9510.0,
        9515.0,
        9520.0,
        9525.0,
        9530.0,
        9535.0,
        9540.0,
        9545.0,
        9550.0,
        9555.0,
        9560.0,
        9565.0,
        9570.0,
        9575.0,
        9580.0,
        9585.0,
        9590.0,
        9595.0,
        9600.0,
        9605.0,
        9610.0,
        9615.0,
        9620.0,
        9625.0,
        9630.0,
        9635.0,
        9640.0,
        9645.0,
        9650.0,
        9655.0,
        9660.0,
        9665.0,
        9670.0,
        9675.0,
        9680.0,
        9685.0,
        9690.0,
        9695.0,
        9700.0,
        9705.0,
        9710.0,
        9715.0,
        9720.0,
        9725.0,
        9730.0,
        9735.0,
        9740.0,
        9745.0,
        9750.0,
        9755.0,
        9760.0,
        9765.0,
        9770.0,
        9775.0,
        9780.0,
        9785.0,
        9790.0,
        9795.0,
        9800.0,
        9805.0,
        9810.0,
        9815.0,
        9820.0,
        9825.0,
        9830.0,
        9835.0,
        9840.0,
        9845.0,
        9850.0,
        9855.0,
        9860.0,
        9865.0,
        9870.0,
        9875.0,
        9880.0,
        9885.0,
        9890.0,
        9895.0,
        9900.0,
        9905.0,
        9910.0,
        9915.0,
        9920.0,
        9925.0,
        9930.0,
        9935.0,
        9940.0,
        9945.0,
        9950.0,
        9955.0,
        9960.0,
        9965.0,
        9970.0,
        9975.0,
        9980.0,
        9985.0,
        9990.0,
        9995.0,
        10000.0,
        10005.0,
        10010.0,
        10015.0,
        10020.0,
        10025.0,
        10030.0,
        10035.0,
        10040.0,
        10045.0,
        10050.0,
        10055.0,
        10060.0,
        10065.0,
        10070.0,
        10075.0,
        10080.0,
        10085.0,
        10090.0,
        10095.0,
        10100.0,
        10105.0,
        10110.0,
        10115.0,
        10120.0,
        10125.0,
        10130.0,
        10135.0,
        10140.0,
        10145.0,
        10150.0,
        10155.0,
        10160.0,
        10165.0,
        10170.0,
        10175.0,
        10180.0,
        10185.0,
        10190.0,
        10195.0,
        10200.0,
        10205.0,
        10210.0,
        10215.0,
        10220.0,
        10225.0,
        10230.0,
        10235.0,
        10240.0,
        10245.0,
        10250.0,
        10255.0,
        10260.0,
        10265.0,
        10270.0,
        10275.0,
        10280.0,
        10285.0,
        10290.0,
        10295.0,
        10300.0,
        10305.0,
        10310.0,
        10315.0,
        10320.0,
        10325.0,
        10330.0,
        10335.0,
        10340.0,
        10345.0,
        10350.0,
        10355.0,
        10360.0,
        10365.0,
        10370.0,
        10375.0,
        10380.0,
        10385.0,
        10390.0,
        10395.0,
        10400.0,
        10405.0,
        10410.0,
        10415.0,
        10420.0,
        10425.0,
        10430.0,
        10435.0,
        10440.0,
        10445.0,
        10450.0,
        10455.0,
        10460.0,
        10465.0,
        10470.0,
        10475.0,
        10480.0,
        10485.0,
        10490.0,
        10495.0,
        10500.0
      ],
      "units":"angstrom"
    },
    "values":{
      "value":[
        0.0,
        0.0,
        0.0,
        0.0,
        0.0,
        0.0,
        0.0,
        0.0,
        0.0,
        0.0,
        0.0,
        0.0,
        0.0,
        0.0,
        0.0,
        0.0,
        0.0,
        0.0,
        0.0,
        0.0,
        0.0,
        0.0,
        0.0,
        0.0,
        0.0,
        0.0,
        0.0,
        0.0,
        0.0,
        0.0,
        0.0,
        0.0,
        0.0,
        0.0,
        0.0,
        0.0,
        0.0,
        0.0,
        0.0,
        0.0,
        0.0,
        0.0,
        0.0,
        0.0,
        0.0,
        0.0,
        0.0,
        0.0,
        0.0,
        0.0,
        0.0,
        0.0,
        0.0,
        0.0,
        0.0,
        0.0,
        0.0,
        0.0,
        0.0,
        0.0,
        0.0,
        0.0,
        0.0,
        0.0,
        0.0,
        0.0,
        0.0,
        0.0,
        0.0,
        0.0,
        0.0,
        0.0,
        0.0,
        0.0,
        0.0,
        0.0,
        0.0,
        0.0,
        0.0,
        0.0,
        0.0,
        0.0,
        0.0,
        0.0,
        0.0,
        0.0,
        0.0,
        0.0,
        0.0,
        0.0,
        0.0,
        0.0,
        0.0,
        0.0,
        0.0,
        0.0,
        0.0,
        0.0,
        0.0,
        0.0,
        0.0,
        0.0,
        0.0,
        0.0,
        0.0,
        0.0,
        0.0,
        0.0,
        0.0,
        0.0,
        0.0,
        0.0,
        0.0,
        0.0,
        0.0,
        0.0,
        0.0,
        0.0,
        0.0,
        0.0,
        0.0,
        0.0,
        0.0,
        0.0,
        0.0,
        0.0,
        0.0,
        0.0,
        0.0,
        0.0,
        0.0,
        0.0,
        0.0,
        0.0,
        0.0,
        0.0,
        0.0,
        0.0,
        0.0,
        0.0,
        0.0,
        0.0,
        0.0,
        0.0,
        0.0,
        0.0,
        0.0,
        0.0,
        0.0,
        0.0,
        0.0,
        0.0,
        0.0,
        0.0,
        0.0,
        0.0,
        0.0,
        0.0,
        0.0,
        0.0,
        0.0,
        0.0,
        0.0,
        0.0,
        0.0,
        0.0,
        0.0,
        0.0,
        0.0,
        0.0,
        0.0,
        0.0,
        0.0,
        0.0,
        0.0,
        0.0,
        0.0,
        0.0,
        0.0,
        0.0,
        0.0,
        0.0,
        0.0,
        0.0,
        0.0,
        0.0,
        0.0,
        0.0,
        0.0,
        0.0,
        0.0,
        0.0,
        0.0,
        0.0,
        0.0,
        0.0,
        0.0,
        0.0,
        0.0,
        0.0,
        0.0,
        0.0,
        0.0,
        0.0,
        0.0,
        0.0,
        0.0,
        0.0,
        0.0,
        0.0,
        0.0,
        0.0,
        0.0,
        0.0,
        0.0,
        0.0,
        0.0,
        0.0,
        0.0,
        0.0,
        0.0,
        0.0,
        0.0,
        0.0,
        0.0,
        0.0,
        0.0,
        0.0,
        0.0,
        0.0,
        0.0,
        0.0,
        0.0,
        0.0,
        0.0,
        0.0,
        0.0,
        0.0,
        0.0,
        0.0,
        0.0,
        0.0,
        0.0,
        0.0,
        0.0,
        0.0,
        0.0,
        0.0,
        0.0,
        0.0,
        0.0,
        0.0,
        0.0,
        0.0,
        0.0,
        0.0,
        0.0,
        0.0,
        0.0,
        0.0,
        0.0,
        0.0,
        0.0,
        0.0,
        0.0,
        0.0,
        0.0,
        0.0,
        0.0,
        0.0,
        0.0,
        0.0,
        0.0,
        0.0,
        0.0,
        0.0,
        0.0,
        0.0,
        0.0,
        0.0,
        0.0,
        0.0,
        0.0,
        0.0,
        0.0,
        0.0,
        0.0,
        0.0,
        0.0,
        0.0,
        0.0,
        0.0,
        0.0,
        0.0,
        0.0,
        0.0,
        0.0,
        0.0,
        0.0,
        0.0,
        0.0,
        0.0,
        0.0,
        0.0,
        0.0,
        0.0,
        0.0,
        0.0,
        0.0,
        0.0,
        0.0,
        0.0,
        0.0,
        0.0,
        0.0,
        0.0,
        0.0,
        0.0,
        0.0,
        0.0,
        0.0,
        1e-06,
        1e-06,
        2e-06,
        3e-06,
        3e-06,
        4e-06,
        4e-06,
        3e-06,
        2e-06,
        0.0,
        0.0,
        0.0,
        0.0,
        0.0,
        0.0,
        0.0,
        0.0,
        0.0,
        0.0,
        0.0,
        9e-06,
        2e-05,
        3.1e-05,
        4.1e-05,
        4.9e-05,
        5.2e-05,
        5e-05,
        4.2e-05,
        2.6e-05,
        0.0,
        0.0,
        0.0,
        0.0,
        0.0,
        0.0,
        0.0,
        0.0,
        0.0,
        0.0,
        0.0,
        0.000133,
        0.000299,
        0.000491,
        0.000701,
        0.000923,
        0.001149,
        0.001373,
        0.001588,
        0.001786,
        0.001961,
        0.002107,
        0.002229,
        0.00233,
        0.002418,
        0.002496,
        0.002571,
        0.002648,
        0.002731,
        0.002827,
        0.002941,
        0.003077,
        0.003233,
        0.003407,
        0.003597,
        0.003798,
        0.00401,
        0.004229,
        0.004452,
        0.004678,
        0.004902,
        0.005123,
        0.00534,
        0.005553,
        0.00576,
        0.005962,
        0.006157,
        0.006345,
        0.006526,
        0.006699,
        0.006863,
        0.007017,
        0.007162,
        0.007295,
        0.007417,
        0.007526,
        0.00762,
        0.0077,
        0.007765,
        0.007813,
        0.007843,
        0.007856,
        0.007855,
        0.007844,
        0.007827,
        0.007808,
        0.007793,
        0.007784,
        0.007787,
        0.007805,
        0.007843,
        0.007905,
        0.007992,
        0.008106,
        0.008249,
        0.008422,
        0.008628,
        0.008867,
        0.009142,
        0.009454,
        0.009804,
        0.010193,
        0.010618,
        0.011074,
        0.011554,
        0.012056,
        0.012574,
        0.013102,
        0.013637,
        0.014173,
        0.014706,
        0.015231,
        0.015747,
        0.016256,
        0.016757,
        0.01725,
        0.017736,
        0.018214,
        0.018685,
        0.01915,
        0.019608,
        0.020059,
        0.020502,
        0.020935,
        0.021356,
        0.021763,
        0.022155,
        0.022529,
        0.022884,
        0.023218,
        0.023529,
        0.023817,
        0.024088,
        0.024348,
        0.024605,
        0.024865,
        0.025136,
        0.025425,
        0.025739,
        0.026085,
        0.026471,
        0.0269,
        0.027374,
        0.027887,
        0.028438,
        0.029022,
        0.029638,
        0.030282,
        0.030951,
        0.031643,
        0.032353,
        0.033079,
        0.033814,
        0.034551,
        0.035284,
        0.036006,
        0.036711,
        0.037391,
        0.038039,
        0.03865,
        0.039216,
        0.039733,
        0.040211,
        0.040663,
        0.0411,
        0.041536,
        0.041982,
        0.04245,
        0.042954,
        0.043506,
        0.044118,
        0.044795,
        0.045513,
        0.046242,
        0.04695,
        0.047606,
        0.048179,
        0.048638,
        0.048952,
        0.049089,
        0.04902,
        0.058783,
        0.051367,
        0.048631,
        0.049852,
        0.05145,
        0.051192,
        0.048106,
        0.04493,
        0.044473,
        0.048146,
        0.052972,
        0.058467,
        0.064297,
        0.070222,
        0.075537,
        0.07757,
        0.074383,
        0.068937,
        0.065174,
        0.066042,
        0.071901,
        0.073732,
        0.06442,
        0.053853,
        0.052323,
        0.054759,
        0.054794,
        0.056262,
        0.062748,
        0.066653,
        0.061373,
        0.055484,
        0.057888,
        0.063602,
        0.065978,
        0.065581,
        0.06462,
        0.064657,
        0.066812,
        0.071089,
        0.076528,
        0.079447,
        0.076522,
        0.068595,
        0.057802,
        0.047295,
        0.040822,
        0.043502,
        0.057705,
        0.073412,
        0.079398,
        0.071989,
        0.05369,
        0.044154,
        0.059468,
        0.084272,
        0.100526,
        0.110904,
        0.121081,
        0.128022,
        0.129223,
        0.132997,
        0.14551,
        0.153504,
        0.145483,
        0.136413,
        0.14142,
        0.149799,
        0.14897,
        0.14467,
        0.144934,
        0.148664,
        0.152166,
        0.150474,
        0.143077,
        0.148546,
        0.178818,
        0.200206,
        0.183193,
        0.160538,
        0.166668,
        0.180378,
        0.175997,
        0.165601,
        0.165399,
        0.170381,
        0.172081,
        0.169428,
        0.165008,
        0.168647,
        0.186263,
        0.200886,
        0.196525,
        0.183986,
        0.17824,
        0.184134,
        0.199676,
        0.205624,
        0.188299,
        0.173507,
        0.185812,
        0.205321,
        0.205876,
        0.180731,
        0.136674,
        0.115209,
        0.148794,
        0.198977,
        0.221361,
        0.218678,
        0.205833,
        0.199271,
        0.210053,
        0.226141,
        0.232352,
        0.224013,
        0.203576,
        0.191495,
        0.203329,
        0.217074,
        0.213457,
        0.221721,
        0.267437,
        0.312994,
        0.319163,
        0.303427,
        0.292547,
        0.293685,
        0.307153,
        0.325476,
        0.341177,
        0.354551,
        0.36549,
        0.364497,
        0.343544,
        0.309871,
        0.278011,
        0.27641,
        0.319579,
        0.352366,
        0.326968,
        0.294623,
        0.310367,
        0.345381,
        0.360608,
        0.359903,
        0.35775,
        0.368257,
        0.39534,
        0.402535,
        0.361948,
        0.320342,
        0.326562,
        0.363114,
        0.400898,
        0.430741,
        0.448531,
        0.450507,
        0.43844,
        0.435911,
        0.46177,
        0.494154,
        0.504693,
        0.479703,
        0.421231,
        0.379555,
        0.396642,
        0.432975,
        0.444152,
        0.447713,
        0.468795,
        0.500989,
        0.530631,
        0.5466,
        0.542606,
        0.529154,
        0.517334,
        0.503789,
        0.486796,
        0.485619,
        0.517536,
        0.570883,
        0.624383,
        0.647236,
        0.618317,
        0.564726,
        0.518559,
        0.48368,
        0.462407,
        0.479107,
        0.543734,
        0.586547,
        0.549225,
        0.498816,
        0.506966,
        0.538341,
        0.547555,
        0.555987,
        0.587857,
        0.611976,
        0.599597,
        0.587131,
        0.60934,
        0.629231,
        0.609926,
        0.586763,
        0.599328,
        0.632,
        0.658445,
        0.664696,
        0.642301,
        0.592482,
        0.527247,
        0.492045,
        0.519131,
        0.554517,
        0.547122,
        0.543723,
        0.589068,
        0.621938,
        0.58478,
        0.540675,
        0.555882,
        0.588735,
        0.588879,
        0.579119,
        0.589656,
        0.607135,
        0.610639,
        0.592563,
        0.555692,
        0.531067,
        0.545676,
        0.58205,
        0.613545,
        0.621261,
        0.601287,
        0.601919,
        0.662154,
        0.731585,
        0.753389,
        0.734484,
        0.702547,
        0.704579,
        0.766343,
        0.80934,
        0.770443,
        0.752274,
        0.839236,
        0.877109,
        0.727752,
        0.555966,
        0.537965,
        0.592683,
        0.608323,
        0.60745,
        0.629951,
        0.650616,
        0.639181,
        0.610254,
        0.584964,
        0.565642,
        0.555639,
        0.581177,
        0.653169,
        0.698408,
        0.658094,
        0.61516,
        0.655478,
        0.734934,
        0.78927,
        0.803616,
        0.779347,
        0.733414,
        0.689497,
        0.682608,
        0.732445,
        0.786115,
        0.789582,
        0.756818,
        0.719981,
        0.71595,
        0.762304,
        0.794692,
        0.75942,
        0.727358,
        0.763686,
        0.78626,
        0.724642,
        0.702544,
        0.817196,
        0.865735,
        0.669234,
        0.444618,
        0.424897,
        0.511575,
        0.563547,
        0.600779,
        0.658277,
        0.670159,
        0.589258,
        0.544173,
        0.646834,
        0.766739,
        0.770136,
        0.752719,
        0.816124,
        0.856323,
        0.775455,
        0.706009,
        0.772027,
        0.833437,
        0.753707,
        0.674579,
        0.748636,
        0.893542,
        0.988609,
        0.994656,
        0.918233,
        0.867303,
        0.930737,
        1.019626,
        1.029186,
        0.968905,
        0.883016,
        0.840473,
        0.887061,
        0.951184,
        0.963749,
        0.983046,
        1.06191,
        1.103943,
        1.026976,
        0.954951,
        1.006976,
        1.076687,
        1.046751,
        0.98142,
        0.961302,
        0.950838,
        0.912942,
        0.92057,
        1.029688,
        1.118256,
        1.076232,
        1.019554,
        1.063725,
        1.096504,
        1.000516,
        0.865597,
        0.804547,
        0.814825,
        0.861782,
        0.897682,
        0.890904,
        0.887376,
        0.929962,
        0.971715,
        0.961336,
        0.919901,
        0.885451,
        0.891475,
        0.952804,
        1.014169,
        1.02417,
        1.016988,
        1.034761,
        1.065904,
        1.087272,
        1.08321,
        1.048283,
        1.010436,
        0.998606,
        1.012299,
        1.038026,
        1.039724,
        0.992012,
        0.934802,
        0.913602,
        0.930993,
        0.971802,
        0.992751,
        0.962399,
        0.924747,
        0.924048,
        0.930136,
        0.911225,
        0.903497,
        0.941409,
        0.98456,
        0.988581,
        0.968099,
        0.95093,
        0.958679,
        1.001623,
        1.050948,
        1.07569,
        1.075362,
        1.057546,
        1.031596,
        1.010551,
        1.020409,
        1.073325,
        1.113132,
        1.091418,
        1.059123,
        1.073366,
        1.116626,
        1.155513,
        1.167789,
        1.145471,
        1.126449,
        1.143012,
        1.159183,
        1.137443,
        1.102377,
        1.090495,
        1.123907,
        1.206104,
        1.280495,
        1.29281,
        1.258138,
        1.209676,
        1.183674,
        1.20409,
        1.242651,
        1.262312,
        1.243163,
        1.179703,
        1.106931,
        1.060799,
        1.040572,
        1.036484,
        1.039344,
        1.03363,
        0.977934,
        0.852501,
        0.750088,
        0.757997,
        0.829204,
        0.894597,
        0.931032,
        0.934715,
        0.933282,
        0.952374,
        0.978231,
        0.993032,
        1.002124,
        1.012426,
        1.013973,
        1.001235,
        1.003291,
        1.041249,
        1.069699,
        1.049495,
        1.033063,
        1.072204,
        1.124649,
        1.140039,
        1.129727,
        1.116991,
        1.111083,
        1.118221,
        1.14651,
        1.196985,
        1.240524,
        1.254289,
        1.270726,
        1.31723,
        1.345695,
        1.315075,
        1.288055,
        1.325064,
        1.373779,
        1.374084,
        1.347449,
        1.329794,
        1.333263,
        1.358826,
        1.386547,
        1.395938,
        1.385233,
        1.362871,
        1.359398,
        1.391562,
        1.398808,
        1.335199,
        1.290569,
        1.3385,
        1.351803,
        1.212215,
        1.037952,
        0.967833,
        0.986616,
        1.036321,
        1.042082,
        0.959125,
        0.879917,
        0.89612,
        0.958938,
        0.995821,
        0.979682,
        0.908728,
        0.836903,
        0.814368,
        0.82043,
        0.82679,
        0.845584,
        0.887515,
        0.917121,
        0.906377,
        0.903178,
        0.950181,
        0.99315,
        0.982354,
        0.98294,
        1.054517,
        1.119645,
        1.104117,
        1.083698,
        1.137071,
        1.204626,
        1.219746,
        1.226096,
        1.272952,
        1.321767,
        1.33002,
        1.32712,
        1.340078,
        1.314376,
        1.214473,
        1.162272,
        1.263033,
        1.398008,
        1.434214,
        1.405759,
        1.378257,
        1.376284,
        1.407201,
        1.450542,
        1.481517,
        1.485873,
        1.459372,
        1.427301,
        1.419082,
        1.451154,
        1.520431,
        1.558718,
        1.515182,
        1.473559,
        1.517904,
        1.598959,
        1.644229,
        1.621587,
        1.529338,
        1.447157,
        1.437865,
        1.415506,
        1.30641,
        1.234825,
        1.316552,
        1.435691,
        1.463407,
        1.450839,
        1.474625,
        1.53345,
        1.600257,
        1.622984,
        1.563088,
        1.461119,
        1.374802,
        1.351465,
        1.412446,
        1.485492,
        1.501806,
        1.499979,
        1.527561,
        1.560536,
        1.565545,
        1.543414,
        1.508913,
        1.498417,
        1.533665,
        1.556247,
        1.515129,
        1.468927,
        1.477515,
        1.49615,
        1.471058,
        1.416946,
        1.366555,
        1.356272,
        1.401729,
        1.431906,
        1.3848,
        1.321142,
        1.309985,
        1.330938,
        1.350717,
        1.373901,
        1.401854,
        1.385193,
        1.292065,
        1.211479,
        1.227885,
        1.286638,
        1.314134,
        1.30001,
        1.259124,
        1.243954,
        1.293348,
        1.354018,
        1.371788,
        1.381089,
        1.416464,
        1.424311,
        1.360335,
        1.305622,
        1.339588,
        1.409605,
        1.447219,
        1.45271,
        1.444421,
        1.444188,
        1.467077,
        1.497564,
        1.518035,
        1.53311,
        1.550786,
        1.570323,
        1.589539,
        1.609216,
        1.63013,
        1.650088,
        1.667133,
        1.683243,
        1.700527,
        1.717693,
        1.733522,
        1.750495,
        1.77112,
        1.794321,
        1.817936,
        1.83904,
        1.856085,
        1.873795,
        1.896407,
        1.919938,
        1.939473,
        1.954572,
        1.967296,
        1.985211,
        2.009372,
        2.009266,
        1.965104,
        1.931564,
        1.958046,
        1.99836,
        2.002645,
        2.00193,
        2.031213,
        2.060476,
        2.058023,
        2.05047,
        2.067817,
        2.095292,
        2.118484,
        2.16922,
        2.25036,
        2.202672,
        1.912368,
        1.609523,
        1.536543,
        1.641291,
        1.790142,
        1.818067,
        1.62576,
        1.408217,
        1.364835,
        1.418306,
        1.458077,
        1.51733,
        1.622351,
        1.628106,
        1.425155,
        1.217751,
        1.212047,
        1.3081,
        1.366589,
        1.396761,
        1.431698,
        1.451252,
        1.435886,
        1.42173,
        1.441816,
        1.461121,
        1.444044,
        1.420742,
        1.426775,
        1.453554,
        1.487155,
        1.536452,
        1.60906,
        1.684737,
        1.738992,
        1.758172,
        1.742189,
        1.734369,
        1.773121,
        1.833766,
        1.883439,
        1.919635,
        1.946659,
        1.965728,
        1.97502,
        1.963661,
        1.933477,
        1.946164,
        2.046623,
        2.152731,
        2.181453,
        2.173151,
        2.183405,
        2.205261,
        2.226962,
        2.280065,
        2.384698,
        2.471979,
        2.473396,
        2.410937,
        2.33394,
        2.310654,
        2.38938,
        2.519717,
        2.629238,
        2.656136,
        2.575233,
        2.497276,
        2.527681,
        2.614633,
        2.676492,
        2.669541,
        2.587329,
        2.534537,
        2.598094,
        2.682798,
        2.686917,
        2.664749,
        2.683265,
        2.704117,
        2.683998,
        2.665084,
        2.690267,
        2.719831,
        2.710003,
        2.683393,
        2.671735,
        2.676878,
        2.690762,
        2.69557,
        2.682031,
        2.684819,
        2.730265,
        2.767379,
        2.749821,
        2.727164,
        2.750204,
        2.778716,
        2.766791,
        2.736812,
        2.7195,
        2.710632,
        2.699778,
        2.686612,
        2.672909,
        2.658749,
        2.644228,
        2.631207,
        2.62108,
        2.61162,
        2.60045,
        2.588216,
        2.576041,
        2.563921,
        2.551708,
        2.539792,
        2.528461,
        2.51705,
        2.504903,
        2.492369,
        2.479855,
        2.46699,
        2.45356,
        2.44076,
        2.429777,
        2.420365,
        2.411956,
        2.404127,
        2.396377,
        2.387726,
        2.378054,
        2.371146,
        2.367955,
        2.354191,
        2.326223,
        2.338285,
        2.42072,
        2.450446,
        2.329786,
        2.216111,
        2.263925,
        2.361225,
        2.375812,
        2.361208,
        2.388497,
        2.413285,
        2.387362,
        2.362726,
        2.394737,
        2.452003,
        2.49393,
        2.529877,
        2.573232,
        2.603546,
        2.59688,
        2.549181,
        2.47407,
        2.435994,
        2.484024,
        2.554892,
        2.580547,
        2.586146,
        2.606929,
        2.625275,
        2.621072,
        2.617106,
        2.632847,
        2.631595,
        2.58245,
        2.533876,
        2.532299,
        2.536623,
        2.506761,
        2.49416,
        2.546289,
        2.603154,
        2.598424,
        2.547886,
        2.490613,
        2.476717,
        2.538464,
        2.62571,
        2.682211,
        2.709741,
        2.72332,
        2.732948,
        2.741837,
        2.731061,
        2.689783,
        2.661644,
        2.692705,
        2.784212,
        2.901136,
        2.908148,
        2.728354,
        2.618893,
        2.797283,
        2.988543,
        2.915162,
        2.78204,
        2.824723,
        2.918959,
        2.9052,
        2.84253,
        2.824398,
        2.863096,
        2.933926,
        2.945403,
        2.839418,
        2.758161,
        2.825751,
        2.893723,
        2.818313,
        2.747145,
        2.830332,
        2.936565,
        2.915497,
        2.822055,
        2.74999,
        2.743062,
        2.805718,
        2.835129,
        2.751873,
        2.677421,
        2.727039,
        2.790285,
        2.747823,
        2.670459,
        2.650783,
        2.678398,
        2.726917,
        2.808988,
        2.917504,
        2.92732,
        2.756849,
        2.616805,
        2.708875,
        2.906344,
        3.029449,
        3.014647,
        2.872732,
        2.79565,
        2.930412,
        3.063152,
        2.980664,
        2.833272,
        2.804859,
        2.850032,
        2.877247,
        2.83966,
        2.73263,
        2.675643,
        2.762336,
        2.858839,
        2.827888,
        2.746162,
        2.715451,
        2.724061,
        2.740252,
        2.765595,
        2.799576,
        2.800031,
        2.742625,
        2.715974,
        2.785084,
        2.807563,
        2.668372,
        2.56929,
        2.702446,
        2.904559,
        2.978215,
        2.944869,
        2.874116,
        2.809206,
        2.774186,
        2.742614,
        2.693669,
        2.679495,
        2.741404,
        2.804424,
        2.793821,
        2.75211,
        2.737775,
        2.755918,
        2.795752,
        2.836303,
        2.849417,
        2.788414,
        2.637562,
        2.52345,
        2.554141,
        2.621258,
        2.607236,
        2.574188,
        2.606663,
        2.699268,
        2.776264,
        2.570462,
        1.959418,
        1.591097,
        2.020053,
        2.656772,
        2.83864,
        2.754702,
        2.726495,
        2.753869,
        2.772689,
        2.784563,
        2.805907,
        2.846631,
        2.904268,
        2.933331,
        2.902183,
        2.877583,
        2.925353,
        3.009175,
        3.076788,
        3.114301,
        3.129133,
        3.175573,
        3.245757,
        3.036351,
        2.380104,
        1.949564,
        2.32473,
        2.875593,
        2.933019,
        2.881368,
        3.087632,
        2.79584,
        2.950428,
        2.958312,
        2.964978,
        2.970579,
        2.975263,
        2.979181,
        2.982483,
        2.985319,
        2.98784,
        2.990196,
        2.992509,
        2.99479,
        2.997021,
        2.999185,
        3.001266,
        3.003245,
        3.005105,
        3.00683,
        3.008402,
        3.009804,
        3.010998,
        3.011864,
        3.012262,
        3.012053,
        3.011096,
        3.009252,
        3.00638,
        3.00234,
        2.996992,
        2.990196,
        2.981893,
        2.972344,
        2.961892,
        2.950877,
        2.939644,
        2.928533,
        2.917886,
        2.908047,
        2.899356,
        2.892157,
        2.886705,
        2.882917,
        2.880622,
        2.879653,
        2.879838,
        2.881009,
        2.882995,
        2.885629,
        2.888739,
        2.892157,
        2.895748,
        2.899519,
        2.903511,
        2.907767,
        2.912328,
        2.917236,
        2.922533,
        2.928261,
        2.934462,
        2.941176,
        2.948382,
        2.955793,
        2.963059,
        2.969829,
        2.975752,
        2.980478,
        2.983655,
        2.984934,
        2.983963,
        2.980392,
        2.973989,
        2.964996,
        2.953773,
        2.940683,
        2.926086,
        2.910344,
        2.893816,
        2.876865,
        2.859852,
        2.843137,
        2.827055,
        2.811834,
        2.797673,
        2.784773,
        2.773335,
        2.76356,
        2.755649,
        2.7498,
        2.746217,
        2.745098,
        2.746526,
        2.750102,
        2.755311,
        2.761637,
        2.768563,
        2.775572,
        2.782149,
        2.787776,
        2.791938,
        2.794118,
        2.793951,
        2.79168,
        2.7877,
        2.782404,
        2.776188,
        2.769445,
        2.76257,
        2.755958,
        2.750002,
        2.745098,
        2.741544,
        2.739256,
        2.738056,
        2.737766,
        2.738205,
        2.739197,
        2.74056,
        2.742117,
        2.74369,
        2.745098,
        2.746178,
        2.746825,
        2.746947,
        2.746454,
        2.745255,
        2.743259,
        2.740376,
        2.736513,
        2.731582,
        2.72549,
        2.718213,
        2.709993,
        2.701135,
        2.691946,
        2.682734,
        2.673805,
        2.665466,
        2.658024,
        2.651786,
        2.647059,
        2.644075,
        2.642772,
        2.643013,
        2.644663,
        2.647583,
        2.651638,
        2.65669,
        2.662605,
        2.669244,
        2.676471,
        2.684163,
        2.692252,
        2.700684,
        2.709404,
        2.718356,
        2.727487,
        2.736743,
        2.746067,
        2.755406,
        2.764706,
        2.773901,
        2.782886,
        2.791545,
        2.799763,
        2.807424,
        2.814413,
        2.820614,
        2.825911,
        2.83019,
        2.833333,
        2.835263,
        2.836048,
        2.835793,
        2.834604,
        2.832584,
        2.82984,
        2.826478,
        2.822601,
        2.818315,
        2.813725,
        2.808938,
        2.804058,
        2.799193,
        2.79445,
        2.789934,
        2.785753,
        2.782014,
        2.778823,
        2.776286,
        2.77451,
        2.773574,
        2.773445,
        2.774061,
        2.775362,
        2.777286,
        2.779773,
        2.78276,
        2.786187,
        2.789994,
        2.794118,
        2.798502,
        2.803104,
        2.807886,
        2.812808,
        2.817833,
        2.822921,
        2.828034,
        2.833134,
        2.838181,
        2.843137,
        2.847967,
        2.852648,
        2.85716,
        2.861483,
        2.865598,
        2.869484,
        2.873123,
        2.876494,
        2.879577,
        2.882353,
        2.884805,
        2.88693,
        2.888728,
        2.890199,
        2.891343,
        2.89216,
        2.89265,
        2.892812,
        2.892648,
        2.892157,
        2.891351,
        2.890298,
        2.889074,
        2.887759,
        2.886431,
        2.885169,
        2.884052,
        2.883158,
        2.882565,
        2.882353,
        2.882573,
        2.883173,
        2.884074,
        2.885196,
        2.886461,
        2.887789,
        2.889102,
        2.890321,
        2.891365,
        2.892157,
        2.89263,
        2.892775,
        2.892592,
        2.892084,
        2.891254,
        2.890104,
        2.888637,
        2.886854,
        2.884759,
        2.882353,
        2.879659,
        2.876787,
        2.873863,
        2.871016,
        2.868375,
        2.866067,
        2.864222,
        2.862968,
        2.862432,
        2.862745,
        2.863985,
        2.866038,
        2.868741,
        2.87193,
        2.875443,
        2.879117,
        2.882788,
        2.886294,
        2.889472,
        2.892157,
        2.894204,
        2.895532,
        2.896076,
        2.895773,
        2.894558,
        2.892366,
        2.889134,
        2.884796,
        2.87929,
        2.872549,
        2.864581,
        2.855678,
        2.846199,
        2.836506,
        2.826962,
        2.817928,
        2.809764,
        2.802834,
        2.797498,
        2.794118,
        2.79295,
        2.793837,
        2.796512,
        2.800712,
        2.806172,
        2.812629,
        2.819818,
        2.827476,
        2.835337,
        2.843137,
        2.850626,
        2.857604,
        2.863882,
        2.869275,
        2.873594,
        2.876654,
        2.878266,
        2.878244,
        2.876401,
        2.872549,
        2.852939,
        2.848774,
        2.843996,
        2.838846,
        2.833567,
        2.828399,
        2.823585,
        2.819366,
        2.815984,
        2.81368,
        2.812622,
        2.812688,
        2.813682,
        2.815406,
        2.817665,
        2.820261,
        2.822999,
        2.825682,
        2.828115,
        2.830099,
        2.831484,
        2.8323,
        2.832618,
        2.832512,
        2.832056,
        2.831323,
        2.830387,
        2.82932,
        2.828197,
        2.827091,
        2.826062,
        2.825113,
        2.824237,
        2.823423,
        2.822664,
        2.821949,
        2.82127,
        2.820618,
        2.819984,
        2.819358
      ],
      "range":1
    }
  }
]
