[
  {
    "model":"Star, type G8(iii)",
    "name":"Star, type G8(iii)",
    "type":"WB_REF",
    "dataQualityMarker":3,
    "dataSource":"https://www.eso.org/sci/facilities/paranal/decommissioned/isaac/tools/lib.html",
    "manufacturer":"A. Pickles (A.J. Pickles, PASP 110,863, 1998)",
    "version":1,
    "wavelength":{
      "value":[
        1150.0,
        1155.0,
        1160.0,
        1165.0,
        1170.0,
        1175.0,
        1180.0,
        1185.0,
        1190.0,
        1195.0,
        1200.0,
        1205.0,
        1210.0,
        1215.0,
        1220.0,
        1225.0,
        1230.0,
        1235.0,
        1240.0,
        1245.0,
        1250.0,
        1255.0,
        1260.0,
        1265.0,
        1270.0,
        1275.0,
        1280.0,
        1285.0,
        1290.0,
        1295.0,
        1300.0,
        1305.0,
        1310.0,
        1315.0,
        1320.0,
        1325.0,
        1330.0,
        1335.0,
        1340.0,
        1345.0,
        1350.0,
        1355.0,
        1360.0,
        1365.0,
        1370.0,
        1375.0,
        1380.0,
        1385.0,
        1390.0,
        1395.0,
        1400.0,
        1405.0,
        1410.0,
        1415.0,
        1420.0,
        1425.0,
        1430.0,
        1435.0,
        1440.0,
        1445.0,
        1450.0,
        1455.0,
        1460.0,
        1465.0,
        1470.0,
        1475.0,
        1480.0,
        1485.0,
        1490.0,
        1495.0,
        1500.0,
        1505.0,
        1510.0,
        1515.0,
        1520.0,
        1525.0,
        1530.0,
        1535.0,
        1540.0,
        1545.0,
        1550.0,
        1555.0,
        1560.0,
        1565.0,
        1570.0,
        1575.0,
        1580.0,
        1585.0,
        1590.0,
        1595.0,
        1600.0,
        1605.0,
        1610.0,
        1615.0,
        1620.0,
        1625.0,
        1630.0,
        1635.0,
        1640.0,
        1645.0,
        1650.0,
        1655.0,
        1660.0,
        1665.0,
        1670.0,
        1675.0,
        1680.0,
        1685.0,
        1690.0,
        1695.0,
        1700.0,
        1705.0,
        1710.0,
        1715.0,
        1720.0,
        1725.0,
        1730.0,
        1735.0,
        1740.0,
        1745.0,
        1750.0,
        1755.0,
        1760.0,
        1765.0,
        1770.0,
        1775.0,
        1780.0,
        1785.0,
        1790.0,
        1795.0,
        1800.0,
        1805.0,
        1810.0,
        1815.0,
        1820.0,
        1825.0,
        1830.0,
        1835.0,
        1840.0,
        1845.0,
        1850.0,
        1855.0,
        1860.0,
        1865.0,
        1870.0,
        1875.0,
        1880.0,
        1885.0,
        1890.0,
        1895.0,
        1900.0,
        1905.0,
        1910.0,
        1915.0,
        1920.0,
        1925.0,
        1930.0,
        1935.0,
        1940.0,
        1945.0,
        1950.0,
        1955.0,
        1960.0,
        1965.0,
        1970.0,
        1975.0,
        1980.0,
        1985.0,
        1990.0,
        1995.0,
        2000.0,
        2005.0,
        2010.0,
        2015.0,
        2020.0,
        2025.0,
        2030.0,
        2035.0,
        2040.0,
        2045.0,
        2050.0,
        2055.0,
        2060.0,
        2065.0,
        2070.0,
        2075.0,
        2080.0,
        2085.0,
        2090.0,
        2095.0,
        2100.0,
        2105.0,
        2110.0,
        2115.0,
        2120.0,
        2125.0,
        2130.0,
        2135.0,
        2140.0,
        2145.0,
        2150.0,
        2155.0,
        2160.0,
        2165.0,
        2170.0,
        2175.0,
        2180.0,
        2185.0,
        2190.0,
        2195.0,
        2200.0,
        2205.0,
        2210.0,
        2215.0,
        2220.0,
        2225.0,
        2230.0,
        2235.0,
        2240.0,
        2245.0,
        2250.0,
        2255.0,
        2260.0,
        2265.0,
        2270.0,
        2275.0,
        2280.0,
        2285.0,
        2290.0,
        2295.0,
        2300.0,
        2305.0,
        2310.0,
        2315.0,
        2320.0,
        2325.0,
        2330.0,
        2335.0,
        2340.0,
        2345.0,
        2350.0,
        2355.0,
        2360.0,
        2365.0,
        2370.0,
        2375.0,
        2380.0,
        2385.0,
        2390.0,
        2395.0,
        2400.0,
        2405.0,
        2410.0,
        2415.0,
        2420.0,
        2425.0,
        2430.0,
        2435.0,
        2440.0,
        2445.0,
        2450.0,
        2455.0,
        2460.0,
        2465.0,
        2470.0,
        2475.0,
        2480.0,
        2485.0,
        2490.0,
        2495.0,
        2500.0,
        2505.0,
        2510.0,
        2515.0,
        2520.0,
        2525.0,
        2530.0,
        2535.0,
        2540.0,
        2545.0,
        2550.0,
        2555.0,
        2560.0,
        2565.0,
        2570.0,
        2575.0,
        2580.0,
        2585.0,
        2590.0,
        2595.0,
        2600.0,
        2605.0,
        2610.0,
        2615.0,
        2620.0,
        2625.0,
        2630.0,
        2635.0,
        2640.0,
        2645.0,
        2650.0,
        2655.0,
        2660.0,
        2665.0,
        2670.0,
        2675.0,
        2680.0,
        2685.0,
        2690.0,
        2695.0,
        2700.0,
        2705.0,
        2710.0,
        2715.0,
        2720.0,
        2725.0,
        2730.0,
        2735.0,
        2740.0,
        2745.0,
        2750.0,
        2755.0,
        2760.0,
        2765.0,
        2770.0,
        2775.0,
        2780.0,
        2785.0,
        2790.0,
        2795.0,
        2800.0,
        2805.0,
        2810.0,
        2815.0,
        2820.0,
        2825.0,
        2830.0,
        2835.0,
        2840.0,
        2845.0,
        2850.0,
        2855.0,
        2860.0,
        2865.0,
        2870.0,
        2875.0,
        2880.0,
        2885.0,
        2890.0,
        2895.0,
        2900.0,
        2905.0,
        2910.0,
        2915.0,
        2920.0,
        2925.0,
        2930.0,
        2935.0,
        2940.0,
        2945.0,
        2950.0,
        2955.0,
        2960.0,
        2965.0,
        2970.0,
        2975.0,
        2980.0,
        2985.0,
        2990.0,
        2995.0,
        3000.0,
        3005.0,
        3010.0,
        3015.0,
        3020.0,
        3025.0,
        3030.0,
        3035.0,
        3040.0,
        3045.0,
        3050.0,
        3055.0,
        3060.0,
        3065.0,
        3070.0,
        3075.0,
        3080.0,
        3085.0,
        3090.0,
        3095.0,
        3100.0,
        3105.0,
        3110.0,
        3115.0,
        3120.0,
        3125.0,
        3130.0,
        3135.0,
        3140.0,
        3145.0,
        3150.0,
        3155.0,
        3160.0,
        3165.0,
        3170.0,
        3175.0,
        3180.0,
        3185.0,
        3190.0,
        3195.0,
        3200.0,
        3205.0,
        3210.0,
        3215.0,
        3220.0,
        3225.0,
        3230.0,
        3235.0,
        3240.0,
        3245.0,
        3250.0,
        3255.0,
        3260.0,
        3265.0,
        3270.0,
        3275.0,
        3280.0,
        3285.0,
        3290.0,
        3295.0,
        3300.0,
        3305.0,
        3310.0,
        3315.0,
        3320.0,
        3325.0,
        3330.0,
        3335.0,
        3340.0,
        3345.0,
        3350.0,
        3355.0,
        3360.0,
        3365.0,
        3370.0,
        3375.0,
        3380.0,
        3385.0,
        3390.0,
        3395.0,
        3400.0,
        3405.0,
        3410.0,
        3415.0,
        3420.0,
        3425.0,
        3430.0,
        3435.0,
        3440.0,
        3445.0,
        3450.0,
        3455.0,
        3460.0,
        3465.0,
        3470.0,
        3475.0,
        3480.0,
        3485.0,
        3490.0,
        3495.0,
        3500.0,
        3505.0,
        3510.0,
        3515.0,
        3520.0,
        3525.0,
        3530.0,
        3535.0,
        3540.0,
        3545.0,
        3550.0,
        3555.0,
        3560.0,
        3565.0,
        3570.0,
        3575.0,
        3580.0,
        3585.0,
        3590.0,
        3595.0,
        3600.0,
        3605.0,
        3610.0,
        3615.0,
        3620.0,
        3625.0,
        3630.0,
        3635.0,
        3640.0,
        3645.0,
        3650.0,
        3655.0,
        3660.0,
        3665.0,
        3670.0,
        3675.0,
        3680.0,
        3685.0,
        3690.0,
        3695.0,
        3700.0,
        3705.0,
        3710.0,
        3715.0,
        3720.0,
        3725.0,
        3730.0,
        3735.0,
        3740.0,
        3745.0,
        3750.0,
        3755.0,
        3760.0,
        3765.0,
        3770.0,
        3775.0,
        3780.0,
        3785.0,
        3790.0,
        3795.0,
        3800.0,
        3805.0,
        3810.0,
        3815.0,
        3820.0,
        3825.0,
        3830.0,
        3835.0,
        3840.0,
        3845.0,
        3850.0,
        3855.0,
        3860.0,
        3865.0,
        3870.0,
        3875.0,
        3880.0,
        3885.0,
        3890.0,
        3895.0,
        3900.0,
        3905.0,
        3910.0,
        3915.0,
        3920.0,
        3925.0,
        3930.0,
        3935.0,
        3940.0,
        3945.0,
        3950.0,
        3955.0,
        3960.0,
        3965.0,
        3970.0,
        3975.0,
        3980.0,
        3985.0,
        3990.0,
        3995.0,
        4000.0,
        4005.0,
        4010.0,
        4015.0,
        4020.0,
        4025.0,
        4030.0,
        4035.0,
        4040.0,
        4045.0,
        4050.0,
        4055.0,
        4060.0,
        4065.0,
        4070.0,
        4075.0,
        4080.0,
        4085.0,
        4090.0,
        4095.0,
        4100.0,
        4105.0,
        4110.0,
        4115.0,
        4120.0,
        4125.0,
        4130.0,
        4135.0,
        4140.0,
        4145.0,
        4150.0,
        4155.0,
        4160.0,
        4165.0,
        4170.0,
        4175.0,
        4180.0,
        4185.0,
        4190.0,
        4195.0,
        4200.0,
        4205.0,
        4210.0,
        4215.0,
        4220.0,
        4225.0,
        4230.0,
        4235.0,
        4240.0,
        4245.0,
        4250.0,
        4255.0,
        4260.0,
        4265.0,
        4270.0,
        4275.0,
        4280.0,
        4285.0,
        4290.0,
        4295.0,
        4300.0,
        4305.0,
        4310.0,
        4315.0,
        4320.0,
        4325.0,
        4330.0,
        4335.0,
        4340.0,
        4345.0,
        4350.0,
        4355.0,
        4360.0,
        4365.0,
        4370.0,
        4375.0,
        4380.0,
        4385.0,
        4390.0,
        4395.0,
        4400.0,
        4405.0,
        4410.0,
        4415.0,
        4420.0,
        4425.0,
        4430.0,
        4435.0,
        4440.0,
        4445.0,
        4450.0,
        4455.0,
        4460.0,
        4465.0,
        4470.0,
        4475.0,
        4480.0,
        4485.0,
        4490.0,
        4495.0,
        4500.0,
        4505.0,
        4510.0,
        4515.0,
        4520.0,
        4525.0,
        4530.0,
        4535.0,
        4540.0,
        4545.0,
        4550.0,
        4555.0,
        4560.0,
        4565.0,
        4570.0,
        4575.0,
        4580.0,
        4585.0,
        4590.0,
        4595.0,
        4600.0,
        4605.0,
        4610.0,
        4615.0,
        4620.0,
        4625.0,
        4630.0,
        4635.0,
        4640.0,
        4645.0,
        4650.0,
        4655.0,
        4660.0,
        4665.0,
        4670.0,
        4675.0,
        4680.0,
        4685.0,
        4690.0,
        4695.0,
        4700.0,
        4705.0,
        4710.0,
        4715.0,
        4720.0,
        4725.0,
        4730.0,
        4735.0,
        4740.0,
        4745.0,
        4750.0,
        4755.0,
        4760.0,
        4765.0,
        4770.0,
        4775.0,
        4780.0,
        4785.0,
        4790.0,
        4795.0,
        4800.0,
        4805.0,
        4810.0,
        4815.0,
        4820.0,
        4825.0,
        4830.0,
        4835.0,
        4840.0,
        4845.0,
        4850.0,
        4855.0,
        4860.0,
        4865.0,
        4870.0,
        4875.0,
        4880.0,
        4885.0,
        4890.0,
        4895.0,
        4900.0,
        4905.0,
        4910.0,
        4915.0,
        4920.0,
        4925.0,
        4930.0,
        4935.0,
        4940.0,
        4945.0,
        4950.0,
        4955.0,
        4960.0,
        4965.0,
        4970.0,
        4975.0,
        4980.0,
        4985.0,
        4990.0,
        4995.0,
        5000.0,
        5005.0,
        5010.0,
        5015.0,
        5020.0,
        5025.0,
        5030.0,
        5035.0,
        5040.0,
        5045.0,
        5050.0,
        5055.0,
        5060.0,
        5065.0,
        5070.0,
        5075.0,
        5080.0,
        5085.0,
        5090.0,
        5095.0,
        5100.0,
        5105.0,
        5110.0,
        5115.0,
        5120.0,
        5125.0,
        5130.0,
        5135.0,
        5140.0,
        5145.0,
        5150.0,
        5155.0,
        5160.0,
        5165.0,
        5170.0,
        5175.0,
        5180.0,
        5185.0,
        5190.0,
        5195.0,
        5200.0,
        5205.0,
        5210.0,
        5215.0,
        5220.0,
        5225.0,
        5230.0,
        5235.0,
        5240.0,
        5245.0,
        5250.0,
        5255.0,
        5260.0,
        5265.0,
        5270.0,
        5275.0,
        5280.0,
        5285.0,
        5290.0,
        5295.0,
        5300.0,
        5305.0,
        5310.0,
        5315.0,
        5320.0,
        5325.0,
        5330.0,
        5335.0,
        5340.0,
        5345.0,
        5350.0,
        5355.0,
        5360.0,
        5365.0,
        5370.0,
        5375.0,
        5380.0,
        5385.0,
        5390.0,
        5395.0,
        5400.0,
        5405.0,
        5410.0,
        5415.0,
        5420.0,
        5425.0,
        5430.0,
        5435.0,
        5440.0,
        5445.0,
        5450.0,
        5455.0,
        5460.0,
        5465.0,
        5470.0,
        5475.0,
        5480.0,
        5485.0,
        5490.0,
        5495.0,
        5500.0,
        5505.0,
        5510.0,
        5515.0,
        5520.0,
        5525.0,
        5530.0,
        5535.0,
        5540.0,
        5545.0,
        5550.0,
        5555.0,
        5560.0,
        5565.0,
        5570.0,
        5575.0,
        5580.0,
        5585.0,
        5590.0,
        5595.0,
        5600.0,
        5605.0,
        5610.0,
        5615.0,
        5620.0,
        5625.0,
        5630.0,
        5635.0,
        5640.0,
        5645.0,
        5650.0,
        5655.0,
        5660.0,
        5665.0,
        5670.0,
        5675.0,
        5680.0,
        5685.0,
        5690.0,
        5695.0,
        5700.0,
        5705.0,
        5710.0,
        5715.0,
        5720.0,
        5725.0,
        5730.0,
        5735.0,
        5740.0,
        5745.0,
        5750.0,
        5755.0,
        5760.0,
        5765.0,
        5770.0,
        5775.0,
        5780.0,
        5785.0,
        5790.0,
        5795.0,
        5800.0,
        5805.0,
        5810.0,
        5815.0,
        5820.0,
        5825.0,
        5830.0,
        5835.0,
        5840.0,
        5845.0,
        5850.0,
        5855.0,
        5860.0,
        5865.0,
        5870.0,
        5875.0,
        5880.0,
        5885.0,
        5890.0,
        5895.0,
        5900.0,
        5905.0,
        5910.0,
        5915.0,
        5920.0,
        5925.0,
        5930.0,
        5935.0,
        5940.0,
        5945.0,
        5950.0,
        5955.0,
        5960.0,
        5965.0,
        5970.0,
        5975.0,
        5980.0,
        5985.0,
        5990.0,
        5995.0,
        6000.0,
        6005.0,
        6010.0,
        6015.0,
        6020.0,
        6025.0,
        6030.0,
        6035.0,
        6040.0,
        6045.0,
        6050.0,
        6055.0,
        6060.0,
        6065.0,
        6070.0,
        6075.0,
        6080.0,
        6085.0,
        6090.0,
        6095.0,
        6100.0,
        6105.0,
        6110.0,
        6115.0,
        6120.0,
        6125.0,
        6130.0,
        6135.0,
        6140.0,
        6145.0,
        6150.0,
        6155.0,
        6160.0,
        6165.0,
        6170.0,
        6175.0,
        6180.0,
        6185.0,
        6190.0,
        6195.0,
        6200.0,
        6205.0,
        6210.0,
        6215.0,
        6220.0,
        6225.0,
        6230.0,
        6235.0,
        6240.0,
        6245.0,
        6250.0,
        6255.0,
        6260.0,
        6265.0,
        6270.0,
        6275.0,
        6280.0,
        6285.0,
        6290.0,
        6295.0,
        6300.0,
        6305.0,
        6310.0,
        6315.0,
        6320.0,
        6325.0,
        6330.0,
        6335.0,
        6340.0,
        6345.0,
        6350.0,
        6355.0,
        6360.0,
        6365.0,
        6370.0,
        6375.0,
        6380.0,
        6385.0,
        6390.0,
        6395.0,
        6400.0,
        6405.0,
        6410.0,
        6415.0,
        6420.0,
        6425.0,
        6430.0,
        6435.0,
        6440.0,
        6445.0,
        6450.0,
        6455.0,
        6460.0,
        6465.0,
        6470.0,
        6475.0,
        6480.0,
        6485.0,
        6490.0,
        6495.0,
        6500.0,
        6505.0,
        6510.0,
        6515.0,
        6520.0,
        6525.0,
        6530.0,
        6535.0,
        6540.0,
        6545.0,
        6550.0,
        6555.0,
        6560.0,
        6565.0,
        6570.0,
        6575.0,
        6580.0,
        6585.0,
        6590.0,
        6595.0,
        6600.0,
        6605.0,
        6610.0,
        6615.0,
        6620.0,
        6625.0,
        6630.0,
        6635.0,
        6640.0,
        6645.0,
        6650.0,
        6655.0,
        6660.0,
        6665.0,
        6670.0,
        6675.0,
        6680.0,
        6685.0,
        6690.0,
        6695.0,
        6700.0,
        6705.0,
        6710.0,
        6715.0,
        6720.0,
        6725.0,
        6730.0,
        6735.0,
        6740.0,
        6745.0,
        6750.0,
        6755.0,
        6760.0,
        6765.0,
        6770.0,
        6775.0,
        6780.0,
        6785.0,
        6790.0,
        6795.0,
        6800.0,
        6805.0,
        6810.0,
        6815.0,
        6820.0,
        6825.0,
        6830.0,
        6835.0,
        6840.0,
        6845.0,
        6850.0,
        6855.0,
        6860.0,
        6865.0,
        6870.0,
        6875.0,
        6880.0,
        6885.0,
        6890.0,
        6895.0,
        6900.0,
        6905.0,
        6910.0,
        6915.0,
        6920.0,
        6925.0,
        6930.0,
        6935.0,
        6940.0,
        6945.0,
        6950.0,
        6955.0,
        6960.0,
        6965.0,
        6970.0,
        6975.0,
        6980.0,
        6985.0,
        6990.0,
        6995.0,
        7000.0,
        7005.0,
        7010.0,
        7015.0,
        7020.0,
        7025.0,
        7030.0,
        7035.0,
        7040.0,
        7045.0,
        7050.0,
        7055.0,
        7060.0,
        7065.0,
        7070.0,
        7075.0,
        7080.0,
        7085.0,
        7090.0,
        7095.0,
        7100.0,
        7105.0,
        7110.0,
        7115.0,
        7120.0,
        7125.0,
        7130.0,
        7135.0,
        7140.0,
        7145.0,
        7150.0,
        7155.0,
        7160.0,
        7165.0,
        7170.0,
        7175.0,
        7180.0,
        7185.0,
        7190.0,
        7195.0,
        7200.0,
        7205.0,
        7210.0,
        7215.0,
        7220.0,
        7225.0,
        7230.0,
        7235.0,
        7240.0,
        7245.0,
        7250.0,
        7255.0,
        7260.0,
        7265.0,
        7270.0,
        7275.0,
        7280.0,
        7285.0,
        7290.0,
        7295.0,
        7300.0,
        7305.0,
        7310.0,
        7315.0,
        7320.0,
        7325.0,
        7330.0,
        7335.0,
        7340.0,
        7345.0,
        7350.0,
        7355.0,
        7360.0,
        7365.0,
        7370.0,
        7375.0,
        7380.0,
        7385.0,
        7390.0,
        7395.0,
        7400.0,
        7405.0,
        7410.0,
        7415.0,
        7420.0,
        7425.0,
        7430.0,
        7435.0,
        7440.0,
        7445.0,
        7450.0,
        7455.0,
        7460.0,
        7465.0,
        7470.0,
        7475.0,
        7480.0,
        7485.0,
        7490.0,
        7495.0,
        7500.0,
        7505.0,
        7510.0,
        7515.0,
        7520.0,
        7525.0,
        7530.0,
        7535.0,
        7540.0,
        7545.0,
        7550.0,
        7555.0,
        7560.0,
        7565.0,
        7570.0,
        7575.0,
        7580.0,
        7585.0,
        7590.0,
        7595.0,
        7600.0,
        7605.0,
        7610.0,
        7615.0,
        7620.0,
        7625.0,
        7630.0,
        7635.0,
        7640.0,
        7645.0,
        7650.0,
        7655.0,
        7660.0,
        7665.0,
        7670.0,
        7675.0,
        7680.0,
        7685.0,
        7690.0,
        7695.0,
        7700.0,
        7705.0,
        7710.0,
        7715.0,
        7720.0,
        7725.0,
        7730.0,
        7735.0,
        7740.0,
        7745.0,
        7750.0,
        7755.0,
        7760.0,
        7765.0,
        7770.0,
        7775.0,
        7780.0,
        7785.0,
        7790.0,
        7795.0,
        7800.0,
        7805.0,
        7810.0,
        7815.0,
        7820.0,
        7825.0,
        7830.0,
        7835.0,
        7840.0,
        7845.0,
        7850.0,
        7855.0,
        7860.0,
        7865.0,
        7870.0,
        7875.0,
        7880.0,
        7885.0,
        7890.0,
        7895.0,
        7900.0,
        7905.0,
        7910.0,
        7915.0,
        7920.0,
        7925.0,
        7930.0,
        7935.0,
        7940.0,
        7945.0,
        7950.0,
        7955.0,
        7960.0,
        7965.0,
        7970.0,
        7975.0,
        7980.0,
        7985.0,
        7990.0,
        7995.0,
        8000.0,
        8005.0,
        8010.0,
        8015.0,
        8020.0,
        8025.0,
        8030.0,
        8035.0,
        8040.0,
        8045.0,
        8050.0,
        8055.0,
        8060.0,
        8065.0,
        8070.0,
        8075.0,
        8080.0,
        8085.0,
        8090.0,
        8095.0,
        8100.0,
        8105.0,
        8110.0,
        8115.0,
        8120.0,
        8125.0,
        8130.0,
        8135.0,
        8140.0,
        8145.0,
        8150.0,
        8155.0,
        8160.0,
        8165.0,
        8170.0,
        8175.0,
        8180.0,
        8185.0,
        8190.0,
        8195.0,
        8200.0,
        8205.0,
        8210.0,
        8215.0,
        8220.0,
        8225.0,
        8230.0,
        8235.0,
        8240.0,
        8245.0,
        8250.0,
        8255.0,
        8260.0,
        8265.0,
        8270.0,
        8275.0,
        8280.0,
        8285.0,
        8290.0,
        8295.0,
        8300.0,
        8305.0,
        8310.0,
        8315.0,
        8320.0,
        8325.0,
        8330.0,
        8335.0,
        8340.0,
        8345.0,
        8350.0,
        8355.0,
        8360.0,
        8365.0,
        8370.0,
        8375.0,
        8380.0,
        8385.0,
        8390.0,
        8395.0,
        8400.0,
        8405.0,
        8410.0,
        8415.0,
        8420.0,
        8425.0,
        8430.0,
        8435.0,
        8440.0,
        8445.0,
        8450.0,
        8455.0,
        8460.0,
        8465.0,
        8470.0,
        8475.0,
        8480.0,
        8485.0,
        8490.0,
        8495.0,
        8500.0,
        8505.0,
        8510.0,
        8515.0,
        8520.0,
        8525.0,
        8530.0,
        8535.0,
        8540.0,
        8545.0,
        8550.0,
        8555.0,
        8560.0,
        8565.0,
        8570.0,
        8575.0,
        8580.0,
        8585.0,
        8590.0,
        8595.0,
        8600.0,
        8605.0,
        8610.0,
        8615.0,
        8620.0,
        8625.0,
        8630.0,
        8635.0,
        8640.0,
        8645.0,
        8650.0,
        8655.0,
        8660.0,
        8665.0,
        8670.0,
        8675.0,
        8680.0,
        8685.0,
        8690.0,
        8695.0,
        8700.0,
        8705.0,
        8710.0,
        8715.0,
        8720.0,
        8725.0,
        8730.0,
        8735.0,
        8740.0,
        8745.0,
        8750.0,
        8755.0,
        8760.0,
        8765.0,
        8770.0,
        8775.0,
        8780.0,
        8785.0,
        8790.0,
        8795.0,
        8800.0,
        8805.0,
        8810.0,
        8815.0,
        8820.0,
        8825.0,
        8830.0,
        8835.0,
        8840.0,
        8845.0,
        8850.0,
        8855.0,
        8860.0,
        8865.0,
        8870.0,
        8875.0,
        8880.0,
        8885.0,
        8890.0,
        8895.0,
        8900.0,
        8905.0,
        8910.0,
        8915.0,
        8920.0,
        8925.0,
        8930.0,
        8935.0,
        8940.0,
        8945.0,
        8950.0,
        8955.0,
        8960.0,
        8965.0,
        8970.0,
        8975.0,
        8980.0,
        8985.0,
        8990.0,
        8995.0,
        9000.0,
        9005.0,
        9010.0,
        9015.0,
        9020.0,
        9025.0,
        9030.0,
        9035.0,
        9040.0,
        9045.0,
        9050.0,
        9055.0,
        9060.0,
        9065.0,
        9070.0,
        9075.0,
        9080.0,
        9085.0,
        9090.0,
        9095.0,
        9100.0,
        9105.0,
        9110.0,
        9115.0,
        9120.0,
        9125.0,
        9130.0,
        9135.0,
        9140.0,
        9145.0,
        9150.0,
        9155.0,
        9160.0,
        9165.0,
        9170.0,
        9175.0,
        9180.0,
        9185.0,
        9190.0,
        9195.0,
        9200.0,
        9205.0,
        9210.0,
        9215.0,
        9220.0,
        9225.0,
        9230.0,
        9235.0,
        9240.0,
        9245.0,
        9250.0,
        9255.0,
        9260.0,
        9265.0,
        9270.0,
        9275.0,
        9280.0,
        9285.0,
        9290.0,
        9295.0,
        9300.0,
        9305.0,
        9310.0,
        9315.0,
        9320.0,
        9325.0,
        9330.0,
        9335.0,
        9340.0,
        9345.0,
        9350.0,
        9355.0,
        9360.0,
        9365.0,
        9370.0,
        9375.0,
        9380.0,
        9385.0,
        9390.0,
        9395.0,
        9400.0,
        9405.0,
        9410.0,
        9415.0,
        9420.0,
        9425.0,
        9430.0,
        9435.0,
        9440.0,
        9445.0,
        9450.0,
        9455.0,
        9460.0,
        9465.0,
        9470.0,
        9475.0,
        9480.0,
        9485.0,
        9490.0,
        9495.0,
        9500.0,
        9505.0,
        9510.0,
        9515.0,
        9520.0,
        9525.0,
        9530.0,
        9535.0,
        9540.0,
        9545.0,
        9550.0,
        9555.0,
        9560.0,
        9565.0,
        9570.0,
        9575.0,
        9580.0,
        9585.0,
        9590.0,
        9595.0,
        9600.0,
        9605.0,
        9610.0,
        9615.0,
        9620.0,
        9625.0,
        9630.0,
        9635.0,
        9640.0,
        9645.0,
        9650.0,
        9655.0,
        9660.0,
        9665.0,
        9670.0,
        9675.0,
        9680.0,
        9685.0,
        9690.0,
        9695.0,
        9700.0,
        9705.0,
        9710.0,
        9715.0,
        9720.0,
        9725.0,
        9730.0,
        9735.0,
        9740.0,
        9745.0,
        9750.0,
        9755.0,
        9760.0,
        9765.0,
        9770.0,
        9775.0,
        9780.0,
        9785.0,
        9790.0,
        9795.0,
        9800.0,
        9805.0,
        9810.0,
        9815.0,
        9820.0,
        9825.0,
        9830.0,
        9835.0,
        9840.0,
        9845.0,
        9850.0,
        9855.0,
        9860.0,
        9865.0,
        9870.0,
        9875.0,
        9880.0,
        9885.0,
        9890.0,
        9895.0,
        9900.0,
        9905.0,
        9910.0,
        9915.0,
        9920.0,
        9925.0,
        9930.0,
        9935.0,
        9940.0,
        9945.0,
        9950.0,
        9955.0,
        9960.0,
        9965.0,
        9970.0,
        9975.0,
        9980.0,
        9985.0,
        9990.0,
        9995.0,
        10000.0,
        10005.0,
        10010.0,
        10015.0,
        10020.0,
        10025.0,
        10030.0,
        10035.0,
        10040.0,
        10045.0,
        10050.0,
        10055.0,
        10060.0,
        10065.0,
        10070.0,
        10075.0,
        10080.0,
        10085.0,
        10090.0,
        10095.0,
        10100.0,
        10105.0,
        10110.0,
        10115.0,
        10120.0,
        10125.0,
        10130.0,
        10135.0,
        10140.0,
        10145.0,
        10150.0,
        10155.0,
        10160.0,
        10165.0,
        10170.0,
        10175.0,
        10180.0,
        10185.0,
        10190.0,
        10195.0,
        10200.0,
        10205.0,
        10210.0,
        10215.0,
        10220.0,
        10225.0,
        10230.0,
        10235.0,
        10240.0,
        10245.0,
        10250.0,
        10255.0,
        10260.0,
        10265.0,
        10270.0,
        10275.0,
        10280.0,
        10285.0,
        10290.0,
        10295.0,
        10300.0,
        10305.0,
        10310.0,
        10315.0,
        10320.0,
        10325.0,
        10330.0,
        10335.0,
        10340.0,
        10345.0,
        10350.0,
        10355.0,
        10360.0,
        10365.0,
        10370.0,
        10375.0,
        10380.0,
        10385.0,
        10390.0,
        10395.0,
        10400.0,
        10405.0,
        10410.0,
        10415.0,
        10420.0,
        10425.0,
        10430.0,
        10435.0,
        10440.0,
        10445.0,
        10450.0,
        10455.0,
        10460.0,
        10465.0,
        10470.0,
        10475.0,
        10480.0,
        10485.0,
        10490.0,
        10495.0,
        10500.0
      ],
      "units":"angstrom"
    },
    "values":{
      "value":[
        0.0,
        0.0,
        0.0,
        0.0,
        0.0,
        0.0,
        0.0,
        0.0,
        0.0,
        0.0,
        0.0,
        0.0,
        0.0,
        0.0,
        0.0,
        0.0,
        0.0,
        0.0,
        0.0,
        0.0,
        0.0,
        0.0,
        0.0,
        0.0,
        0.0,
        0.0,
        0.0,
        0.0,
        0.0,
        0.0,
        0.0,
        0.0,
        0.0,
        0.0,
        0.0,
        0.0,
        0.0,
        0.0,
        0.0,
        0.0,
        0.0,
        0.0,
        0.0,
        0.0,
        0.0,
        0.0,
        0.0,
        0.0,
        0.0,
        0.0,
        0.0,
        0.0,
        0.0,
        0.0,
        0.0,
        0.0,
        0.0,
        0.0,
        0.0,
        0.0,
        0.0,
        0.0,
        0.0,
        0.0,
        0.0,
        0.0,
        0.0,
        0.0,
        0.0,
        0.0,
        0.0,
        0.0,
        0.0,
        0.0,
        0.0,
        0.0,
        0.0,
        0.0,
        0.0,
        0.0,
        0.0,
        0.0,
        0.0,
        0.0,
        0.0,
        0.0,
        0.0,
        0.0,
        0.0,
        0.0,
        0.0,
        0.0,
        0.0,
        0.0,
        0.0,
        0.0,
        0.0,
        0.0,
        0.0,
        0.0,
        0.0,
        0.0,
        0.0,
        0.0,
        0.0,
        0.0,
        0.0,
        0.0,
        0.0,
        0.0,
        0.0,
        0.0,
        0.0,
        0.0,
        0.0,
        0.0,
        0.0,
        0.0,
        0.0,
        0.0,
        0.0,
        0.0,
        0.0,
        0.0,
        0.0,
        0.0,
        0.0,
        0.0,
        0.0,
        0.0,
        0.0,
        0.0,
        0.0,
        0.0,
        0.0,
        0.0,
        0.0,
        0.0,
        0.0,
        0.0,
        0.0,
        0.0,
        0.0,
        0.0,
        0.0,
        0.0,
        0.0,
        0.0,
        0.0,
        0.0,
        0.0,
        0.0,
        0.0,
        0.0,
        0.0,
        0.0,
        0.0,
        0.0,
        0.0,
        0.0,
        0.0,
        1e-06,
        2e-06,
        3e-06,
        4e-06,
        5e-06,
        6e-06,
        5e-06,
        5e-06,
        3e-06,
        0.0,
        0.0,
        0.0,
        0.0,
        0.0,
        0.0,
        0.0,
        0.0,
        0.0,
        0.0,
        0.0,
        1.4e-05,
        3e-05,
        4.7e-05,
        6.2e-05,
        7.3e-05,
        7.8e-05,
        7.5e-05,
        6.3e-05,
        3.8e-05,
        0.0,
        0.0,
        0.0,
        0.0,
        0.0,
        0.0,
        0.0,
        0.0,
        0.0,
        0.0,
        0.0,
        0.000199,
        0.000448,
        0.000736,
        0.001053,
        0.001389,
        0.001734,
        0.002077,
        0.00241,
        0.002721,
        0.003,
        0.00324,
        0.003441,
        0.003607,
        0.003739,
        0.003842,
        0.003917,
        0.003967,
        0.003996,
        0.004006,
        0.004,
        0.003981,
        0.003954,
        0.003924,
        0.003894,
        0.00387,
        0.003856,
        0.003858,
        0.003879,
        0.003925,
        0.004,
        0.004107,
        0.004238,
        0.004383,
        0.004534,
        0.004679,
        0.004811,
        0.004918,
        0.004992,
        0.005022,
        0.005,
        0.004919,
        0.004792,
        0.004633,
        0.00446,
        0.004288,
        0.004133,
        0.00401,
        0.003937,
        0.003928,
        0.004,
        0.004163,
        0.004404,
        0.004706,
        0.00505,
        0.005419,
        0.005794,
        0.006158,
        0.006492,
        0.006779,
        0.007,
        0.007143,
        0.007216,
        0.007234,
        0.007211,
        0.007161,
        0.007098,
        0.007036,
        0.00699,
        0.006973,
        0.007,
        0.007081,
        0.007211,
        0.007383,
        0.007586,
        0.007813,
        0.008055,
        0.008303,
        0.008549,
        0.008784,
        0.009,
        0.009193,
        0.009378,
        0.009575,
        0.009806,
        0.010088,
        0.010444,
        0.010893,
        0.011455,
        0.012151,
        0.013,
        0.014014,
        0.015165,
        0.016418,
        0.017736,
        0.019084,
        0.020425,
        0.021723,
        0.022942,
        0.024047,
        0.025,
        0.025775,
        0.026379,
        0.026828,
        0.027138,
        0.027326,
        0.027408,
        0.027401,
        0.027319,
        0.02718,
        0.027,
        0.026793,
        0.026569,
        0.026334,
        0.026096,
        0.025861,
        0.025638,
        0.025433,
        0.025253,
        0.025107,
        0.025,
        0.024939,
        0.024922,
        0.024946,
        0.025008,
        0.025104,
        0.025232,
        0.025389,
        0.025572,
        0.025776,
        0.026,
        0.026246,
        0.026544,
        0.026928,
        0.027434,
        0.028097,
        0.028952,
        0.030035,
        0.03138,
        0.033024,
        0.035,
        0.037331,
        0.039982,
        0.042907,
        0.046056,
        0.049382,
        0.052838,
        0.056376,
        0.059947,
        0.063504,
        0.067,
        0.070384,
        0.073599,
        0.076583,
        0.079279,
        0.081624,
        0.083559,
        0.085025,
        0.08596,
        0.086305,
        0.086,
        0.085021,
        0.083487,
        0.081555,
        0.079382,
        0.077122,
        0.074933,
        0.07297,
        0.071389,
        0.070347,
        0.07,
        0.070459,
        0.071661,
        0.073497,
        0.075858,
        0.078637,
        0.081725,
        0.085013,
        0.088394,
        0.091759,
        0.095,
        0.098029,
        0.100845,
        0.103467,
        0.105914,
        0.108206,
        0.11036,
        0.112398,
        0.114338,
        0.116199,
        0.118,
        0.119762,
        0.121509,
        0.123267,
        0.125061,
        0.126916,
        0.128858,
        0.130912,
        0.133103,
        0.135457,
        0.138,
        0.140741,
        0.143629,
        0.146597,
        0.149578,
        0.152505,
        0.155313,
        0.157932,
        0.160298,
        0.162343,
        0.164,
        0.183976,
        0.19421,
        0.190431,
        0.180673,
        0.156175,
        0.140788,
        0.154191,
        0.166752,
        0.151743,
        0.143378,
        0.174493,
        0.211492,
        0.21661,
        0.201838,
        0.188849,
        0.188281,
        0.204036,
        0.224119,
        0.23477,
        0.231056,
        0.213906,
        0.198867,
        0.198918,
        0.202159,
        0.196141,
        0.191109,
        0.198523,
        0.212009,
        0.221657,
        0.221236,
        0.208515,
        0.193573,
        0.186353,
        0.183949,
        0.182535,
        0.187454,
        0.202875,
        0.219106,
        0.225308,
        0.219908,
        0.206157,
        0.197345,
        0.204287,
        0.217878,
        0.226059,
        0.224869,
        0.214364,
        0.202557,
        0.197572,
        0.200007,
        0.207376,
        0.212372,
        0.209279,
        0.20355,
        0.201093,
        0.198469,
        0.192949,
        0.194005,
        0.209554,
        0.229103,
        0.239902,
        0.23278,
        0.233329,
        0.22273,
        0.21466,
        0.231973,
        0.247046,
        0.250608,
        0.243276,
        0.22818,
        0.211903,
        0.197917,
        0.178243,
        0.167836,
        0.167004,
        0.146248,
        0.143666,
        0.182479,
        0.235809,
        0.255864,
        0.236921,
        0.230459,
        0.239469,
        0.254002,
        0.298138,
        0.290306,
        0.280815,
        0.303702,
        0.286745,
        0.295251,
        0.356045,
        0.38377,
        0.36967,
        0.358248,
        0.35725,
        0.330677,
        0.319894,
        0.337143,
        0.36244,
        0.370623,
        0.32645,
        0.32351,
        0.344839,
        0.285755,
        0.275898,
        0.259102,
        0.216887,
        0.224253,
        0.219857,
        0.231021,
        0.276859,
        0.26391,
        0.27539,
        0.316472,
        0.350157,
        0.357236,
        0.325473,
        0.271716,
        0.254442,
        0.270089,
        0.295968,
        0.278491,
        0.231852,
        0.186943,
        0.165157,
        0.164818,
        0.167143,
        0.178915,
        0.196724,
        0.193184,
        0.180607,
        0.17739,
        0.19035,
        0.189398,
        0.206873,
        0.222276,
        0.25853,
        0.313819,
        0.35667,
        0.356241,
        0.349816,
        0.374996,
        0.368443,
        0.308169,
        0.239952,
        0.159421,
        0.144422,
        0.217266,
        0.29612,
        0.361391,
        0.373285,
        0.303627,
        0.201141,
        0.192509,
        0.308982,
        0.423487,
        0.484773,
        0.52187,
        0.538241,
        0.55337,
        0.558378,
        0.58295,
        0.607921,
        0.613566,
        0.603636,
        0.572129,
        0.568478,
        0.573594,
        0.538819,
        0.564795,
        0.549455,
        0.520848,
        0.522007,
        0.541757,
        0.53775,
        0.571648,
        0.626116,
        0.641343,
        0.601912,
        0.560673,
        0.578113,
        0.600328,
        0.60356,
        0.587497,
        0.571899,
        0.543441,
        0.547263,
        0.541715,
        0.516748,
        0.510484,
        0.519432,
        0.550071,
        0.553419,
        0.526256,
        0.4995,
        0.514109,
        0.545754,
        0.551905,
        0.52821,
        0.52236,
        0.559096,
        0.585194,
        0.598378,
        0.626977,
        0.569827,
        0.591057,
        0.616859,
        0.642617,
        0.661324,
        0.628029,
        0.616203,
        0.628047,
        0.655177,
        0.601922,
        0.589296,
        0.625673,
        0.609554,
        0.578561,
        0.542973,
        0.473478,
        0.439232,
        0.484363,
        0.641871,
        0.715041,
        0.671675,
        0.721672,
        0.738307,
        0.690358,
        0.730051,
        0.744108,
        0.745715,
        0.779922,
        0.799083,
        0.759336,
        0.717891,
        0.673324,
        0.617247,
        0.663039,
        0.713323,
        0.719602,
        0.692114,
        0.733576,
        0.761682,
        0.776959,
        0.775533,
        0.766519,
        0.766439,
        0.798014,
        0.815305,
        0.818377,
        0.767529,
        0.740726,
        0.775877,
        0.828734,
        0.881183,
        0.871275,
        0.871971,
        0.85092,
        0.851754,
        0.901633,
        0.952096,
        0.94195,
        0.90872,
        0.893286,
        0.831377,
        0.792078,
        0.831968,
        0.861879,
        0.855939,
        0.848997,
        0.879484,
        0.908197,
        0.902332,
        0.920014,
        0.917365,
        0.878935,
        0.879669,
        0.895752,
        0.87244,
        0.873231,
        0.910883,
        0.948898,
        0.959325,
        0.96721,
        0.972032,
        0.957381,
        0.921272,
        0.89676,
        0.864556,
        0.874951,
        0.909229,
        0.919756,
        0.859984,
        0.85531,
        0.906034,
        0.902395,
        0.899265,
        0.900786,
        0.903398,
        0.873482,
        0.86245,
        0.877299,
        0.909665,
        0.955845,
        0.940948,
        0.884436,
        0.902572,
        0.933556,
        0.963364,
        0.969345,
        0.942984,
        0.928173,
        0.903465,
        0.933789,
        0.989225,
        0.997507,
        0.957539,
        0.951858,
        0.982005,
        0.976068,
        0.966384,
        0.967638,
        0.989839,
        0.996604,
        0.972811,
        0.965386,
        0.965314,
        0.95292,
        0.957868,
        0.954028,
        0.898256,
        0.826181,
        0.843235,
        0.868919,
        0.890266,
        0.933553,
        0.90881,
        0.9024,
        0.970329,
        1.006971,
        0.989544,
        0.958165,
        0.937798,
        0.886483,
        0.913354,
        0.978409,
        0.954422,
        0.942897,
        1.003543,
        1.023248,
        0.989512,
        0.976232,
        0.988461,
        0.974073,
        0.987392,
        0.943346,
        0.910017,
        0.956489,
        0.96537,
        0.937435,
        0.899138,
        0.893271,
        0.848302,
        0.861101,
        0.894973,
        0.929735,
        0.91859,
        0.883321,
        0.914486,
        0.940829,
        0.966626,
        0.985968,
        0.959135,
        0.941563,
        0.925099,
        0.906404,
        0.9308,
        0.970603,
        0.961098,
        0.930386,
        0.932376,
        0.939834,
        0.966432,
        0.949013,
        0.901634,
        0.908955,
        0.92485,
        0.905626,
        0.892538,
        0.898726,
        0.92373,
        0.916499,
        0.817467,
        0.760562,
        0.834573,
        0.865195,
        0.844115,
        0.885651,
        0.906571,
        0.921566,
        0.901823,
        0.904251,
        0.937061,
        0.931261,
        0.891616,
        0.903016,
        0.952639,
        0.989973,
        0.971818,
        0.936243,
        0.948428,
        0.921865,
        0.830206,
        0.823973,
        0.903384,
        0.953767,
        0.987272,
        1.020782,
        0.985556,
        0.968283,
        1.021029,
        1.04868,
        1.028414,
        0.991856,
        0.934407,
        0.927951,
        0.987927,
        0.99294,
        0.988103,
        1.012777,
        1.058869,
        1.059956,
        1.007796,
        0.976929,
        1.009062,
        1.032279,
        1.020212,
        0.988195,
        0.956001,
        0.948347,
        0.927042,
        0.955984,
        1.009384,
        1.015476,
        1.003796,
        0.976324,
        0.979214,
        1.029195,
        1.023376,
        1.014557,
        1.013643,
        1.022344,
        1.016728,
        1.001741,
        0.971042,
        0.964649,
        0.993021,
        1.003096,
        1.010926,
        1.0162,
        0.998204,
        0.982327,
        0.991336,
        1.020179,
        1.010503,
        0.996047,
        1.000429,
        1.014658,
        1.027489,
        1.039623,
        1.031873,
        1.013082,
        0.995493,
        0.992344,
        1.00875,
        1.011379,
        0.977767,
        0.94766,
        0.964163,
        0.977694,
        1.003764,
        1.03328,
        1.000313,
        0.980122,
        0.994287,
        1.016752,
        1.015965,
        0.994734,
        0.995904,
        1.003285,
        0.978368,
        0.954612,
        0.973862,
        1.00498,
        1.032652,
        1.01949,
        0.993006,
        1.002613,
        1.011345,
        0.991042,
        0.9573,
        0.943218,
        0.984513,
        1.031973,
        1.044524,
        1.034309,
        1.036704,
        1.035153,
        1.025555,
        1.014353,
        1.001459,
        1.004733,
        1.021306,
        1.041143,
        1.029038,
        0.980129,
        0.95645,
        0.994696,
        1.015521,
        1.023742,
        1.022516,
        1.023221,
        1.031077,
        1.052252,
        1.064209,
        1.059936,
        1.049255,
        1.054771,
        1.050986,
        1.029858,
        1.003265,
        1.004345,
        1.028528,
        1.047475,
        1.047584,
        1.030257,
        0.980728,
        0.897633,
        0.889334,
        0.966502,
        1.021501,
        1.026712,
        1.016641,
        1.024062,
        1.029403,
        1.018345,
        1.020776,
        1.024704,
        1.016562,
        1.008164,
        1.0086,
        1.025369,
        1.031652,
        1.030505,
        1.013525,
        1.003551,
        0.994943,
        1.006298,
        1.012385,
        1.004121,
        0.994057,
        0.983866,
        0.977364,
        0.974352,
        0.988106,
        1.014157,
        1.020061,
        1.018563,
        1.025585,
        1.02411,
        1.01407,
        1.01048,
        1.010825,
        1.02866,
        1.021893,
        0.990958,
        0.985402,
        0.982866,
        0.983814,
        0.976777,
        0.975771,
        0.997231,
        0.998774,
        0.980885,
        0.975614,
        0.976933,
        0.951189,
        0.946322,
        0.976033,
        0.982851,
        0.97263,
        0.941659,
        0.92809,
        0.943006,
        0.970244,
        0.99276,
        0.988582,
        0.970009,
        0.984806,
        1.001996,
        1.007505,
        0.994056,
        0.960115,
        0.958303,
        0.969446,
        0.957124,
        0.964024,
        0.961477,
        0.946631,
        0.948191,
        0.925094,
        0.935829,
        0.965104,
        0.97287,
        0.963245,
        0.948108,
        0.969481,
        0.98268,
        0.966391,
        0.953254,
        0.961806,
        0.966687,
        0.938614,
        0.937253,
        0.969776,
        0.972977,
        0.955754,
        0.950427,
        0.963264,
        0.975005,
        0.957018,
        0.93167,
        0.93834,
        0.969449,
        0.980616,
        0.973222,
        0.973858,
        0.968036,
        0.955395,
        0.94885,
        0.952097,
        0.949762,
        0.947794,
        0.948115,
        0.95968,
        0.959361,
        0.958319,
        0.963109,
        0.967098,
        0.941136,
        0.943292,
        0.948671,
        0.942408,
        0.950398,
        0.950839,
        0.948616,
        0.946836,
        0.927381,
        0.872294,
        0.897323,
        0.949572,
        0.96047,
        0.949064,
        0.951405,
        0.955732,
        0.948551,
        0.953416,
        0.961308,
        0.951477,
        0.938942,
        0.915658,
        0.842372,
        0.825467,
        0.904854,
        0.926036,
        0.94548,
        0.948934,
        0.93868,
        0.925868,
        0.944296,
        0.941823,
        0.934618,
        0.952106,
        0.960193,
        0.951364,
        0.933483,
        0.92352,
        0.93029,
        0.930257,
        0.939409,
        0.944753,
        0.932327,
        0.920154,
        0.930456,
        0.930452,
        0.925904,
        0.943811,
        0.949666,
        0.935237,
        0.925729,
        0.923464,
        0.917691,
        0.903952,
        0.910796,
        0.927258,
        0.929553,
        0.928207,
        0.91898,
        0.915832,
        0.912119,
        0.921785,
        0.931854,
        0.926493,
        0.913683,
        0.922495,
        0.929582,
        0.919891,
        0.923155,
        0.921203,
        0.923671,
        0.924049,
        0.920576,
        0.923799,
        0.92858,
        0.930184,
        0.927541,
        0.921734,
        0.915743,
        0.913686,
        0.916612,
        0.91429,
        0.910299,
        0.913355,
        0.916381,
        0.914045,
        0.908718,
        0.907728,
        0.914828,
        0.917387,
        0.914926,
        0.912959,
        0.910897,
        0.907788,
        0.906154,
        0.905095,
        0.901678,
        0.901987,
        0.902014,
        0.898235,
        0.894506,
        0.893589,
        0.894684,
        0.896756,
        0.897567,
        0.883167,
        0.870743,
        0.891716,
        0.898422,
        0.89866,
        0.884908,
        0.873925,
        0.878541,
        0.866576,
        0.86854,
        0.870114,
        0.881127,
        0.885933,
        0.890488,
        0.90329,
        0.901186,
        0.893744,
        0.894975,
        0.88828,
        0.88521,
        0.902159,
        0.901259,
        0.879451,
        0.874522,
        0.881564,
        0.891061,
        0.888981,
        0.876728,
        0.871238,
        0.867322,
        0.865208,
        0.862664,
        0.870526,
        0.876195,
        0.871714,
        0.86583,
        0.87084,
        0.872027,
        0.863463,
        0.862294,
        0.859487,
        0.850251,
        0.832882,
        0.827045,
        0.836532,
        0.840663,
        0.839183,
        0.845693,
        0.8581,
        0.858647,
        0.859104,
        0.862307,
        0.855472,
        0.853401,
        0.853459,
        0.852652,
        0.849502,
        0.847647,
        0.845268,
        0.851746,
        0.843484,
        0.837609,
        0.832526,
        0.817728,
        0.825083,
        0.839168,
        0.834243,
        0.83222,
        0.834674,
        0.835769,
        0.835335,
        0.835848,
        0.843303,
        0.849907,
        0.843689,
        0.8358,
        0.825834,
        0.828831,
        0.830985,
        0.841101,
        0.846612,
        0.842662,
        0.818692,
        0.81158,
        0.826563,
        0.832995,
        0.833843,
        0.819897,
        0.807922,
        0.810919,
        0.82382,
        0.837645,
        0.840158,
        0.833072,
        0.820177,
        0.830176,
        0.839193,
        0.829905,
        0.827929,
        0.837482,
        0.830801,
        0.825867,
        0.828374,
        0.823375,
        0.81327,
        0.822853,
        0.826314,
        0.816829,
        0.823601,
        0.830179,
        0.822238,
        0.824225,
        0.829941,
        0.834605,
        0.831995,
        0.828611,
        0.826464,
        0.825166,
        0.825447,
        0.823531,
        0.824326,
        0.823632,
        0.818874,
        0.815886,
        0.813695,
        0.812106,
        0.815652,
        0.824709,
        0.821057,
        0.812216,
        0.81212,
        0.820506,
        0.822675,
        0.822765,
        0.823093,
        0.818659,
        0.810462,
        0.80197,
        0.801963,
        0.813119,
        0.820488,
        0.82115,
        0.818844,
        0.816077,
        0.81239,
        0.813914,
        0.815323,
        0.809224,
        0.801396,
        0.802823,
        0.806707,
        0.807577,
        0.817041,
        0.818519,
        0.799701,
        0.790078,
        0.810898,
        0.819383,
        0.820174,
        0.817236,
        0.810699,
        0.80685,
        0.807912,
        0.808315,
        0.81009,
        0.803591,
        0.805657,
        0.80315,
        0.810395,
        0.81814,
        0.816472,
        0.804169,
        0.790957,
        0.802535,
        0.807024,
        0.800962,
        0.79712,
        0.803115,
        0.804028,
        0.7958,
        0.78197,
        0.777521,
        0.782081,
        0.781312,
        0.762851,
        0.764057,
        0.767882,
        0.757573,
        0.746089,
        0.74588,
        0.752514,
        0.749987,
        0.7445,
        0.739727,
        0.736908,
        0.746908,
        0.756488,
        0.754808,
        0.758351,
        0.763779,
        0.76644,
        0.764846,
        0.764821,
        0.767265,
        0.758751,
        0.748982,
        0.757233,
        0.763143,
        0.767891,
        0.766712,
        0.749893,
        0.750742,
        0.768339,
        0.767121,
        0.749308,
        0.745253,
        0.762056,
        0.771166,
        0.764791,
        0.748333,
        0.74324,
        0.744577,
        0.740057,
        0.732402,
        0.726071,
        0.73049,
        0.731667,
        0.730963,
        0.732321,
        0.735367,
        0.736095,
        0.731758,
        0.729766,
        0.729896,
        0.726116,
        0.723369,
        0.723716,
        0.722429,
        0.717963,
        0.725284,
        0.724454,
        0.715808,
        0.714756,
        0.718573,
        0.715065,
        0.718801,
        0.729901,
        0.729623,
        0.727021,
        0.719815,
        0.711392,
        0.713898,
        0.728049,
        0.732084,
        0.7362,
        0.736511,
        0.733043,
        0.734927,
        0.733411,
        0.727531,
        0.722749,
        0.725982,
        0.724738,
        0.721981,
        0.717887,
        0.71608,
        0.712473,
        0.712017,
        0.714339,
        0.710825,
        0.709488,
        0.704781,
        0.704285,
        0.706961,
        0.708172,
        0.709039,
        0.711543,
        0.711263,
        0.711661,
        0.714074,
        0.712771,
        0.706643,
        0.700131,
        0.703201,
        0.71066,
        0.709883,
        0.708945,
        0.706728,
        0.7055,
        0.702843,
        0.707989,
        0.701557,
        0.699358,
        0.690363,
        0.70008,
        0.707995,
        0.713559,
        0.709944,
        0.700368,
        0.69864,
        0.704969,
        0.706121,
        0.706374,
        0.694773,
        0.641286,
        0.618572,
        0.675485,
        0.691196,
        0.684021,
        0.689619,
        0.693044,
        0.67244,
        0.642984,
        0.538124,
        0.535106,
        0.637006,
        0.680386,
        0.691849,
        0.697279,
        0.697988,
        0.698062,
        0.695567,
        0.692849,
        0.693961,
        0.693293,
        0.693743,
        0.692895,
        0.683896,
        0.685767,
        0.690699,
        0.69502,
        0.698834,
        0.700239,
        0.699668,
        0.692369,
        0.68036,
        0.654328,
        0.570587,
        0.559922,
        0.634337,
        0.662211,
        0.670146,
        0.667842,
        0.666918,
        0.681364,
        0.692767,
        0.686426,
        0.682935,
        0.686356,
        0.695302,
        0.691165,
        0.682895,
        0.681756,
        0.681566,
        0.681723,
        0.678865,
        0.679256,
        0.692697,
        0.683721,
        0.681082,
        0.682817,
        0.688059,
        0.680372,
        0.677015,
        0.67482,
        0.668383,
        0.653427,
        0.66035,
        0.683326,
        0.674617,
        0.67719,
        0.692719,
        0.677042,
        0.670712,
        0.680927,
        0.684555,
        0.683575,
        0.672333,
        0.673148,
        0.669175,
        0.674387,
        0.673234,
        0.680972,
        0.678085,
        0.674737,
        0.679837,
        0.679981,
        0.674736,
        0.677558,
        0.674703,
        0.666784,
        0.67113,
        0.674013,
        0.669925,
        0.66049,
        0.662125,
        0.668262,
        0.667007,
        0.659622,
        0.660959,
        0.659985,
        0.653552,
        0.648363,
        0.645382,
        0.650088,
        0.641506,
        0.647324,
        0.646978,
        0.645173,
        0.652168,
        0.661654,
        0.679832,
        0.687954,
        0.688276,
        0.686203,
        0.678574,
        0.669266,
        0.654179,
        0.643281,
        0.638441,
        0.632679,
        0.624246,
        0.621271,
        0.618944,
        0.627048,
        0.626747,
        0.630058,
        0.63262,
        0.626781,
        0.625314,
        0.629743,
        0.623151,
        0.619286,
        0.610501,
        0.59471,
        0.587225,
        0.591848,
        0.60186,
        0.58967,
        0.57606,
        0.584626,
        0.600323,
        0.601518,
        0.600302,
        0.599882,
        0.602597,
        0.602207,
        0.597851,
        0.596971,
        0.609736,
        0.617208,
        0.612489,
        0.608691,
        0.603181,
        0.602681,
        0.602092,
        0.600746,
        0.602824,
        0.613151,
        0.616481,
        0.614085,
        0.610153,
        0.611572,
        0.608125,
        0.601904,
        0.602357,
        0.594364,
        0.576077,
        0.561661,
        0.56054,
        0.565919,
        0.57279,
        0.56006,
        0.563372,
        0.563379,
        0.57785,
        0.546806,
        0.560407,
        0.557555,
        0.555629,
        0.57884,
        0.576968,
        0.610797,
        0.631603,
        0.637307,
        0.625766,
        0.611022,
        0.589107,
        0.567626,
        0.561827,
        0.559298,
        0.540165,
        0.546423,
        0.535167,
        0.554781,
        0.556536,
        0.549674,
        0.559778,
        0.570238,
        0.571862,
        0.574679,
        0.57177,
        0.578089,
        0.573053,
        0.561001,
        0.565968,
        0.587807,
        0.593542,
        0.58347,
        0.577705,
        0.591183,
        0.600176,
        0.606149,
        0.608416,
        0.602284,
        0.587876,
        0.573586,
        0.579033,
        0.573169,
        0.580406,
        0.587962,
        0.57481,
        0.574093,
        0.570786,
        0.574871,
        0.572442,
        0.572388,
        0.579436,
        0.575927,
        0.564607,
        0.560252,
        0.568329,
        0.556518,
        0.554769,
        0.556099,
        0.556677,
        0.556821,
        0.550538,
        0.558545,
        0.571306,
        0.571892,
        0.573452,
        0.579026,
        0.56866,
        0.564432,
        0.562562,
        0.563883,
        0.568228,
        0.567968,
        0.568976,
        0.557946,
        0.551119,
        0.5426,
        0.541289,
        0.547541,
        0.546985,
        0.551973,
        0.557728,
        0.555043,
        0.566628,
        0.565416,
        0.555019,
        0.55548,
        0.55959,
        0.560165,
        0.555889,
        0.569598,
        0.569077,
        0.562542,
        0.57089,
        0.563011,
        0.55685,
        0.560435,
        0.565444,
        0.560639,
        0.558744,
        0.564333,
        0.56487,
        0.562369,
        0.560473,
        0.562818,
        0.560061,
        0.561229,
        0.561489,
        0.559641,
        0.561937,
        0.563503,
        0.567181,
        0.565975,
        0.567418,
        0.564192,
        0.566046,
        0.561567,
        0.561851,
        0.563511,
        0.56358,
        0.561162,
        0.56817,
        0.567505,
        0.561275,
        0.561442,
        0.564883,
        0.558361,
        0.559389,
        0.561908,
        0.566031,
        0.565695,
        0.564527,
        0.562882,
        0.561117,
        0.559531,
        0.558204,
        0.557158,
        0.556416,
        0.555996,
        0.555897,
        0.556108,
        0.556623,
        0.557366,
        0.557988,
        0.558075,
        0.557212,
        0.555143,
        0.552248,
        0.549067,
        0.54614,
        0.543872,
        0.542137,
        0.540674,
        0.539223,
        0.53762,
        0.536098,
        0.534986,
        0.534612,
        0.535139,
        0.536059,
        0.536696,
        0.536376,
        0.534665,
        0.532098,
        0.529453,
        0.527507,
        0.526851,
        0.527323,
        0.528572,
        0.530249,
        0.531974,
        0.533247,
        0.533534,
        0.532306,
        0.529371,
        0.525907,
        0.523432,
        0.523464,
        0.526977,
        0.532762,
        0.539067,
        0.544139,
        0.546645,
        0.546938,
        0.545792,
        0.543979,
        0.542122,
        0.540236,
        0.538186,
        0.535834,
        0.530556,
        0.528981,
        0.527621,
        0.526692,
        0.526303,
        0.526128,
        0.525732,
        0.52468,
        0.522703,
        0.5202,
        0.517732,
        0.515863,
        0.515009,
        0.514999,
        0.515516,
        0.516242,
        0.516938,
        0.517681,
        0.518628,
        0.519934,
        0.521633,
        0.52326,
        0.52423,
        0.523955,
        0.522088,
        0.51923,
        0.51622,
        0.5139,
        0.512887,
        0.512916,
        0.513498,
        0.514145,
        0.514476,
        0.514542,
        0.514499,
        0.514505,
        0.514659,
        0.514844,
        0.514884,
        0.514606
      ],
      "range":1
    }
  }
]
