[
  {
    "model":"Star, type F8(i)",
    "name":"Star, type F8(i)",
    "type":"WB_REF",
    "dataQualityMarker":3,
    "dataSource":"https://www.eso.org/sci/facilities/paranal/decommissioned/isaac/tools/lib.html",
    "manufacturer":"A. Pickles (A.J. Pickles, PASP 110,863, 1998)",
    "version":1,
    "wavelength":{
      "value":[
        1150.0,
        1155.0,
        1160.0,
        1165.0,
        1170.0,
        1175.0,
        1180.0,
        1185.0,
        1190.0,
        1195.0,
        1200.0,
        1205.0,
        1210.0,
        1215.0,
        1220.0,
        1225.0,
        1230.0,
        1235.0,
        1240.0,
        1245.0,
        1250.0,
        1255.0,
        1260.0,
        1265.0,
        1270.0,
        1275.0,
        1280.0,
        1285.0,
        1290.0,
        1295.0,
        1300.0,
        1305.0,
        1310.0,
        1315.0,
        1320.0,
        1325.0,
        1330.0,
        1335.0,
        1340.0,
        1345.0,
        1350.0,
        1355.0,
        1360.0,
        1365.0,
        1370.0,
        1375.0,
        1380.0,
        1385.0,
        1390.0,
        1395.0,
        1400.0,
        1405.0,
        1410.0,
        1415.0,
        1420.0,
        1425.0,
        1430.0,
        1435.0,
        1440.0,
        1445.0,
        1450.0,
        1455.0,
        1460.0,
        1465.0,
        1470.0,
        1475.0,
        1480.0,
        1485.0,
        1490.0,
        1495.0,
        1500.0,
        1505.0,
        1510.0,
        1515.0,
        1520.0,
        1525.0,
        1530.0,
        1535.0,
        1540.0,
        1545.0,
        1550.0,
        1555.0,
        1560.0,
        1565.0,
        1570.0,
        1575.0,
        1580.0,
        1585.0,
        1590.0,
        1595.0,
        1600.0,
        1605.0,
        1610.0,
        1615.0,
        1620.0,
        1625.0,
        1630.0,
        1635.0,
        1640.0,
        1645.0,
        1650.0,
        1655.0,
        1660.0,
        1665.0,
        1670.0,
        1675.0,
        1680.0,
        1685.0,
        1690.0,
        1695.0,
        1700.0,
        1705.0,
        1710.0,
        1715.0,
        1720.0,
        1725.0,
        1730.0,
        1735.0,
        1740.0,
        1745.0,
        1750.0,
        1755.0,
        1760.0,
        1765.0,
        1770.0,
        1775.0,
        1780.0,
        1785.0,
        1790.0,
        1795.0,
        1800.0,
        1805.0,
        1810.0,
        1815.0,
        1820.0,
        1825.0,
        1830.0,
        1835.0,
        1840.0,
        1845.0,
        1850.0,
        1855.0,
        1860.0,
        1865.0,
        1870.0,
        1875.0,
        1880.0,
        1885.0,
        1890.0,
        1895.0,
        1900.0,
        1905.0,
        1910.0,
        1915.0,
        1920.0,
        1925.0,
        1930.0,
        1935.0,
        1940.0,
        1945.0,
        1950.0,
        1955.0,
        1960.0,
        1965.0,
        1970.0,
        1975.0,
        1980.0,
        1985.0,
        1990.0,
        1995.0,
        2000.0,
        2005.0,
        2010.0,
        2015.0,
        2020.0,
        2025.0,
        2030.0,
        2035.0,
        2040.0,
        2045.0,
        2050.0,
        2055.0,
        2060.0,
        2065.0,
        2070.0,
        2075.0,
        2080.0,
        2085.0,
        2090.0,
        2095.0,
        2100.0,
        2105.0,
        2110.0,
        2115.0,
        2120.0,
        2125.0,
        2130.0,
        2135.0,
        2140.0,
        2145.0,
        2150.0,
        2155.0,
        2160.0,
        2165.0,
        2170.0,
        2175.0,
        2180.0,
        2185.0,
        2190.0,
        2195.0,
        2200.0,
        2205.0,
        2210.0,
        2215.0,
        2220.0,
        2225.0,
        2230.0,
        2235.0,
        2240.0,
        2245.0,
        2250.0,
        2255.0,
        2260.0,
        2265.0,
        2270.0,
        2275.0,
        2280.0,
        2285.0,
        2290.0,
        2295.0,
        2300.0,
        2305.0,
        2310.0,
        2315.0,
        2320.0,
        2325.0,
        2330.0,
        2335.0,
        2340.0,
        2345.0,
        2350.0,
        2355.0,
        2360.0,
        2365.0,
        2370.0,
        2375.0,
        2380.0,
        2385.0,
        2390.0,
        2395.0,
        2400.0,
        2405.0,
        2410.0,
        2415.0,
        2420.0,
        2425.0,
        2430.0,
        2435.0,
        2440.0,
        2445.0,
        2450.0,
        2455.0,
        2460.0,
        2465.0,
        2470.0,
        2475.0,
        2480.0,
        2485.0,
        2490.0,
        2495.0,
        2500.0,
        2505.0,
        2510.0,
        2515.0,
        2520.0,
        2525.0,
        2530.0,
        2535.0,
        2540.0,
        2545.0,
        2550.0,
        2555.0,
        2560.0,
        2565.0,
        2570.0,
        2575.0,
        2580.0,
        2585.0,
        2590.0,
        2595.0,
        2600.0,
        2605.0,
        2610.0,
        2615.0,
        2620.0,
        2625.0,
        2630.0,
        2635.0,
        2640.0,
        2645.0,
        2650.0,
        2655.0,
        2660.0,
        2665.0,
        2670.0,
        2675.0,
        2680.0,
        2685.0,
        2690.0,
        2695.0,
        2700.0,
        2705.0,
        2710.0,
        2715.0,
        2720.0,
        2725.0,
        2730.0,
        2735.0,
        2740.0,
        2745.0,
        2750.0,
        2755.0,
        2760.0,
        2765.0,
        2770.0,
        2775.0,
        2780.0,
        2785.0,
        2790.0,
        2795.0,
        2800.0,
        2805.0,
        2810.0,
        2815.0,
        2820.0,
        2825.0,
        2830.0,
        2835.0,
        2840.0,
        2845.0,
        2850.0,
        2855.0,
        2860.0,
        2865.0,
        2870.0,
        2875.0,
        2880.0,
        2885.0,
        2890.0,
        2895.0,
        2900.0,
        2905.0,
        2910.0,
        2915.0,
        2920.0,
        2925.0,
        2930.0,
        2935.0,
        2940.0,
        2945.0,
        2950.0,
        2955.0,
        2960.0,
        2965.0,
        2970.0,
        2975.0,
        2980.0,
        2985.0,
        2990.0,
        2995.0,
        3000.0,
        3005.0,
        3010.0,
        3015.0,
        3020.0,
        3025.0,
        3030.0,
        3035.0,
        3040.0,
        3045.0,
        3050.0,
        3055.0,
        3060.0,
        3065.0,
        3070.0,
        3075.0,
        3080.0,
        3085.0,
        3090.0,
        3095.0,
        3100.0,
        3105.0,
        3110.0,
        3115.0,
        3120.0,
        3125.0,
        3130.0,
        3135.0,
        3140.0,
        3145.0,
        3150.0,
        3155.0,
        3160.0,
        3165.0,
        3170.0,
        3175.0,
        3180.0,
        3185.0,
        3190.0,
        3195.0,
        3200.0,
        3205.0,
        3210.0,
        3215.0,
        3220.0,
        3225.0,
        3230.0,
        3235.0,
        3240.0,
        3245.0,
        3250.0,
        3255.0,
        3260.0,
        3265.0,
        3270.0,
        3275.0,
        3280.0,
        3285.0,
        3290.0,
        3295.0,
        3300.0,
        3305.0,
        3310.0,
        3315.0,
        3320.0,
        3325.0,
        3330.0,
        3335.0,
        3340.0,
        3345.0,
        3350.0,
        3355.0,
        3360.0,
        3365.0,
        3370.0,
        3375.0,
        3380.0,
        3385.0,
        3390.0,
        3395.0,
        3400.0,
        3405.0,
        3410.0,
        3415.0,
        3420.0,
        3425.0,
        3430.0,
        3435.0,
        3440.0,
        3445.0,
        3450.0,
        3455.0,
        3460.0,
        3465.0,
        3470.0,
        3475.0,
        3480.0,
        3485.0,
        3490.0,
        3495.0,
        3500.0,
        3505.0,
        3510.0,
        3515.0,
        3520.0,
        3525.0,
        3530.0,
        3535.0,
        3540.0,
        3545.0,
        3550.0,
        3555.0,
        3560.0,
        3565.0,
        3570.0,
        3575.0,
        3580.0,
        3585.0,
        3590.0,
        3595.0,
        3600.0,
        3605.0,
        3610.0,
        3615.0,
        3620.0,
        3625.0,
        3630.0,
        3635.0,
        3640.0,
        3645.0,
        3650.0,
        3655.0,
        3660.0,
        3665.0,
        3670.0,
        3675.0,
        3680.0,
        3685.0,
        3690.0,
        3695.0,
        3700.0,
        3705.0,
        3710.0,
        3715.0,
        3720.0,
        3725.0,
        3730.0,
        3735.0,
        3740.0,
        3745.0,
        3750.0,
        3755.0,
        3760.0,
        3765.0,
        3770.0,
        3775.0,
        3780.0,
        3785.0,
        3790.0,
        3795.0,
        3800.0,
        3805.0,
        3810.0,
        3815.0,
        3820.0,
        3825.0,
        3830.0,
        3835.0,
        3840.0,
        3845.0,
        3850.0,
        3855.0,
        3860.0,
        3865.0,
        3870.0,
        3875.0,
        3880.0,
        3885.0,
        3890.0,
        3895.0,
        3900.0,
        3905.0,
        3910.0,
        3915.0,
        3920.0,
        3925.0,
        3930.0,
        3935.0,
        3940.0,
        3945.0,
        3950.0,
        3955.0,
        3960.0,
        3965.0,
        3970.0,
        3975.0,
        3980.0,
        3985.0,
        3990.0,
        3995.0,
        4000.0,
        4005.0,
        4010.0,
        4015.0,
        4020.0,
        4025.0,
        4030.0,
        4035.0,
        4040.0,
        4045.0,
        4050.0,
        4055.0,
        4060.0,
        4065.0,
        4070.0,
        4075.0,
        4080.0,
        4085.0,
        4090.0,
        4095.0,
        4100.0,
        4105.0,
        4110.0,
        4115.0,
        4120.0,
        4125.0,
        4130.0,
        4135.0,
        4140.0,
        4145.0,
        4150.0,
        4155.0,
        4160.0,
        4165.0,
        4170.0,
        4175.0,
        4180.0,
        4185.0,
        4190.0,
        4195.0,
        4200.0,
        4205.0,
        4210.0,
        4215.0,
        4220.0,
        4225.0,
        4230.0,
        4235.0,
        4240.0,
        4245.0,
        4250.0,
        4255.0,
        4260.0,
        4265.0,
        4270.0,
        4275.0,
        4280.0,
        4285.0,
        4290.0,
        4295.0,
        4300.0,
        4305.0,
        4310.0,
        4315.0,
        4320.0,
        4325.0,
        4330.0,
        4335.0,
        4340.0,
        4345.0,
        4350.0,
        4355.0,
        4360.0,
        4365.0,
        4370.0,
        4375.0,
        4380.0,
        4385.0,
        4390.0,
        4395.0,
        4400.0,
        4405.0,
        4410.0,
        4415.0,
        4420.0,
        4425.0,
        4430.0,
        4435.0,
        4440.0,
        4445.0,
        4450.0,
        4455.0,
        4460.0,
        4465.0,
        4470.0,
        4475.0,
        4480.0,
        4485.0,
        4490.0,
        4495.0,
        4500.0,
        4505.0,
        4510.0,
        4515.0,
        4520.0,
        4525.0,
        4530.0,
        4535.0,
        4540.0,
        4545.0,
        4550.0,
        4555.0,
        4560.0,
        4565.0,
        4570.0,
        4575.0,
        4580.0,
        4585.0,
        4590.0,
        4595.0,
        4600.0,
        4605.0,
        4610.0,
        4615.0,
        4620.0,
        4625.0,
        4630.0,
        4635.0,
        4640.0,
        4645.0,
        4650.0,
        4655.0,
        4660.0,
        4665.0,
        4670.0,
        4675.0,
        4680.0,
        4685.0,
        4690.0,
        4695.0,
        4700.0,
        4705.0,
        4710.0,
        4715.0,
        4720.0,
        4725.0,
        4730.0,
        4735.0,
        4740.0,
        4745.0,
        4750.0,
        4755.0,
        4760.0,
        4765.0,
        4770.0,
        4775.0,
        4780.0,
        4785.0,
        4790.0,
        4795.0,
        4800.0,
        4805.0,
        4810.0,
        4815.0,
        4820.0,
        4825.0,
        4830.0,
        4835.0,
        4840.0,
        4845.0,
        4850.0,
        4855.0,
        4860.0,
        4865.0,
        4870.0,
        4875.0,
        4880.0,
        4885.0,
        4890.0,
        4895.0,
        4900.0,
        4905.0,
        4910.0,
        4915.0,
        4920.0,
        4925.0,
        4930.0,
        4935.0,
        4940.0,
        4945.0,
        4950.0,
        4955.0,
        4960.0,
        4965.0,
        4970.0,
        4975.0,
        4980.0,
        4985.0,
        4990.0,
        4995.0,
        5000.0,
        5005.0,
        5010.0,
        5015.0,
        5020.0,
        5025.0,
        5030.0,
        5035.0,
        5040.0,
        5045.0,
        5050.0,
        5055.0,
        5060.0,
        5065.0,
        5070.0,
        5075.0,
        5080.0,
        5085.0,
        5090.0,
        5095.0,
        5100.0,
        5105.0,
        5110.0,
        5115.0,
        5120.0,
        5125.0,
        5130.0,
        5135.0,
        5140.0,
        5145.0,
        5150.0,
        5155.0,
        5160.0,
        5165.0,
        5170.0,
        5175.0,
        5180.0,
        5185.0,
        5190.0,
        5195.0,
        5200.0,
        5205.0,
        5210.0,
        5215.0,
        5220.0,
        5225.0,
        5230.0,
        5235.0,
        5240.0,
        5245.0,
        5250.0,
        5255.0,
        5260.0,
        5265.0,
        5270.0,
        5275.0,
        5280.0,
        5285.0,
        5290.0,
        5295.0,
        5300.0,
        5305.0,
        5310.0,
        5315.0,
        5320.0,
        5325.0,
        5330.0,
        5335.0,
        5340.0,
        5345.0,
        5350.0,
        5355.0,
        5360.0,
        5365.0,
        5370.0,
        5375.0,
        5380.0,
        5385.0,
        5390.0,
        5395.0,
        5400.0,
        5405.0,
        5410.0,
        5415.0,
        5420.0,
        5425.0,
        5430.0,
        5435.0,
        5440.0,
        5445.0,
        5450.0,
        5455.0,
        5460.0,
        5465.0,
        5470.0,
        5475.0,
        5480.0,
        5485.0,
        5490.0,
        5495.0,
        5500.0,
        5505.0,
        5510.0,
        5515.0,
        5520.0,
        5525.0,
        5530.0,
        5535.0,
        5540.0,
        5545.0,
        5550.0,
        5555.0,
        5560.0,
        5565.0,
        5570.0,
        5575.0,
        5580.0,
        5585.0,
        5590.0,
        5595.0,
        5600.0,
        5605.0,
        5610.0,
        5615.0,
        5620.0,
        5625.0,
        5630.0,
        5635.0,
        5640.0,
        5645.0,
        5650.0,
        5655.0,
        5660.0,
        5665.0,
        5670.0,
        5675.0,
        5680.0,
        5685.0,
        5690.0,
        5695.0,
        5700.0,
        5705.0,
        5710.0,
        5715.0,
        5720.0,
        5725.0,
        5730.0,
        5735.0,
        5740.0,
        5745.0,
        5750.0,
        5755.0,
        5760.0,
        5765.0,
        5770.0,
        5775.0,
        5780.0,
        5785.0,
        5790.0,
        5795.0,
        5800.0,
        5805.0,
        5810.0,
        5815.0,
        5820.0,
        5825.0,
        5830.0,
        5835.0,
        5840.0,
        5845.0,
        5850.0,
        5855.0,
        5860.0,
        5865.0,
        5870.0,
        5875.0,
        5880.0,
        5885.0,
        5890.0,
        5895.0,
        5900.0,
        5905.0,
        5910.0,
        5915.0,
        5920.0,
        5925.0,
        5930.0,
        5935.0,
        5940.0,
        5945.0,
        5950.0,
        5955.0,
        5960.0,
        5965.0,
        5970.0,
        5975.0,
        5980.0,
        5985.0,
        5990.0,
        5995.0,
        6000.0,
        6005.0,
        6010.0,
        6015.0,
        6020.0,
        6025.0,
        6030.0,
        6035.0,
        6040.0,
        6045.0,
        6050.0,
        6055.0,
        6060.0,
        6065.0,
        6070.0,
        6075.0,
        6080.0,
        6085.0,
        6090.0,
        6095.0,
        6100.0,
        6105.0,
        6110.0,
        6115.0,
        6120.0,
        6125.0,
        6130.0,
        6135.0,
        6140.0,
        6145.0,
        6150.0,
        6155.0,
        6160.0,
        6165.0,
        6170.0,
        6175.0,
        6180.0,
        6185.0,
        6190.0,
        6195.0,
        6200.0,
        6205.0,
        6210.0,
        6215.0,
        6220.0,
        6225.0,
        6230.0,
        6235.0,
        6240.0,
        6245.0,
        6250.0,
        6255.0,
        6260.0,
        6265.0,
        6270.0,
        6275.0,
        6280.0,
        6285.0,
        6290.0,
        6295.0,
        6300.0,
        6305.0,
        6310.0,
        6315.0,
        6320.0,
        6325.0,
        6330.0,
        6335.0,
        6340.0,
        6345.0,
        6350.0,
        6355.0,
        6360.0,
        6365.0,
        6370.0,
        6375.0,
        6380.0,
        6385.0,
        6390.0,
        6395.0,
        6400.0,
        6405.0,
        6410.0,
        6415.0,
        6420.0,
        6425.0,
        6430.0,
        6435.0,
        6440.0,
        6445.0,
        6450.0,
        6455.0,
        6460.0,
        6465.0,
        6470.0,
        6475.0,
        6480.0,
        6485.0,
        6490.0,
        6495.0,
        6500.0,
        6505.0,
        6510.0,
        6515.0,
        6520.0,
        6525.0,
        6530.0,
        6535.0,
        6540.0,
        6545.0,
        6550.0,
        6555.0,
        6560.0,
        6565.0,
        6570.0,
        6575.0,
        6580.0,
        6585.0,
        6590.0,
        6595.0,
        6600.0,
        6605.0,
        6610.0,
        6615.0,
        6620.0,
        6625.0,
        6630.0,
        6635.0,
        6640.0,
        6645.0,
        6650.0,
        6655.0,
        6660.0,
        6665.0,
        6670.0,
        6675.0,
        6680.0,
        6685.0,
        6690.0,
        6695.0,
        6700.0,
        6705.0,
        6710.0,
        6715.0,
        6720.0,
        6725.0,
        6730.0,
        6735.0,
        6740.0,
        6745.0,
        6750.0,
        6755.0,
        6760.0,
        6765.0,
        6770.0,
        6775.0,
        6780.0,
        6785.0,
        6790.0,
        6795.0,
        6800.0,
        6805.0,
        6810.0,
        6815.0,
        6820.0,
        6825.0,
        6830.0,
        6835.0,
        6840.0,
        6845.0,
        6850.0,
        6855.0,
        6860.0,
        6865.0,
        6870.0,
        6875.0,
        6880.0,
        6885.0,
        6890.0,
        6895.0,
        6900.0,
        6905.0,
        6910.0,
        6915.0,
        6920.0,
        6925.0,
        6930.0,
        6935.0,
        6940.0,
        6945.0,
        6950.0,
        6955.0,
        6960.0,
        6965.0,
        6970.0,
        6975.0,
        6980.0,
        6985.0,
        6990.0,
        6995.0,
        7000.0,
        7005.0,
        7010.0,
        7015.0,
        7020.0,
        7025.0,
        7030.0,
        7035.0,
        7040.0,
        7045.0,
        7050.0,
        7055.0,
        7060.0,
        7065.0,
        7070.0,
        7075.0,
        7080.0,
        7085.0,
        7090.0,
        7095.0,
        7100.0,
        7105.0,
        7110.0,
        7115.0,
        7120.0,
        7125.0,
        7130.0,
        7135.0,
        7140.0,
        7145.0,
        7150.0,
        7155.0,
        7160.0,
        7165.0,
        7170.0,
        7175.0,
        7180.0,
        7185.0,
        7190.0,
        7195.0,
        7200.0,
        7205.0,
        7210.0,
        7215.0,
        7220.0,
        7225.0,
        7230.0,
        7235.0,
        7240.0,
        7245.0,
        7250.0,
        7255.0,
        7260.0,
        7265.0,
        7270.0,
        7275.0,
        7280.0,
        7285.0,
        7290.0,
        7295.0,
        7300.0,
        7305.0,
        7310.0,
        7315.0,
        7320.0,
        7325.0,
        7330.0,
        7335.0,
        7340.0,
        7345.0,
        7350.0,
        7355.0,
        7360.0,
        7365.0,
        7370.0,
        7375.0,
        7380.0,
        7385.0,
        7390.0,
        7395.0,
        7400.0,
        7405.0,
        7410.0,
        7415.0,
        7420.0,
        7425.0,
        7430.0,
        7435.0,
        7440.0,
        7445.0,
        7450.0,
        7455.0,
        7460.0,
        7465.0,
        7470.0,
        7475.0,
        7480.0,
        7485.0,
        7490.0,
        7495.0,
        7500.0,
        7505.0,
        7510.0,
        7515.0,
        7520.0,
        7525.0,
        7530.0,
        7535.0,
        7540.0,
        7545.0,
        7550.0,
        7555.0,
        7560.0,
        7565.0,
        7570.0,
        7575.0,
        7580.0,
        7585.0,
        7590.0,
        7595.0,
        7600.0,
        7605.0,
        7610.0,
        7615.0,
        7620.0,
        7625.0,
        7630.0,
        7635.0,
        7640.0,
        7645.0,
        7650.0,
        7655.0,
        7660.0,
        7665.0,
        7670.0,
        7675.0,
        7680.0,
        7685.0,
        7690.0,
        7695.0,
        7700.0,
        7705.0,
        7710.0,
        7715.0,
        7720.0,
        7725.0,
        7730.0,
        7735.0,
        7740.0,
        7745.0,
        7750.0,
        7755.0,
        7760.0,
        7765.0,
        7770.0,
        7775.0,
        7780.0,
        7785.0,
        7790.0,
        7795.0,
        7800.0,
        7805.0,
        7810.0,
        7815.0,
        7820.0,
        7825.0,
        7830.0,
        7835.0,
        7840.0,
        7845.0,
        7850.0,
        7855.0,
        7860.0,
        7865.0,
        7870.0,
        7875.0,
        7880.0,
        7885.0,
        7890.0,
        7895.0,
        7900.0,
        7905.0,
        7910.0,
        7915.0,
        7920.0,
        7925.0,
        7930.0,
        7935.0,
        7940.0,
        7945.0,
        7950.0,
        7955.0,
        7960.0,
        7965.0,
        7970.0,
        7975.0,
        7980.0,
        7985.0,
        7990.0,
        7995.0,
        8000.0,
        8005.0,
        8010.0,
        8015.0,
        8020.0,
        8025.0,
        8030.0,
        8035.0,
        8040.0,
        8045.0,
        8050.0,
        8055.0,
        8060.0,
        8065.0,
        8070.0,
        8075.0,
        8080.0,
        8085.0,
        8090.0,
        8095.0,
        8100.0,
        8105.0,
        8110.0,
        8115.0,
        8120.0,
        8125.0,
        8130.0,
        8135.0,
        8140.0,
        8145.0,
        8150.0,
        8155.0,
        8160.0,
        8165.0,
        8170.0,
        8175.0,
        8180.0,
        8185.0,
        8190.0,
        8195.0,
        8200.0,
        8205.0,
        8210.0,
        8215.0,
        8220.0,
        8225.0,
        8230.0,
        8235.0,
        8240.0,
        8245.0,
        8250.0,
        8255.0,
        8260.0,
        8265.0,
        8270.0,
        8275.0,
        8280.0,
        8285.0,
        8290.0,
        8295.0,
        8300.0,
        8305.0,
        8310.0,
        8315.0,
        8320.0,
        8325.0,
        8330.0,
        8335.0,
        8340.0,
        8345.0,
        8350.0,
        8355.0,
        8360.0,
        8365.0,
        8370.0,
        8375.0,
        8380.0,
        8385.0,
        8390.0,
        8395.0,
        8400.0,
        8405.0,
        8410.0,
        8415.0,
        8420.0,
        8425.0,
        8430.0,
        8435.0,
        8440.0,
        8445.0,
        8450.0,
        8455.0,
        8460.0,
        8465.0,
        8470.0,
        8475.0,
        8480.0,
        8485.0,
        8490.0,
        8495.0,
        8500.0,
        8505.0,
        8510.0,
        8515.0,
        8520.0,
        8525.0,
        8530.0,
        8535.0,
        8540.0,
        8545.0,
        8550.0,
        8555.0,
        8560.0,
        8565.0,
        8570.0,
        8575.0,
        8580.0,
        8585.0,
        8590.0,
        8595.0,
        8600.0,
        8605.0,
        8610.0,
        8615.0,
        8620.0,
        8625.0,
        8630.0,
        8635.0,
        8640.0,
        8645.0,
        8650.0,
        8655.0,
        8660.0,
        8665.0,
        8670.0,
        8675.0,
        8680.0,
        8685.0,
        8690.0,
        8695.0,
        8700.0,
        8705.0,
        8710.0,
        8715.0,
        8720.0,
        8725.0,
        8730.0,
        8735.0,
        8740.0,
        8745.0,
        8750.0,
        8755.0,
        8760.0,
        8765.0,
        8770.0,
        8775.0,
        8780.0,
        8785.0,
        8790.0,
        8795.0,
        8800.0,
        8805.0,
        8810.0,
        8815.0,
        8820.0,
        8825.0,
        8830.0,
        8835.0,
        8840.0,
        8845.0,
        8850.0,
        8855.0,
        8860.0,
        8865.0,
        8870.0,
        8875.0,
        8880.0,
        8885.0,
        8890.0,
        8895.0,
        8900.0,
        8905.0,
        8910.0,
        8915.0,
        8920.0,
        8925.0,
        8930.0,
        8935.0,
        8940.0,
        8945.0,
        8950.0,
        8955.0,
        8960.0,
        8965.0,
        8970.0,
        8975.0,
        8980.0,
        8985.0,
        8990.0,
        8995.0,
        9000.0,
        9005.0,
        9010.0,
        9015.0,
        9020.0,
        9025.0,
        9030.0,
        9035.0,
        9040.0,
        9045.0,
        9050.0,
        9055.0,
        9060.0,
        9065.0,
        9070.0,
        9075.0,
        9080.0,
        9085.0,
        9090.0,
        9095.0,
        9100.0,
        9105.0,
        9110.0,
        9115.0,
        9120.0,
        9125.0,
        9130.0,
        9135.0,
        9140.0,
        9145.0,
        9150.0,
        9155.0,
        9160.0,
        9165.0,
        9170.0,
        9175.0,
        9180.0,
        9185.0,
        9190.0,
        9195.0,
        9200.0,
        9205.0,
        9210.0,
        9215.0,
        9220.0,
        9225.0,
        9230.0,
        9235.0,
        9240.0,
        9245.0,
        9250.0,
        9255.0,
        9260.0,
        9265.0,
        9270.0,
        9275.0,
        9280.0,
        9285.0,
        9290.0,
        9295.0,
        9300.0,
        9305.0,
        9310.0,
        9315.0,
        9320.0,
        9325.0,
        9330.0,
        9335.0,
        9340.0,
        9345.0,
        9350.0,
        9355.0,
        9360.0,
        9365.0,
        9370.0,
        9375.0,
        9380.0,
        9385.0,
        9390.0,
        9395.0,
        9400.0,
        9405.0,
        9410.0,
        9415.0,
        9420.0,
        9425.0,
        9430.0,
        9435.0,
        9440.0,
        9445.0,
        9450.0,
        9455.0,
        9460.0,
        9465.0,
        9470.0,
        9475.0,
        9480.0,
        9485.0,
        9490.0,
        9495.0,
        9500.0,
        9505.0,
        9510.0,
        9515.0,
        9520.0,
        9525.0,
        9530.0,
        9535.0,
        9540.0,
        9545.0,
        9550.0,
        9555.0,
        9560.0,
        9565.0,
        9570.0,
        9575.0,
        9580.0,
        9585.0,
        9590.0,
        9595.0,
        9600.0,
        9605.0,
        9610.0,
        9615.0,
        9620.0,
        9625.0,
        9630.0,
        9635.0,
        9640.0,
        9645.0,
        9650.0,
        9655.0,
        9660.0,
        9665.0,
        9670.0,
        9675.0,
        9680.0,
        9685.0,
        9690.0,
        9695.0,
        9700.0,
        9705.0,
        9710.0,
        9715.0,
        9720.0,
        9725.0,
        9730.0,
        9735.0,
        9740.0,
        9745.0,
        9750.0,
        9755.0,
        9760.0,
        9765.0,
        9770.0,
        9775.0,
        9780.0,
        9785.0,
        9790.0,
        9795.0,
        9800.0,
        9805.0,
        9810.0,
        9815.0,
        9820.0,
        9825.0,
        9830.0,
        9835.0,
        9840.0,
        9845.0,
        9850.0,
        9855.0,
        9860.0,
        9865.0,
        9870.0,
        9875.0,
        9880.0,
        9885.0,
        9890.0,
        9895.0,
        9900.0,
        9905.0,
        9910.0,
        9915.0,
        9920.0,
        9925.0,
        9930.0,
        9935.0,
        9940.0,
        9945.0,
        9950.0,
        9955.0,
        9960.0,
        9965.0,
        9970.0,
        9975.0,
        9980.0,
        9985.0,
        9990.0,
        9995.0,
        10000.0,
        10005.0,
        10010.0,
        10015.0,
        10020.0,
        10025.0,
        10030.0,
        10035.0,
        10040.0,
        10045.0,
        10050.0,
        10055.0,
        10060.0,
        10065.0,
        10070.0,
        10075.0,
        10080.0,
        10085.0,
        10090.0,
        10095.0,
        10100.0,
        10105.0,
        10110.0,
        10115.0,
        10120.0,
        10125.0,
        10130.0,
        10135.0,
        10140.0,
        10145.0,
        10150.0,
        10155.0,
        10160.0,
        10165.0,
        10170.0,
        10175.0,
        10180.0,
        10185.0,
        10190.0,
        10195.0,
        10200.0,
        10205.0,
        10210.0,
        10215.0,
        10220.0,
        10225.0,
        10230.0,
        10235.0,
        10240.0,
        10245.0,
        10250.0,
        10255.0,
        10260.0,
        10265.0,
        10270.0,
        10275.0,
        10280.0,
        10285.0,
        10290.0,
        10295.0,
        10300.0,
        10305.0,
        10310.0,
        10315.0,
        10320.0,
        10325.0,
        10330.0,
        10335.0,
        10340.0,
        10345.0,
        10350.0,
        10355.0,
        10360.0,
        10365.0,
        10370.0,
        10375.0,
        10380.0,
        10385.0,
        10390.0,
        10395.0,
        10400.0,
        10405.0,
        10410.0,
        10415.0,
        10420.0,
        10425.0,
        10430.0,
        10435.0,
        10440.0,
        10445.0,
        10450.0,
        10455.0,
        10460.0,
        10465.0,
        10470.0,
        10475.0,
        10480.0,
        10485.0,
        10490.0,
        10495.0,
        10500.0
      ],
      "units":"angstrom"
    },
    "values":{
      "value":[
        0.0,
        0.0,
        0.0,
        1.1e-05,
        0.0,
        0.0,
        0.0,
        2.3e-05,
        0.0,
        0.0,
        0.0,
        9.8e-05,
        0.001282,
        0.002585,
        0.00178,
        0.000311,
        0.0,
        0.0,
        0.0,
        0.0,
        0.0,
        5e-06,
        0.0,
        1.2e-05,
        0.0,
        5.1e-05,
        2.2e-05,
        2.2e-05,
        4.6e-05,
        3e-05,
        4.4e-05,
        1.4e-05,
        1e-06,
        1.7e-05,
        3.7e-05,
        2e-05,
        3.3e-05,
        5.7e-05,
        2.3e-05,
        5e-06,
        2.5e-05,
        2.7e-05,
        3e-06,
        0.0,
        3.3e-05,
        7.4e-05,
        6e-05,
        3e-05,
        1.8e-05,
        4e-05,
        4.8e-05,
        8.2e-05,
        7.5e-05,
        3.9e-05,
        5.2e-05,
        8.7e-05,
        5e-05,
        6.6e-05,
        7.8e-05,
        8.8e-05,
        9.6e-05,
        0.000107,
        8.2e-05,
        6.9e-05,
        5.5e-05,
        9e-05,
        0.000105,
        0.000109,
        0.000103,
        0.000119,
        7.1e-05,
        7.9e-05,
        9.8e-05,
        0.000117,
        9.2e-05,
        6.9e-05,
        7.9e-05,
        9.2e-05,
        0.00011,
        0.000108,
        7.2e-05,
        0.000104,
        0.000126,
        9.8e-05,
        7.8e-05,
        6.8e-05,
        5.9e-05,
        6.5e-05,
        9.5e-05,
        8.9e-05,
        0.000107,
        0.000103,
        0.000117,
        0.000111,
        0.000102,
        0.000109,
        0.000152,
        0.000177,
        0.00017,
        0.000174,
        0.00015,
        0.000146,
        0.000232,
        0.000217,
        0.000188,
        0.000225,
        0.000312,
        0.000365,
        0.000512,
        0.000556,
        0.000528,
        0.00057,
        0.000653,
        0.000699,
        0.000729,
        0.000798,
        0.000797,
        0.000828,
        0.00097,
        0.00108,
        0.00118,
        0.001226,
        0.001268,
        0.001487,
        0.001645,
        0.001755,
        0.00166,
        0.001861,
        0.002278,
        0.002299,
        0.00206,
        0.002228,
        0.002494,
        0.002577,
        0.002602,
        0.002521,
        0.00262,
        0.002431,
        0.002144,
        0.002033,
        0.002225,
        0.002397,
        0.00266,
        0.003157,
        0.003707,
        0.006382,
        0.009203,
        0.009786,
        0.008697,
        0.00662,
        0.007563,
        0.007455,
        0.009882,
        0.010806,
        0.008309,
        0.004499,
        0.00707,
        0.011308,
        0.011937,
        0.012025,
        0.01163,
        0.008181,
        0.004119,
        0.006896,
        0.008587,
        0.01063,
        0.010734,
        0.009052,
        0.005792,
        0.006061,
        0.008025,
        0.007534,
        0.009204,
        0.009901,
        0.009246,
        0.010633,
        0.012693,
        0.012527,
        0.011221,
        0.013827,
        0.013907,
        0.014083,
        0.012457,
        0.01425,
        0.01601,
        0.01899,
        0.022564,
        0.02333,
        0.025704,
        0.027383,
        0.022828,
        0.02248,
        0.023703,
        0.022306,
        0.022562,
        0.029888,
        0.024476,
        0.015838,
        0.015676,
        0.018387,
        0.021286,
        0.022244,
        0.022938,
        0.021699,
        0.02089,
        0.022279,
        0.021267,
        0.026966,
        0.030627,
        0.031584,
        0.031458,
        0.031026,
        0.02913,
        0.024222,
        0.021502,
        0.023379,
        0.026548,
        0.02964,
        0.03003,
        0.02527,
        0.024742,
        0.026034,
        0.027657,
        0.025172,
        0.023096,
        0.025357,
        0.027628,
        0.029966,
        0.03158,
        0.028162,
        0.025151,
        0.02671,
        0.027976,
        0.028493,
        0.030889,
        0.029438,
        0.026167,
        0.019739,
        0.014757,
        0.014451,
        0.016568,
        0.018323,
        0.017645,
        0.017139,
        0.018911,
        0.018633,
        0.017558,
        0.013561,
        0.01203,
        0.012915,
        0.013104,
        0.011444,
        0.012098,
        0.016751,
        0.025747,
        0.03481,
        0.03506,
        0.034912,
        0.037696,
        0.038233,
        0.037076,
        0.03771,
        0.037206,
        0.032722,
        0.029823,
        0.030599,
        0.030583,
        0.030883,
        0.029952,
        0.033051,
        0.040537,
        0.041121,
        0.038177,
        0.035182,
        0.029411,
        0.026955,
        0.025948,
        0.02637,
        0.027615,
        0.027713,
        0.030092,
        0.035511,
        0.037848,
        0.040183,
        0.045028,
        0.041943,
        0.03408,
        0.034737,
        0.037223,
        0.036484,
        0.02839,
        0.027723,
        0.026729,
        0.027693,
        0.030924,
        0.031143,
        0.031714,
        0.051626,
        0.082198,
        0.09568,
        0.097735,
        0.101561,
        0.097731,
        0.084436,
        0.082666,
        0.08668,
        0.083732,
        0.079534,
        0.072282,
        0.069029,
        0.07497,
        0.081105,
        0.076134,
        0.067326,
        0.065174,
        0.065386,
        0.070419,
        0.069538,
        0.054508,
        0.041671,
        0.039988,
        0.046097,
        0.055391,
        0.062266,
        0.066412,
        0.066184,
        0.058756,
        0.048006,
        0.035172,
        0.020636,
        0.016201,
        0.024298,
        0.041621,
        0.063534,
        0.086257,
        0.100559,
        0.106719,
        0.104462,
        0.095741,
        0.088226,
        0.078452,
        0.083912,
        0.108177,
        0.115677,
        0.111237,
        0.106807,
        0.106692,
        0.12077,
        0.120617,
        0.129555,
        0.157157,
        0.167227,
        0.165681,
        0.164192,
        0.157061,
        0.133593,
        0.133849,
        0.156429,
        0.164564,
        0.1596,
        0.155654,
        0.170236,
        0.182198,
        0.167518,
        0.164173,
        0.17956,
        0.165303,
        0.151969,
        0.171376,
        0.191614,
        0.183037,
        0.181723,
        0.198294,
        0.191295,
        0.189349,
        0.197393,
        0.191141,
        0.183375,
        0.181603,
        0.194575,
        0.211956,
        0.198471,
        0.164839,
        0.176132,
        0.19029,
        0.196719,
        0.206169,
        0.218473,
        0.214177,
        0.187363,
        0.181136,
        0.201181,
        0.221342,
        0.215922,
        0.194102,
        0.198882,
        0.204824,
        0.216218,
        0.23275,
        0.215858,
        0.224367,
        0.216982,
        0.192352,
        0.192415,
        0.226258,
        0.243628,
        0.20273,
        0.190599,
        0.196784,
        0.197756,
        0.218638,
        0.201305,
        0.193609,
        0.198681,
        0.193609,
        0.162395,
        0.142734,
        0.167508,
        0.196665,
        0.190677,
        0.185066,
        0.215993,
        0.24713,
        0.238408,
        0.207265,
        0.182733,
        0.182695,
        0.213806,
        0.248958,
        0.260475,
        0.252189,
        0.235612,
        0.221476,
        0.218262,
        0.226218,
        0.240534,
        0.244414,
        0.22662,
        0.210148,
        0.216855,
        0.229787,
        0.228357,
        0.216235,
        0.204019,
        0.205744,
        0.228429,
        0.247586,
        0.242174,
        0.236443,
        0.253925,
        0.269977,
        0.258886,
        0.238851,
        0.234955,
        0.255933,
        0.29604,
        0.307983,
        0.259327,
        0.218638,
        0.248376,
        0.285579,
        0.26444,
        0.233199,
        0.245871,
        0.265538,
        0.250231,
        0.228732,
        0.234527,
        0.249188,
        0.249338,
        0.24374,
        0.245811,
        0.309088,
        0.324597,
        0.333599,
        0.331143,
        0.333949,
        0.358652,
        0.379154,
        0.375712,
        0.367822,
        0.371374,
        0.373015,
        0.338025,
        0.310944,
        0.315435,
        0.323584,
        0.300914,
        0.2988,
        0.338561,
        0.359113,
        0.333909,
        0.313149,
        0.330599,
        0.351168,
        0.362237,
        0.356002,
        0.349574,
        0.371354,
        0.36852,
        0.366653,
        0.402297,
        0.434327,
        0.432852,
        0.428952,
        0.433122,
        0.43653,
        0.456356,
        0.488769,
        0.529829,
        0.544473,
        0.502206,
        0.480167,
        0.539723,
        0.566906,
        0.561036,
        0.554341,
        0.520495,
        0.562896,
        0.520687,
        0.476365,
        0.543404,
        0.545022,
        0.559483,
        0.572173,
        0.681121,
        0.795034,
        0.756777,
        0.671911,
        0.610715,
        0.661568,
        0.776645,
        0.816537,
        0.756444,
        0.710818,
        0.637788,
        0.561473,
        0.523104,
        0.612348,
        0.713389,
        0.76517,
        0.787968,
        0.817625,
        0.865047,
        0.86919,
        0.848828,
        0.798346,
        0.66706,
        0.619158,
        0.672075,
        0.729442,
        0.763725,
        0.775467,
        0.720618,
        0.646151,
        0.492641,
        0.291913,
        0.272165,
        0.428391,
        0.579758,
        0.670947,
        0.704321,
        0.599944,
        0.367701,
        0.299145,
        0.514623,
        0.743679,
        0.846808,
        0.88392,
        0.866405,
        0.862458,
        0.901378,
        0.952247,
        1.001505,
        1.005241,
        0.949299,
        0.908913,
        0.951858,
        1.008494,
        0.978646,
        0.953872,
        0.958958,
        0.985416,
        0.978768,
        0.952281,
        0.895082,
        0.895781,
        0.982733,
        1.046964,
        0.966165,
        0.829229,
        0.87132,
        0.979162,
        1.024809,
        0.979853,
        0.906913,
        0.877931,
        0.97834,
        1.061451,
        1.039407,
        0.994185,
        0.975375,
        1.002463,
        1.033379,
        0.979755,
        0.883422,
        0.872692,
        0.932889,
        1.004965,
        1.002482,
        0.95078,
        0.952959,
        1.000204,
        1.022064,
        1.022996,
        0.969353,
        0.96551,
        0.96711,
        0.983323,
        0.962017,
        0.946635,
        0.980901,
        1.012938,
        1.049958,
        1.015244,
        1.008993,
        1.026047,
        0.97099,
        0.899606,
        0.846152,
        0.785645,
        0.823652,
        0.893175,
        0.948943,
        1.013782,
        1.035084,
        1.030201,
        0.891036,
        0.747336,
        0.856192,
        0.994335,
        1.085235,
        1.130785,
        1.122532,
        1.067957,
        1.054944,
        1.04901,
        0.990196,
        0.973764,
        0.934481,
        0.93688,
        0.986472,
        0.994878,
        0.929717,
        0.917611,
        0.978986,
        1.025655,
        1.04769,
        1.036871,
        1.010003,
        1.026995,
        1.004048,
        0.980381,
        0.963697,
        0.986615,
        1.083005,
        1.107569,
        1.085156,
        1.034957,
        1.049122,
        1.106965,
        1.174069,
        1.199253,
        1.129212,
        1.041457,
        0.992874,
        0.983578,
        1.038988,
        1.085666,
        1.064038,
        1.006053,
        0.991077,
        1.020906,
        1.056961,
        1.08388,
        1.069713,
        1.026263,
        1.010738,
        1.029572,
        1.07111,
        1.123673,
        1.178222,
        1.199933,
        1.152758,
        1.126064,
        1.137017,
        1.142529,
        1.161064,
        1.180742,
        1.162671,
        1.158845,
        1.160155,
        1.145851,
        1.07175,
        1.058771,
        1.130933,
        1.190336,
        1.223256,
        1.217079,
        1.198873,
        1.159017,
        1.13147,
        1.123644,
        1.153348,
        1.18027,
        1.169343,
        1.136188,
        1.143723,
        1.163823,
        1.196361,
        1.20805,
        1.162396,
        1.116974,
        1.10301,
        1.140001,
        1.166634,
        1.171675,
        1.166966,
        1.164261,
        1.17363,
        1.164519,
        1.133925,
        1.128746,
        1.171006,
        1.181335,
        1.149463,
        1.132786,
        1.134207,
        1.147002,
        1.131723,
        1.064262,
        0.903372,
        0.763544,
        0.825587,
        0.950701,
        1.00533,
        1.034635,
        1.016662,
        1.013432,
        1.065514,
        1.107809,
        1.117055,
        1.093685,
        1.05796,
        1.004267,
        1.036289,
        1.09481,
        1.076022,
        1.085787,
        1.139902,
        1.163666,
        1.134132,
        1.116365,
        1.126277,
        1.129622,
        1.12556,
        1.071167,
        1.044757,
        1.055507,
        1.06151,
        1.045501,
        1.02461,
        1.001243,
        0.948548,
        0.964314,
        1.036058,
        1.074517,
        1.057092,
        1.017311,
        1.056088,
        1.092735,
        1.144097,
        1.166312,
        1.122097,
        1.076594,
        1.047635,
        1.036911,
        1.071421,
        1.106124,
        1.086111,
        1.054073,
        1.069335,
        1.080045,
        1.095468,
        1.066267,
        1.011012,
        0.981591,
        1.004397,
        1.032234,
        1.031939,
        1.029136,
        1.049791,
        1.045999,
        0.932131,
        0.870863,
        0.989809,
        1.060011,
        0.99135,
        0.928362,
        0.928519,
        0.960851,
        0.95519,
        0.975833,
        1.025715,
        1.056403,
        1.006839,
        0.955634,
        0.952338,
        0.994486,
        1.02857,
        1.031296,
        1.029613,
        0.99251,
        0.903553,
        0.866763,
        0.888605,
        0.952233,
        1.02668,
        1.086623,
        1.069198,
        1.0376,
        1.035421,
        1.033329,
        1.008018,
        0.994657,
        0.972007,
        0.962866,
        0.960016,
        0.962261,
        0.999331,
        1.033026,
        1.065965,
        1.05763,
        0.998308,
        0.969776,
        1.00194,
        1.027669,
        1.045781,
        1.050408,
        1.015169,
        0.973852,
        0.939896,
        0.937431,
        0.963053,
        0.979421,
        0.974305,
        0.977429,
        1.003825,
        1.041729,
        1.031249,
        1.018793,
        1.019086,
        1.031976,
        1.042489,
        1.041671,
        0.988725,
        0.962263,
        1.000052,
        1.027129,
        1.024615,
        0.995408,
        0.972656,
        0.97671,
        1.01887,
        1.038137,
        0.987652,
        0.951138,
        0.977294,
        1.017394,
        1.016539,
        1.013512,
        1.030623,
        1.036725,
        1.007262,
        0.987785,
        0.997817,
        1.010386,
        0.9846,
        0.952375,
        0.9556,
        0.97614,
        1.012117,
        1.034245,
        1.003303,
        0.990022,
        0.996646,
        1.004606,
        0.991223,
        0.978143,
        1.012852,
        1.018752,
        0.957565,
        0.904266,
        0.922423,
        0.957433,
        0.992485,
        0.988374,
        0.970079,
        0.968387,
        0.985171,
        0.988829,
        0.960677,
        0.946482,
        0.979931,
        1.010504,
        1.006377,
        0.991547,
        0.99551,
        1.001299,
        0.997062,
        0.981457,
        0.979274,
        0.988809,
        0.993845,
        0.99227,
        0.977212,
        0.952577,
        0.95496,
        0.959564,
        0.957902,
        0.968719,
        0.967523,
        0.958805,
        0.963695,
        0.968676,
        0.971988,
        0.973759,
        0.971166,
        0.975178,
        0.9732,
        0.950965,
        0.918857,
        0.919839,
        0.944995,
        0.961982,
        0.968347,
        0.962587,
        0.908917,
        0.832129,
        0.817212,
        0.865896,
        0.922576,
        0.945627,
        0.945501,
        0.939631,
        0.931656,
        0.927818,
        0.933044,
        0.932016,
        0.921222,
        0.910456,
        0.914062,
        0.931885,
        0.935346,
        0.937445,
        0.930545,
        0.917019,
        0.898274,
        0.888755,
        0.904465,
        0.910395,
        0.905096,
        0.898739,
        0.885846,
        0.877734,
        0.878002,
        0.883445,
        0.896288,
        0.895944,
        0.88984,
        0.892333,
        0.889284,
        0.889587,
        0.88873,
        0.888732,
        0.887175,
        0.876526,
        0.86777,
        0.869445,
        0.87262,
        0.870981,
        0.866342,
        0.873898,
        0.872535,
        0.864604,
        0.861732,
        0.859752,
        0.838563,
        0.80016,
        0.79948,
        0.812808,
        0.823915,
        0.824098,
        0.82431,
        0.834868,
        0.845453,
        0.854229,
        0.859343,
        0.860114,
        0.856394,
        0.866336,
        0.873262,
        0.875256,
        0.866534,
        0.855303,
        0.850531,
        0.839439,
        0.821929,
        0.808671,
        0.784469,
        0.77797,
        0.806764,
        0.838045,
        0.851532,
        0.843794,
        0.830494,
        0.805655,
        0.818461,
        0.846996,
        0.838287,
        0.818992,
        0.814941,
        0.824292,
        0.813917,
        0.800991,
        0.818188,
        0.843697,
        0.835901,
        0.818947,
        0.810682,
        0.810392,
        0.830752,
        0.832721,
        0.819729,
        0.803073,
        0.807418,
        0.829278,
        0.828211,
        0.824055,
        0.818305,
        0.815098,
        0.811868,
        0.807302,
        0.794158,
        0.785038,
        0.799208,
        0.802326,
        0.789478,
        0.789807,
        0.800035,
        0.798622,
        0.77433,
        0.754321,
        0.771357,
        0.792093,
        0.794951,
        0.789984,
        0.778792,
        0.761476,
        0.720205,
        0.715709,
        0.772987,
        0.80148,
        0.783978,
        0.764565,
        0.779469,
        0.788405,
        0.788085,
        0.783705,
        0.77689,
        0.75455,
        0.708295,
        0.631428,
        0.59769,
        0.668536,
        0.738717,
        0.764582,
        0.764181,
        0.756696,
        0.756252,
        0.765241,
        0.758597,
        0.749134,
        0.764231,
        0.774817,
        0.778716,
        0.767922,
        0.759547,
        0.757689,
        0.75853,
        0.758971,
        0.757542,
        0.755611,
        0.753944,
        0.752229,
        0.744373,
        0.734118,
        0.742646,
        0.758733,
        0.761169,
        0.757755,
        0.756223,
        0.752298,
        0.742204,
        0.735432,
        0.740029,
        0.746232,
        0.746537,
        0.74086,
        0.734957,
        0.729496,
        0.730021,
        0.73483,
        0.738588,
        0.733616,
        0.732136,
        0.733456,
        0.732685,
        0.729596,
        0.730861,
        0.726878,
        0.728794,
        0.729145,
        0.732019,
        0.731918,
        0.722164,
        0.7141,
        0.710181,
        0.710841,
        0.711337,
        0.71113,
        0.711003,
        0.711045,
        0.710882,
        0.710828,
        0.710529,
        0.710235,
        0.710145,
        0.710052,
        0.709685,
        0.709137,
        0.708546,
        0.707998,
        0.707538,
        0.707361,
        0.707172,
        0.706869,
        0.706713,
        0.706835,
        0.70728,
        0.707473,
        0.707189,
        0.707591,
        0.708748,
        0.707891,
        0.703991,
        0.693433,
        0.693525,
        0.691967,
        0.684236,
        0.67236,
        0.670106,
        0.679647,
        0.684522,
        0.681809,
        0.686638,
        0.692465,
        0.693982,
        0.691419,
        0.694489,
        0.700176,
        0.700897,
        0.696954,
        0.690241,
        0.687599,
        0.693964,
        0.692618,
        0.691306,
        0.685242,
        0.683274,
        0.682918,
        0.68287,
        0.674838,
        0.66231,
        0.659804,
        0.667202,
        0.677559,
        0.683706,
        0.687152,
        0.678837,
        0.666333,
        0.677603,
        0.677529,
        0.661474,
        0.646197,
        0.639534,
        0.627845,
        0.605566,
        0.596132,
        0.605703,
        0.616682,
        0.623967,
        0.635634,
        0.650281,
        0.645984,
        0.639607,
        0.637985,
        0.639732,
        0.636664,
        0.631096,
        0.630442,
        0.631799,
        0.634343,
        0.634735,
        0.635843,
        0.630167,
        0.623015,
        0.615946,
        0.6037,
        0.60941,
        0.624829,
        0.61258,
        0.601489,
        0.606978,
        0.620712,
        0.614677,
        0.617508,
        0.625762,
        0.635121,
        0.632087,
        0.621745,
        0.612459,
        0.606877,
        0.612941,
        0.614556,
        0.619858,
        0.619394,
        0.607741,
        0.597085,
        0.600578,
        0.610097,
        0.605285,
        0.59026,
        0.585826,
        0.591799,
        0.58893,
        0.597748,
        0.604252,
        0.603544,
        0.586562,
        0.568888,
        0.580798,
        0.597518,
        0.589339,
        0.58742,
        0.589676,
        0.588019,
        0.584171,
        0.586609,
        0.583286,
        0.575483,
        0.579261,
        0.572418,
        0.562801,
        0.56562,
        0.573124,
        0.572798,
        0.569719,
        0.57452,
        0.579765,
        0.57847,
        0.57781,
        0.576469,
        0.575069,
        0.573963,
        0.572652,
        0.571032,
        0.569621,
        0.568591,
        0.567691,
        0.566544,
        0.565241,
        0.564052,
        0.563166,
        0.562693,
        0.56254,
        0.562267,
        0.561516,
        0.560596,
        0.55987,
        0.559234,
        0.558512,
        0.557696,
        0.556819,
        0.555933,
        0.555043,
        0.554131,
        0.553375,
        0.552785,
        0.552167,
        0.551346,
        0.550536,
        0.549889,
        0.550596,
        0.551478,
        0.550952,
        0.55065,
        0.552607,
        0.553154,
        0.544874,
        0.537739,
        0.543013,
        0.552689,
        0.549284,
        0.533583,
        0.476318,
        0.467448,
        0.513886,
        0.54309,
        0.545488,
        0.537147,
        0.535072,
        0.541021,
        0.54231,
        0.543999,
        0.543988,
        0.541843,
        0.532231,
        0.529145,
        0.531294,
        0.532774,
        0.531684,
        0.533232,
        0.534191,
        0.534002,
        0.530265,
        0.524667,
        0.52501,
        0.532405,
        0.527812,
        0.517383,
        0.524391,
        0.533265,
        0.529459,
        0.523569,
        0.520866,
        0.520042,
        0.516527,
        0.512951,
        0.509541,
        0.503832,
        0.512226,
        0.518122,
        0.521747,
        0.521684,
        0.522293,
        0.523788,
        0.524309,
        0.521529,
        0.514851,
        0.507108,
        0.507471,
        0.51601,
        0.519057,
        0.517025,
        0.511605,
        0.507268,
        0.512583,
        0.516525,
        0.512646,
        0.505479,
        0.511297,
        0.516777,
        0.516969,
        0.518898,
        0.520064,
        0.521405,
        0.517063,
        0.512431,
        0.513588,
        0.513957,
        0.517355,
        0.518579,
        0.518595,
        0.518891,
        0.516469,
        0.514991,
        0.507355,
        0.505818,
        0.499968,
        0.493794,
        0.489823,
        0.48672,
        0.481129,
        0.477491,
        0.479647,
        0.475077,
        0.468226,
        0.4632,
        0.457829,
        0.450486,
        0.47168,
        0.501792,
        0.502712,
        0.47868,
        0.449946,
        0.43359,
        0.451459,
        0.486965,
        0.493412,
        0.478563,
        0.468786,
        0.474706,
        0.489839,
        0.4989,
        0.485699,
        0.470318,
        0.472495,
        0.477454,
        0.478948,
        0.480207,
        0.477831,
        0.472963,
        0.472851,
        0.470083,
        0.467013,
        0.456653,
        0.442151,
        0.434747,
        0.458573,
        0.473384,
        0.479725,
        0.473896,
        0.479632,
        0.492041,
        0.478499,
        0.462219,
        0.473929,
        0.472969,
        0.464361,
        0.476786,
        0.491907,
        0.491804,
        0.470447,
        0.461987,
        0.486087,
        0.495958,
        0.480271,
        0.443415,
        0.434986,
        0.444852,
        0.478265,
        0.493594,
        0.468089,
        0.429917,
        0.44409,
        0.478649,
        0.494328,
        0.479094,
        0.426348,
        0.351898,
        0.356702,
        0.416021,
        0.443193,
        0.447978,
        0.455897,
        0.445397,
        0.416363,
        0.352357,
        0.266472,
        0.271187,
        0.351972,
        0.420195,
        0.445155,
        0.444727,
        0.447176,
        0.449499,
        0.447148,
        0.435699,
        0.417726,
        0.404251,
        0.411415,
        0.436027,
        0.441604,
        0.444826,
        0.451058,
        0.449486,
        0.448357,
        0.453603,
        0.454038,
        0.439876,
        0.418739,
        0.371538,
        0.289127,
        0.30329,
        0.379325,
        0.407171,
        0.408429,
        0.413124,
        0.422628,
        0.440637,
        0.451287,
        0.45598,
        0.454632,
        0.455206,
        0.456241,
        0.450995,
        0.44421,
        0.437722,
        0.427764,
        0.41092,
        0.389663,
        0.411414,
        0.428229,
        0.437207,
        0.434811,
        0.437436,
        0.439371,
        0.434717,
        0.428458,
        0.432106,
        0.433439,
        0.417736,
        0.427503,
        0.432448,
        0.427796,
        0.421637,
        0.434384,
        0.427999,
        0.429319,
        0.428197,
        0.424885,
        0.416755,
        0.388275,
        0.384619,
        0.412607,
        0.421469,
        0.423498,
        0.428621,
        0.430828,
        0.43003,
        0.433563,
        0.430525,
        0.403033,
        0.416141,
        0.422895,
        0.399527,
        0.410646,
        0.429947,
        0.430437,
        0.425467,
        0.425375,
        0.430016,
        0.424897,
        0.419994,
        0.419273,
        0.413016,
        0.40656,
        0.394635,
        0.390241,
        0.401247,
        0.389872,
        0.387831,
        0.367436,
        0.349243,
        0.38673,
        0.400022,
        0.424268,
        0.434139,
        0.437632,
        0.439153,
        0.43286,
        0.423663,
        0.384208,
        0.393513,
        0.404724,
        0.389791,
        0.384962,
        0.381255,
        0.369343,
        0.373251,
        0.404053,
        0.40866,
        0.393052,
        0.406149,
        0.415317,
        0.418085,
        0.406157,
        0.405843,
        0.412494,
        0.414281,
        0.39856,
        0.389524,
        0.405585,
        0.407728,
        0.39439,
        0.388274,
        0.400316,
        0.407924,
        0.407637,
        0.407233,
        0.398942,
        0.392264,
        0.375605,
        0.370348,
        0.372184,
        0.361436,
        0.357986,
        0.364451,
        0.366584,
        0.372789,
        0.376815,
        0.375503,
        0.37356,
        0.381528,
        0.393102,
        0.393876,
        0.394662,
        0.398613,
        0.397096,
        0.394167,
        0.390354,
        0.386015,
        0.384304,
        0.367796,
        0.370719,
        0.368318,
        0.36926,
        0.3623,
        0.35048,
        0.359558,
        0.370897,
        0.357759,
        0.375455,
        0.370347,
        0.370628,
        0.373483,
        0.373995,
        0.383456,
        0.399909,
        0.402346,
        0.39122,
        0.375688,
        0.373602,
        0.377733,
        0.379834,
        0.363722,
        0.366333,
        0.36617,
        0.348907,
        0.36911,
        0.375935,
        0.361735,
        0.36287,
        0.376589,
        0.375396,
        0.374121,
        0.365654,
        0.378014,
        0.375742,
        0.357889,
        0.35729,
        0.375586,
        0.374391,
        0.357026,
        0.34609,
        0.348906,
        0.355325,
        0.354432,
        0.341294,
        0.327796,
        0.3364,
        0.34243,
        0.348761,
        0.345468,
        0.356827,
        0.361855,
        0.3578,
        0.358828,
        0.354176,
        0.359803,
        0.358913,
        0.357931,
        0.363075,
        0.360792,
        0.348635,
        0.352262,
        0.360166,
        0.357767,
        0.356539,
        0.353539,
        0.356133,
        0.34513,
        0.343444,
        0.349944,
        0.35503,
        0.356392,
        0.355181,
        0.360544,
        0.355332,
        0.358279,
        0.356439,
        0.359982,
        0.358993,
        0.353697,
        0.352835,
        0.350021,
        0.349091,
        0.34165,
        0.342948,
        0.342246,
        0.345802,
        0.343074,
        0.34528,
        0.344584,
        0.347945,
        0.344695,
        0.344023,
        0.343354,
        0.342062,
        0.344177,
        0.343685,
        0.347066,
        0.344548,
        0.346939,
        0.343159,
        0.340653,
        0.34179,
        0.341988,
        0.340476,
        0.340219,
        0.33958,
        0.338542,
        0.335941,
        0.339537,
        0.337337,
        0.335775,
        0.336854,
        0.333052,
        0.327655,
        0.335401,
        0.337519,
        0.337584,
        0.336892,
        0.331764,
        0.332529,
        0.335435,
        0.334056,
        0.330042,
        0.338919,
        0.333904,
        0.337606,
        0.332134,
        0.332032,
        0.334171,
        0.333558,
        0.329478,
        0.330563,
        0.328126,
        0.328012,
        0.32233,
        0.317532,
        0.32171,
        0.32097,
        0.321236,
        0.31998,
        0.315004,
        0.306167,
        0.301114,
        0.304141,
        0.297462,
        0.293205,
        0.299528,
        0.308057,
        0.312979,
        0.312222,
        0.318689,
        0.317823,
        0.317737,
        0.31629,
        0.322714,
        0.322629,
        0.320534,
        0.319084,
        0.315482,
        0.321981,
        0.317706,
        0.319987,
        0.31986,
        0.318913,
        0.31806,
        0.317367,
        0.316826,
        0.316413,
        0.316103,
        0.315873,
        0.315697,
        0.315551,
        0.315411,
        0.315252,
        0.31505,
        0.314786,
        0.314465,
        0.314096,
        0.31369,
        0.313257,
        0.312807,
        0.31235,
        0.311895,
        0.311454,
        0.311037,
        0.31065,
        0.310293,
        0.309961,
        0.309651,
        0.309359,
        0.309081,
        0.308812,
        0.30855,
        0.308289,
        0.308027,
        0.307048,
        0.306755,
        0.306459,
        0.306159,
        0.305855,
        0.305547,
        0.305235,
        0.304919,
        0.304598,
        0.304272,
        0.30394,
        0.303604,
        0.303262,
        0.302914,
        0.30256,
        0.302201,
        0.301836,
        0.301464,
        0.301086,
        0.300702,
        0.300311,
        0.299914,
        0.299513,
        0.299107,
        0.298697,
        0.298286,
        0.297872,
        0.297457,
        0.297042,
        0.296628,
        0.296215,
        0.295803,
        0.295393,
        0.294984,
        0.294576,
        0.294169,
        0.293763,
        0.293359,
        0.292955,
        0.292552
      ],
      "range":1
    }
  }
]
