[
  {
    "model":"Star, type WK3(iii)",
    "name":"Star, type Wk3(iii)",
    "type":"WB_REF",
    "dataQualityMarker":3,
    "dataSource":"https://www.eso.org/sci/facilities/paranal/decommissioned/isaac/tools/lib.html",
    "manufacturer":"A. Pickles (A.J. Pickles, PASP 110,863, 1998)",
    "version":1,
    "wavelength":{
      "value":[
        1150.0,
        1155.0,
        1160.0,
        1165.0,
        1170.0,
        1175.0,
        1180.0,
        1185.0,
        1190.0,
        1195.0,
        1200.0,
        1205.0,
        1210.0,
        1215.0,
        1220.0,
        1225.0,
        1230.0,
        1235.0,
        1240.0,
        1245.0,
        1250.0,
        1255.0,
        1260.0,
        1265.0,
        1270.0,
        1275.0,
        1280.0,
        1285.0,
        1290.0,
        1295.0,
        1300.0,
        1305.0,
        1310.0,
        1315.0,
        1320.0,
        1325.0,
        1330.0,
        1335.0,
        1340.0,
        1345.0,
        1350.0,
        1355.0,
        1360.0,
        1365.0,
        1370.0,
        1375.0,
        1380.0,
        1385.0,
        1390.0,
        1395.0,
        1400.0,
        1405.0,
        1410.0,
        1415.0,
        1420.0,
        1425.0,
        1430.0,
        1435.0,
        1440.0,
        1445.0,
        1450.0,
        1455.0,
        1460.0,
        1465.0,
        1470.0,
        1475.0,
        1480.0,
        1485.0,
        1490.0,
        1495.0,
        1500.0,
        1505.0,
        1510.0,
        1515.0,
        1520.0,
        1525.0,
        1530.0,
        1535.0,
        1540.0,
        1545.0,
        1550.0,
        1555.0,
        1560.0,
        1565.0,
        1570.0,
        1575.0,
        1580.0,
        1585.0,
        1590.0,
        1595.0,
        1600.0,
        1605.0,
        1610.0,
        1615.0,
        1620.0,
        1625.0,
        1630.0,
        1635.0,
        1640.0,
        1645.0,
        1650.0,
        1655.0,
        1660.0,
        1665.0,
        1670.0,
        1675.0,
        1680.0,
        1685.0,
        1690.0,
        1695.0,
        1700.0,
        1705.0,
        1710.0,
        1715.0,
        1720.0,
        1725.0,
        1730.0,
        1735.0,
        1740.0,
        1745.0,
        1750.0,
        1755.0,
        1760.0,
        1765.0,
        1770.0,
        1775.0,
        1780.0,
        1785.0,
        1790.0,
        1795.0,
        1800.0,
        1805.0,
        1810.0,
        1815.0,
        1820.0,
        1825.0,
        1830.0,
        1835.0,
        1840.0,
        1845.0,
        1850.0,
        1855.0,
        1860.0,
        1865.0,
        1870.0,
        1875.0,
        1880.0,
        1885.0,
        1890.0,
        1895.0,
        1900.0,
        1905.0,
        1910.0,
        1915.0,
        1920.0,
        1925.0,
        1930.0,
        1935.0,
        1940.0,
        1945.0,
        1950.0,
        1955.0,
        1960.0,
        1965.0,
        1970.0,
        1975.0,
        1980.0,
        1985.0,
        1990.0,
        1995.0,
        2000.0,
        2005.0,
        2010.0,
        2015.0,
        2020.0,
        2025.0,
        2030.0,
        2035.0,
        2040.0,
        2045.0,
        2050.0,
        2055.0,
        2060.0,
        2065.0,
        2070.0,
        2075.0,
        2080.0,
        2085.0,
        2090.0,
        2095.0,
        2100.0,
        2105.0,
        2110.0,
        2115.0,
        2120.0,
        2125.0,
        2130.0,
        2135.0,
        2140.0,
        2145.0,
        2150.0,
        2155.0,
        2160.0,
        2165.0,
        2170.0,
        2175.0,
        2180.0,
        2185.0,
        2190.0,
        2195.0,
        2200.0,
        2205.0,
        2210.0,
        2215.0,
        2220.0,
        2225.0,
        2230.0,
        2235.0,
        2240.0,
        2245.0,
        2250.0,
        2255.0,
        2260.0,
        2265.0,
        2270.0,
        2275.0,
        2280.0,
        2285.0,
        2290.0,
        2295.0,
        2300.0,
        2305.0,
        2310.0,
        2315.0,
        2320.0,
        2325.0,
        2330.0,
        2335.0,
        2340.0,
        2345.0,
        2350.0,
        2355.0,
        2360.0,
        2365.0,
        2370.0,
        2375.0,
        2380.0,
        2385.0,
        2390.0,
        2395.0,
        2400.0,
        2405.0,
        2410.0,
        2415.0,
        2420.0,
        2425.0,
        2430.0,
        2435.0,
        2440.0,
        2445.0,
        2450.0,
        2455.0,
        2460.0,
        2465.0,
        2470.0,
        2475.0,
        2480.0,
        2485.0,
        2490.0,
        2495.0,
        2500.0,
        2505.0,
        2510.0,
        2515.0,
        2520.0,
        2525.0,
        2530.0,
        2535.0,
        2540.0,
        2545.0,
        2550.0,
        2555.0,
        2560.0,
        2565.0,
        2570.0,
        2575.0,
        2580.0,
        2585.0,
        2590.0,
        2595.0,
        2600.0,
        2605.0,
        2610.0,
        2615.0,
        2620.0,
        2625.0,
        2630.0,
        2635.0,
        2640.0,
        2645.0,
        2650.0,
        2655.0,
        2660.0,
        2665.0,
        2670.0,
        2675.0,
        2680.0,
        2685.0,
        2690.0,
        2695.0,
        2700.0,
        2705.0,
        2710.0,
        2715.0,
        2720.0,
        2725.0,
        2730.0,
        2735.0,
        2740.0,
        2745.0,
        2750.0,
        2755.0,
        2760.0,
        2765.0,
        2770.0,
        2775.0,
        2780.0,
        2785.0,
        2790.0,
        2795.0,
        2800.0,
        2805.0,
        2810.0,
        2815.0,
        2820.0,
        2825.0,
        2830.0,
        2835.0,
        2840.0,
        2845.0,
        2850.0,
        2855.0,
        2860.0,
        2865.0,
        2870.0,
        2875.0,
        2880.0,
        2885.0,
        2890.0,
        2895.0,
        2900.0,
        2905.0,
        2910.0,
        2915.0,
        2920.0,
        2925.0,
        2930.0,
        2935.0,
        2940.0,
        2945.0,
        2950.0,
        2955.0,
        2960.0,
        2965.0,
        2970.0,
        2975.0,
        2980.0,
        2985.0,
        2990.0,
        2995.0,
        3000.0,
        3005.0,
        3010.0,
        3015.0,
        3020.0,
        3025.0,
        3030.0,
        3035.0,
        3040.0,
        3045.0,
        3050.0,
        3055.0,
        3060.0,
        3065.0,
        3070.0,
        3075.0,
        3080.0,
        3085.0,
        3090.0,
        3095.0,
        3100.0,
        3105.0,
        3110.0,
        3115.0,
        3120.0,
        3125.0,
        3130.0,
        3135.0,
        3140.0,
        3145.0,
        3150.0,
        3155.0,
        3160.0,
        3165.0,
        3170.0,
        3175.0,
        3180.0,
        3185.0,
        3190.0,
        3195.0,
        3200.0,
        3205.0,
        3210.0,
        3215.0,
        3220.0,
        3225.0,
        3230.0,
        3235.0,
        3240.0,
        3245.0,
        3250.0,
        3255.0,
        3260.0,
        3265.0,
        3270.0,
        3275.0,
        3280.0,
        3285.0,
        3290.0,
        3295.0,
        3300.0,
        3305.0,
        3310.0,
        3315.0,
        3320.0,
        3325.0,
        3330.0,
        3335.0,
        3340.0,
        3345.0,
        3350.0,
        3355.0,
        3360.0,
        3365.0,
        3370.0,
        3375.0,
        3380.0,
        3385.0,
        3390.0,
        3395.0,
        3400.0,
        3405.0,
        3410.0,
        3415.0,
        3420.0,
        3425.0,
        3430.0,
        3435.0,
        3440.0,
        3445.0,
        3450.0,
        3455.0,
        3460.0,
        3465.0,
        3470.0,
        3475.0,
        3480.0,
        3485.0,
        3490.0,
        3495.0,
        3500.0,
        3505.0,
        3510.0,
        3515.0,
        3520.0,
        3525.0,
        3530.0,
        3535.0,
        3540.0,
        3545.0,
        3550.0,
        3555.0,
        3560.0,
        3565.0,
        3570.0,
        3575.0,
        3580.0,
        3585.0,
        3590.0,
        3595.0,
        3600.0,
        3605.0,
        3610.0,
        3615.0,
        3620.0,
        3625.0,
        3630.0,
        3635.0,
        3640.0,
        3645.0,
        3650.0,
        3655.0,
        3660.0,
        3665.0,
        3670.0,
        3675.0,
        3680.0,
        3685.0,
        3690.0,
        3695.0,
        3700.0,
        3705.0,
        3710.0,
        3715.0,
        3720.0,
        3725.0,
        3730.0,
        3735.0,
        3740.0,
        3745.0,
        3750.0,
        3755.0,
        3760.0,
        3765.0,
        3770.0,
        3775.0,
        3780.0,
        3785.0,
        3790.0,
        3795.0,
        3800.0,
        3805.0,
        3810.0,
        3815.0,
        3820.0,
        3825.0,
        3830.0,
        3835.0,
        3840.0,
        3845.0,
        3850.0,
        3855.0,
        3860.0,
        3865.0,
        3870.0,
        3875.0,
        3880.0,
        3885.0,
        3890.0,
        3895.0,
        3900.0,
        3905.0,
        3910.0,
        3915.0,
        3920.0,
        3925.0,
        3930.0,
        3935.0,
        3940.0,
        3945.0,
        3950.0,
        3955.0,
        3960.0,
        3965.0,
        3970.0,
        3975.0,
        3980.0,
        3985.0,
        3990.0,
        3995.0,
        4000.0,
        4005.0,
        4010.0,
        4015.0,
        4020.0,
        4025.0,
        4030.0,
        4035.0,
        4040.0,
        4045.0,
        4050.0,
        4055.0,
        4060.0,
        4065.0,
        4070.0,
        4075.0,
        4080.0,
        4085.0,
        4090.0,
        4095.0,
        4100.0,
        4105.0,
        4110.0,
        4115.0,
        4120.0,
        4125.0,
        4130.0,
        4135.0,
        4140.0,
        4145.0,
        4150.0,
        4155.0,
        4160.0,
        4165.0,
        4170.0,
        4175.0,
        4180.0,
        4185.0,
        4190.0,
        4195.0,
        4200.0,
        4205.0,
        4210.0,
        4215.0,
        4220.0,
        4225.0,
        4230.0,
        4235.0,
        4240.0,
        4245.0,
        4250.0,
        4255.0,
        4260.0,
        4265.0,
        4270.0,
        4275.0,
        4280.0,
        4285.0,
        4290.0,
        4295.0,
        4300.0,
        4305.0,
        4310.0,
        4315.0,
        4320.0,
        4325.0,
        4330.0,
        4335.0,
        4340.0,
        4345.0,
        4350.0,
        4355.0,
        4360.0,
        4365.0,
        4370.0,
        4375.0,
        4380.0,
        4385.0,
        4390.0,
        4395.0,
        4400.0,
        4405.0,
        4410.0,
        4415.0,
        4420.0,
        4425.0,
        4430.0,
        4435.0,
        4440.0,
        4445.0,
        4450.0,
        4455.0,
        4460.0,
        4465.0,
        4470.0,
        4475.0,
        4480.0,
        4485.0,
        4490.0,
        4495.0,
        4500.0,
        4505.0,
        4510.0,
        4515.0,
        4520.0,
        4525.0,
        4530.0,
        4535.0,
        4540.0,
        4545.0,
        4550.0,
        4555.0,
        4560.0,
        4565.0,
        4570.0,
        4575.0,
        4580.0,
        4585.0,
        4590.0,
        4595.0,
        4600.0,
        4605.0,
        4610.0,
        4615.0,
        4620.0,
        4625.0,
        4630.0,
        4635.0,
        4640.0,
        4645.0,
        4650.0,
        4655.0,
        4660.0,
        4665.0,
        4670.0,
        4675.0,
        4680.0,
        4685.0,
        4690.0,
        4695.0,
        4700.0,
        4705.0,
        4710.0,
        4715.0,
        4720.0,
        4725.0,
        4730.0,
        4735.0,
        4740.0,
        4745.0,
        4750.0,
        4755.0,
        4760.0,
        4765.0,
        4770.0,
        4775.0,
        4780.0,
        4785.0,
        4790.0,
        4795.0,
        4800.0,
        4805.0,
        4810.0,
        4815.0,
        4820.0,
        4825.0,
        4830.0,
        4835.0,
        4840.0,
        4845.0,
        4850.0,
        4855.0,
        4860.0,
        4865.0,
        4870.0,
        4875.0,
        4880.0,
        4885.0,
        4890.0,
        4895.0,
        4900.0,
        4905.0,
        4910.0,
        4915.0,
        4920.0,
        4925.0,
        4930.0,
        4935.0,
        4940.0,
        4945.0,
        4950.0,
        4955.0,
        4960.0,
        4965.0,
        4970.0,
        4975.0,
        4980.0,
        4985.0,
        4990.0,
        4995.0,
        5000.0,
        5005.0,
        5010.0,
        5015.0,
        5020.0,
        5025.0,
        5030.0,
        5035.0,
        5040.0,
        5045.0,
        5050.0,
        5055.0,
        5060.0,
        5065.0,
        5070.0,
        5075.0,
        5080.0,
        5085.0,
        5090.0,
        5095.0,
        5100.0,
        5105.0,
        5110.0,
        5115.0,
        5120.0,
        5125.0,
        5130.0,
        5135.0,
        5140.0,
        5145.0,
        5150.0,
        5155.0,
        5160.0,
        5165.0,
        5170.0,
        5175.0,
        5180.0,
        5185.0,
        5190.0,
        5195.0,
        5200.0,
        5205.0,
        5210.0,
        5215.0,
        5220.0,
        5225.0,
        5230.0,
        5235.0,
        5240.0,
        5245.0,
        5250.0,
        5255.0,
        5260.0,
        5265.0,
        5270.0,
        5275.0,
        5280.0,
        5285.0,
        5290.0,
        5295.0,
        5300.0,
        5305.0,
        5310.0,
        5315.0,
        5320.0,
        5325.0,
        5330.0,
        5335.0,
        5340.0,
        5345.0,
        5350.0,
        5355.0,
        5360.0,
        5365.0,
        5370.0,
        5375.0,
        5380.0,
        5385.0,
        5390.0,
        5395.0,
        5400.0,
        5405.0,
        5410.0,
        5415.0,
        5420.0,
        5425.0,
        5430.0,
        5435.0,
        5440.0,
        5445.0,
        5450.0,
        5455.0,
        5460.0,
        5465.0,
        5470.0,
        5475.0,
        5480.0,
        5485.0,
        5490.0,
        5495.0,
        5500.0,
        5505.0,
        5510.0,
        5515.0,
        5520.0,
        5525.0,
        5530.0,
        5535.0,
        5540.0,
        5545.0,
        5550.0,
        5555.0,
        5560.0,
        5565.0,
        5570.0,
        5575.0,
        5580.0,
        5585.0,
        5590.0,
        5595.0,
        5600.0,
        5605.0,
        5610.0,
        5615.0,
        5620.0,
        5625.0,
        5630.0,
        5635.0,
        5640.0,
        5645.0,
        5650.0,
        5655.0,
        5660.0,
        5665.0,
        5670.0,
        5675.0,
        5680.0,
        5685.0,
        5690.0,
        5695.0,
        5700.0,
        5705.0,
        5710.0,
        5715.0,
        5720.0,
        5725.0,
        5730.0,
        5735.0,
        5740.0,
        5745.0,
        5750.0,
        5755.0,
        5760.0,
        5765.0,
        5770.0,
        5775.0,
        5780.0,
        5785.0,
        5790.0,
        5795.0,
        5800.0,
        5805.0,
        5810.0,
        5815.0,
        5820.0,
        5825.0,
        5830.0,
        5835.0,
        5840.0,
        5845.0,
        5850.0,
        5855.0,
        5860.0,
        5865.0,
        5870.0,
        5875.0,
        5880.0,
        5885.0,
        5890.0,
        5895.0,
        5900.0,
        5905.0,
        5910.0,
        5915.0,
        5920.0,
        5925.0,
        5930.0,
        5935.0,
        5940.0,
        5945.0,
        5950.0,
        5955.0,
        5960.0,
        5965.0,
        5970.0,
        5975.0,
        5980.0,
        5985.0,
        5990.0,
        5995.0,
        6000.0,
        6005.0,
        6010.0,
        6015.0,
        6020.0,
        6025.0,
        6030.0,
        6035.0,
        6040.0,
        6045.0,
        6050.0,
        6055.0,
        6060.0,
        6065.0,
        6070.0,
        6075.0,
        6080.0,
        6085.0,
        6090.0,
        6095.0,
        6100.0,
        6105.0,
        6110.0,
        6115.0,
        6120.0,
        6125.0,
        6130.0,
        6135.0,
        6140.0,
        6145.0,
        6150.0,
        6155.0,
        6160.0,
        6165.0,
        6170.0,
        6175.0,
        6180.0,
        6185.0,
        6190.0,
        6195.0,
        6200.0,
        6205.0,
        6210.0,
        6215.0,
        6220.0,
        6225.0,
        6230.0,
        6235.0,
        6240.0,
        6245.0,
        6250.0,
        6255.0,
        6260.0,
        6265.0,
        6270.0,
        6275.0,
        6280.0,
        6285.0,
        6290.0,
        6295.0,
        6300.0,
        6305.0,
        6310.0,
        6315.0,
        6320.0,
        6325.0,
        6330.0,
        6335.0,
        6340.0,
        6345.0,
        6350.0,
        6355.0,
        6360.0,
        6365.0,
        6370.0,
        6375.0,
        6380.0,
        6385.0,
        6390.0,
        6395.0,
        6400.0,
        6405.0,
        6410.0,
        6415.0,
        6420.0,
        6425.0,
        6430.0,
        6435.0,
        6440.0,
        6445.0,
        6450.0,
        6455.0,
        6460.0,
        6465.0,
        6470.0,
        6475.0,
        6480.0,
        6485.0,
        6490.0,
        6495.0,
        6500.0,
        6505.0,
        6510.0,
        6515.0,
        6520.0,
        6525.0,
        6530.0,
        6535.0,
        6540.0,
        6545.0,
        6550.0,
        6555.0,
        6560.0,
        6565.0,
        6570.0,
        6575.0,
        6580.0,
        6585.0,
        6590.0,
        6595.0,
        6600.0,
        6605.0,
        6610.0,
        6615.0,
        6620.0,
        6625.0,
        6630.0,
        6635.0,
        6640.0,
        6645.0,
        6650.0,
        6655.0,
        6660.0,
        6665.0,
        6670.0,
        6675.0,
        6680.0,
        6685.0,
        6690.0,
        6695.0,
        6700.0,
        6705.0,
        6710.0,
        6715.0,
        6720.0,
        6725.0,
        6730.0,
        6735.0,
        6740.0,
        6745.0,
        6750.0,
        6755.0,
        6760.0,
        6765.0,
        6770.0,
        6775.0,
        6780.0,
        6785.0,
        6790.0,
        6795.0,
        6800.0,
        6805.0,
        6810.0,
        6815.0,
        6820.0,
        6825.0,
        6830.0,
        6835.0,
        6840.0,
        6845.0,
        6850.0,
        6855.0,
        6860.0,
        6865.0,
        6870.0,
        6875.0,
        6880.0,
        6885.0,
        6890.0,
        6895.0,
        6900.0,
        6905.0,
        6910.0,
        6915.0,
        6920.0,
        6925.0,
        6930.0,
        6935.0,
        6940.0,
        6945.0,
        6950.0,
        6955.0,
        6960.0,
        6965.0,
        6970.0,
        6975.0,
        6980.0,
        6985.0,
        6990.0,
        6995.0,
        7000.0,
        7005.0,
        7010.0,
        7015.0,
        7020.0,
        7025.0,
        7030.0,
        7035.0,
        7040.0,
        7045.0,
        7050.0,
        7055.0,
        7060.0,
        7065.0,
        7070.0,
        7075.0,
        7080.0,
        7085.0,
        7090.0,
        7095.0,
        7100.0,
        7105.0,
        7110.0,
        7115.0,
        7120.0,
        7125.0,
        7130.0,
        7135.0,
        7140.0,
        7145.0,
        7150.0,
        7155.0,
        7160.0,
        7165.0,
        7170.0,
        7175.0,
        7180.0,
        7185.0,
        7190.0,
        7195.0,
        7200.0,
        7205.0,
        7210.0,
        7215.0,
        7220.0,
        7225.0,
        7230.0,
        7235.0,
        7240.0,
        7245.0,
        7250.0,
        7255.0,
        7260.0,
        7265.0,
        7270.0,
        7275.0,
        7280.0,
        7285.0,
        7290.0,
        7295.0,
        7300.0,
        7305.0,
        7310.0,
        7315.0,
        7320.0,
        7325.0,
        7330.0,
        7335.0,
        7340.0,
        7345.0,
        7350.0,
        7355.0,
        7360.0,
        7365.0,
        7370.0,
        7375.0,
        7380.0,
        7385.0,
        7390.0,
        7395.0,
        7400.0,
        7405.0,
        7410.0,
        7415.0,
        7420.0,
        7425.0,
        7430.0,
        7435.0,
        7440.0,
        7445.0,
        7450.0,
        7455.0,
        7460.0,
        7465.0,
        7470.0,
        7475.0,
        7480.0,
        7485.0,
        7490.0,
        7495.0,
        7500.0,
        7505.0,
        7510.0,
        7515.0,
        7520.0,
        7525.0,
        7530.0,
        7535.0,
        7540.0,
        7545.0,
        7550.0,
        7555.0,
        7560.0,
        7565.0,
        7570.0,
        7575.0,
        7580.0,
        7585.0,
        7590.0,
        7595.0,
        7600.0,
        7605.0,
        7610.0,
        7615.0,
        7620.0,
        7625.0,
        7630.0,
        7635.0,
        7640.0,
        7645.0,
        7650.0,
        7655.0,
        7660.0,
        7665.0,
        7670.0,
        7675.0,
        7680.0,
        7685.0,
        7690.0,
        7695.0,
        7700.0,
        7705.0,
        7710.0,
        7715.0,
        7720.0,
        7725.0,
        7730.0,
        7735.0,
        7740.0,
        7745.0,
        7750.0,
        7755.0,
        7760.0,
        7765.0,
        7770.0,
        7775.0,
        7780.0,
        7785.0,
        7790.0,
        7795.0,
        7800.0,
        7805.0,
        7810.0,
        7815.0,
        7820.0,
        7825.0,
        7830.0,
        7835.0,
        7840.0,
        7845.0,
        7850.0,
        7855.0,
        7860.0,
        7865.0,
        7870.0,
        7875.0,
        7880.0,
        7885.0,
        7890.0,
        7895.0,
        7900.0,
        7905.0,
        7910.0,
        7915.0,
        7920.0,
        7925.0,
        7930.0,
        7935.0,
        7940.0,
        7945.0,
        7950.0,
        7955.0,
        7960.0,
        7965.0,
        7970.0,
        7975.0,
        7980.0,
        7985.0,
        7990.0,
        7995.0,
        8000.0,
        8005.0,
        8010.0,
        8015.0,
        8020.0,
        8025.0,
        8030.0,
        8035.0,
        8040.0,
        8045.0,
        8050.0,
        8055.0,
        8060.0,
        8065.0,
        8070.0,
        8075.0,
        8080.0,
        8085.0,
        8090.0,
        8095.0,
        8100.0,
        8105.0,
        8110.0,
        8115.0,
        8120.0,
        8125.0,
        8130.0,
        8135.0,
        8140.0,
        8145.0,
        8150.0,
        8155.0,
        8160.0,
        8165.0,
        8170.0,
        8175.0,
        8180.0,
        8185.0,
        8190.0,
        8195.0,
        8200.0,
        8205.0,
        8210.0,
        8215.0,
        8220.0,
        8225.0,
        8230.0,
        8235.0,
        8240.0,
        8245.0,
        8250.0,
        8255.0,
        8260.0,
        8265.0,
        8270.0,
        8275.0,
        8280.0,
        8285.0,
        8290.0,
        8295.0,
        8300.0,
        8305.0,
        8310.0,
        8315.0,
        8320.0,
        8325.0,
        8330.0,
        8335.0,
        8340.0,
        8345.0,
        8350.0,
        8355.0,
        8360.0,
        8365.0,
        8370.0,
        8375.0,
        8380.0,
        8385.0,
        8390.0,
        8395.0,
        8400.0,
        8405.0,
        8410.0,
        8415.0,
        8420.0,
        8425.0,
        8430.0,
        8435.0,
        8440.0,
        8445.0,
        8450.0,
        8455.0,
        8460.0,
        8465.0,
        8470.0,
        8475.0,
        8480.0,
        8485.0,
        8490.0,
        8495.0,
        8500.0,
        8505.0,
        8510.0,
        8515.0,
        8520.0,
        8525.0,
        8530.0,
        8535.0,
        8540.0,
        8545.0,
        8550.0,
        8555.0,
        8560.0,
        8565.0,
        8570.0,
        8575.0,
        8580.0,
        8585.0,
        8590.0,
        8595.0,
        8600.0,
        8605.0,
        8610.0,
        8615.0,
        8620.0,
        8625.0,
        8630.0,
        8635.0,
        8640.0,
        8645.0,
        8650.0,
        8655.0,
        8660.0,
        8665.0,
        8670.0,
        8675.0,
        8680.0,
        8685.0,
        8690.0,
        8695.0,
        8700.0,
        8705.0,
        8710.0,
        8715.0,
        8720.0,
        8725.0,
        8730.0,
        8735.0,
        8740.0,
        8745.0,
        8750.0,
        8755.0,
        8760.0,
        8765.0,
        8770.0,
        8775.0,
        8780.0,
        8785.0,
        8790.0,
        8795.0,
        8800.0,
        8805.0,
        8810.0,
        8815.0,
        8820.0,
        8825.0,
        8830.0,
        8835.0,
        8840.0,
        8845.0,
        8850.0,
        8855.0,
        8860.0,
        8865.0,
        8870.0,
        8875.0,
        8880.0,
        8885.0,
        8890.0,
        8895.0,
        8900.0,
        8905.0,
        8910.0,
        8915.0,
        8920.0,
        8925.0,
        8930.0,
        8935.0,
        8940.0,
        8945.0,
        8950.0,
        8955.0,
        8960.0,
        8965.0,
        8970.0,
        8975.0,
        8980.0,
        8985.0,
        8990.0,
        8995.0,
        9000.0,
        9005.0,
        9010.0,
        9015.0,
        9020.0,
        9025.0,
        9030.0,
        9035.0,
        9040.0,
        9045.0,
        9050.0,
        9055.0,
        9060.0,
        9065.0,
        9070.0,
        9075.0,
        9080.0,
        9085.0,
        9090.0,
        9095.0,
        9100.0,
        9105.0,
        9110.0,
        9115.0,
        9120.0,
        9125.0,
        9130.0,
        9135.0,
        9140.0,
        9145.0,
        9150.0,
        9155.0,
        9160.0,
        9165.0,
        9170.0,
        9175.0,
        9180.0,
        9185.0,
        9190.0,
        9195.0,
        9200.0,
        9205.0,
        9210.0,
        9215.0,
        9220.0,
        9225.0,
        9230.0,
        9235.0,
        9240.0,
        9245.0,
        9250.0,
        9255.0,
        9260.0,
        9265.0,
        9270.0,
        9275.0,
        9280.0,
        9285.0,
        9290.0,
        9295.0,
        9300.0,
        9305.0,
        9310.0,
        9315.0,
        9320.0,
        9325.0,
        9330.0,
        9335.0,
        9340.0,
        9345.0,
        9350.0,
        9355.0,
        9360.0,
        9365.0,
        9370.0,
        9375.0,
        9380.0,
        9385.0,
        9390.0,
        9395.0,
        9400.0,
        9405.0,
        9410.0,
        9415.0,
        9420.0,
        9425.0,
        9430.0,
        9435.0,
        9440.0,
        9445.0,
        9450.0,
        9455.0,
        9460.0,
        9465.0,
        9470.0,
        9475.0,
        9480.0,
        9485.0,
        9490.0,
        9495.0,
        9500.0,
        9505.0,
        9510.0,
        9515.0,
        9520.0,
        9525.0,
        9530.0,
        9535.0,
        9540.0,
        9545.0,
        9550.0,
        9555.0,
        9560.0,
        9565.0,
        9570.0,
        9575.0,
        9580.0,
        9585.0,
        9590.0,
        9595.0,
        9600.0,
        9605.0,
        9610.0,
        9615.0,
        9620.0,
        9625.0,
        9630.0,
        9635.0,
        9640.0,
        9645.0,
        9650.0,
        9655.0,
        9660.0,
        9665.0,
        9670.0,
        9675.0,
        9680.0,
        9685.0,
        9690.0,
        9695.0,
        9700.0,
        9705.0,
        9710.0,
        9715.0,
        9720.0,
        9725.0,
        9730.0,
        9735.0,
        9740.0,
        9745.0,
        9750.0,
        9755.0,
        9760.0,
        9765.0,
        9770.0,
        9775.0,
        9780.0,
        9785.0,
        9790.0,
        9795.0,
        9800.0,
        9805.0,
        9810.0,
        9815.0,
        9820.0,
        9825.0,
        9830.0,
        9835.0,
        9840.0,
        9845.0,
        9850.0,
        9855.0,
        9860.0,
        9865.0,
        9870.0,
        9875.0,
        9880.0,
        9885.0,
        9890.0,
        9895.0,
        9900.0,
        9905.0,
        9910.0,
        9915.0,
        9920.0,
        9925.0,
        9930.0,
        9935.0,
        9940.0,
        9945.0,
        9950.0,
        9955.0,
        9960.0,
        9965.0,
        9970.0,
        9975.0,
        9980.0,
        9985.0,
        9990.0,
        9995.0,
        10000.0,
        10005.0,
        10010.0,
        10015.0,
        10020.0,
        10025.0,
        10030.0,
        10035.0,
        10040.0,
        10045.0,
        10050.0,
        10055.0,
        10060.0,
        10065.0,
        10070.0,
        10075.0,
        10080.0,
        10085.0,
        10090.0,
        10095.0,
        10100.0,
        10105.0,
        10110.0,
        10115.0,
        10120.0,
        10125.0,
        10130.0,
        10135.0,
        10140.0,
        10145.0,
        10150.0,
        10155.0,
        10160.0,
        10165.0,
        10170.0,
        10175.0,
        10180.0,
        10185.0,
        10190.0,
        10195.0,
        10200.0,
        10205.0,
        10210.0,
        10215.0,
        10220.0,
        10225.0,
        10230.0,
        10235.0,
        10240.0,
        10245.0,
        10250.0,
        10255.0,
        10260.0,
        10265.0,
        10270.0,
        10275.0,
        10280.0,
        10285.0,
        10290.0,
        10295.0,
        10300.0,
        10305.0,
        10310.0,
        10315.0,
        10320.0,
        10325.0,
        10330.0,
        10335.0,
        10340.0,
        10345.0,
        10350.0,
        10355.0,
        10360.0,
        10365.0,
        10370.0,
        10375.0,
        10380.0,
        10385.0,
        10390.0,
        10395.0,
        10400.0,
        10405.0,
        10410.0,
        10415.0,
        10420.0,
        10425.0,
        10430.0,
        10435.0,
        10440.0,
        10445.0,
        10450.0,
        10455.0,
        10460.0,
        10465.0,
        10470.0,
        10475.0,
        10480.0,
        10485.0,
        10490.0,
        10495.0,
        10500.0
      ],
      "units":"angstrom"
    },
    "values":{
      "value":[
        0.0,
        0.0,
        0.0,
        0.0,
        0.0,
        0.0,
        0.0,
        0.0,
        0.0,
        0.0,
        0.0,
        0.0,
        0.0,
        0.0,
        0.0,
        0.0,
        0.0,
        0.0,
        0.0,
        0.0,
        0.0,
        0.0,
        0.0,
        0.0,
        0.0,
        0.0,
        0.0,
        0.0,
        0.0,
        0.0,
        0.0,
        0.0,
        0.0,
        0.0,
        0.0,
        0.0,
        0.0,
        0.0,
        0.0,
        0.0,
        0.0,
        0.0,
        0.0,
        0.0,
        0.0,
        0.0,
        0.0,
        0.0,
        0.0,
        0.0,
        0.0,
        0.0,
        0.0,
        0.0,
        0.0,
        0.0,
        0.0,
        0.0,
        0.0,
        0.0,
        0.0,
        0.0,
        0.0,
        0.0,
        0.0,
        0.0,
        0.0,
        0.0,
        0.0,
        0.0,
        0.0,
        0.0,
        0.0,
        0.0,
        0.0,
        0.0,
        0.0,
        0.0,
        0.0,
        0.0,
        0.0,
        0.0,
        0.0,
        0.0,
        0.0,
        0.0,
        0.0,
        0.0,
        0.0,
        0.0,
        0.0,
        0.0,
        0.0,
        0.0,
        0.0,
        0.0,
        0.0,
        0.0,
        0.0,
        0.0,
        0.0,
        0.0,
        0.0,
        0.0,
        0.0,
        0.0,
        0.0,
        0.0,
        0.0,
        0.0,
        0.0,
        0.0,
        0.0,
        0.0,
        0.0,
        0.0,
        0.0,
        0.0,
        0.0,
        0.0,
        0.0,
        0.0,
        0.0,
        0.0,
        0.0,
        0.0,
        0.0,
        0.0,
        0.0,
        0.0,
        0.0,
        0.0,
        0.0,
        0.0,
        0.0,
        0.0,
        0.0,
        0.0,
        0.0,
        0.0,
        0.0,
        0.0,
        0.0,
        0.0,
        0.0,
        0.0,
        0.0,
        0.0,
        0.0,
        0.0,
        0.0,
        0.0,
        0.0,
        0.0,
        0.0,
        0.0,
        0.0,
        0.0,
        0.0,
        0.0,
        0.0,
        0.0,
        0.0,
        0.0,
        0.0,
        0.0,
        0.0,
        0.0,
        0.0,
        0.0,
        0.0,
        0.0,
        0.0,
        0.0,
        0.0,
        0.0,
        0.0,
        0.0,
        0.0,
        0.0,
        0.0,
        0.0,
        0.0,
        0.0,
        0.0,
        0.0,
        0.0,
        0.0,
        0.0,
        0.0,
        0.0,
        0.0,
        0.0,
        0.0,
        0.0,
        0.0,
        0.0,
        0.0,
        0.0,
        0.0,
        0.0,
        0.0,
        0.0,
        0.0,
        0.0,
        0.0,
        0.0,
        0.0,
        0.0,
        0.0,
        0.0,
        0.0,
        0.0,
        0.0,
        0.0,
        0.0,
        0.0,
        0.0,
        0.0,
        0.0,
        0.0,
        0.0,
        0.0,
        0.0,
        0.0,
        0.0,
        0.0,
        0.0,
        0.0,
        0.0,
        0.0,
        0.0,
        0.0,
        0.0,
        0.0,
        0.0,
        0.0,
        0.0,
        0.0,
        0.0,
        0.0,
        0.0,
        0.0,
        0.0,
        0.0,
        0.0,
        0.0,
        0.0,
        0.0,
        0.0,
        0.0,
        1e-06,
        1e-06,
        2e-06,
        3e-06,
        3e-06,
        3e-06,
        3e-06,
        3e-06,
        2e-06,
        0.0,
        0.0,
        0.0,
        0.0,
        0.0,
        0.0,
        0.0,
        0.0,
        0.0,
        0.0,
        0.0,
        8e-06,
        1.7e-05,
        2.7e-05,
        3.5e-05,
        4.1e-05,
        4.4e-05,
        4.3e-05,
        3.6e-05,
        2.2e-05,
        0.0,
        0.0,
        0.0,
        0.0,
        0.0,
        0.0,
        0.0,
        0.0,
        0.0,
        0.0,
        0.0,
        0.000114,
        0.000257,
        0.000426,
        0.000616,
        0.000824,
        0.001045,
        0.001275,
        0.00151,
        0.001747,
        0.00198,
        0.002207,
        0.002427,
        0.00264,
        0.002847,
        0.003047,
        0.003241,
        0.00343,
        0.003612,
        0.003789,
        0.00396,
        0.004127,
        0.004292,
        0.004459,
        0.00463,
        0.004809,
        0.004999,
        0.005204,
        0.005427,
        0.005672,
        0.005941,
        0.006234,
        0.006543,
        0.006852,
        0.007149,
        0.00742,
        0.007652,
        0.007832,
        0.007945,
        0.007979,
        0.007921,
        0.007764,
        0.007533,
        0.007261,
        0.00698,
        0.006723,
        0.006522,
        0.00641,
        0.006419,
        0.006582,
        0.006931,
        0.007488,
        0.008237,
        0.00915,
        0.010199,
        0.011357,
        0.012597,
        0.013891,
        0.015211,
        0.01653,
        0.017822,
        0.019059,
        0.020223,
        0.021295,
        0.022259,
        0.023096,
        0.023788,
        0.024317,
        0.024666,
        0.024817,
        0.024752,
        0.024465,
        0.023996,
        0.023395,
        0.022714,
        0.022003,
        0.021314,
        0.020699,
        0.020208,
        0.019892,
        0.019802,
        0.019978,
        0.020411,
        0.021081,
        0.021968,
        0.023051,
        0.024309,
        0.025723,
        0.027272,
        0.028935,
        0.030693,
        0.032525,
        0.034414,
        0.036343,
        0.038294,
        0.04025,
        0.042194,
        0.044108,
        0.045977,
        0.047781,
        0.049505,
        0.051137,
        0.052688,
        0.054177,
        0.055622,
        0.05704,
        0.058449,
        0.059868,
        0.061313,
        0.062803,
        0.064356,
        0.065982,
        0.084604,
        0.082435,
        0.081148,
        0.081261,
        0.081875,
        0.082147,
        0.082879,
        0.084672,
        0.092166,
        0.088564,
        0.083317,
        0.080029,
        0.078398,
        0.077239,
        0.075755,
        0.073932,
        0.074515,
        0.079635,
        0.086197,
        0.090915,
        0.094965,
        0.099617,
        0.102079,
        0.100387,
        0.099951,
        0.105799,
        0.114047,
        0.119432,
        0.120085,
        0.115929,
        0.110645,
        0.107927,
        0.107773,
        0.109149,
        0.110593,
        0.111056,
        0.111573,
        0.113045,
        0.113744,
        0.111819,
        0.107536,
        0.102331,
        0.100183,
        0.103888,
        0.108974,
        0.110981,
        0.112748,
        0.117287,
        0.12097,
        0.12032,
        0.119099,
        0.121281,
        0.124437,
        0.125201,
        0.12287,
        0.118057,
        0.113986,
        0.113702,
        0.116909,
        0.121919,
        0.124812,
        0.122768,
        0.119605,
        0.119356,
        0.120282,
        0.120344,
        0.122084,
        0.127748,
        0.133815,
        0.13632,
        0.135272,
        0.132032,
        0.129391,
        0.130021,
        0.134683,
        0.142418,
        0.147294,
        0.144322,
        0.137244,
        0.130869,
        0.125528,
        0.120523,
        0.115496,
        0.110694,
        0.108455,
        0.111282,
        0.12027,
        0.134245,
        0.144371,
        0.143813,
        0.141407,
        0.146565,
        0.155338,
        0.161671,
        0.164442,
        0.164528,
        0.165874,
        0.171714,
        0.179391,
        0.185582,
        0.190203,
        0.193273,
        0.191955,
        0.184864,
        0.17925,
        0.181636,
        0.186991,
        0.189064,
        0.188285,
        0.186234,
        0.182406,
        0.175943,
        0.16665,
        0.155157,
        0.144735,
        0.138629,
        0.13735,
        0.140368,
        0.145715,
        0.151513,
        0.157664,
        0.164768,
        0.174428,
        0.186453,
        0.192483,
        0.185889,
        0.175142,
        0.169921,
        0.169626,
        0.170403,
        0.165675,
        0.151184,
        0.134683,
        0.124957,
        0.122926,
        0.126875,
        0.132428,
        0.135614,
        0.136745,
        0.137134,
        0.137811,
        0.139548,
        0.142373,
        0.146599,
        0.154425,
        0.167354,
        0.182208,
        0.195169,
        0.204531,
        0.196566,
        0.202491,
        0.202145,
        0.191867,
        0.172295,
        0.170056,
        0.170448,
        0.179809,
        0.207523,
        0.237253,
        0.240284,
        0.213645,
        0.192937,
        0.199553,
        0.22707,
        0.26813,
        0.314448,
        0.351955,
        0.378956,
        0.387492,
        0.400163,
        0.407023,
        0.406274,
        0.425593,
        0.436487,
        0.429009,
        0.412918,
        0.402557,
        0.401043,
        0.400998,
        0.400932,
        0.405545,
        0.410786,
        0.405581,
        0.408673,
        0.439866,
        0.448727,
        0.45024,
        0.445748,
        0.436448,
        0.4267,
        0.418239,
        0.424135,
        0.433941,
        0.433757,
        0.43262,
        0.428945,
        0.407376,
        0.393461,
        0.401371,
        0.417551,
        0.422566,
        0.415877,
        0.411306,
        0.409716,
        0.414496,
        0.416075,
        0.412901,
        0.414877,
        0.424686,
        0.431797,
        0.447204,
        0.446976,
        0.443503,
        0.450833,
        0.448352,
        0.448748,
        0.458023,
        0.469711,
        0.479522,
        0.484097,
        0.478055,
        0.464371,
        0.456363,
        0.459648,
        0.461547,
        0.459401,
        0.452323,
        0.413184,
        0.383465,
        0.387318,
        0.410108,
        0.438651,
        0.47439,
        0.512318,
        0.536505,
        0.55332,
        0.564174,
        0.564658,
        0.566613,
        0.585315,
        0.597914,
        0.601226,
        0.594848,
        0.575311,
        0.552307,
        0.5403,
        0.547983,
        0.552095,
        0.562302,
        0.577975,
        0.57765,
        0.600139,
        0.608143,
        0.611347,
        0.62087,
        0.629287,
        0.637061,
        0.645799,
        0.653109,
        0.650816,
        0.642799,
        0.646795,
        0.670228,
        0.694858,
        0.712225,
        0.718195,
        0.717746,
        0.720744,
        0.732166,
        0.750371,
        0.76706,
        0.758559,
        0.741943,
        0.730577,
        0.709142,
        0.702475,
        0.705593,
        0.716081,
        0.734202,
        0.749359,
        0.752576,
        0.757468,
        0.759175,
        0.756762,
        0.757396,
        0.758555,
        0.751474,
        0.747339,
        0.753019,
        0.766989,
        0.787077,
        0.808368,
        0.821593,
        0.822613,
        0.816671,
        0.802055,
        0.787016,
        0.781538,
        0.782379,
        0.783707,
        0.784157,
        0.784313,
        0.777569,
        0.772816,
        0.785187,
        0.790021,
        0.791316,
        0.792227,
        0.79215,
        0.79063,
        0.791191,
        0.801456,
        0.80962,
        0.816668,
        0.822061,
        0.823709,
        0.827087,
        0.833792,
        0.839513,
        0.839311,
        0.836611,
        0.832856,
        0.829455,
        0.840479,
        0.848515,
        0.850447,
        0.853332,
        0.859668,
        0.8658,
        0.868185,
        0.87254,
        0.876763,
        0.874218,
        0.866816,
        0.863854,
        0.864587,
        0.861423,
        0.859965,
        0.851568,
        0.833283,
        0.81099,
        0.802278,
        0.797533,
        0.807895,
        0.818516,
        0.829048,
        0.845505,
        0.867592,
        0.875284,
        0.879422,
        0.876733,
        0.860669,
        0.849573,
        0.849175,
        0.855689,
        0.872541,
        0.885394,
        0.8904,
        0.90211,
        0.902353,
        0.894296,
        0.888436,
        0.889877,
        0.884377,
        0.863955,
        0.861879,
        0.860781,
        0.858915,
        0.852983,
        0.837509,
        0.822275,
        0.817889,
        0.826181,
        0.839848,
        0.848651,
        0.851376,
        0.854136,
        0.855055,
        0.859142,
        0.86975,
        0.881345,
        0.884073,
        0.87596,
        0.866394,
        0.857632,
        0.857645,
        0.865686,
        0.871827,
        0.869294,
        0.861539,
        0.861072,
        0.8586,
        0.858303,
        0.86218,
        0.854862,
        0.843029,
        0.837738,
        0.842084,
        0.846977,
        0.841864,
        0.825519,
        0.802343,
        0.776762,
        0.758486,
        0.764527,
        0.791601,
        0.816352,
        0.841134,
        0.850954,
        0.854484,
        0.86129,
        0.869363,
        0.877697,
        0.89116,
        0.897182,
        0.903803,
        0.916026,
        0.926715,
        0.927186,
        0.912466,
        0.887018,
        0.852703,
        0.873904,
        0.860684,
        0.89459,
        0.934785,
        0.955174,
        0.964551,
        0.967559,
        0.973887,
        0.9818,
        0.979949,
        0.972677,
        0.960762,
        0.947413,
        0.938409,
        0.941794,
        0.968359,
        0.989589,
        1.001586,
        1.003579,
        0.994309,
        0.985955,
        0.986063,
        0.991279,
        0.992027,
        0.980954,
        0.959853,
        0.941892,
        0.938917,
        0.950829,
        0.966269,
        0.975329,
        0.978805,
        0.981645,
        0.97994,
        0.980599,
        0.987779,
        0.997773,
        1.002047,
        0.997892,
        0.9932,
        0.980794,
        0.968475,
        0.964813,
        0.96887,
        0.976624,
        0.984554,
        0.988725,
        0.989193,
        0.989155,
        0.990772,
        0.993506,
        0.995559,
        0.995323,
        0.997994,
        1.008432,
        1.020142,
        1.022974,
        1.023516,
        1.021733,
        1.015811,
        1.009532,
        1.006793,
        1.003649,
        0.993329,
        0.979202,
        0.969278,
        0.97412,
        0.992525,
        1.009278,
        1.018921,
        1.019298,
        1.009751,
        1.002778,
        1.009846,
        1.021531,
        1.021227,
        1.00738,
        1.004307,
        1.005805,
        0.999107,
        1.002377,
        1.021288,
        1.031513,
        1.029147,
        1.021757,
        1.013915,
        1.005155,
        0.994003,
        0.992019,
        0.999296,
        1.010983,
        1.025415,
        1.04132,
        1.057058,
        1.063659,
        1.057592,
        1.051522,
        1.052609,
        1.053634,
        1.052574,
        1.048726,
        1.044534,
        1.041378,
        1.037474,
        1.034562,
        1.041247,
        1.051354,
        1.06376,
        1.07696,
        1.087537,
        1.095315,
        1.100924,
        1.099427,
        1.096561,
        1.093302,
        1.086063,
        1.076143,
        1.067622,
        1.069652,
        1.070032,
        1.079394,
        1.062086,
        1.054175,
        1.023161,
        0.995434,
        0.984094,
        0.994073,
        1.000791,
        1.032699,
        1.050952,
        1.057907,
        1.059793,
        1.05986,
        1.059448,
        1.061087,
        1.06161,
        1.060292,
        1.061715,
        1.069818,
        1.075888,
        1.070647,
        1.068308,
        1.065752,
        1.061996,
        1.060868,
        1.064607,
        1.059545,
        1.056898,
        1.044005,
        1.036242,
        1.038419,
        1.047503,
        1.06367,
        1.081805,
        1.095571,
        1.09813,
        1.08911,
        1.077332,
        1.072763,
        1.07569,
        1.081578,
        1.080301,
        1.07306,
        1.06611,
        1.058791,
        1.051274,
        1.046677,
        1.05138,
        1.058149,
        1.061963,
        1.054,
        1.005,
        0.982434,
        1.014022,
        1.04576,
        1.049942,
        1.055142,
        1.038861,
        1.02259,
        1.014076,
        1.012274,
        1.016681,
        1.026847,
        1.043956,
        1.051559,
        1.049718,
        1.045425,
        1.046203,
        1.049363,
        1.034568,
        1.025313,
        1.022502,
        1.02157,
        1.023155,
        1.020743,
        1.007499,
        1.001695,
        1.004748,
        1.00611,
        1.002668,
        1.001476,
        1.006855,
        1.015197,
        1.012817,
        1.010529,
        1.017971,
        1.021513,
        1.020783,
        1.014459,
        1.01659,
        1.022255,
        1.023813,
        1.029781,
        1.034728,
        1.035857,
        1.033225,
        1.031749,
        1.036283,
        1.042751,
        1.041457,
        1.04143,
        1.056046,
        1.068478,
        1.061808,
        1.048813,
        1.039636,
        1.035186,
        1.035737,
        1.041297,
        1.047303,
        1.046934,
        1.042161,
        1.045108,
        1.052831,
        1.053014,
        1.046074,
        1.043306,
        1.041443,
        1.040468,
        1.051297,
        1.079192,
        1.088154,
        1.050104,
        1.029999,
        1.025573,
        1.024414,
        1.027214,
        1.036704,
        1.050949,
        1.064964,
        1.062411,
        1.078711,
        1.102213,
        1.088829,
        1.059724,
        1.063746,
        0.997723,
        0.970528,
        1.006335,
        1.028448,
        1.033933,
        1.027009,
        1.021432,
        1.035928,
        1.049967,
        1.044412,
        1.041557,
        1.053294,
        1.060394,
        1.062954,
        1.06604,
        1.067552,
        1.065717,
        1.062974,
        1.061068,
        1.064229,
        1.066765,
        1.06443,
        1.063421,
        1.063636,
        1.062758,
        1.058547,
        1.058177,
        1.065729,
        1.073032,
        1.073291,
        1.059608,
        1.040993,
        1.039256,
        1.05026,
        1.048784,
        1.048392,
        1.059712,
        1.067405,
        1.063579,
        1.059658,
        1.065782,
        1.074045,
        1.072903,
        1.07254,
        1.073124,
        1.067453,
        1.059622,
        1.055808,
        1.060907,
        1.062256,
        1.065953,
        1.07591,
        1.07734,
        1.079035,
        1.08638,
        1.088398,
        1.080005,
        1.064557,
        1.056809,
        1.057176,
        1.062868,
        1.067143,
        1.064185,
        1.053314,
        1.039668,
        1.031077,
        1.033304,
        1.046408,
        1.064086,
        1.076577,
        1.076285,
        1.063064,
        1.044782,
        1.032331,
        1.032394,
        1.042704,
        1.053685,
        1.056329,
        1.04917,
        1.03853,
        1.032797,
        1.03528,
        1.041545,
        1.044219,
        1.039963,
        1.032089,
        1.027331,
        1.029678,
        1.036652,
        1.041673,
        1.039732,
        1.030939,
        1.019825,
        1.011609,
        1.008708,
        1.010224,
        1.013822,
        1.017349,
        1.019463,
        1.019567,
        1.017813,
        1.015456,
        1.014384,
        1.015804,
        1.019267,
        1.022927,
        1.025105,
        1.025828,
        1.02607,
        1.025994,
        1.024042,
        1.018062,
        1.008201,
        0.998368,
        0.994047,
        0.998354,
        1.009463,
        1.021507,
        1.028809,
        1.029951,
        1.027826,
        1.026523,
        1.027783,
        1.029555,
        1.027746,
        1.019417,
        1.004561,
        0.986111,
        0.968763,
        0.95746,
        0.956052,
        0.965683,
        0.983577,
        1.003358,
        1.017396,
        1.020401,
        1.012333,
        0.998299,
        0.985343,
        0.978695,
        0.979456,
        0.98463,
        0.989222,
        0.988948,
        0.982304,
        0.971354,
        0.961049,
        0.956947,
        0.961637,
        0.972321,
        0.98206,
        0.984339,
        0.978052,
        0.969274,
        0.967403,
        0.977493,
        0.995797,
        1.012145,
        1.01728,
        1.009947,
        0.997839,
        0.990777,
        0.992882,
        1.000441,
        1.006165,
        1.006073,
        1.002896,
        1.001936,
        1.004931,
        1.008225,
        1.006681,
        0.999913,
        0.994464,
        0.99813,
        1.012107,
        1.028813,
        1.037339,
        1.032541,
        1.019977,
        1.010829,
        1.011762,
        1.019712,
        1.025412,
        1.022632,
        1.014977,
        1.012316,
        1.020704,
        1.036057,
        1.047117,
        1.045561,
        1.034502,
        1.025735,
        1.028189,
        1.03918,
        1.04606,
        1.037598,
        1.01607,
        0.997183,
        0.996913,
        1.018046,
        1.047286,
        1.065586,
        1.064341,
        1.051843,
        1.043341,
        1.04559,
        1.049205,
        1.035658,
        0.995042,
        0.938112,
        0.89012,
        0.872721,
        0.88843,
        0.91933,
        0.942524,
        0.949384,
        0.950491,
        0.964155,
        0.999182,
        1.045194,
        1.079286,
        1.084366,
        1.062197,
        1.031327,
        1.013423,
        1.017958,
        1.036375,
        1.050639,
        1.047767,
        1.028537,
        1.006291,
        0.997594,
        1.010832,
        1.040963,
        1.072939,
        1.090162,
        1.083215,
        1.054698,
        1.017774,
        0.989059,
        0.97999,
        0.991586,
        1.015012,
        1.037338,
        1.049068,
        1.04843,
        1.039887,
        1.029522,
        1.021258,
        1.016247,
        1.014981,
        1.018912,
        1.028953,
        1.042634,
        1.053122,
        1.052112,
        1.035875,
        1.009533,
        0.984915,
        0.973397,
        0.978514,
        0.993179,
        1.004051,
        1.000458,
        0.980512,
        0.951134,
        0.923092,
        0.904683,
        0.898282,
        0.901287,
        0.90917,
        0.917774,
        0.924062,
        0.926001,
        0.922912,
        0.916224,
        0.909408,
        0.906303,
        0.908762,
        0.915275,
        0.92183,
        0.924619,
        0.92241,
        0.916719,
        0.910268,
        0.905084,
        0.901578,
        0.899171,
        0.897543,
        0.896993,
        0.898112,
        0.901242,
        0.906062,
        0.911814,
        0.91762,
        0.922579,
        0.925863,
        0.926955,
        0.925954,
        0.923566,
        0.920568,
        0.917258,
        0.913374,
        0.908612,
        0.903248,
        0.898094,
        0.893755,
        0.889953,
        0.885579,
        0.879666,
        0.872752,
        0.867061,
        0.865438,
        0.869703,
        0.87938,
        0.891596,
        0.902419,
        0.90893,
        0.910518,
        0.908959,
        0.907198,
        0.907472,
        0.909896,
        0.912441,
        0.912627,
        0.909328,
        0.903591,
        0.897934,
        0.894484,
        0.893593,
        0.894071,
        0.894588,
        0.894923,
        0.896096,
        0.899307,
        0.904615,
        0.910702,
        0.915528,
        0.917363,
        0.915621,
        0.911174,
        0.906277,
        0.903895,
        0.906482,
        0.914359,
        0.924614,
        0.931897,
        0.931418,
        0.921962,
        0.906964,
        0.8926,
        0.88394,
        0.881838,
        0.882986,
        0.882758,
        0.878437,
        0.870687,
        0.862671,
        0.857833,
        0.857861,
        0.862308,
        0.869095,
        0.875437,
        0.878949,
        0.878691,
        0.87588,
        0.873376,
        0.874143,
        0.879279,
        0.886834,
        0.892691,
        0.892982,
        0.886472,
        0.875241,
        0.863616,
        0.85619,
        0.856011,
        0.863601,
        0.876901,
        0.891758,
        0.903355,
        0.908547,
        0.908062,
        0.906307,
        0.907977,
        0.913395,
        0.916506,
        0.908175,
        0.884185,
        0.852161,
        0.829252,
        0.830869,
        0.857831,
        0.891128,
        0.901027,
        0.867899,
        0.798037,
        0.722211,
        0.678009,
        0.686542,
        0.738931,
        0.804471,
        0.852408,
        0.869678,
        0.864286,
        0.854324,
        0.852173,
        0.857556,
        0.862811,
        0.861734,
        0.854248,
        0.844519,
        0.836062,
        0.830237,
        0.828842,
        0.835047,
        0.850045,
        0.867796,
        0.874041,
        0.85489,
        0.809411,
        0.754398,
        0.716677,
        0.716601,
        0.753423,
        0.806011,
        0.848161,
        0.865338,
        0.861575,
        0.852997,
        0.853561,
        0.865335,
        0.880387,
        0.88953,
        0.889803,
        0.88559,
        0.883383,
        0.885395,
        0.88836,
        0.886655,
        0.876809,
        0.860327,
        0.842894,
        0.830881,
        0.827843,
        0.83283,
        0.841178,
        0.847389,
        0.848657,
        0.846672,
        0.84613,
        0.863703,
        0.869492,
        0.87711,
        0.883618,
        0.887457,
        0.88913,
        0.890306,
        0.892009,
        0.893445,
        0.892784,
        0.888422,
        0.880415,
        0.870668,
        0.861742,
        0.855884,
        0.854048,
        0.855715,
        0.859628,
        0.864121,
        0.8632,
        0.863027,
        0.864354,
        0.866402,
        0.868392,
        0.86974,
        0.870653,
        0.871531,
        0.872776,
        0.874679,
        0.877085,
        0.87973,
        0.882349,
        0.884574,
        0.885623,
        0.884613,
        0.880658,
        0.873333,
        0.86405,
        0.854679,
        0.847091,
        0.842841,
        0.842226,
        0.845228,
        0.851827,
        0.861655,
        0.872943,
        0.883571,
        0.89142,
        0.894836,
        0.894021,
        0.889643,
        0.882368,
        0.872978,
        0.862714,
        0.852928,
        0.844977,
        0.839892,
        0.837419,
        0.836981,
        0.838004,
        0.839864,
        0.841761,
        0.842847,
        0.842275,
        0.83944,
        0.834715,
        0.828716,
        0.822058,
        0.815394,
        0.809516,
        0.805256,
        0.803441,
        0.804637,
        0.808346,
        0.813806,
        0.820255,
        0.826898,
        0.832817,
        0.837064,
        0.838688,
        0.837046,
        0.832714,
        0.826575,
        0.819511,
        0.812204,
        0.804529,
        0.796161,
        0.786775,
        0.776397,
        0.766456,
        0.758735,
        0.755015,
        0.75642,
        0.761447,
        0.767937,
        0.773731,
        0.777244,
        0.779197,
        0.780883,
        0.7836,
        0.788626,
        0.797179,
        0.810462,
        0.829675,
        0.854517,
        0.878667,
        0.8943,
        0.893593,
        0.871774,
        0.836296,
        0.797666,
        0.766388,
        0.750575,
        0.748758,
        0.757073,
        0.771656,
        0.788746,
        0.805004,
        0.81719,
        0.82207,
        0.817506,
        0.805769,
        0.790228,
        0.774253,
        0.760672,
        0.750136,
        0.742751,
        0.738627,
        0.73763,
        0.738671,
        0.74042,
        0.741547,
        0.74111,
        0.739722,
        0.738381,
        0.738087,
        0.739511,
        0.742004,
        0.744591,
        0.746295,
        0.746474,
        0.745822,
        0.745369,
        0.746145,
        0.748851,
        0.752879,
        0.757296,
        0.761166,
        0.763728,
        0.764913,
        0.764825,
        0.76357,
        0.761338,
        0.758667,
        0.756178,
        0.754496,
        0.754085,
        0.754781,
        0.75626,
        0.758198,
        0.760278,
        0.762207,
        0.763697,
        0.764458,
        0.76428,
        0.763256,
        0.761557,
        0.759351,
        0.756878,
        0.754657,
        0.753273,
        0.753314,
        0.755004,
        0.75712,
        0.758078,
        0.756293,
        0.750832,
        0.743374,
        0.736251,
        0.731795,
        0.731622,
        0.734488,
        0.738434,
        0.741499,
        0.742182,
        0.740804,
        0.738142,
        0.734976,
        0.731981,
        0.729425,
        0.727474,
        0.726292,
        0.72598,
        0.726373,
        0.727239,
        0.728348,
        0.729538,
        0.730929,
        0.732711,
        0.735071,
        0.738094,
        0.741442,
        0.744671,
        0.747338,
        0.749084,
        0.749892,
        0.749826,
        0.748955,
        0.747403,
        0.745532,
        0.743765,
        0.742522,
        0.74211,
        0.742371,
        0.743034,
        0.743825,
        0.74451,
        0.744992,
        0.745212,
        0.745112,
        0.744651,
        0.743861,
        0.742794,
        0.741501,
        0.740086,
        0.73887,
        0.738224,
        0.73852,
        0.739912,
        0.741673,
        0.742857,
        0.742519,
        0.740084,
        0.736464,
        0.732943,
        0.730803,
        0.730893,
        0.732321,
        0.733762,
        0.733888,
        0.731842,
        0.728638,
        0.725757,
        0.724681,
        0.726364,
        0.729651,
        0.73286,
        0.734308,
        0.732842,
        0.729434,
        0.725582,
        0.722786,
        0.722109,
        0.722853,
        0.723881,
        0.724059,
        0.722639,
        0.720441,
        0.718673,
        0.718545,
        0.720791,
        0.724256,
        0.727307,
        0.728315,
        0.726169,
        0.721839,
        0.716817,
        0.712595,
        0.710319,
        0.709764,
        0.71036,
        0.711537,
        0.712752,
        0.713553,
        0.713518,
        0.712221,
        0.709497,
        0.706216,
        0.703509,
        0.702504,
        0.703913,
        0.706767,
        0.709678,
        0.711257,
        0.71055,
        0.708331,
        0.705807,
        0.704186,
        0.704313,
        0.705586,
        0.707043,
        0.707719,
        0.706935,
        0.705152,
        0.703112,
        0.701558,
        0.701051,
        0.70142,
        0.70231,
        0.703365,
        0.699825,
        0.699793,
        0.699329,
        0.698265,
        0.696533,
        0.694465,
        0.692492,
        0.691048,
        0.690433,
        0.690431,
        0.690696,
        0.690882,
        0.6907,
        0.690098,
        0.68908,
        0.687653,
        0.685894,
        0.684176,
        0.682945,
        0.682646,
        0.683527,
        0.685037,
        0.686426,
        0.686945,
        0.686081,
        0.684266,
        0.682173,
        0.680468,
        0.679682,
        0.679773,
        0.680561,
        0.681865,
        0.683476,
        0.685084,
        0.686351,
        0.686943,
        0.686632,
        0.685632,
        0.684268,
        0.682861
      ],
      "range":1
    }
  }
]
