[
  {
    "model":"Star, type K0(v)",
    "name":"Star, type K0(v)",
    "type":"WB_REF",
    "dataQualityMarker":3,
    "dataSource":"https://www.eso.org/sci/facilities/paranal/decommissioned/isaac/tools/lib.html",
    "manufacturer":"A. Pickles (A.J. Pickles, PASP 110,863, 1998)",
    "version":1,
    "wavelength":{
      "value":[
        1150.0,
        1155.0,
        1160.0,
        1165.0,
        1170.0,
        1175.0,
        1180.0,
        1185.0,
        1190.0,
        1195.0,
        1200.0,
        1205.0,
        1210.0,
        1215.0,
        1220.0,
        1225.0,
        1230.0,
        1235.0,
        1240.0,
        1245.0,
        1250.0,
        1255.0,
        1260.0,
        1265.0,
        1270.0,
        1275.0,
        1280.0,
        1285.0,
        1290.0,
        1295.0,
        1300.0,
        1305.0,
        1310.0,
        1315.0,
        1320.0,
        1325.0,
        1330.0,
        1335.0,
        1340.0,
        1345.0,
        1350.0,
        1355.0,
        1360.0,
        1365.0,
        1370.0,
        1375.0,
        1380.0,
        1385.0,
        1390.0,
        1395.0,
        1400.0,
        1405.0,
        1410.0,
        1415.0,
        1420.0,
        1425.0,
        1430.0,
        1435.0,
        1440.0,
        1445.0,
        1450.0,
        1455.0,
        1460.0,
        1465.0,
        1470.0,
        1475.0,
        1480.0,
        1485.0,
        1490.0,
        1495.0,
        1500.0,
        1505.0,
        1510.0,
        1515.0,
        1520.0,
        1525.0,
        1530.0,
        1535.0,
        1540.0,
        1545.0,
        1550.0,
        1555.0,
        1560.0,
        1565.0,
        1570.0,
        1575.0,
        1580.0,
        1585.0,
        1590.0,
        1595.0,
        1600.0,
        1605.0,
        1610.0,
        1615.0,
        1620.0,
        1625.0,
        1630.0,
        1635.0,
        1640.0,
        1645.0,
        1650.0,
        1655.0,
        1660.0,
        1665.0,
        1670.0,
        1675.0,
        1680.0,
        1685.0,
        1690.0,
        1695.0,
        1700.0,
        1705.0,
        1710.0,
        1715.0,
        1720.0,
        1725.0,
        1730.0,
        1735.0,
        1740.0,
        1745.0,
        1750.0,
        1755.0,
        1760.0,
        1765.0,
        1770.0,
        1775.0,
        1780.0,
        1785.0,
        1790.0,
        1795.0,
        1800.0,
        1805.0,
        1810.0,
        1815.0,
        1820.0,
        1825.0,
        1830.0,
        1835.0,
        1840.0,
        1845.0,
        1850.0,
        1855.0,
        1860.0,
        1865.0,
        1870.0,
        1875.0,
        1880.0,
        1885.0,
        1890.0,
        1895.0,
        1900.0,
        1905.0,
        1910.0,
        1915.0,
        1920.0,
        1925.0,
        1930.0,
        1935.0,
        1940.0,
        1945.0,
        1950.0,
        1955.0,
        1960.0,
        1965.0,
        1970.0,
        1975.0,
        1980.0,
        1985.0,
        1990.0,
        1995.0,
        2000.0,
        2005.0,
        2010.0,
        2015.0,
        2020.0,
        2025.0,
        2030.0,
        2035.0,
        2040.0,
        2045.0,
        2050.0,
        2055.0,
        2060.0,
        2065.0,
        2070.0,
        2075.0,
        2080.0,
        2085.0,
        2090.0,
        2095.0,
        2100.0,
        2105.0,
        2110.0,
        2115.0,
        2120.0,
        2125.0,
        2130.0,
        2135.0,
        2140.0,
        2145.0,
        2150.0,
        2155.0,
        2160.0,
        2165.0,
        2170.0,
        2175.0,
        2180.0,
        2185.0,
        2190.0,
        2195.0,
        2200.0,
        2205.0,
        2210.0,
        2215.0,
        2220.0,
        2225.0,
        2230.0,
        2235.0,
        2240.0,
        2245.0,
        2250.0,
        2255.0,
        2260.0,
        2265.0,
        2270.0,
        2275.0,
        2280.0,
        2285.0,
        2290.0,
        2295.0,
        2300.0,
        2305.0,
        2310.0,
        2315.0,
        2320.0,
        2325.0,
        2330.0,
        2335.0,
        2340.0,
        2345.0,
        2350.0,
        2355.0,
        2360.0,
        2365.0,
        2370.0,
        2375.0,
        2380.0,
        2385.0,
        2390.0,
        2395.0,
        2400.0,
        2405.0,
        2410.0,
        2415.0,
        2420.0,
        2425.0,
        2430.0,
        2435.0,
        2440.0,
        2445.0,
        2450.0,
        2455.0,
        2460.0,
        2465.0,
        2470.0,
        2475.0,
        2480.0,
        2485.0,
        2490.0,
        2495.0,
        2500.0,
        2505.0,
        2510.0,
        2515.0,
        2520.0,
        2525.0,
        2530.0,
        2535.0,
        2540.0,
        2545.0,
        2550.0,
        2555.0,
        2560.0,
        2565.0,
        2570.0,
        2575.0,
        2580.0,
        2585.0,
        2590.0,
        2595.0,
        2600.0,
        2605.0,
        2610.0,
        2615.0,
        2620.0,
        2625.0,
        2630.0,
        2635.0,
        2640.0,
        2645.0,
        2650.0,
        2655.0,
        2660.0,
        2665.0,
        2670.0,
        2675.0,
        2680.0,
        2685.0,
        2690.0,
        2695.0,
        2700.0,
        2705.0,
        2710.0,
        2715.0,
        2720.0,
        2725.0,
        2730.0,
        2735.0,
        2740.0,
        2745.0,
        2750.0,
        2755.0,
        2760.0,
        2765.0,
        2770.0,
        2775.0,
        2780.0,
        2785.0,
        2790.0,
        2795.0,
        2800.0,
        2805.0,
        2810.0,
        2815.0,
        2820.0,
        2825.0,
        2830.0,
        2835.0,
        2840.0,
        2845.0,
        2850.0,
        2855.0,
        2860.0,
        2865.0,
        2870.0,
        2875.0,
        2880.0,
        2885.0,
        2890.0,
        2895.0,
        2900.0,
        2905.0,
        2910.0,
        2915.0,
        2920.0,
        2925.0,
        2930.0,
        2935.0,
        2940.0,
        2945.0,
        2950.0,
        2955.0,
        2960.0,
        2965.0,
        2970.0,
        2975.0,
        2980.0,
        2985.0,
        2990.0,
        2995.0,
        3000.0,
        3005.0,
        3010.0,
        3015.0,
        3020.0,
        3025.0,
        3030.0,
        3035.0,
        3040.0,
        3045.0,
        3050.0,
        3055.0,
        3060.0,
        3065.0,
        3070.0,
        3075.0,
        3080.0,
        3085.0,
        3090.0,
        3095.0,
        3100.0,
        3105.0,
        3110.0,
        3115.0,
        3120.0,
        3125.0,
        3130.0,
        3135.0,
        3140.0,
        3145.0,
        3150.0,
        3155.0,
        3160.0,
        3165.0,
        3170.0,
        3175.0,
        3180.0,
        3185.0,
        3190.0,
        3195.0,
        3200.0,
        3205.0,
        3210.0,
        3215.0,
        3220.0,
        3225.0,
        3230.0,
        3235.0,
        3240.0,
        3245.0,
        3250.0,
        3255.0,
        3260.0,
        3265.0,
        3270.0,
        3275.0,
        3280.0,
        3285.0,
        3290.0,
        3295.0,
        3300.0,
        3305.0,
        3310.0,
        3315.0,
        3320.0,
        3325.0,
        3330.0,
        3335.0,
        3340.0,
        3345.0,
        3350.0,
        3355.0,
        3360.0,
        3365.0,
        3370.0,
        3375.0,
        3380.0,
        3385.0,
        3390.0,
        3395.0,
        3400.0,
        3405.0,
        3410.0,
        3415.0,
        3420.0,
        3425.0,
        3430.0,
        3435.0,
        3440.0,
        3445.0,
        3450.0,
        3455.0,
        3460.0,
        3465.0,
        3470.0,
        3475.0,
        3480.0,
        3485.0,
        3490.0,
        3495.0,
        3500.0,
        3505.0,
        3510.0,
        3515.0,
        3520.0,
        3525.0,
        3530.0,
        3535.0,
        3540.0,
        3545.0,
        3550.0,
        3555.0,
        3560.0,
        3565.0,
        3570.0,
        3575.0,
        3580.0,
        3585.0,
        3590.0,
        3595.0,
        3600.0,
        3605.0,
        3610.0,
        3615.0,
        3620.0,
        3625.0,
        3630.0,
        3635.0,
        3640.0,
        3645.0,
        3650.0,
        3655.0,
        3660.0,
        3665.0,
        3670.0,
        3675.0,
        3680.0,
        3685.0,
        3690.0,
        3695.0,
        3700.0,
        3705.0,
        3710.0,
        3715.0,
        3720.0,
        3725.0,
        3730.0,
        3735.0,
        3740.0,
        3745.0,
        3750.0,
        3755.0,
        3760.0,
        3765.0,
        3770.0,
        3775.0,
        3780.0,
        3785.0,
        3790.0,
        3795.0,
        3800.0,
        3805.0,
        3810.0,
        3815.0,
        3820.0,
        3825.0,
        3830.0,
        3835.0,
        3840.0,
        3845.0,
        3850.0,
        3855.0,
        3860.0,
        3865.0,
        3870.0,
        3875.0,
        3880.0,
        3885.0,
        3890.0,
        3895.0,
        3900.0,
        3905.0,
        3910.0,
        3915.0,
        3920.0,
        3925.0,
        3930.0,
        3935.0,
        3940.0,
        3945.0,
        3950.0,
        3955.0,
        3960.0,
        3965.0,
        3970.0,
        3975.0,
        3980.0,
        3985.0,
        3990.0,
        3995.0,
        4000.0,
        4005.0,
        4010.0,
        4015.0,
        4020.0,
        4025.0,
        4030.0,
        4035.0,
        4040.0,
        4045.0,
        4050.0,
        4055.0,
        4060.0,
        4065.0,
        4070.0,
        4075.0,
        4080.0,
        4085.0,
        4090.0,
        4095.0,
        4100.0,
        4105.0,
        4110.0,
        4115.0,
        4120.0,
        4125.0,
        4130.0,
        4135.0,
        4140.0,
        4145.0,
        4150.0,
        4155.0,
        4160.0,
        4165.0,
        4170.0,
        4175.0,
        4180.0,
        4185.0,
        4190.0,
        4195.0,
        4200.0,
        4205.0,
        4210.0,
        4215.0,
        4220.0,
        4225.0,
        4230.0,
        4235.0,
        4240.0,
        4245.0,
        4250.0,
        4255.0,
        4260.0,
        4265.0,
        4270.0,
        4275.0,
        4280.0,
        4285.0,
        4290.0,
        4295.0,
        4300.0,
        4305.0,
        4310.0,
        4315.0,
        4320.0,
        4325.0,
        4330.0,
        4335.0,
        4340.0,
        4345.0,
        4350.0,
        4355.0,
        4360.0,
        4365.0,
        4370.0,
        4375.0,
        4380.0,
        4385.0,
        4390.0,
        4395.0,
        4400.0,
        4405.0,
        4410.0,
        4415.0,
        4420.0,
        4425.0,
        4430.0,
        4435.0,
        4440.0,
        4445.0,
        4450.0,
        4455.0,
        4460.0,
        4465.0,
        4470.0,
        4475.0,
        4480.0,
        4485.0,
        4490.0,
        4495.0,
        4500.0,
        4505.0,
        4510.0,
        4515.0,
        4520.0,
        4525.0,
        4530.0,
        4535.0,
        4540.0,
        4545.0,
        4550.0,
        4555.0,
        4560.0,
        4565.0,
        4570.0,
        4575.0,
        4580.0,
        4585.0,
        4590.0,
        4595.0,
        4600.0,
        4605.0,
        4610.0,
        4615.0,
        4620.0,
        4625.0,
        4630.0,
        4635.0,
        4640.0,
        4645.0,
        4650.0,
        4655.0,
        4660.0,
        4665.0,
        4670.0,
        4675.0,
        4680.0,
        4685.0,
        4690.0,
        4695.0,
        4700.0,
        4705.0,
        4710.0,
        4715.0,
        4720.0,
        4725.0,
        4730.0,
        4735.0,
        4740.0,
        4745.0,
        4750.0,
        4755.0,
        4760.0,
        4765.0,
        4770.0,
        4775.0,
        4780.0,
        4785.0,
        4790.0,
        4795.0,
        4800.0,
        4805.0,
        4810.0,
        4815.0,
        4820.0,
        4825.0,
        4830.0,
        4835.0,
        4840.0,
        4845.0,
        4850.0,
        4855.0,
        4860.0,
        4865.0,
        4870.0,
        4875.0,
        4880.0,
        4885.0,
        4890.0,
        4895.0,
        4900.0,
        4905.0,
        4910.0,
        4915.0,
        4920.0,
        4925.0,
        4930.0,
        4935.0,
        4940.0,
        4945.0,
        4950.0,
        4955.0,
        4960.0,
        4965.0,
        4970.0,
        4975.0,
        4980.0,
        4985.0,
        4990.0,
        4995.0,
        5000.0,
        5005.0,
        5010.0,
        5015.0,
        5020.0,
        5025.0,
        5030.0,
        5035.0,
        5040.0,
        5045.0,
        5050.0,
        5055.0,
        5060.0,
        5065.0,
        5070.0,
        5075.0,
        5080.0,
        5085.0,
        5090.0,
        5095.0,
        5100.0,
        5105.0,
        5110.0,
        5115.0,
        5120.0,
        5125.0,
        5130.0,
        5135.0,
        5140.0,
        5145.0,
        5150.0,
        5155.0,
        5160.0,
        5165.0,
        5170.0,
        5175.0,
        5180.0,
        5185.0,
        5190.0,
        5195.0,
        5200.0,
        5205.0,
        5210.0,
        5215.0,
        5220.0,
        5225.0,
        5230.0,
        5235.0,
        5240.0,
        5245.0,
        5250.0,
        5255.0,
        5260.0,
        5265.0,
        5270.0,
        5275.0,
        5280.0,
        5285.0,
        5290.0,
        5295.0,
        5300.0,
        5305.0,
        5310.0,
        5315.0,
        5320.0,
        5325.0,
        5330.0,
        5335.0,
        5340.0,
        5345.0,
        5350.0,
        5355.0,
        5360.0,
        5365.0,
        5370.0,
        5375.0,
        5380.0,
        5385.0,
        5390.0,
        5395.0,
        5400.0,
        5405.0,
        5410.0,
        5415.0,
        5420.0,
        5425.0,
        5430.0,
        5435.0,
        5440.0,
        5445.0,
        5450.0,
        5455.0,
        5460.0,
        5465.0,
        5470.0,
        5475.0,
        5480.0,
        5485.0,
        5490.0,
        5495.0,
        5500.0,
        5505.0,
        5510.0,
        5515.0,
        5520.0,
        5525.0,
        5530.0,
        5535.0,
        5540.0,
        5545.0,
        5550.0,
        5555.0,
        5560.0,
        5565.0,
        5570.0,
        5575.0,
        5580.0,
        5585.0,
        5590.0,
        5595.0,
        5600.0,
        5605.0,
        5610.0,
        5615.0,
        5620.0,
        5625.0,
        5630.0,
        5635.0,
        5640.0,
        5645.0,
        5650.0,
        5655.0,
        5660.0,
        5665.0,
        5670.0,
        5675.0,
        5680.0,
        5685.0,
        5690.0,
        5695.0,
        5700.0,
        5705.0,
        5710.0,
        5715.0,
        5720.0,
        5725.0,
        5730.0,
        5735.0,
        5740.0,
        5745.0,
        5750.0,
        5755.0,
        5760.0,
        5765.0,
        5770.0,
        5775.0,
        5780.0,
        5785.0,
        5790.0,
        5795.0,
        5800.0,
        5805.0,
        5810.0,
        5815.0,
        5820.0,
        5825.0,
        5830.0,
        5835.0,
        5840.0,
        5845.0,
        5850.0,
        5855.0,
        5860.0,
        5865.0,
        5870.0,
        5875.0,
        5880.0,
        5885.0,
        5890.0,
        5895.0,
        5900.0,
        5905.0,
        5910.0,
        5915.0,
        5920.0,
        5925.0,
        5930.0,
        5935.0,
        5940.0,
        5945.0,
        5950.0,
        5955.0,
        5960.0,
        5965.0,
        5970.0,
        5975.0,
        5980.0,
        5985.0,
        5990.0,
        5995.0,
        6000.0,
        6005.0,
        6010.0,
        6015.0,
        6020.0,
        6025.0,
        6030.0,
        6035.0,
        6040.0,
        6045.0,
        6050.0,
        6055.0,
        6060.0,
        6065.0,
        6070.0,
        6075.0,
        6080.0,
        6085.0,
        6090.0,
        6095.0,
        6100.0,
        6105.0,
        6110.0,
        6115.0,
        6120.0,
        6125.0,
        6130.0,
        6135.0,
        6140.0,
        6145.0,
        6150.0,
        6155.0,
        6160.0,
        6165.0,
        6170.0,
        6175.0,
        6180.0,
        6185.0,
        6190.0,
        6195.0,
        6200.0,
        6205.0,
        6210.0,
        6215.0,
        6220.0,
        6225.0,
        6230.0,
        6235.0,
        6240.0,
        6245.0,
        6250.0,
        6255.0,
        6260.0,
        6265.0,
        6270.0,
        6275.0,
        6280.0,
        6285.0,
        6290.0,
        6295.0,
        6300.0,
        6305.0,
        6310.0,
        6315.0,
        6320.0,
        6325.0,
        6330.0,
        6335.0,
        6340.0,
        6345.0,
        6350.0,
        6355.0,
        6360.0,
        6365.0,
        6370.0,
        6375.0,
        6380.0,
        6385.0,
        6390.0,
        6395.0,
        6400.0,
        6405.0,
        6410.0,
        6415.0,
        6420.0,
        6425.0,
        6430.0,
        6435.0,
        6440.0,
        6445.0,
        6450.0,
        6455.0,
        6460.0,
        6465.0,
        6470.0,
        6475.0,
        6480.0,
        6485.0,
        6490.0,
        6495.0,
        6500.0,
        6505.0,
        6510.0,
        6515.0,
        6520.0,
        6525.0,
        6530.0,
        6535.0,
        6540.0,
        6545.0,
        6550.0,
        6555.0,
        6560.0,
        6565.0,
        6570.0,
        6575.0,
        6580.0,
        6585.0,
        6590.0,
        6595.0,
        6600.0,
        6605.0,
        6610.0,
        6615.0,
        6620.0,
        6625.0,
        6630.0,
        6635.0,
        6640.0,
        6645.0,
        6650.0,
        6655.0,
        6660.0,
        6665.0,
        6670.0,
        6675.0,
        6680.0,
        6685.0,
        6690.0,
        6695.0,
        6700.0,
        6705.0,
        6710.0,
        6715.0,
        6720.0,
        6725.0,
        6730.0,
        6735.0,
        6740.0,
        6745.0,
        6750.0,
        6755.0,
        6760.0,
        6765.0,
        6770.0,
        6775.0,
        6780.0,
        6785.0,
        6790.0,
        6795.0,
        6800.0,
        6805.0,
        6810.0,
        6815.0,
        6820.0,
        6825.0,
        6830.0,
        6835.0,
        6840.0,
        6845.0,
        6850.0,
        6855.0,
        6860.0,
        6865.0,
        6870.0,
        6875.0,
        6880.0,
        6885.0,
        6890.0,
        6895.0,
        6900.0,
        6905.0,
        6910.0,
        6915.0,
        6920.0,
        6925.0,
        6930.0,
        6935.0,
        6940.0,
        6945.0,
        6950.0,
        6955.0,
        6960.0,
        6965.0,
        6970.0,
        6975.0,
        6980.0,
        6985.0,
        6990.0,
        6995.0,
        7000.0,
        7005.0,
        7010.0,
        7015.0,
        7020.0,
        7025.0,
        7030.0,
        7035.0,
        7040.0,
        7045.0,
        7050.0,
        7055.0,
        7060.0,
        7065.0,
        7070.0,
        7075.0,
        7080.0,
        7085.0,
        7090.0,
        7095.0,
        7100.0,
        7105.0,
        7110.0,
        7115.0,
        7120.0,
        7125.0,
        7130.0,
        7135.0,
        7140.0,
        7145.0,
        7150.0,
        7155.0,
        7160.0,
        7165.0,
        7170.0,
        7175.0,
        7180.0,
        7185.0,
        7190.0,
        7195.0,
        7200.0,
        7205.0,
        7210.0,
        7215.0,
        7220.0,
        7225.0,
        7230.0,
        7235.0,
        7240.0,
        7245.0,
        7250.0,
        7255.0,
        7260.0,
        7265.0,
        7270.0,
        7275.0,
        7280.0,
        7285.0,
        7290.0,
        7295.0,
        7300.0,
        7305.0,
        7310.0,
        7315.0,
        7320.0,
        7325.0,
        7330.0,
        7335.0,
        7340.0,
        7345.0,
        7350.0,
        7355.0,
        7360.0,
        7365.0,
        7370.0,
        7375.0,
        7380.0,
        7385.0,
        7390.0,
        7395.0,
        7400.0,
        7405.0,
        7410.0,
        7415.0,
        7420.0,
        7425.0,
        7430.0,
        7435.0,
        7440.0,
        7445.0,
        7450.0,
        7455.0,
        7460.0,
        7465.0,
        7470.0,
        7475.0,
        7480.0,
        7485.0,
        7490.0,
        7495.0,
        7500.0,
        7505.0,
        7510.0,
        7515.0,
        7520.0,
        7525.0,
        7530.0,
        7535.0,
        7540.0,
        7545.0,
        7550.0,
        7555.0,
        7560.0,
        7565.0,
        7570.0,
        7575.0,
        7580.0,
        7585.0,
        7590.0,
        7595.0,
        7600.0,
        7605.0,
        7610.0,
        7615.0,
        7620.0,
        7625.0,
        7630.0,
        7635.0,
        7640.0,
        7645.0,
        7650.0,
        7655.0,
        7660.0,
        7665.0,
        7670.0,
        7675.0,
        7680.0,
        7685.0,
        7690.0,
        7695.0,
        7700.0,
        7705.0,
        7710.0,
        7715.0,
        7720.0,
        7725.0,
        7730.0,
        7735.0,
        7740.0,
        7745.0,
        7750.0,
        7755.0,
        7760.0,
        7765.0,
        7770.0,
        7775.0,
        7780.0,
        7785.0,
        7790.0,
        7795.0,
        7800.0,
        7805.0,
        7810.0,
        7815.0,
        7820.0,
        7825.0,
        7830.0,
        7835.0,
        7840.0,
        7845.0,
        7850.0,
        7855.0,
        7860.0,
        7865.0,
        7870.0,
        7875.0,
        7880.0,
        7885.0,
        7890.0,
        7895.0,
        7900.0,
        7905.0,
        7910.0,
        7915.0,
        7920.0,
        7925.0,
        7930.0,
        7935.0,
        7940.0,
        7945.0,
        7950.0,
        7955.0,
        7960.0,
        7965.0,
        7970.0,
        7975.0,
        7980.0,
        7985.0,
        7990.0,
        7995.0,
        8000.0,
        8005.0,
        8010.0,
        8015.0,
        8020.0,
        8025.0,
        8030.0,
        8035.0,
        8040.0,
        8045.0,
        8050.0,
        8055.0,
        8060.0,
        8065.0,
        8070.0,
        8075.0,
        8080.0,
        8085.0,
        8090.0,
        8095.0,
        8100.0,
        8105.0,
        8110.0,
        8115.0,
        8120.0,
        8125.0,
        8130.0,
        8135.0,
        8140.0,
        8145.0,
        8150.0,
        8155.0,
        8160.0,
        8165.0,
        8170.0,
        8175.0,
        8180.0,
        8185.0,
        8190.0,
        8195.0,
        8200.0,
        8205.0,
        8210.0,
        8215.0,
        8220.0,
        8225.0,
        8230.0,
        8235.0,
        8240.0,
        8245.0,
        8250.0,
        8255.0,
        8260.0,
        8265.0,
        8270.0,
        8275.0,
        8280.0,
        8285.0,
        8290.0,
        8295.0,
        8300.0,
        8305.0,
        8310.0,
        8315.0,
        8320.0,
        8325.0,
        8330.0,
        8335.0,
        8340.0,
        8345.0,
        8350.0,
        8355.0,
        8360.0,
        8365.0,
        8370.0,
        8375.0,
        8380.0,
        8385.0,
        8390.0,
        8395.0,
        8400.0,
        8405.0,
        8410.0,
        8415.0,
        8420.0,
        8425.0,
        8430.0,
        8435.0,
        8440.0,
        8445.0,
        8450.0,
        8455.0,
        8460.0,
        8465.0,
        8470.0,
        8475.0,
        8480.0,
        8485.0,
        8490.0,
        8495.0,
        8500.0,
        8505.0,
        8510.0,
        8515.0,
        8520.0,
        8525.0,
        8530.0,
        8535.0,
        8540.0,
        8545.0,
        8550.0,
        8555.0,
        8560.0,
        8565.0,
        8570.0,
        8575.0,
        8580.0,
        8585.0,
        8590.0,
        8595.0,
        8600.0,
        8605.0,
        8610.0,
        8615.0,
        8620.0,
        8625.0,
        8630.0,
        8635.0,
        8640.0,
        8645.0,
        8650.0,
        8655.0,
        8660.0,
        8665.0,
        8670.0,
        8675.0,
        8680.0,
        8685.0,
        8690.0,
        8695.0,
        8700.0,
        8705.0,
        8710.0,
        8715.0,
        8720.0,
        8725.0,
        8730.0,
        8735.0,
        8740.0,
        8745.0,
        8750.0,
        8755.0,
        8760.0,
        8765.0,
        8770.0,
        8775.0,
        8780.0,
        8785.0,
        8790.0,
        8795.0,
        8800.0,
        8805.0,
        8810.0,
        8815.0,
        8820.0,
        8825.0,
        8830.0,
        8835.0,
        8840.0,
        8845.0,
        8850.0,
        8855.0,
        8860.0,
        8865.0,
        8870.0,
        8875.0,
        8880.0,
        8885.0,
        8890.0,
        8895.0,
        8900.0,
        8905.0,
        8910.0,
        8915.0,
        8920.0,
        8925.0,
        8930.0,
        8935.0,
        8940.0,
        8945.0,
        8950.0,
        8955.0,
        8960.0,
        8965.0,
        8970.0,
        8975.0,
        8980.0,
        8985.0,
        8990.0,
        8995.0,
        9000.0,
        9005.0,
        9010.0,
        9015.0,
        9020.0,
        9025.0,
        9030.0,
        9035.0,
        9040.0,
        9045.0,
        9050.0,
        9055.0,
        9060.0,
        9065.0,
        9070.0,
        9075.0,
        9080.0,
        9085.0,
        9090.0,
        9095.0,
        9100.0,
        9105.0,
        9110.0,
        9115.0,
        9120.0,
        9125.0,
        9130.0,
        9135.0,
        9140.0,
        9145.0,
        9150.0,
        9155.0,
        9160.0,
        9165.0,
        9170.0,
        9175.0,
        9180.0,
        9185.0,
        9190.0,
        9195.0,
        9200.0,
        9205.0,
        9210.0,
        9215.0,
        9220.0,
        9225.0,
        9230.0,
        9235.0,
        9240.0,
        9245.0,
        9250.0,
        9255.0,
        9260.0,
        9265.0,
        9270.0,
        9275.0,
        9280.0,
        9285.0,
        9290.0,
        9295.0,
        9300.0,
        9305.0,
        9310.0,
        9315.0,
        9320.0,
        9325.0,
        9330.0,
        9335.0,
        9340.0,
        9345.0,
        9350.0,
        9355.0,
        9360.0,
        9365.0,
        9370.0,
        9375.0,
        9380.0,
        9385.0,
        9390.0,
        9395.0,
        9400.0,
        9405.0,
        9410.0,
        9415.0,
        9420.0,
        9425.0,
        9430.0,
        9435.0,
        9440.0,
        9445.0,
        9450.0,
        9455.0,
        9460.0,
        9465.0,
        9470.0,
        9475.0,
        9480.0,
        9485.0,
        9490.0,
        9495.0,
        9500.0,
        9505.0,
        9510.0,
        9515.0,
        9520.0,
        9525.0,
        9530.0,
        9535.0,
        9540.0,
        9545.0,
        9550.0,
        9555.0,
        9560.0,
        9565.0,
        9570.0,
        9575.0,
        9580.0,
        9585.0,
        9590.0,
        9595.0,
        9600.0,
        9605.0,
        9610.0,
        9615.0,
        9620.0,
        9625.0,
        9630.0,
        9635.0,
        9640.0,
        9645.0,
        9650.0,
        9655.0,
        9660.0,
        9665.0,
        9670.0,
        9675.0,
        9680.0,
        9685.0,
        9690.0,
        9695.0,
        9700.0,
        9705.0,
        9710.0,
        9715.0,
        9720.0,
        9725.0,
        9730.0,
        9735.0,
        9740.0,
        9745.0,
        9750.0,
        9755.0,
        9760.0,
        9765.0,
        9770.0,
        9775.0,
        9780.0,
        9785.0,
        9790.0,
        9795.0,
        9800.0,
        9805.0,
        9810.0,
        9815.0,
        9820.0,
        9825.0,
        9830.0,
        9835.0,
        9840.0,
        9845.0,
        9850.0,
        9855.0,
        9860.0,
        9865.0,
        9870.0,
        9875.0,
        9880.0,
        9885.0,
        9890.0,
        9895.0,
        9900.0,
        9905.0,
        9910.0,
        9915.0,
        9920.0,
        9925.0,
        9930.0,
        9935.0,
        9940.0,
        9945.0,
        9950.0,
        9955.0,
        9960.0,
        9965.0,
        9970.0,
        9975.0,
        9980.0,
        9985.0,
        9990.0,
        9995.0,
        10000.0,
        10005.0,
        10010.0,
        10015.0,
        10020.0,
        10025.0,
        10030.0,
        10035.0,
        10040.0,
        10045.0,
        10050.0,
        10055.0,
        10060.0,
        10065.0,
        10070.0,
        10075.0,
        10080.0,
        10085.0,
        10090.0,
        10095.0,
        10100.0,
        10105.0,
        10110.0,
        10115.0,
        10120.0,
        10125.0,
        10130.0,
        10135.0,
        10140.0,
        10145.0,
        10150.0,
        10155.0,
        10160.0,
        10165.0,
        10170.0,
        10175.0,
        10180.0,
        10185.0,
        10190.0,
        10195.0,
        10200.0,
        10205.0,
        10210.0,
        10215.0,
        10220.0,
        10225.0,
        10230.0,
        10235.0,
        10240.0,
        10245.0,
        10250.0,
        10255.0,
        10260.0,
        10265.0,
        10270.0,
        10275.0,
        10280.0,
        10285.0,
        10290.0,
        10295.0,
        10300.0,
        10305.0,
        10310.0,
        10315.0,
        10320.0,
        10325.0,
        10330.0,
        10335.0,
        10340.0,
        10345.0,
        10350.0,
        10355.0,
        10360.0,
        10365.0,
        10370.0,
        10375.0,
        10380.0,
        10385.0,
        10390.0,
        10395.0,
        10400.0,
        10405.0,
        10410.0,
        10415.0,
        10420.0,
        10425.0,
        10430.0,
        10435.0,
        10440.0,
        10445.0,
        10450.0,
        10455.0,
        10460.0,
        10465.0,
        10470.0,
        10475.0,
        10480.0,
        10485.0,
        10490.0,
        10495.0,
        10500.0
      ],
      "units":"angstrom"
    },
    "values":{
      "value":[
        0.0,
        0.0,
        0.0,
        0.0,
        0.0,
        0.0,
        0.0,
        0.0,
        0.0,
        0.0,
        0.0,
        0.0,
        0.0,
        0.0,
        0.0,
        0.0,
        0.0,
        0.0,
        0.0,
        0.0,
        0.0,
        0.0,
        0.0,
        0.0,
        0.0,
        0.0,
        0.0,
        0.0,
        0.0,
        0.0,
        0.0,
        0.0,
        0.0,
        0.0,
        0.0,
        0.0,
        0.0,
        0.0,
        0.0,
        0.0,
        0.0,
        0.0,
        0.0,
        0.0,
        0.0,
        0.0,
        0.0,
        0.0,
        0.0,
        0.0,
        0.0,
        0.0,
        0.0,
        0.0,
        0.0,
        0.0,
        0.0,
        0.0,
        0.0,
        0.0,
        0.0,
        0.0,
        0.0,
        0.0,
        0.0,
        0.0,
        0.0,
        0.0,
        0.0,
        0.0,
        0.0,
        0.0,
        0.0,
        0.0,
        0.0,
        0.0,
        0.0,
        0.0,
        0.0,
        0.0,
        0.0,
        0.0,
        0.0,
        0.0,
        0.0,
        0.0,
        0.0,
        0.0,
        0.0,
        0.0,
        0.0,
        0.0,
        0.0,
        0.0,
        0.0,
        0.0,
        0.0,
        0.0,
        0.0,
        0.0,
        0.0,
        0.0,
        0.0,
        0.0,
        0.0,
        0.0,
        0.0,
        0.0,
        0.0,
        0.0,
        0.0,
        0.0,
        0.0,
        0.0,
        0.0,
        0.0,
        0.0,
        0.0,
        0.0,
        0.0,
        0.0,
        0.0,
        0.0,
        0.0,
        0.0,
        0.0,
        0.0,
        0.0,
        0.0,
        0.0,
        0.0,
        0.0,
        0.0,
        0.0,
        0.0,
        0.0,
        0.0,
        0.0,
        0.0,
        0.0,
        0.0,
        0.0,
        0.0,
        0.0,
        0.0,
        1e-06,
        1e-06,
        1e-06,
        0.0,
        0.0,
        0.0,
        0.0,
        0.0,
        0.0,
        0.0,
        0.0,
        0.0,
        0.0,
        0.0,
        0.0,
        0.0,
        1e-06,
        3e-06,
        5e-06,
        6e-06,
        7e-06,
        8e-06,
        8e-06,
        6e-06,
        4e-06,
        0.0,
        0.0,
        0.0,
        0.0,
        0.0,
        0.0,
        0.0,
        0.0,
        0.0,
        0.0,
        0.0,
        2e-05,
        4.3e-05,
        6.6e-05,
        8.7e-05,
        0.000102,
        0.000109,
        0.000106,
        8.8e-05,
        5.4e-05,
        0.0,
        0.0,
        0.0,
        0.0,
        0.0,
        0.0,
        0.0,
        0.0,
        0.0,
        0.0,
        0.0,
        0.000279,
        0.000627,
        0.001027,
        0.001465,
        0.001926,
        0.002394,
        0.002854,
        0.00329,
        0.003689,
        0.004034,
        0.004314,
        0.004533,
        0.004699,
        0.00482,
        0.004904,
        0.004958,
        0.004992,
        0.005011,
        0.005026,
        0.005042,
        0.005068,
        0.005105,
        0.005157,
        0.005224,
        0.005308,
        0.005411,
        0.005535,
        0.005682,
        0.005853,
        0.00605,
        0.006274,
        0.006516,
        0.006769,
        0.007023,
        0.007269,
        0.007498,
        0.007701,
        0.00787,
        0.007995,
        0.008067,
        0.008082,
        0.008052,
        0.007992,
        0.007917,
        0.007845,
        0.007791,
        0.00777,
        0.007798,
        0.007892,
        0.008067,
        0.008333,
        0.008671,
        0.009058,
        0.009469,
        0.009881,
        0.010268,
        0.010607,
        0.010874,
        0.011044,
        0.011092,
        0.011006,
        0.010806,
        0.010527,
        0.0102,
        0.009859,
        0.009536,
        0.009263,
        0.009074,
        0.009001,
        0.009076,
        0.009322,
        0.009721,
        0.010247,
        0.010871,
        0.011565,
        0.012302,
        0.013054,
        0.013794,
        0.014494,
        0.015126,
        0.015676,
        0.016185,
        0.016705,
        0.017292,
        0.017999,
        0.018879,
        0.019986,
        0.021374,
        0.023098,
        0.02521,
        0.027741,
        0.030623,
        0.033767,
        0.037081,
        0.040474,
        0.043857,
        0.047138,
        0.050226,
        0.053031,
        0.055462,
        0.057447,
        0.058986,
        0.060097,
        0.0608,
        0.061113,
        0.061055,
        0.060643,
        0.059898,
        0.058837,
        0.057479,
        0.055852,
        0.054017,
        0.052045,
        0.050007,
        0.047973,
        0.046013,
        0.044199,
        0.042602,
        0.04129,
        0.040336,
        0.039785,
        0.039585,
        0.039658,
        0.039927,
        0.040316,
        0.040746,
        0.041142,
        0.041425,
        0.041518,
        0.041345,
        0.04087,
        0.040229,
        0.039599,
        0.039157,
        0.039083,
        0.039552,
        0.040743,
        0.042833,
        0.045999,
        0.05042,
        0.056196,
        0.063122,
        0.070915,
        0.079293,
        0.087975,
        0.096677,
        0.105118,
        0.113015,
        0.120087,
        0.12605,
        0.130688,
        0.13404,
        0.13621,
        0.137303,
        0.137422,
        0.136671,
        0.135155,
        0.132979,
        0.130245,
        0.127059,
        0.123532,
        0.119806,
        0.116031,
        0.112358,
        0.108936,
        0.105915,
        0.103445,
        0.101676,
        0.100758,
        0.10084,
        0.102023,
        0.104204,
        0.107229,
        0.110944,
        0.115198,
        0.119835,
        0.124703,
        0.129649,
        0.134519,
        0.13916,
        0.14345,
        0.147398,
        0.151044,
        0.154426,
        0.157585,
        0.160561,
        0.163394,
        0.166123,
        0.168788,
        0.171429,
        0.174077,
        0.176729,
        0.179372,
        0.181996,
        0.184587,
        0.187134,
        0.189625,
        0.192047,
        0.194389,
        0.196639,
        0.198787,
        0.214177,
        0.218408,
        0.222688,
        0.226811,
        0.229366,
        0.229343,
        0.228548,
        0.229166,
        0.24938,
        0.256862,
        0.256041,
        0.239134,
        0.223455,
        0.225395,
        0.232547,
        0.231006,
        0.229666,
        0.239612,
        0.257871,
        0.278553,
        0.298151,
        0.31336,
        0.319294,
        0.313983,
        0.308693,
        0.314632,
        0.329534,
        0.346424,
        0.352963,
        0.341051,
        0.324902,
        0.319462,
        0.320279,
        0.320077,
        0.319676,
        0.321511,
        0.3264,
        0.33362,
        0.337916,
        0.33377,
        0.319149,
        0.29621,
        0.280382,
        0.284697,
        0.299314,
        0.311936,
        0.323314,
        0.335732,
        0.344573,
        0.345431,
        0.341655,
        0.338432,
        0.340543,
        0.349025,
        0.350357,
        0.333549,
        0.3123,
        0.302947,
        0.307658,
        0.322765,
        0.335416,
        0.335138,
        0.33017,
        0.330087,
        0.331088,
        0.328878,
        0.330548,
        0.343189,
        0.362491,
        0.380466,
        0.38581,
        0.372012,
        0.355038,
        0.352185,
        0.36361,
        0.383952,
        0.402923,
        0.410839,
        0.405367,
        0.387641,
        0.36533,
        0.345204,
        0.323906,
        0.298997,
        0.281837,
        0.28444,
        0.307639,
        0.34519,
        0.373729,
        0.340963,
        0.328044,
        0.323407,
        0.331141,
        0.347344,
        0.36577,
        0.380373,
        0.390739,
        0.401587,
        0.4186,
        0.444294,
        0.473107,
        0.49471,
        0.500239,
        0.487706,
        0.468996,
        0.459103,
        0.461332,
        0.472018,
        0.48581,
        0.494443,
        0.488787,
        0.46498,
        0.427663,
        0.386701,
        0.353851,
        0.336557,
        0.335819,
        0.347908,
        0.363079,
        0.37649,
        0.395778,
        0.427337,
        0.467006,
        0.503299,
        0.518671,
        0.504896,
        0.477718,
        0.456806,
        0.447993,
        0.445319,
        0.43156,
        0.393703,
        0.339755,
        0.288177,
        0.25748,
        0.257994,
        0.280517,
        0.307921,
        0.328486,
        0.337343,
        0.338754,
        0.340856,
        0.347372,
        0.357853,
        0.372423,
        0.389868,
        0.405588,
        0.419273,
        0.435937,
        0.457779,
        0.479587,
        0.488239,
        0.465175,
        0.405526,
        0.338439,
        0.301975,
        0.315828,
        0.375224,
        0.440102,
        0.467608,
        0.449623,
        0.406619,
        0.384929,
        0.421918,
        0.503767,
        0.594736,
        0.667234,
        0.707828,
        0.726834,
        0.742517,
        0.759801,
        0.774173,
        0.781736,
        0.779301,
        0.763945,
        0.740661,
        0.725637,
        0.728818,
        0.739517,
        0.741757,
        0.730347,
        0.711367,
        0.701221,
        0.714372,
        0.748455,
        0.787917,
        0.811007,
        0.8049,
        0.781792,
        0.764205,
        0.765532,
        0.785369,
        0.807143,
        0.812068,
        0.798913,
        0.778048,
        0.758336,
        0.746483,
        0.748049,
        0.761243,
        0.773977,
        0.777492,
        0.774149,
        0.768522,
        0.76381,
        0.760378,
        0.755072,
        0.749297,
        0.751264,
        0.765629,
        0.784675,
        0.794756,
        0.788071,
        0.766559,
        0.744162,
        0.736996,
        0.745904,
        0.761691,
        0.776968,
        0.784378,
        0.778587,
        0.762731,
        0.746085,
        0.736467,
        0.736682,
        0.739918,
        0.726252,
        0.685333,
        0.640443,
        0.62245,
        0.642158,
        0.694573,
        0.75568,
        0.798958,
        0.822809,
        0.836077,
        0.838055,
        0.83131,
        0.832008,
        0.847598,
        0.863909,
        0.865278,
        0.847477,
        0.817212,
        0.790934,
        0.780549,
        0.783275,
        0.79106,
        0.800994,
        0.815085,
        0.836155,
        0.864747,
        0.893682,
        0.913863,
        0.925738,
        0.9332,
        0.935448,
        0.931436,
        0.922705,
        0.912063,
        0.908785,
        0.921851,
        0.946376,
        0.972612,
        0.993345,
        1.00332,
        1.007429,
        1.015,
        1.02781,
        1.043065,
        1.053198,
        1.048765,
        1.029412,
        1.002107,
        0.978361,
        0.969058,
        0.97411,
        0.987121,
        1.003123,
        1.017894,
        1.027822,
        1.031572,
        1.029041,
        1.020901,
        1.010773,
        1.002345,
        0.996942,
        0.995527,
        0.999751,
        1.010722,
        1.025974,
        1.041091,
        1.052191,
        1.054936,
        1.045751,
        1.026594,
        1.00814,
        1.000117,
        1.000678,
        1.002237,
        1.000727,
        0.996482,
        0.991954,
        0.991101,
        0.996688,
        1.005096,
        1.006978,
        0.997297,
        0.98296,
        0.975421,
        0.980521,
        0.99609,
        1.01327,
        1.023958,
        1.026816,
        1.026245,
        1.030083,
        1.040666,
        1.048006,
        1.043148,
        1.032505,
        1.027295,
        1.031177,
        1.042379,
        1.054287,
        1.060567,
        1.063621,
        1.068133,
        1.072458,
        1.073364,
        1.071929,
        1.06962,
        1.064528,
        1.056591,
        1.050485,
        1.048977,
        1.049031,
        1.045098,
        1.030936,
        1.005223,
        0.978233,
        0.96144,
        0.958461,
        0.967602,
        0.980606,
        0.9906,
        1.001627,
        1.017596,
        1.031363,
        1.033889,
        1.022828,
        1.001992,
        0.983649,
        0.979406,
        0.988418,
        1.00302,
        1.015093,
        1.019534,
        1.018289,
        1.01697,
        1.019811,
        1.025815,
        1.026492,
        1.015707,
        1.000295,
        0.990405,
        0.987701,
        0.987559,
        0.982491,
        0.968251,
        0.951591,
        0.943289,
        0.9482,
        0.963233,
        0.976285,
        0.977205,
        0.970202,
        0.965668,
        0.969361,
        0.98033,
        0.991054,
        0.993505,
        0.985918,
        0.973248,
        0.964363,
        0.964456,
        0.970759,
        0.977304,
        0.979132,
        0.976207,
        0.973909,
        0.975333,
        0.976278,
        0.970614,
        0.958695,
        0.945882,
        0.93606,
        0.931457,
        0.931755,
        0.930532,
        0.915938,
        0.882342,
        0.8422,
        0.814132,
        0.80778,
        0.824204,
        0.856516,
        0.892537,
        0.917947,
        0.926179,
        0.927721,
        0.933551,
        0.93995,
        0.940872,
        0.941284,
        0.949454,
        0.965762,
        0.984202,
        0.993019,
        0.980989,
        0.951162,
        0.917862,
        0.898842,
        0.906671,
        0.937192,
        0.97447,
        1.000749,
        1.007842,
        1.005923,
        1.008906,
        1.017125,
        1.021038,
        1.011176,
        0.985849,
        0.958335,
        0.946829,
        0.957212,
        0.98265,
        1.010117,
        1.026574,
        1.025171,
        1.010591,
        0.998002,
        0.997873,
        1.006817,
        1.013903,
        1.007666,
        0.985639,
        0.960491,
        0.947123,
        0.951693,
        0.970827,
        0.990293,
        0.998224,
        0.997609,
        0.996796,
        1.000732,
        1.00963,
        1.016922,
        1.016337,
        1.011505,
        1.008525,
        1.005932,
        1.001339,
        0.998117,
        0.999236,
        1.004193,
        1.011364,
        1.016149,
        1.015228,
        1.012716,
        1.012695,
        1.012665,
        1.010099,
        1.006708,
        1.005077,
        1.008,
        1.015619,
        1.021484,
        1.020361,
        1.013811,
        1.00557,
        0.999013,
        0.994638,
        0.98921,
        0.980806,
        0.970594,
        0.962908,
        0.966759,
        0.984617,
        1.002097,
        1.005988,
        1.000361,
        0.995764,
        0.99772,
        1.005891,
        1.015763,
        1.021094,
        1.017004,
        1.005447,
        0.996558,
        0.998105,
        1.007278,
        1.016311,
        1.020022,
        1.017151,
        1.008043,
        0.995211,
        0.984828,
        0.981159,
        0.983082,
        0.988933,
        1.000608,
        1.017423,
        1.027898,
        1.022882,
        1.009584,
        0.998899,
        0.994396,
        0.995604,
        0.999354,
        1.001741,
        1.00128,
        0.998517,
        0.995239,
        0.993367,
        0.993802,
        0.996689,
        1.001419,
        1.006654,
        1.010751,
        1.012768,
        1.013386,
        1.014458,
        1.017345,
        1.02107,
        1.022576,
        1.01912,
        1.011087,
        0.995561,
        0.996002,
        1.004052,
        1.007494,
        1.001628,
        0.979755,
        0.925511,
        0.871889,
        0.876467,
        0.921689,
        0.962164,
        0.977328,
        0.985484,
        0.990939,
        0.991032,
        0.988165,
        0.994228,
        0.996229,
        0.993076,
        0.990988,
        0.992902,
        0.995886,
        0.999585,
        0.999339,
        0.994054,
        0.985766,
        0.986476,
        0.989913,
        0.991548,
        0.98498,
        0.977033,
        0.968346,
        0.965604,
        0.964906,
        0.972681,
        0.994235,
        1.005696,
        1.003804,
        1.002006,
        1.001738,
        0.993082,
        0.991659,
        0.991637,
        0.996001,
        0.994933,
        0.987473,
        0.982282,
        0.976214,
        0.973226,
        0.971389,
        0.968474,
        0.980349,
        0.979439,
        0.968461,
        0.956711,
        0.961837,
        0.949418,
        0.951731,
        0.962928,
        0.961125,
        0.94632,
        0.924343,
        0.916966,
        0.930048,
        0.948186,
        0.96107,
        0.961628,
        0.95902,
        0.96672,
        0.971208,
        0.969643,
        0.965057,
        0.953429,
        0.953136,
        0.947477,
        0.938863,
        0.940401,
        0.938074,
        0.932098,
        0.932149,
        0.925288,
        0.935135,
        0.943151,
        0.942543,
        0.939582,
        0.932905,
        0.941236,
        0.944113,
        0.93804,
        0.936525,
        0.939845,
        0.942347,
        0.932376,
        0.931008,
        0.941421,
        0.945507,
        0.937097,
        0.939147,
        0.9483,
        0.951828,
        0.94341,
        0.934372,
        0.941922,
        0.957025,
        0.959086,
        0.962217,
        0.962842,
        0.956192,
        0.942559,
        0.935156,
        0.931553,
        0.928726,
        0.933063,
        0.937127,
        0.945995,
        0.94802,
        0.944159,
        0.942797,
        0.943181,
        0.935311,
        0.935939,
        0.931702,
        0.929486,
        0.932555,
        0.932456,
        0.930802,
        0.929093,
        0.916765,
        0.891365,
        0.911699,
        0.934352,
        0.943678,
        0.942035,
        0.939808,
        0.943284,
        0.939612,
        0.94305,
        0.94444,
        0.933376,
        0.918167,
        0.89426,
        0.845036,
        0.83437,
        0.882173,
        0.905846,
        0.918821,
        0.923257,
        0.919194,
        0.915373,
        0.927382,
        0.932731,
        0.931015,
        0.932476,
        0.93396,
        0.927779,
        0.919768,
        0.920288,
        0.924651,
        0.924461,
        0.922871,
        0.921864,
        0.918147,
        0.914058,
        0.919378,
        0.914715,
        0.908275,
        0.916582,
        0.919036,
        0.916217,
        0.915545,
        0.916232,
        0.910008,
        0.900276,
        0.89981,
        0.904985,
        0.90754,
        0.909422,
        0.907456,
        0.905146,
        0.902116,
        0.906698,
        0.908561,
        0.906927,
        0.901524,
        0.905905,
        0.906873,
        0.901748,
        0.903222,
        0.902877,
        0.900811,
        0.900431,
        0.895278,
        0.896938,
        0.89689,
        0.89947,
        0.896374,
        0.894626,
        0.892948,
        0.890491,
        0.887165,
        0.883232,
        0.879169,
        0.876279,
        0.875675,
        0.877206,
        0.879717,
        0.881201,
        0.880728,
        0.879101,
        0.878643,
        0.880825,
        0.884905,
        0.888448,
        0.88872,
        0.884769,
        0.879139,
        0.875029,
        0.874187,
        0.875941,
        0.877518,
        0.877175,
        0.875045,
        0.873012,
        0.873724,
        0.869399,
        0.869835,
        0.878006,
        0.87366,
        0.869074,
        0.864384,
        0.857755,
        0.861093,
        0.857001,
        0.855565,
        0.852679,
        0.854934,
        0.85305,
        0.85544,
        0.862243,
        0.86063,
        0.852497,
        0.849019,
        0.849314,
        0.85142,
        0.858668,
        0.860606,
        0.85306,
        0.852809,
        0.85605,
        0.860361,
        0.856486,
        0.848352,
        0.842036,
        0.834757,
        0.829163,
        0.830265,
        0.841649,
        0.849311,
        0.843197,
        0.83972,
        0.839605,
        0.836277,
        0.830513,
        0.836129,
        0.833658,
        0.823226,
        0.810842,
        0.798556,
        0.803565,
        0.80656,
        0.800316,
        0.812304,
        0.83283,
        0.831093,
        0.83568,
        0.837141,
        0.826485,
        0.826922,
        0.824261,
        0.823101,
        0.819564,
        0.822222,
        0.819144,
        0.823186,
        0.815898,
        0.811712,
        0.811431,
        0.799642,
        0.811107,
        0.821845,
        0.815898,
        0.814434,
        0.82002,
        0.81931,
        0.819121,
        0.820211,
        0.827293,
        0.829338,
        0.828517,
        0.821563,
        0.81594,
        0.813839,
        0.816712,
        0.822614,
        0.820215,
        0.816823,
        0.801975,
        0.797583,
        0.807935,
        0.807375,
        0.805337,
        0.79727,
        0.795555,
        0.796615,
        0.799892,
        0.809546,
        0.810306,
        0.807235,
        0.797033,
        0.806125,
        0.812802,
        0.806343,
        0.805394,
        0.806629,
        0.802618,
        0.800431,
        0.799075,
        0.791094,
        0.785761,
        0.793866,
        0.790732,
        0.78229,
        0.7914,
        0.792238,
        0.789443,
        0.79109,
        0.791948,
        0.795102,
        0.789368,
        0.784708,
        0.783811,
        0.784985,
        0.789661,
        0.795667,
        0.800702,
        0.80317,
        0.801203,
        0.796305,
        0.7909,
        0.787335,
        0.787319,
        0.789526,
        0.792333,
        0.794134,
        0.793638,
        0.791197,
        0.787571,
        0.783519,
        0.779609,
        0.775649,
        0.771256,
        0.766043,
        0.759909,
        0.753879,
        0.749122,
        0.747169,
        0.749144,
        0.753611,
        0.758401,
        0.76208,
        0.763413,
        0.762922,
        0.761617,
        0.760323,
        0.759534,
        0.759559,
        0.764072,
        0.761864,
        0.752862,
        0.751374,
        0.760023,
        0.761098,
        0.762958,
        0.76155,
        0.758633,
        0.754663,
        0.755591,
        0.757609,
        0.754871,
        0.751001,
        0.750542,
        0.750807,
        0.753674,
        0.755857,
        0.753316,
        0.746147,
        0.738564,
        0.750461,
        0.751478,
        0.748042,
        0.75111,
        0.752976,
        0.750536,
        0.746431,
        0.747741,
        0.745952,
        0.748003,
        0.74959,
        0.746283,
        0.74521,
        0.742242,
        0.738256,
        0.733752,
        0.729439,
        0.731805,
        0.72351,
        0.712834,
        0.716044,
        0.715127,
        0.726428,
        0.730525,
        0.732651,
        0.736689,
        0.736141,
        0.736833,
        0.736834,
        0.737873,
        0.734614,
        0.726316,
        0.719797,
        0.726383,
        0.725879,
        0.728888,
        0.726408,
        0.719585,
        0.721555,
        0.725316,
        0.723094,
        0.713079,
        0.713428,
        0.721188,
        0.723705,
        0.721279,
        0.71681,
        0.713628,
        0.713449,
        0.707156,
        0.704784,
        0.699199,
        0.703357,
        0.710396,
        0.71215,
        0.715402,
        0.717271,
        0.720064,
        0.715952,
        0.713266,
        0.710569,
        0.704366,
        0.697514,
        0.694704,
        0.687844,
        0.677347,
        0.682793,
        0.683972,
        0.670785,
        0.672934,
        0.675894,
        0.670743,
        0.680455,
        0.693517,
        0.691771,
        0.686412,
        0.678688,
        0.674116,
        0.659187,
        0.670475,
        0.688822,
        0.689085,
        0.694534,
        0.695016,
        0.694144,
        0.698967,
        0.691249,
        0.68266,
        0.678285,
        0.677224,
        0.672769,
        0.673894,
        0.675025,
        0.669996,
        0.671164,
        0.672867,
        0.664384,
        0.658746,
        0.653274,
        0.652425,
        0.653638,
        0.660022,
        0.66327,
        0.668497,
        0.669325,
        0.669857,
        0.669131,
        0.666733,
        0.665058,
        0.657919,
        0.65981,
        0.669315,
        0.670346,
        0.667595,
        0.656583,
        0.654669,
        0.648304,
        0.642941,
        0.653439,
        0.641856,
        0.641885,
        0.648264,
        0.655795,
        0.658845,
        0.654388,
        0.649809,
        0.640125,
        0.648971,
        0.657282,
        0.651956,
        0.645199,
        0.608248,
        0.586175,
        0.620625,
        0.629504,
        0.62725,
        0.631514,
        0.629284,
        0.617272,
        0.58855,
        0.516035,
        0.514976,
        0.586018,
        0.611541,
        0.622993,
        0.628932,
        0.632148,
        0.629661,
        0.63024,
        0.625505,
        0.628903,
        0.624923,
        0.621333,
        0.62731,
        0.619582,
        0.615052,
        0.619571,
        0.628353,
        0.627576,
        0.627344,
        0.634677,
        0.625783,
        0.611671,
        0.592871,
        0.535631,
        0.530537,
        0.582485,
        0.601576,
        0.617145,
        0.608413,
        0.608419,
        0.627431,
        0.632302,
        0.628945,
        0.631086,
        0.62451,
        0.631248,
        0.628005,
        0.627932,
        0.614722,
        0.616882,
        0.623234,
        0.623355,
        0.619866,
        0.621971,
        0.623361,
        0.62015,
        0.617358,
        0.628651,
        0.621413,
        0.61382,
        0.611287,
        0.610988,
        0.586136,
        0.588338,
        0.618787,
        0.616686,
        0.607314,
        0.619786,
        0.6202,
        0.615415,
        0.61568,
        0.61839,
        0.61769,
        0.608523,
        0.603317,
        0.599756,
        0.608599,
        0.609245,
        0.614456,
        0.611247,
        0.609262,
        0.612966,
        0.613064,
        0.611436,
        0.609196,
        0.609025,
        0.615923,
        0.613997,
        0.617322,
        0.616587,
        0.613846,
        0.612138,
        0.613796,
        0.616056,
        0.608993,
        0.609983,
        0.606223,
        0.607016,
        0.599749,
        0.58713,
        0.585715,
        0.584491,
        0.586141,
        0.584672,
        0.584309,
        0.58872,
        0.601993,
        0.618553,
        0.633299,
        0.638569,
        0.636699,
        0.637023,
        0.63369,
        0.623027,
        0.609469,
        0.60078,
        0.595773,
        0.582548,
        0.581285,
        0.574335,
        0.585214,
        0.587845,
        0.587128,
        0.58991,
        0.592432,
        0.587686,
        0.595233,
        0.586005,
        0.57537,
        0.575965,
        0.583689,
        0.575494,
        0.565959,
        0.568192,
        0.581612,
        0.5738,
        0.565005,
        0.573426,
        0.580819,
        0.585179,
        0.58459,
        0.588872,
        0.587472,
        0.581257,
        0.577717,
        0.577996,
        0.578445,
        0.577636,
        0.573619,
        0.572597,
        0.566753,
        0.565557,
        0.560876,
        0.567686,
        0.580497,
        0.59269,
        0.59008,
        0.58675,
        0.590125,
        0.587298,
        0.576951,
        0.56689,
        0.565207,
        0.551235,
        0.537613,
        0.539466,
        0.527648,
        0.53526,
        0.536215,
        0.511652,
        0.489861,
        0.520389,
        0.506106,
        0.498779,
        0.528103,
        0.516488,
        0.542578,
        0.546321,
        0.574513,
        0.608066,
        0.633984,
        0.624914,
        0.609381,
        0.590996,
        0.581565,
        0.575617,
        0.565018,
        0.525933,
        0.541507,
        0.512139,
        0.508316,
        0.545419,
        0.539793,
        0.530429,
        0.532573,
        0.555273,
        0.560165,
        0.547325,
        0.555505,
        0.573731,
        0.544891,
        0.529131,
        0.543658,
        0.571062,
        0.558519,
        0.539495,
        0.529662,
        0.542961,
        0.551797,
        0.55366,
        0.537229,
        0.540772,
        0.525909,
        0.540387,
        0.536483,
        0.536224,
        0.543164,
        0.542624,
        0.535872,
        0.523377,
        0.510146,
        0.51748,
        0.530378,
        0.533694,
        0.539457,
        0.527943,
        0.522637,
        0.52642,
        0.528894,
        0.511403,
        0.510736,
        0.509955,
        0.521606,
        0.512322,
        0.50619,
        0.525925,
        0.531159,
        0.529512,
        0.530448,
        0.529554,
        0.527984,
        0.528437,
        0.521232,
        0.511086,
        0.516952,
        0.51841,
        0.518042,
        0.508799,
        0.499031,
        0.505619,
        0.487767,
        0.495703,
        0.487979,
        0.49721,
        0.489668,
        0.5044,
        0.502095,
        0.498959,
        0.502033,
        0.518917,
        0.497234,
        0.506536,
        0.505123,
        0.503709,
        0.506325,
        0.512159,
        0.501182,
        0.499848,
        0.500859,
        0.504647,
        0.508782,
        0.495615,
        0.496443,
        0.509002,
        0.502924,
        0.497551,
        0.497711,
        0.493577,
        0.494623,
        0.489041,
        0.485448,
        0.489954,
        0.506425,
        0.49273,
        0.497042,
        0.497978,
        0.493898,
        0.494558,
        0.491418,
        0.473361,
        0.488749,
        0.491997,
        0.487856,
        0.486542,
        0.486578,
        0.493207,
        0.493285,
        0.472768,
        0.483324,
        0.483995,
        0.486626,
        0.482936,
        0.477191,
        0.482637,
        0.497476,
        0.50277,
        0.48334,
        0.474953,
        0.47936,
        0.482488,
        0.471373,
        0.476124,
        0.484827,
        0.464566,
        0.476551,
        0.472481,
        0.476368,
        0.481912,
        0.471765,
        0.487626,
        0.445867,
        0.467941,
        0.485365,
        0.48319,
        0.451259,
        0.473392,
        0.47212,
        0.466553,
        0.457576,
        0.474172,
        0.479132,
        0.462398,
        0.467768,
        0.456571,
        0.468147,
        0.465306,
        0.442766,
        0.45627,
        0.455431,
        0.455024,
        0.455345,
        0.456692,
        0.459157,
        0.462028,
        0.464389,
        0.465324,
        0.464247,
        0.461894,
        0.459331,
        0.457623,
        0.457515,
        0.458462,
        0.4596,
        0.460063,
        0.459239,
        0.457533,
        0.455604,
        0.454111,
        0.453528,
        0.453599,
        0.453884,
        0.453942,
        0.456068,
        0.45545,
        0.454869,
        0.454513,
        0.4545,
        0.454693,
        0.454887,
        0.454878,
        0.454511,
        0.453823,
        0.452902,
        0.451834,
        0.45072,
        0.449713,
        0.44898,
        0.448687,
        0.448922,
        0.449448,
        0.449946,
        0.450099,
        0.449702,
        0.449009,
        0.448385,
        0.448198,
        0.448676,
        0.449503,
        0.450223,
        0.450382,
        0.449669,
        0.448342,
        0.446804,
        0.445456,
        0.444607,
        0.444202,
        0.444088,
        0.444116,
        0.444169,
        0.444257,
        0.444426,
        0.44472
      ],
      "range":1
    }
  }
]
