[
  {
    "model":"Star, type RG0(v)",
    "name":"Star, type RG0(v)",
    "type":"WB_REF",
    "dataQualityMarker":3,
    "dataSource":"https://www.eso.org/sci/facilities/paranal/decommissioned/isaac/tools/lib.html",
    "manufacturer":"A. Pickles (A.J. Pickles, PASP 110,863, 1998)",
    "version":1,
    "wavelength":{
      "value":[
        1150.0,
        1155.0,
        1160.0,
        1165.0,
        1170.0,
        1175.0,
        1180.0,
        1185.0,
        1190.0,
        1195.0,
        1200.0,
        1205.0,
        1210.0,
        1215.0,
        1220.0,
        1225.0,
        1230.0,
        1235.0,
        1240.0,
        1245.0,
        1250.0,
        1255.0,
        1260.0,
        1265.0,
        1270.0,
        1275.0,
        1280.0,
        1285.0,
        1290.0,
        1295.0,
        1300.0,
        1305.0,
        1310.0,
        1315.0,
        1320.0,
        1325.0,
        1330.0,
        1335.0,
        1340.0,
        1345.0,
        1350.0,
        1355.0,
        1360.0,
        1365.0,
        1370.0,
        1375.0,
        1380.0,
        1385.0,
        1390.0,
        1395.0,
        1400.0,
        1405.0,
        1410.0,
        1415.0,
        1420.0,
        1425.0,
        1430.0,
        1435.0,
        1440.0,
        1445.0,
        1450.0,
        1455.0,
        1460.0,
        1465.0,
        1470.0,
        1475.0,
        1480.0,
        1485.0,
        1490.0,
        1495.0,
        1500.0,
        1505.0,
        1510.0,
        1515.0,
        1520.0,
        1525.0,
        1530.0,
        1535.0,
        1540.0,
        1545.0,
        1550.0,
        1555.0,
        1560.0,
        1565.0,
        1570.0,
        1575.0,
        1580.0,
        1585.0,
        1590.0,
        1595.0,
        1600.0,
        1605.0,
        1610.0,
        1615.0,
        1620.0,
        1625.0,
        1630.0,
        1635.0,
        1640.0,
        1645.0,
        1650.0,
        1655.0,
        1660.0,
        1665.0,
        1670.0,
        1675.0,
        1680.0,
        1685.0,
        1690.0,
        1695.0,
        1700.0,
        1705.0,
        1710.0,
        1715.0,
        1720.0,
        1725.0,
        1730.0,
        1735.0,
        1740.0,
        1745.0,
        1750.0,
        1755.0,
        1760.0,
        1765.0,
        1770.0,
        1775.0,
        1780.0,
        1785.0,
        1790.0,
        1795.0,
        1800.0,
        1805.0,
        1810.0,
        1815.0,
        1820.0,
        1825.0,
        1830.0,
        1835.0,
        1840.0,
        1845.0,
        1850.0,
        1855.0,
        1860.0,
        1865.0,
        1870.0,
        1875.0,
        1880.0,
        1885.0,
        1890.0,
        1895.0,
        1900.0,
        1905.0,
        1910.0,
        1915.0,
        1920.0,
        1925.0,
        1930.0,
        1935.0,
        1940.0,
        1945.0,
        1950.0,
        1955.0,
        1960.0,
        1965.0,
        1970.0,
        1975.0,
        1980.0,
        1985.0,
        1990.0,
        1995.0,
        2000.0,
        2005.0,
        2010.0,
        2015.0,
        2020.0,
        2025.0,
        2030.0,
        2035.0,
        2040.0,
        2045.0,
        2050.0,
        2055.0,
        2060.0,
        2065.0,
        2070.0,
        2075.0,
        2080.0,
        2085.0,
        2090.0,
        2095.0,
        2100.0,
        2105.0,
        2110.0,
        2115.0,
        2120.0,
        2125.0,
        2130.0,
        2135.0,
        2140.0,
        2145.0,
        2150.0,
        2155.0,
        2160.0,
        2165.0,
        2170.0,
        2175.0,
        2180.0,
        2185.0,
        2190.0,
        2195.0,
        2200.0,
        2205.0,
        2210.0,
        2215.0,
        2220.0,
        2225.0,
        2230.0,
        2235.0,
        2240.0,
        2245.0,
        2250.0,
        2255.0,
        2260.0,
        2265.0,
        2270.0,
        2275.0,
        2280.0,
        2285.0,
        2290.0,
        2295.0,
        2300.0,
        2305.0,
        2310.0,
        2315.0,
        2320.0,
        2325.0,
        2330.0,
        2335.0,
        2340.0,
        2345.0,
        2350.0,
        2355.0,
        2360.0,
        2365.0,
        2370.0,
        2375.0,
        2380.0,
        2385.0,
        2390.0,
        2395.0,
        2400.0,
        2405.0,
        2410.0,
        2415.0,
        2420.0,
        2425.0,
        2430.0,
        2435.0,
        2440.0,
        2445.0,
        2450.0,
        2455.0,
        2460.0,
        2465.0,
        2470.0,
        2475.0,
        2480.0,
        2485.0,
        2490.0,
        2495.0,
        2500.0,
        2505.0,
        2510.0,
        2515.0,
        2520.0,
        2525.0,
        2530.0,
        2535.0,
        2540.0,
        2545.0,
        2550.0,
        2555.0,
        2560.0,
        2565.0,
        2570.0,
        2575.0,
        2580.0,
        2585.0,
        2590.0,
        2595.0,
        2600.0,
        2605.0,
        2610.0,
        2615.0,
        2620.0,
        2625.0,
        2630.0,
        2635.0,
        2640.0,
        2645.0,
        2650.0,
        2655.0,
        2660.0,
        2665.0,
        2670.0,
        2675.0,
        2680.0,
        2685.0,
        2690.0,
        2695.0,
        2700.0,
        2705.0,
        2710.0,
        2715.0,
        2720.0,
        2725.0,
        2730.0,
        2735.0,
        2740.0,
        2745.0,
        2750.0,
        2755.0,
        2760.0,
        2765.0,
        2770.0,
        2775.0,
        2780.0,
        2785.0,
        2790.0,
        2795.0,
        2800.0,
        2805.0,
        2810.0,
        2815.0,
        2820.0,
        2825.0,
        2830.0,
        2835.0,
        2840.0,
        2845.0,
        2850.0,
        2855.0,
        2860.0,
        2865.0,
        2870.0,
        2875.0,
        2880.0,
        2885.0,
        2890.0,
        2895.0,
        2900.0,
        2905.0,
        2910.0,
        2915.0,
        2920.0,
        2925.0,
        2930.0,
        2935.0,
        2940.0,
        2945.0,
        2950.0,
        2955.0,
        2960.0,
        2965.0,
        2970.0,
        2975.0,
        2980.0,
        2985.0,
        2990.0,
        2995.0,
        3000.0,
        3005.0,
        3010.0,
        3015.0,
        3020.0,
        3025.0,
        3030.0,
        3035.0,
        3040.0,
        3045.0,
        3050.0,
        3055.0,
        3060.0,
        3065.0,
        3070.0,
        3075.0,
        3080.0,
        3085.0,
        3090.0,
        3095.0,
        3100.0,
        3105.0,
        3110.0,
        3115.0,
        3120.0,
        3125.0,
        3130.0,
        3135.0,
        3140.0,
        3145.0,
        3150.0,
        3155.0,
        3160.0,
        3165.0,
        3170.0,
        3175.0,
        3180.0,
        3185.0,
        3190.0,
        3195.0,
        3200.0,
        3205.0,
        3210.0,
        3215.0,
        3220.0,
        3225.0,
        3230.0,
        3235.0,
        3240.0,
        3245.0,
        3250.0,
        3255.0,
        3260.0,
        3265.0,
        3270.0,
        3275.0,
        3280.0,
        3285.0,
        3290.0,
        3295.0,
        3300.0,
        3305.0,
        3310.0,
        3315.0,
        3320.0,
        3325.0,
        3330.0,
        3335.0,
        3340.0,
        3345.0,
        3350.0,
        3355.0,
        3360.0,
        3365.0,
        3370.0,
        3375.0,
        3380.0,
        3385.0,
        3390.0,
        3395.0,
        3400.0,
        3405.0,
        3410.0,
        3415.0,
        3420.0,
        3425.0,
        3430.0,
        3435.0,
        3440.0,
        3445.0,
        3450.0,
        3455.0,
        3460.0,
        3465.0,
        3470.0,
        3475.0,
        3480.0,
        3485.0,
        3490.0,
        3495.0,
        3500.0,
        3505.0,
        3510.0,
        3515.0,
        3520.0,
        3525.0,
        3530.0,
        3535.0,
        3540.0,
        3545.0,
        3550.0,
        3555.0,
        3560.0,
        3565.0,
        3570.0,
        3575.0,
        3580.0,
        3585.0,
        3590.0,
        3595.0,
        3600.0,
        3605.0,
        3610.0,
        3615.0,
        3620.0,
        3625.0,
        3630.0,
        3635.0,
        3640.0,
        3645.0,
        3650.0,
        3655.0,
        3660.0,
        3665.0,
        3670.0,
        3675.0,
        3680.0,
        3685.0,
        3690.0,
        3695.0,
        3700.0,
        3705.0,
        3710.0,
        3715.0,
        3720.0,
        3725.0,
        3730.0,
        3735.0,
        3740.0,
        3745.0,
        3750.0,
        3755.0,
        3760.0,
        3765.0,
        3770.0,
        3775.0,
        3780.0,
        3785.0,
        3790.0,
        3795.0,
        3800.0,
        3805.0,
        3810.0,
        3815.0,
        3820.0,
        3825.0,
        3830.0,
        3835.0,
        3840.0,
        3845.0,
        3850.0,
        3855.0,
        3860.0,
        3865.0,
        3870.0,
        3875.0,
        3880.0,
        3885.0,
        3890.0,
        3895.0,
        3900.0,
        3905.0,
        3910.0,
        3915.0,
        3920.0,
        3925.0,
        3930.0,
        3935.0,
        3940.0,
        3945.0,
        3950.0,
        3955.0,
        3960.0,
        3965.0,
        3970.0,
        3975.0,
        3980.0,
        3985.0,
        3990.0,
        3995.0,
        4000.0,
        4005.0,
        4010.0,
        4015.0,
        4020.0,
        4025.0,
        4030.0,
        4035.0,
        4040.0,
        4045.0,
        4050.0,
        4055.0,
        4060.0,
        4065.0,
        4070.0,
        4075.0,
        4080.0,
        4085.0,
        4090.0,
        4095.0,
        4100.0,
        4105.0,
        4110.0,
        4115.0,
        4120.0,
        4125.0,
        4130.0,
        4135.0,
        4140.0,
        4145.0,
        4150.0,
        4155.0,
        4160.0,
        4165.0,
        4170.0,
        4175.0,
        4180.0,
        4185.0,
        4190.0,
        4195.0,
        4200.0,
        4205.0,
        4210.0,
        4215.0,
        4220.0,
        4225.0,
        4230.0,
        4235.0,
        4240.0,
        4245.0,
        4250.0,
        4255.0,
        4260.0,
        4265.0,
        4270.0,
        4275.0,
        4280.0,
        4285.0,
        4290.0,
        4295.0,
        4300.0,
        4305.0,
        4310.0,
        4315.0,
        4320.0,
        4325.0,
        4330.0,
        4335.0,
        4340.0,
        4345.0,
        4350.0,
        4355.0,
        4360.0,
        4365.0,
        4370.0,
        4375.0,
        4380.0,
        4385.0,
        4390.0,
        4395.0,
        4400.0,
        4405.0,
        4410.0,
        4415.0,
        4420.0,
        4425.0,
        4430.0,
        4435.0,
        4440.0,
        4445.0,
        4450.0,
        4455.0,
        4460.0,
        4465.0,
        4470.0,
        4475.0,
        4480.0,
        4485.0,
        4490.0,
        4495.0,
        4500.0,
        4505.0,
        4510.0,
        4515.0,
        4520.0,
        4525.0,
        4530.0,
        4535.0,
        4540.0,
        4545.0,
        4550.0,
        4555.0,
        4560.0,
        4565.0,
        4570.0,
        4575.0,
        4580.0,
        4585.0,
        4590.0,
        4595.0,
        4600.0,
        4605.0,
        4610.0,
        4615.0,
        4620.0,
        4625.0,
        4630.0,
        4635.0,
        4640.0,
        4645.0,
        4650.0,
        4655.0,
        4660.0,
        4665.0,
        4670.0,
        4675.0,
        4680.0,
        4685.0,
        4690.0,
        4695.0,
        4700.0,
        4705.0,
        4710.0,
        4715.0,
        4720.0,
        4725.0,
        4730.0,
        4735.0,
        4740.0,
        4745.0,
        4750.0,
        4755.0,
        4760.0,
        4765.0,
        4770.0,
        4775.0,
        4780.0,
        4785.0,
        4790.0,
        4795.0,
        4800.0,
        4805.0,
        4810.0,
        4815.0,
        4820.0,
        4825.0,
        4830.0,
        4835.0,
        4840.0,
        4845.0,
        4850.0,
        4855.0,
        4860.0,
        4865.0,
        4870.0,
        4875.0,
        4880.0,
        4885.0,
        4890.0,
        4895.0,
        4900.0,
        4905.0,
        4910.0,
        4915.0,
        4920.0,
        4925.0,
        4930.0,
        4935.0,
        4940.0,
        4945.0,
        4950.0,
        4955.0,
        4960.0,
        4965.0,
        4970.0,
        4975.0,
        4980.0,
        4985.0,
        4990.0,
        4995.0,
        5000.0,
        5005.0,
        5010.0,
        5015.0,
        5020.0,
        5025.0,
        5030.0,
        5035.0,
        5040.0,
        5045.0,
        5050.0,
        5055.0,
        5060.0,
        5065.0,
        5070.0,
        5075.0,
        5080.0,
        5085.0,
        5090.0,
        5095.0,
        5100.0,
        5105.0,
        5110.0,
        5115.0,
        5120.0,
        5125.0,
        5130.0,
        5135.0,
        5140.0,
        5145.0,
        5150.0,
        5155.0,
        5160.0,
        5165.0,
        5170.0,
        5175.0,
        5180.0,
        5185.0,
        5190.0,
        5195.0,
        5200.0,
        5205.0,
        5210.0,
        5215.0,
        5220.0,
        5225.0,
        5230.0,
        5235.0,
        5240.0,
        5245.0,
        5250.0,
        5255.0,
        5260.0,
        5265.0,
        5270.0,
        5275.0,
        5280.0,
        5285.0,
        5290.0,
        5295.0,
        5300.0,
        5305.0,
        5310.0,
        5315.0,
        5320.0,
        5325.0,
        5330.0,
        5335.0,
        5340.0,
        5345.0,
        5350.0,
        5355.0,
        5360.0,
        5365.0,
        5370.0,
        5375.0,
        5380.0,
        5385.0,
        5390.0,
        5395.0,
        5400.0,
        5405.0,
        5410.0,
        5415.0,
        5420.0,
        5425.0,
        5430.0,
        5435.0,
        5440.0,
        5445.0,
        5450.0,
        5455.0,
        5460.0,
        5465.0,
        5470.0,
        5475.0,
        5480.0,
        5485.0,
        5490.0,
        5495.0,
        5500.0,
        5505.0,
        5510.0,
        5515.0,
        5520.0,
        5525.0,
        5530.0,
        5535.0,
        5540.0,
        5545.0,
        5550.0,
        5555.0,
        5560.0,
        5565.0,
        5570.0,
        5575.0,
        5580.0,
        5585.0,
        5590.0,
        5595.0,
        5600.0,
        5605.0,
        5610.0,
        5615.0,
        5620.0,
        5625.0,
        5630.0,
        5635.0,
        5640.0,
        5645.0,
        5650.0,
        5655.0,
        5660.0,
        5665.0,
        5670.0,
        5675.0,
        5680.0,
        5685.0,
        5690.0,
        5695.0,
        5700.0,
        5705.0,
        5710.0,
        5715.0,
        5720.0,
        5725.0,
        5730.0,
        5735.0,
        5740.0,
        5745.0,
        5750.0,
        5755.0,
        5760.0,
        5765.0,
        5770.0,
        5775.0,
        5780.0,
        5785.0,
        5790.0,
        5795.0,
        5800.0,
        5805.0,
        5810.0,
        5815.0,
        5820.0,
        5825.0,
        5830.0,
        5835.0,
        5840.0,
        5845.0,
        5850.0,
        5855.0,
        5860.0,
        5865.0,
        5870.0,
        5875.0,
        5880.0,
        5885.0,
        5890.0,
        5895.0,
        5900.0,
        5905.0,
        5910.0,
        5915.0,
        5920.0,
        5925.0,
        5930.0,
        5935.0,
        5940.0,
        5945.0,
        5950.0,
        5955.0,
        5960.0,
        5965.0,
        5970.0,
        5975.0,
        5980.0,
        5985.0,
        5990.0,
        5995.0,
        6000.0,
        6005.0,
        6010.0,
        6015.0,
        6020.0,
        6025.0,
        6030.0,
        6035.0,
        6040.0,
        6045.0,
        6050.0,
        6055.0,
        6060.0,
        6065.0,
        6070.0,
        6075.0,
        6080.0,
        6085.0,
        6090.0,
        6095.0,
        6100.0,
        6105.0,
        6110.0,
        6115.0,
        6120.0,
        6125.0,
        6130.0,
        6135.0,
        6140.0,
        6145.0,
        6150.0,
        6155.0,
        6160.0,
        6165.0,
        6170.0,
        6175.0,
        6180.0,
        6185.0,
        6190.0,
        6195.0,
        6200.0,
        6205.0,
        6210.0,
        6215.0,
        6220.0,
        6225.0,
        6230.0,
        6235.0,
        6240.0,
        6245.0,
        6250.0,
        6255.0,
        6260.0,
        6265.0,
        6270.0,
        6275.0,
        6280.0,
        6285.0,
        6290.0,
        6295.0,
        6300.0,
        6305.0,
        6310.0,
        6315.0,
        6320.0,
        6325.0,
        6330.0,
        6335.0,
        6340.0,
        6345.0,
        6350.0,
        6355.0,
        6360.0,
        6365.0,
        6370.0,
        6375.0,
        6380.0,
        6385.0,
        6390.0,
        6395.0,
        6400.0,
        6405.0,
        6410.0,
        6415.0,
        6420.0,
        6425.0,
        6430.0,
        6435.0,
        6440.0,
        6445.0,
        6450.0,
        6455.0,
        6460.0,
        6465.0,
        6470.0,
        6475.0,
        6480.0,
        6485.0,
        6490.0,
        6495.0,
        6500.0,
        6505.0,
        6510.0,
        6515.0,
        6520.0,
        6525.0,
        6530.0,
        6535.0,
        6540.0,
        6545.0,
        6550.0,
        6555.0,
        6560.0,
        6565.0,
        6570.0,
        6575.0,
        6580.0,
        6585.0,
        6590.0,
        6595.0,
        6600.0,
        6605.0,
        6610.0,
        6615.0,
        6620.0,
        6625.0,
        6630.0,
        6635.0,
        6640.0,
        6645.0,
        6650.0,
        6655.0,
        6660.0,
        6665.0,
        6670.0,
        6675.0,
        6680.0,
        6685.0,
        6690.0,
        6695.0,
        6700.0,
        6705.0,
        6710.0,
        6715.0,
        6720.0,
        6725.0,
        6730.0,
        6735.0,
        6740.0,
        6745.0,
        6750.0,
        6755.0,
        6760.0,
        6765.0,
        6770.0,
        6775.0,
        6780.0,
        6785.0,
        6790.0,
        6795.0,
        6800.0,
        6805.0,
        6810.0,
        6815.0,
        6820.0,
        6825.0,
        6830.0,
        6835.0,
        6840.0,
        6845.0,
        6850.0,
        6855.0,
        6860.0,
        6865.0,
        6870.0,
        6875.0,
        6880.0,
        6885.0,
        6890.0,
        6895.0,
        6900.0,
        6905.0,
        6910.0,
        6915.0,
        6920.0,
        6925.0,
        6930.0,
        6935.0,
        6940.0,
        6945.0,
        6950.0,
        6955.0,
        6960.0,
        6965.0,
        6970.0,
        6975.0,
        6980.0,
        6985.0,
        6990.0,
        6995.0,
        7000.0,
        7005.0,
        7010.0,
        7015.0,
        7020.0,
        7025.0,
        7030.0,
        7035.0,
        7040.0,
        7045.0,
        7050.0,
        7055.0,
        7060.0,
        7065.0,
        7070.0,
        7075.0,
        7080.0,
        7085.0,
        7090.0,
        7095.0,
        7100.0,
        7105.0,
        7110.0,
        7115.0,
        7120.0,
        7125.0,
        7130.0,
        7135.0,
        7140.0,
        7145.0,
        7150.0,
        7155.0,
        7160.0,
        7165.0,
        7170.0,
        7175.0,
        7180.0,
        7185.0,
        7190.0,
        7195.0,
        7200.0,
        7205.0,
        7210.0,
        7215.0,
        7220.0,
        7225.0,
        7230.0,
        7235.0,
        7240.0,
        7245.0,
        7250.0,
        7255.0,
        7260.0,
        7265.0,
        7270.0,
        7275.0,
        7280.0,
        7285.0,
        7290.0,
        7295.0,
        7300.0,
        7305.0,
        7310.0,
        7315.0,
        7320.0,
        7325.0,
        7330.0,
        7335.0,
        7340.0,
        7345.0,
        7350.0,
        7355.0,
        7360.0,
        7365.0,
        7370.0,
        7375.0,
        7380.0,
        7385.0,
        7390.0,
        7395.0,
        7400.0,
        7405.0,
        7410.0,
        7415.0,
        7420.0,
        7425.0,
        7430.0,
        7435.0,
        7440.0,
        7445.0,
        7450.0,
        7455.0,
        7460.0,
        7465.0,
        7470.0,
        7475.0,
        7480.0,
        7485.0,
        7490.0,
        7495.0,
        7500.0,
        7505.0,
        7510.0,
        7515.0,
        7520.0,
        7525.0,
        7530.0,
        7535.0,
        7540.0,
        7545.0,
        7550.0,
        7555.0,
        7560.0,
        7565.0,
        7570.0,
        7575.0,
        7580.0,
        7585.0,
        7590.0,
        7595.0,
        7600.0,
        7605.0,
        7610.0,
        7615.0,
        7620.0,
        7625.0,
        7630.0,
        7635.0,
        7640.0,
        7645.0,
        7650.0,
        7655.0,
        7660.0,
        7665.0,
        7670.0,
        7675.0,
        7680.0,
        7685.0,
        7690.0,
        7695.0,
        7700.0,
        7705.0,
        7710.0,
        7715.0,
        7720.0,
        7725.0,
        7730.0,
        7735.0,
        7740.0,
        7745.0,
        7750.0,
        7755.0,
        7760.0,
        7765.0,
        7770.0,
        7775.0,
        7780.0,
        7785.0,
        7790.0,
        7795.0,
        7800.0,
        7805.0,
        7810.0,
        7815.0,
        7820.0,
        7825.0,
        7830.0,
        7835.0,
        7840.0,
        7845.0,
        7850.0,
        7855.0,
        7860.0,
        7865.0,
        7870.0,
        7875.0,
        7880.0,
        7885.0,
        7890.0,
        7895.0,
        7900.0,
        7905.0,
        7910.0,
        7915.0,
        7920.0,
        7925.0,
        7930.0,
        7935.0,
        7940.0,
        7945.0,
        7950.0,
        7955.0,
        7960.0,
        7965.0,
        7970.0,
        7975.0,
        7980.0,
        7985.0,
        7990.0,
        7995.0,
        8000.0,
        8005.0,
        8010.0,
        8015.0,
        8020.0,
        8025.0,
        8030.0,
        8035.0,
        8040.0,
        8045.0,
        8050.0,
        8055.0,
        8060.0,
        8065.0,
        8070.0,
        8075.0,
        8080.0,
        8085.0,
        8090.0,
        8095.0,
        8100.0,
        8105.0,
        8110.0,
        8115.0,
        8120.0,
        8125.0,
        8130.0,
        8135.0,
        8140.0,
        8145.0,
        8150.0,
        8155.0,
        8160.0,
        8165.0,
        8170.0,
        8175.0,
        8180.0,
        8185.0,
        8190.0,
        8195.0,
        8200.0,
        8205.0,
        8210.0,
        8215.0,
        8220.0,
        8225.0,
        8230.0,
        8235.0,
        8240.0,
        8245.0,
        8250.0,
        8255.0,
        8260.0,
        8265.0,
        8270.0,
        8275.0,
        8280.0,
        8285.0,
        8290.0,
        8295.0,
        8300.0,
        8305.0,
        8310.0,
        8315.0,
        8320.0,
        8325.0,
        8330.0,
        8335.0,
        8340.0,
        8345.0,
        8350.0,
        8355.0,
        8360.0,
        8365.0,
        8370.0,
        8375.0,
        8380.0,
        8385.0,
        8390.0,
        8395.0,
        8400.0,
        8405.0,
        8410.0,
        8415.0,
        8420.0,
        8425.0,
        8430.0,
        8435.0,
        8440.0,
        8445.0,
        8450.0,
        8455.0,
        8460.0,
        8465.0,
        8470.0,
        8475.0,
        8480.0,
        8485.0,
        8490.0,
        8495.0,
        8500.0,
        8505.0,
        8510.0,
        8515.0,
        8520.0,
        8525.0,
        8530.0,
        8535.0,
        8540.0,
        8545.0,
        8550.0,
        8555.0,
        8560.0,
        8565.0,
        8570.0,
        8575.0,
        8580.0,
        8585.0,
        8590.0,
        8595.0,
        8600.0,
        8605.0,
        8610.0,
        8615.0,
        8620.0,
        8625.0,
        8630.0,
        8635.0,
        8640.0,
        8645.0,
        8650.0,
        8655.0,
        8660.0,
        8665.0,
        8670.0,
        8675.0,
        8680.0,
        8685.0,
        8690.0,
        8695.0,
        8700.0,
        8705.0,
        8710.0,
        8715.0,
        8720.0,
        8725.0,
        8730.0,
        8735.0,
        8740.0,
        8745.0,
        8750.0,
        8755.0,
        8760.0,
        8765.0,
        8770.0,
        8775.0,
        8780.0,
        8785.0,
        8790.0,
        8795.0,
        8800.0,
        8805.0,
        8810.0,
        8815.0,
        8820.0,
        8825.0,
        8830.0,
        8835.0,
        8840.0,
        8845.0,
        8850.0,
        8855.0,
        8860.0,
        8865.0,
        8870.0,
        8875.0,
        8880.0,
        8885.0,
        8890.0,
        8895.0,
        8900.0,
        8905.0,
        8910.0,
        8915.0,
        8920.0,
        8925.0,
        8930.0,
        8935.0,
        8940.0,
        8945.0,
        8950.0,
        8955.0,
        8960.0,
        8965.0,
        8970.0,
        8975.0,
        8980.0,
        8985.0,
        8990.0,
        8995.0,
        9000.0,
        9005.0,
        9010.0,
        9015.0,
        9020.0,
        9025.0,
        9030.0,
        9035.0,
        9040.0,
        9045.0,
        9050.0,
        9055.0,
        9060.0,
        9065.0,
        9070.0,
        9075.0,
        9080.0,
        9085.0,
        9090.0,
        9095.0,
        9100.0,
        9105.0,
        9110.0,
        9115.0,
        9120.0,
        9125.0,
        9130.0,
        9135.0,
        9140.0,
        9145.0,
        9150.0,
        9155.0,
        9160.0,
        9165.0,
        9170.0,
        9175.0,
        9180.0,
        9185.0,
        9190.0,
        9195.0,
        9200.0,
        9205.0,
        9210.0,
        9215.0,
        9220.0,
        9225.0,
        9230.0,
        9235.0,
        9240.0,
        9245.0,
        9250.0,
        9255.0,
        9260.0,
        9265.0,
        9270.0,
        9275.0,
        9280.0,
        9285.0,
        9290.0,
        9295.0,
        9300.0,
        9305.0,
        9310.0,
        9315.0,
        9320.0,
        9325.0,
        9330.0,
        9335.0,
        9340.0,
        9345.0,
        9350.0,
        9355.0,
        9360.0,
        9365.0,
        9370.0,
        9375.0,
        9380.0,
        9385.0,
        9390.0,
        9395.0,
        9400.0,
        9405.0,
        9410.0,
        9415.0,
        9420.0,
        9425.0,
        9430.0,
        9435.0,
        9440.0,
        9445.0,
        9450.0,
        9455.0,
        9460.0,
        9465.0,
        9470.0,
        9475.0,
        9480.0,
        9485.0,
        9490.0,
        9495.0,
        9500.0,
        9505.0,
        9510.0,
        9515.0,
        9520.0,
        9525.0,
        9530.0,
        9535.0,
        9540.0,
        9545.0,
        9550.0,
        9555.0,
        9560.0,
        9565.0,
        9570.0,
        9575.0,
        9580.0,
        9585.0,
        9590.0,
        9595.0,
        9600.0,
        9605.0,
        9610.0,
        9615.0,
        9620.0,
        9625.0,
        9630.0,
        9635.0,
        9640.0,
        9645.0,
        9650.0,
        9655.0,
        9660.0,
        9665.0,
        9670.0,
        9675.0,
        9680.0,
        9685.0,
        9690.0,
        9695.0,
        9700.0,
        9705.0,
        9710.0,
        9715.0,
        9720.0,
        9725.0,
        9730.0,
        9735.0,
        9740.0,
        9745.0,
        9750.0,
        9755.0,
        9760.0,
        9765.0,
        9770.0,
        9775.0,
        9780.0,
        9785.0,
        9790.0,
        9795.0,
        9800.0,
        9805.0,
        9810.0,
        9815.0,
        9820.0,
        9825.0,
        9830.0,
        9835.0,
        9840.0,
        9845.0,
        9850.0,
        9855.0,
        9860.0,
        9865.0,
        9870.0,
        9875.0,
        9880.0,
        9885.0,
        9890.0,
        9895.0,
        9900.0,
        9905.0,
        9910.0,
        9915.0,
        9920.0,
        9925.0,
        9930.0,
        9935.0,
        9940.0,
        9945.0,
        9950.0,
        9955.0,
        9960.0,
        9965.0,
        9970.0,
        9975.0,
        9980.0,
        9985.0,
        9990.0,
        9995.0,
        10000.0,
        10005.0,
        10010.0,
        10015.0,
        10020.0,
        10025.0,
        10030.0,
        10035.0,
        10040.0,
        10045.0,
        10050.0,
        10055.0,
        10060.0,
        10065.0,
        10070.0,
        10075.0,
        10080.0,
        10085.0,
        10090.0,
        10095.0,
        10100.0,
        10105.0,
        10110.0,
        10115.0,
        10120.0,
        10125.0,
        10130.0,
        10135.0,
        10140.0,
        10145.0,
        10150.0,
        10155.0,
        10160.0,
        10165.0,
        10170.0,
        10175.0,
        10180.0,
        10185.0,
        10190.0,
        10195.0,
        10200.0,
        10205.0,
        10210.0,
        10215.0,
        10220.0,
        10225.0,
        10230.0,
        10235.0,
        10240.0,
        10245.0,
        10250.0,
        10255.0,
        10260.0,
        10265.0,
        10270.0,
        10275.0,
        10280.0,
        10285.0,
        10290.0,
        10295.0,
        10300.0,
        10305.0,
        10310.0,
        10315.0,
        10320.0,
        10325.0,
        10330.0,
        10335.0,
        10340.0,
        10345.0,
        10350.0,
        10355.0,
        10360.0,
        10365.0,
        10370.0,
        10375.0,
        10380.0,
        10385.0,
        10390.0,
        10395.0,
        10400.0,
        10405.0,
        10410.0,
        10415.0,
        10420.0,
        10425.0,
        10430.0,
        10435.0,
        10440.0,
        10445.0,
        10450.0,
        10455.0,
        10460.0,
        10465.0,
        10470.0,
        10475.0,
        10480.0,
        10485.0,
        10490.0,
        10495.0,
        10500.0
      ],
      "units":"angstrom"
    },
    "values":{
      "value":[
        0.005082,
        0.005716,
        0.004689,
        0.000359,
        0.0,
        0.0,
        0.001253,
        0.000836,
        0.0,
        0.0,
        0.000978,
        0.003427,
        0.014576,
        0.025653,
        0.01579,
        0.002736,
        0.000356,
        0.000375,
        0.000328,
        0.000216,
        0.000167,
        0.000174,
        0.000168,
        0.0,
        0.0,
        8.2e-05,
        0.000304,
        0.000279,
        5.5e-05,
        5.4e-05,
        0.000167,
        0.0,
        0.000126,
        0.000262,
        0.000199,
        0.000124,
        0.000192,
        0.000163,
        5.8e-05,
        8e-06,
        7.8e-05,
        0.000154,
        0.000179,
        0.000231,
        0.000135,
        0.000212,
        0.000277,
        0.000246,
        6.8e-05,
        0.000204,
        0.000291,
        0.000394,
        0.000328,
        8.4e-05,
        0.0,
        0.000128,
        0.000276,
        0.0002,
        0.000343,
        0.000711,
        0.000565,
        0.000275,
        0.000128,
        0.000179,
        0.000329,
        0.000381,
        0.000381,
        0.000275,
        0.000293,
        0.000329,
        0.000325,
        0.000311,
        0.000308,
        0.000306,
        0.000274,
        0.000288,
        0.000351,
        0.000427,
        0.000464,
        0.000695,
        0.000675,
        0.000392,
        0.0005,
        0.000524,
        0.000521,
        0.000617,
        0.00047,
        0.000463,
        0.000489,
        0.000344,
        0.00028,
        0.000434,
        0.000414,
        0.00023,
        0.000187,
        0.00029,
        0.000455,
        0.000526,
        0.000319,
        0.000424,
        0.000534,
        0.000466,
        0.000677,
        0.000706,
        0.000586,
        0.000462,
        0.000664,
        0.000652,
        0.000623,
        0.000711,
        0.000832,
        0.000686,
        0.000569,
        0.000627,
        0.000747,
        0.000828,
        0.000815,
        0.00095,
        0.000995,
        0.001181,
        0.001186,
        0.00112,
        0.00122,
        0.001412,
        0.00149,
        0.001745,
        0.001541,
        0.001371,
        0.000967,
        0.001127,
        0.001467,
        0.001623,
        0.001887,
        0.002088,
        0.002249,
        0.00214,
        0.002131,
        0.002192,
        0.002153,
        0.001986,
        0.001976,
        0.002155,
        0.00245,
        0.002617,
        0.002765,
        0.00286,
        0.002963,
        0.003149,
        0.003294,
        0.003313,
        0.002993,
        0.003064,
        0.00338,
        0.003503,
        0.003759,
        0.003608,
        0.003354,
        0.003215,
        0.003626,
        0.004566,
        0.005012,
        0.008995,
        0.010055,
        0.004911,
        0.000295,
        0.0,
        0.003241,
        0.015064,
        0.015603,
        0.009057,
        0.00774,
        0.0,
        0.0,
        0.0007,
        0.0,
        0.0,
        0.0,
        0.0,
        0.0,
        0.000341,
        0.005308,
        0.006569,
        0.009876,
        0.00481,
        0.00411,
        0.011889,
        0.020138,
        0.015668,
        0.012194,
        0.008776,
        0.021611,
        0.031566,
        0.031846,
        0.026237,
        0.029499,
        0.029215,
        0.009825,
        0.024919,
        0.028913,
        0.030909,
        0.033451,
        0.028848,
        0.026421,
        0.00941,
        0.0,
        0.012311,
        0.031692,
        0.034002,
        0.024761,
        0.019812,
        0.029614,
        0.027234,
        0.035438,
        0.017169,
        0.024701,
        0.027087,
        0.018759,
        0.026533,
        0.034448,
        0.033774,
        0.018539,
        0.035133,
        0.035546,
        0.021022,
        0.015677,
        0.016348,
        0.017509,
        0.013526,
        0.023356,
        0.025687,
        0.026765,
        0.024297,
        0.028361,
        0.021753,
        0.030736,
        0.044063,
        0.034347,
        0.026033,
        0.030064,
        0.025175,
        0.025118,
        0.028056,
        0.031535,
        0.029473,
        0.033593,
        0.030104,
        0.028848,
        0.025036,
        0.02874,
        0.027826,
        0.023852,
        0.023307,
        0.024979,
        0.028243,
        0.040283,
        0.049357,
        0.054097,
        0.053936,
        0.053528,
        0.045263,
        0.026766,
        0.01907,
        0.028033,
        0.032614,
        0.031199,
        0.031747,
        0.033326,
        0.027108,
        0.020692,
        0.032735,
        0.047327,
        0.047712,
        0.041577,
        0.031738,
        0.026462,
        0.025625,
        0.032463,
        0.035805,
        0.034952,
        0.037796,
        0.04248,
        0.050775,
        0.052776,
        0.061693,
        0.074882,
        0.07869,
        0.085599,
        0.080713,
        0.075674,
        0.06281,
        0.057058,
        0.055278,
        0.052596,
        0.05863,
        0.068985,
        0.06401,
        0.068166,
        0.115762,
        0.157758,
        0.155111,
        0.14641,
        0.16681,
        0.163095,
        0.150992,
        0.158767,
        0.15349,
        0.153292,
        0.153474,
        0.142673,
        0.137087,
        0.152027,
        0.161003,
        0.152719,
        0.142726,
        0.111732,
        0.121943,
        0.13076,
        0.112199,
        0.085468,
        0.076629,
        0.086787,
        0.09732,
        0.117896,
        0.140208,
        0.151711,
        0.132739,
        0.109492,
        0.094585,
        0.064213,
        0.044813,
        0.045432,
        0.058237,
        0.082846,
        0.131822,
        0.160971,
        0.172266,
        0.183699,
        0.182509,
        0.171154,
        0.139063,
        0.093371,
        0.110207,
        0.17473,
        0.197891,
        0.192863,
        0.190981,
        0.172387,
        0.205484,
        0.225269,
        0.230019,
        0.2494,
        0.25746,
        0.266879,
        0.274093,
        0.264002,
        0.251392,
        0.255227,
        0.263403,
        0.267518,
        0.272634,
        0.272683,
        0.28375,
        0.283497,
        0.258115,
        0.264793,
        0.286063,
        0.26351,
        0.245569,
        0.270396,
        0.272232,
        0.247853,
        0.258144,
        0.28194,
        0.272695,
        0.269318,
        0.303255,
        0.336345,
        0.333954,
        0.321748,
        0.332114,
        0.338629,
        0.314483,
        0.31096,
        0.329269,
        0.354773,
        0.357368,
        0.366747,
        0.381727,
        0.320594,
        0.288956,
        0.302613,
        0.355191,
        0.378869,
        0.357424,
        0.317877,
        0.316722,
        0.351399,
        0.348216,
        0.318235,
        0.289733,
        0.289516,
        0.273061,
        0.316447,
        0.34646,
        0.377348,
        0.374117,
        0.343331,
        0.337807,
        0.341579,
        0.35718,
        0.46265,
        0.45562,
        0.431616,
        0.404929,
        0.382209,
        0.368254,
        0.368092,
        0.383873,
        0.405996,
        0.425387,
        0.446825,
        0.475488,
        0.504313,
        0.523626,
        0.525567,
        0.50796,
        0.489563,
        0.48966,
        0.508697,
        0.538853,
        0.558075,
        0.549429,
        0.530685,
        0.522194,
        0.519896,
        0.515866,
        0.511114,
        0.509243,
        0.515297,
        0.530171,
        0.536744,
        0.520038,
        0.491696,
        0.468195,
        0.45876,
        0.467012,
        0.481443,
        0.491055,
        0.50203,
        0.520319,
        0.533751,
        0.530567,
        0.518793,
        0.510542,
        0.514485,
        0.53152,
        0.534878,
        0.503088,
        0.463532,
        0.44844,
        0.460597,
        0.490743,
        0.510903,
        0.500075,
        0.483868,
        0.488426,
        0.495415,
        0.485286,
        0.478093,
        0.4957,
        0.527613,
        0.555707,
        0.551576,
        0.55516,
        0.537709,
        0.527293,
        0.56338,
        0.603305,
        0.63562,
        0.638674,
        0.62538,
        0.597878,
        0.558565,
        0.511898,
        0.490706,
        0.477757,
        0.430045,
        0.429458,
        0.499056,
        0.570452,
        0.595581,
        0.5405,
        0.508805,
        0.516791,
        0.544768,
        0.598881,
        0.567884,
        0.56508,
        0.594098,
        0.563536,
        0.590371,
        0.672336,
        0.70979,
        0.700893,
        0.693853,
        0.668719,
        0.61648,
        0.61162,
        0.650022,
        0.699757,
        0.700735,
        0.626307,
        0.6524,
        0.676112,
        0.583667,
        0.583015,
        0.561124,
        0.479861,
        0.512901,
        0.498737,
        0.530696,
        0.600553,
        0.581987,
        0.610813,
        0.674337,
        0.750542,
        0.795204,
        0.752524,
        0.676356,
        0.626791,
        0.68047,
        0.737817,
        0.718015,
        0.620147,
        0.540812,
        0.457507,
        0.415179,
        0.416396,
        0.494448,
        0.638333,
        0.674325,
        0.615625,
        0.597806,
        0.671619,
        0.658426,
        0.637359,
        0.610206,
        0.574905,
        0.609505,
        0.67603,
        0.692848,
        0.708707,
        0.757809,
        0.738929,
        0.65152,
        0.520558,
        0.355805,
        0.345485,
        0.497363,
        0.62997,
        0.727125,
        0.723085,
        0.593342,
        0.421399,
        0.429109,
        0.632722,
        0.796117,
        0.877967,
        0.931245,
        0.943425,
        0.94768,
        0.945659,
        0.976563,
        0.996437,
        1.010386,
        1.010741,
        0.978155,
        0.99707,
        0.992499,
        0.936834,
        0.977975,
        0.957413,
        0.915832,
        0.906127,
        0.925607,
        0.93986,
        0.976379,
        1.032491,
        1.036378,
        0.951739,
        0.875224,
        0.920329,
        0.994043,
        1.028102,
        1.026141,
        1.014215,
        0.99276,
        1.002871,
        1.00816,
        1.000597,
        1.004643,
        1.001,
        1.033955,
        1.034521,
        0.987845,
        0.974322,
        0.981338,
        0.96828,
        0.97913,
        0.969691,
        0.943185,
        0.988483,
        1.030547,
        1.019044,
        0.975756,
        0.887961,
        0.92488,
        0.951447,
        0.97451,
        0.976352,
        0.941234,
        0.93906,
        0.937943,
        0.952293,
        0.897571,
        0.898261,
        0.932045,
        0.899964,
        0.850516,
        0.806042,
        0.724972,
        0.69043,
        0.737622,
        0.915578,
        0.979495,
        0.934411,
        0.990505,
        0.976328,
        0.904217,
        0.960894,
        0.993156,
        1.01822,
        1.063021,
        1.081525,
        1.052407,
        1.015143,
        0.948278,
        0.905829,
        0.975996,
        1.021765,
        0.99673,
        0.975654,
        1.028988,
        1.070411,
        1.108598,
        1.106599,
        1.091249,
        1.066635,
        1.08141,
        1.089664,
        1.093127,
        1.032275,
        1.029857,
        1.089452,
        1.129451,
        1.161165,
        1.133434,
        1.162058,
        1.162722,
        1.151025,
        1.200446,
        1.232765,
        1.198278,
        1.180565,
        1.163691,
        1.093985,
        1.065436,
        1.113748,
        1.140751,
        1.105436,
        1.096926,
        1.14499,
        1.181767,
        1.19406,
        1.211645,
        1.202329,
        1.152377,
        1.147887,
        1.166255,
        1.16184,
        1.169564,
        1.203835,
        1.194643,
        1.181864,
        1.197814,
        1.199638,
        1.196659,
        1.177074,
        1.166823,
        1.14902,
        1.158196,
        1.169569,
        1.185712,
        1.130133,
        1.120583,
        1.151829,
        1.158242,
        1.186853,
        1.174196,
        1.168519,
        1.119039,
        1.108772,
        1.121344,
        1.161367,
        1.17479,
        1.182088,
        1.124526,
        1.130706,
        1.159968,
        1.178972,
        1.174576,
        1.168735,
        1.151323,
        1.115525,
        1.136466,
        1.180268,
        1.177056,
        1.134991,
        1.14107,
        1.166535,
        1.165061,
        1.159142,
        1.169731,
        1.179628,
        1.172476,
        1.154692,
        1.151064,
        1.150126,
        1.149808,
        1.144808,
        1.138313,
        1.061689,
        0.947897,
        0.970221,
        1.030133,
        1.071674,
        1.113383,
        1.09121,
        1.052486,
        1.117333,
        1.163272,
        1.171072,
        1.134907,
        1.099896,
        1.047116,
        1.070769,
        1.14282,
        1.123654,
        1.097904,
        1.151865,
        1.166167,
        1.115287,
        1.075975,
        1.120767,
        1.110747,
        1.12246,
        1.081321,
        1.034189,
        1.084858,
        1.102063,
        1.101352,
        1.055964,
        1.04115,
        1.016891,
        1.021656,
        1.035652,
        1.064266,
        1.066074,
        1.034482,
        1.046602,
        1.065468,
        1.061916,
        1.088634,
        1.074178,
        1.056773,
        1.042181,
        1.018291,
        1.034915,
        1.075913,
        1.08078,
        1.051944,
        1.057317,
        1.05775,
        1.072477,
        1.077626,
        1.030699,
        1.019168,
        1.030221,
        1.00422,
        1.01398,
        1.023358,
        1.022853,
        1.033216,
        0.930393,
        0.818204,
        0.853959,
        0.913303,
        0.859372,
        0.943172,
        0.984488,
        1.01499,
        0.974397,
        0.977973,
        1.033577,
        1.050182,
        1.01069,
        0.992743,
        1.031286,
        1.079092,
        1.079844,
        1.041558,
        1.041026,
        1.037159,
        0.934437,
        0.902242,
        0.976836,
        1.033971,
        1.035525,
        1.068965,
        1.041344,
        1.02337,
        1.067112,
        1.073211,
        1.062132,
        1.043946,
        0.985786,
        0.961612,
        1.018396,
        1.010314,
        1.018257,
        1.035701,
        1.071012,
        1.07005,
        1.018868,
        0.979686,
        1.011946,
        1.042385,
        1.028189,
        1.0156,
        0.993199,
        0.993605,
        0.970387,
        0.991942,
        1.030735,
        1.04296,
        1.024726,
        0.999479,
        1.003559,
        1.045821,
        1.027574,
        1.025392,
        1.021616,
        1.033904,
        1.022131,
        1.020919,
        1.003615,
        0.997932,
        1.015589,
        1.015383,
        1.028291,
        1.029195,
        1.008109,
        1.007998,
        1.010485,
        1.02739,
        1.016705,
        0.997473,
        1.007468,
        1.016198,
        1.020257,
        1.030067,
        1.018583,
        1.006541,
        0.998296,
        0.987149,
        0.989629,
        1.001353,
        0.976991,
        0.946958,
        0.963039,
        0.964093,
        0.978871,
        1.003233,
        0.98175,
        0.971665,
        0.983623,
        0.993971,
        1.003018,
        0.997289,
        0.992047,
        0.990895,
        0.976114,
        0.959203,
        0.96649,
        0.988077,
        1.000356,
        0.989562,
        0.969642,
        0.97099,
        0.979123,
        0.974409,
        0.959279,
        0.938398,
        0.950734,
        0.983365,
        1.000939,
        0.99209,
        0.989271,
        0.981973,
        0.981648,
        0.97424,
        0.960032,
        0.959439,
        0.973216,
        0.984172,
        0.979827,
        0.958127,
        0.944064,
        0.954316,
        0.962952,
        0.967623,
        0.970458,
        0.965968,
        0.971037,
        0.984492,
        0.991282,
        0.988182,
        0.984717,
        0.990676,
        0.981135,
        0.967084,
        0.947386,
        0.943474,
        0.961256,
        0.974679,
        0.975917,
        0.963807,
        0.924523,
        0.858631,
        0.849259,
        0.903209,
        0.946283,
        0.95046,
        0.946416,
        0.947274,
        0.948222,
        0.935302,
        0.942728,
        0.948247,
        0.93853,
        0.930766,
        0.935018,
        0.948199,
        0.947403,
        0.939824,
        0.931417,
        0.929585,
        0.921456,
        0.938158,
        0.949714,
        0.940447,
        0.925968,
        0.924037,
        0.920286,
        0.910799,
        0.909759,
        0.923608,
        0.934446,
        0.935192,
        0.939933,
        0.940669,
        0.93513,
        0.936172,
        0.928145,
        0.936007,
        0.935917,
        0.925184,
        0.92699,
        0.926186,
        0.923134,
        0.907864,
        0.907036,
        0.928534,
        0.933083,
        0.914419,
        0.909264,
        0.919712,
        0.893096,
        0.891208,
        0.908764,
        0.917753,
        0.911231,
        0.882234,
        0.87302,
        0.882571,
        0.905627,
        0.921021,
        0.919983,
        0.90724,
        0.916942,
        0.931683,
        0.9337,
        0.926877,
        0.908994,
        0.908676,
        0.91388,
        0.896779,
        0.895556,
        0.897706,
        0.888956,
        0.889248,
        0.879215,
        0.876489,
        0.88304,
        0.89392,
        0.885092,
        0.86924,
        0.887393,
        0.894339,
        0.885457,
        0.873008,
        0.881598,
        0.888875,
        0.869402,
        0.868198,
        0.887955,
        0.888417,
        0.875345,
        0.871189,
        0.879031,
        0.885325,
        0.882573,
        0.87069,
        0.872617,
        0.880008,
        0.885153,
        0.879241,
        0.878693,
        0.875559,
        0.865518,
        0.856598,
        0.863029,
        0.861364,
        0.860963,
        0.862239,
        0.871587,
        0.870751,
        0.869485,
        0.866513,
        0.870571,
        0.860475,
        0.857156,
        0.852621,
        0.847874,
        0.853439,
        0.850581,
        0.853261,
        0.855741,
        0.839401,
        0.811807,
        0.832902,
        0.86297,
        0.864795,
        0.856533,
        0.857522,
        0.860346,
        0.858237,
        0.856151,
        0.85224,
        0.842037,
        0.832079,
        0.80084,
        0.709253,
        0.687328,
        0.776383,
        0.816289,
        0.833254,
        0.837053,
        0.831133,
        0.822979,
        0.838665,
        0.842647,
        0.839023,
        0.849548,
        0.853113,
        0.850028,
        0.836867,
        0.828725,
        0.827736,
        0.825004,
        0.832118,
        0.832715,
        0.82541,
        0.820171,
        0.826352,
        0.819434,
        0.816131,
        0.830574,
        0.83608,
        0.829312,
        0.822931,
        0.824417,
        0.823496,
        0.81014,
        0.807678,
        0.821217,
        0.819968,
        0.818983,
        0.815625,
        0.810856,
        0.808685,
        0.814438,
        0.815561,
        0.815278,
        0.810063,
        0.813279,
        0.813448,
        0.810103,
        0.813533,
        0.813038,
        0.813406,
        0.808445,
        0.807364,
        0.804925,
        0.805323,
        0.8048,
        0.803942,
        0.805279,
        0.804687,
        0.80258,
        0.799344,
        0.795576,
        0.791874,
        0.788739,
        0.786297,
        0.784577,
        0.78361,
        0.783392,
        0.783782,
        0.784603,
        0.785681,
        0.786847,
        0.787959,
        0.788883,
        0.789482,
        0.789663,
        0.78949,
        0.789068,
        0.788503,
        0.787874,
        0.787166,
        0.786336,
        0.785345,
        0.784169,
        0.782861,
        0.781493,
        0.777815,
        0.780457,
        0.777619,
        0.778295,
        0.777497,
        0.771201,
        0.774461,
        0.771672,
        0.769172,
        0.768517,
        0.770195,
        0.770544,
        0.772983,
        0.777209,
        0.777815,
        0.775496,
        0.773415,
        0.770575,
        0.7696,
        0.774762,
        0.77564,
        0.770192,
        0.769097,
        0.772892,
        0.773464,
        0.772334,
        0.770908,
        0.772275,
        0.769754,
        0.767704,
        0.766915,
        0.769473,
        0.767727,
        0.761861,
        0.761612,
        0.766567,
        0.766738,
        0.763657,
        0.766317,
        0.763633,
        0.75966,
        0.745856,
        0.743496,
        0.745505,
        0.744986,
        0.7423,
        0.751307,
        0.760692,
        0.761021,
        0.757017,
        0.753906,
        0.749767,
        0.747552,
        0.74948,
        0.750973,
        0.751046,
        0.751653,
        0.746295,
        0.745629,
        0.741516,
        0.742491,
        0.739353,
        0.730444,
        0.734153,
        0.737269,
        0.734253,
        0.732764,
        0.732287,
        0.730886,
        0.731312,
        0.73171,
        0.73378,
        0.735408,
        0.735618,
        0.733832,
        0.732565,
        0.731144,
        0.731088,
        0.732729,
        0.73206,
        0.728137,
        0.714332,
        0.707887,
        0.714939,
        0.720226,
        0.715684,
        0.70723,
        0.707842,
        0.706517,
        0.712339,
        0.717726,
        0.720891,
        0.719386,
        0.716226,
        0.719545,
        0.723375,
        0.721719,
        0.721004,
        0.722594,
        0.72167,
        0.720113,
        0.719723,
        0.715422,
        0.710729,
        0.713419,
        0.71282,
        0.708804,
        0.711702,
        0.714334,
        0.712272,
        0.711848,
        0.713567,
        0.712412,
        0.708243,
        0.70403,
        0.701883,
        0.70264,
        0.707029,
        0.712746,
        0.716732,
        0.715928,
        0.708277,
        0.695734,
        0.681254,
        0.667797,
        0.657839,
        0.65194,
        0.650183,
        0.652648,
        0.659081,
        0.667893,
        0.677159,
        0.684954,
        0.68975,
        0.6916,
        0.690952,
        0.688254,
        0.684108,
        0.679724,
        0.676466,
        0.675696,
        0.678265,
        0.682973,
        0.688108,
        0.691957,
        0.693221,
        0.692251,
        0.689813,
        0.686671,
        0.6835,
        0.680602,
        0.680198,
        0.67777,
        0.672251,
        0.671772,
        0.676812,
        0.678119,
        0.677881,
        0.674907,
        0.670856,
        0.669436,
        0.670902,
        0.67134,
        0.670689,
        0.667765,
        0.66773,
        0.666206,
        0.667618,
        0.669797,
        0.669568,
        0.665161,
        0.663535,
        0.66787,
        0.669108,
        0.668444,
        0.667441,
        0.666031,
        0.66462,
        0.664002,
        0.661639,
        0.659709,
        0.659285,
        0.657447,
        0.654091,
        0.652857,
        0.65192,
        0.649283,
        0.646498,
        0.645235,
        0.644315,
        0.640776,
        0.63691,
        0.635721,
        0.633983,
        0.637151,
        0.638803,
        0.637669,
        0.638583,
        0.640512,
        0.641702,
        0.644199,
        0.645312,
        0.646934,
        0.643579,
        0.639635,
        0.640362,
        0.638044,
        0.636091,
        0.633819,
        0.628885,
        0.628649,
        0.631892,
        0.632908,
        0.629323,
        0.630171,
        0.63498,
        0.637942,
        0.638088,
        0.635683,
        0.634636,
        0.632193,
        0.627652,
        0.623449,
        0.62026,
        0.619749,
        0.621994,
        0.625803,
        0.629516,
        0.631475,
        0.630505,
        0.627375,
        0.623338,
        0.619649,
        0.617284,
        0.616098,
        0.615671,
        0.615578,
        0.615419,
        0.614866,
        0.613613,
        0.611353,
        0.607959,
        0.604022,
        0.600311,
        0.597597,
        0.596461,
        0.596732,
        0.598048,
        0.600049,
        0.602393,
        0.604805,
        0.607029,
        0.608809,
        0.609926,
        0.610307,
        0.609915,
        0.608714,
        0.606734,
        0.604263,
        0.601659,
        0.599275,
        0.597391,
        0.595976,
        0.594922,
        0.594124,
        0.593431,
        0.59253,
        0.591064,
        0.588676,
        0.585255,
        0.581668,
        0.579028,
        0.578448,
        0.580606,
        0.584447,
        0.588483,
        0.591225,
        0.59161,
        0.590279,
        0.588301,
        0.586741,
        0.586366,
        0.586734,
        0.587102,
        0.586728,
        0.585109,
        0.583005,
        0.581746,
        0.604908,
        0.579751,
        0.606157,
        0.599672,
        0.569665,
        0.571246,
        0.57554,
        0.579015,
        0.578336,
        0.575543,
        0.572163,
        0.578521,
        0.576916,
        0.575809,
        0.56864,
        0.556642,
        0.516301,
        0.551503,
        0.564259,
        0.559027,
        0.563298,
        0.565556,
        0.557883,
        0.547555,
        0.456308,
        0.454723,
        0.522139,
        0.548851,
        0.556347,
        0.56282,
        0.565411,
        0.562787,
        0.557013,
        0.557719,
        0.560296,
        0.556532,
        0.556728,
        0.560182,
        0.558326,
        0.558621,
        0.55933,
        0.56021,
        0.558946,
        0.558748,
        0.556502,
        0.553374,
        0.546347,
        0.527879,
        0.470099,
        0.466078,
        0.517398,
        0.539524,
        0.544208,
        0.541076,
        0.540083,
        0.548981,
        0.549441,
        0.547972,
        0.544492,
        0.545144,
        0.549773,
        0.550246,
        0.548095,
        0.543054,
        0.540956,
        0.540225,
        0.535626,
        0.534108,
        0.539477,
        0.541572,
        0.56176,
        0.537857,
        0.541589,
        0.540352,
        0.531887,
        0.53396,
        0.532051,
        0.540049,
        0.517761,
        0.534351,
        0.534694,
        0.535046,
        0.5608,
        0.532802,
        0.529561,
        0.528687,
        0.529045,
        0.527784,
        0.51795,
        0.511196,
        0.518284,
        0.524826,
        0.529525,
        0.534214,
        0.531601,
        0.527438,
        0.528431,
        0.529682,
        0.52746,
        0.527806,
        0.55415,
        0.532524,
        0.519194,
        0.51535,
        0.514454,
        0.518071,
        0.524522,
        0.531318,
        0.535972,
        0.53665,
        0.534149,
        0.52992,
        0.525415,
        0.52182,
        0.519262,
        0.517598,
        0.516689,
        0.516385,
        0.516507,
        0.516867,
        0.517279,
        0.517631,
        0.518124,
        0.519033,
        0.520634,
        0.522909,
        0.524655,
        0.524374,
        0.520568,
        0.512487,
        0.502371,
        0.493209,
        0.487992,
        0.488696,
        0.493262,
        0.498615,
        0.501685,
        0.500362,
        0.496395,
        0.492494,
        0.49137,
        0.494858,
        0.501295,
        0.508139,
        0.512851,
        0.513559,
        0.511067,
        0.506848,
        0.502375,
        0.498947,
        0.497169,
        0.497473,
        0.500288,
        0.505594,
        0.511551,
        0.515866,
        0.516247,
        0.511188,
        0.502337,
        0.492126,
        0.482991,
        0.476804,
        0.473186,
        0.471197,
        0.469898,
        0.468541,
        0.467149,
        0.465937,
        0.465121,
        0.464891,
        0.465336,
        0.466517,
        0.468499,
        0.471307,
        0.474818,
        0.47887,
        0.483305,
        0.488083,
        0.493647,
        0.500563,
        0.509397,
        0.520068,
        0.529918,
        0.535642,
        0.533935,
        0.52288,
        0.506104,
        0.488619,
        0.475438,
        0.470329,
        0.472067,
        0.478181,
        0.486202,
        0.493831,
        0.499463,
        0.501667,
        0.49901,
        0.490779,
        0.479136,
        0.466962,
        0.457139,
        0.451806,
        0.450133,
        0.450548,
        0.451479,
        0.451852,
        0.452595,
        0.455133,
        0.460892,
        0.470477,
        0.481211,
        0.489599,
        0.492143,
        0.486714,
        0.476648,
        0.466649,
        0.46142,
        0.464132,
        0.471832,
        0.480033,
        0.484249,
        0.481423,
        0.474213,
        0.466704,
        0.462982,
        0.465772,
        0.472353,
        0.478642,
        0.480557,
        0.475346,
        0.465568,
        0.455115,
        0.447876,
        0.446697,
        0.450235,
        0.456103,
        0.461913,
        0.465675,
        0.466975,
        0.465799,
        0.462131,
        0.456308,
        0.450084,
        0.445566,
        0.444861,
        0.449197,
        0.456289,
        0.462973,
        0.466087,
        0.46344,
        0.456741,
        0.448673,
        0.441918,
        0.438444,
        0.437371,
        0.437101,
        0.43604,
        0.433163,
        0.429736,
        0.427594,
        0.428574,
        0.433786,
        0.441432,
        0.44899,
        0.453936,
        0.45449,
        0.45185,
        0.447956,
        0.44475,
        0.443688,
        0.444289,
        0.445584,
        0.446608,
        0.446634,
        0.445896,
        0.444867,
        0.444024,
        0.443682,
        0.443534,
        0.443115,
        0.441959,
        0.439806,
        0.43721,
        0.434931,
        0.433728,
        0.434099,
        0.435493,
        0.437096,
        0.438096,
        0.437877,
        0.436615,
        0.434683,
        0.432453,
        0.430304,
        0.428636,
        0.427852,
        0.428359,
        0.430276,
        0.432581,
        0.433967,
        0.433125,
        0.429328,
        0.424164,
        0.419798,
        0.418398,
        0.42134,
        0.426843,
        0.432336,
        0.435245,
        0.433839,
        0.429741,
        0.425412,
        0.423314,
        0.425155,
        0.429622,
        0.434649,
        0.438169,
        0.438631,
        0.436551,
        0.432961,
        0.428892,
        0.425154,
        0.42166,
        0.418104,
        0.414175,
        0.409806,
        0.405884,
        0.403538,
        0.403896,
        0.407575,
        0.413144,
        0.418662,
        0.422188,
        0.422336,
        0.419942,
        0.416399,
        0.4131,
        0.411149,
        0.4105,
        0.410818,
        0.411769,
        0.413006,
        0.414123,
        0.414705,
        0.414332,
        0.412824,
        0.410936,
        0.409662,
        0.409994,
        0.412452,
        0.415658,
        0.417763,
        0.416918,
        0.412006,
        0.404848,
        0.397999,
        0.394015,
        0.394627,
        0.39828,
        0.402594,
        0.40519,
        0.404359,
        0.401062,
        0.396932,
        0.3936,
        0.39225,
        0.392269,
        0.392597,
        0.392173,
        0.390327,
        0.387955,
        0.386342,
        0.386773,
        0.390057,
        0.395083,
        0.400262,
        0.404007,
        0.403314,
        0.402551,
        0.401104,
        0.399388,
        0.397788,
        0.396563,
        0.395946,
        0.396167,
        0.397289,
        0.398696,
        0.399605,
        0.399231,
        0.397122,
        0.39415,
        0.391517,
        0.390426,
        0.391675,
        0.394437,
        0.39748,
        0.39957,
        0.399799,
        0.398544,
        0.396505,
        0.394383,
        0.392707,
        0.391315,
        0.389875,
        0.388056,
        0.385682,
        0.383212,
        0.381262,
        0.380447,
        0.381157,
        0.382881,
        0.384878,
        0.386409,
        0.386897,
        0.386415,
        0.385194,
        0.383468
      ],
      "range":1
    }
  }
]
