[
  {
    "model":"Star, type F0(iii)",
    "name":"Star, type F0(iii)",
    "type":"WB_REF",
    "dataQualityMarker":3,
    "dataSource":"https://www.eso.org/sci/facilities/paranal/decommissioned/isaac/tools/lib.html",
    "manufacturer":"A. Pickles (A.J. Pickles, PASP 110,863, 1998)",
    "version":1,
    "wavelength":{
      "value":[
        1150.0,
        1155.0,
        1160.0,
        1165.0,
        1170.0,
        1175.0,
        1180.0,
        1185.0,
        1190.0,
        1195.0,
        1200.0,
        1205.0,
        1210.0,
        1215.0,
        1220.0,
        1225.0,
        1230.0,
        1235.0,
        1240.0,
        1245.0,
        1250.0,
        1255.0,
        1260.0,
        1265.0,
        1270.0,
        1275.0,
        1280.0,
        1285.0,
        1290.0,
        1295.0,
        1300.0,
        1305.0,
        1310.0,
        1315.0,
        1320.0,
        1325.0,
        1330.0,
        1335.0,
        1340.0,
        1345.0,
        1350.0,
        1355.0,
        1360.0,
        1365.0,
        1370.0,
        1375.0,
        1380.0,
        1385.0,
        1390.0,
        1395.0,
        1400.0,
        1405.0,
        1410.0,
        1415.0,
        1420.0,
        1425.0,
        1430.0,
        1435.0,
        1440.0,
        1445.0,
        1450.0,
        1455.0,
        1460.0,
        1465.0,
        1470.0,
        1475.0,
        1480.0,
        1485.0,
        1490.0,
        1495.0,
        1500.0,
        1505.0,
        1510.0,
        1515.0,
        1520.0,
        1525.0,
        1530.0,
        1535.0,
        1540.0,
        1545.0,
        1550.0,
        1555.0,
        1560.0,
        1565.0,
        1570.0,
        1575.0,
        1580.0,
        1585.0,
        1590.0,
        1595.0,
        1600.0,
        1605.0,
        1610.0,
        1615.0,
        1620.0,
        1625.0,
        1630.0,
        1635.0,
        1640.0,
        1645.0,
        1650.0,
        1655.0,
        1660.0,
        1665.0,
        1670.0,
        1675.0,
        1680.0,
        1685.0,
        1690.0,
        1695.0,
        1700.0,
        1705.0,
        1710.0,
        1715.0,
        1720.0,
        1725.0,
        1730.0,
        1735.0,
        1740.0,
        1745.0,
        1750.0,
        1755.0,
        1760.0,
        1765.0,
        1770.0,
        1775.0,
        1780.0,
        1785.0,
        1790.0,
        1795.0,
        1800.0,
        1805.0,
        1810.0,
        1815.0,
        1820.0,
        1825.0,
        1830.0,
        1835.0,
        1840.0,
        1845.0,
        1850.0,
        1855.0,
        1860.0,
        1865.0,
        1870.0,
        1875.0,
        1880.0,
        1885.0,
        1890.0,
        1895.0,
        1900.0,
        1905.0,
        1910.0,
        1915.0,
        1920.0,
        1925.0,
        1930.0,
        1935.0,
        1940.0,
        1945.0,
        1950.0,
        1955.0,
        1960.0,
        1965.0,
        1970.0,
        1975.0,
        1980.0,
        1985.0,
        1990.0,
        1995.0,
        2000.0,
        2005.0,
        2010.0,
        2015.0,
        2020.0,
        2025.0,
        2030.0,
        2035.0,
        2040.0,
        2045.0,
        2050.0,
        2055.0,
        2060.0,
        2065.0,
        2070.0,
        2075.0,
        2080.0,
        2085.0,
        2090.0,
        2095.0,
        2100.0,
        2105.0,
        2110.0,
        2115.0,
        2120.0,
        2125.0,
        2130.0,
        2135.0,
        2140.0,
        2145.0,
        2150.0,
        2155.0,
        2160.0,
        2165.0,
        2170.0,
        2175.0,
        2180.0,
        2185.0,
        2190.0,
        2195.0,
        2200.0,
        2205.0,
        2210.0,
        2215.0,
        2220.0,
        2225.0,
        2230.0,
        2235.0,
        2240.0,
        2245.0,
        2250.0,
        2255.0,
        2260.0,
        2265.0,
        2270.0,
        2275.0,
        2280.0,
        2285.0,
        2290.0,
        2295.0,
        2300.0,
        2305.0,
        2310.0,
        2315.0,
        2320.0,
        2325.0,
        2330.0,
        2335.0,
        2340.0,
        2345.0,
        2350.0,
        2355.0,
        2360.0,
        2365.0,
        2370.0,
        2375.0,
        2380.0,
        2385.0,
        2390.0,
        2395.0,
        2400.0,
        2405.0,
        2410.0,
        2415.0,
        2420.0,
        2425.0,
        2430.0,
        2435.0,
        2440.0,
        2445.0,
        2450.0,
        2455.0,
        2460.0,
        2465.0,
        2470.0,
        2475.0,
        2480.0,
        2485.0,
        2490.0,
        2495.0,
        2500.0,
        2505.0,
        2510.0,
        2515.0,
        2520.0,
        2525.0,
        2530.0,
        2535.0,
        2540.0,
        2545.0,
        2550.0,
        2555.0,
        2560.0,
        2565.0,
        2570.0,
        2575.0,
        2580.0,
        2585.0,
        2590.0,
        2595.0,
        2600.0,
        2605.0,
        2610.0,
        2615.0,
        2620.0,
        2625.0,
        2630.0,
        2635.0,
        2640.0,
        2645.0,
        2650.0,
        2655.0,
        2660.0,
        2665.0,
        2670.0,
        2675.0,
        2680.0,
        2685.0,
        2690.0,
        2695.0,
        2700.0,
        2705.0,
        2710.0,
        2715.0,
        2720.0,
        2725.0,
        2730.0,
        2735.0,
        2740.0,
        2745.0,
        2750.0,
        2755.0,
        2760.0,
        2765.0,
        2770.0,
        2775.0,
        2780.0,
        2785.0,
        2790.0,
        2795.0,
        2800.0,
        2805.0,
        2810.0,
        2815.0,
        2820.0,
        2825.0,
        2830.0,
        2835.0,
        2840.0,
        2845.0,
        2850.0,
        2855.0,
        2860.0,
        2865.0,
        2870.0,
        2875.0,
        2880.0,
        2885.0,
        2890.0,
        2895.0,
        2900.0,
        2905.0,
        2910.0,
        2915.0,
        2920.0,
        2925.0,
        2930.0,
        2935.0,
        2940.0,
        2945.0,
        2950.0,
        2955.0,
        2960.0,
        2965.0,
        2970.0,
        2975.0,
        2980.0,
        2985.0,
        2990.0,
        2995.0,
        3000.0,
        3005.0,
        3010.0,
        3015.0,
        3020.0,
        3025.0,
        3030.0,
        3035.0,
        3040.0,
        3045.0,
        3050.0,
        3055.0,
        3060.0,
        3065.0,
        3070.0,
        3075.0,
        3080.0,
        3085.0,
        3090.0,
        3095.0,
        3100.0,
        3105.0,
        3110.0,
        3115.0,
        3120.0,
        3125.0,
        3130.0,
        3135.0,
        3140.0,
        3145.0,
        3150.0,
        3155.0,
        3160.0,
        3165.0,
        3170.0,
        3175.0,
        3180.0,
        3185.0,
        3190.0,
        3195.0,
        3200.0,
        3205.0,
        3210.0,
        3215.0,
        3220.0,
        3225.0,
        3230.0,
        3235.0,
        3240.0,
        3245.0,
        3250.0,
        3255.0,
        3260.0,
        3265.0,
        3270.0,
        3275.0,
        3280.0,
        3285.0,
        3290.0,
        3295.0,
        3300.0,
        3305.0,
        3310.0,
        3315.0,
        3320.0,
        3325.0,
        3330.0,
        3335.0,
        3340.0,
        3345.0,
        3350.0,
        3355.0,
        3360.0,
        3365.0,
        3370.0,
        3375.0,
        3380.0,
        3385.0,
        3390.0,
        3395.0,
        3400.0,
        3405.0,
        3410.0,
        3415.0,
        3420.0,
        3425.0,
        3430.0,
        3435.0,
        3440.0,
        3445.0,
        3450.0,
        3455.0,
        3460.0,
        3465.0,
        3470.0,
        3475.0,
        3480.0,
        3485.0,
        3490.0,
        3495.0,
        3500.0,
        3505.0,
        3510.0,
        3515.0,
        3520.0,
        3525.0,
        3530.0,
        3535.0,
        3540.0,
        3545.0,
        3550.0,
        3555.0,
        3560.0,
        3565.0,
        3570.0,
        3575.0,
        3580.0,
        3585.0,
        3590.0,
        3595.0,
        3600.0,
        3605.0,
        3610.0,
        3615.0,
        3620.0,
        3625.0,
        3630.0,
        3635.0,
        3640.0,
        3645.0,
        3650.0,
        3655.0,
        3660.0,
        3665.0,
        3670.0,
        3675.0,
        3680.0,
        3685.0,
        3690.0,
        3695.0,
        3700.0,
        3705.0,
        3710.0,
        3715.0,
        3720.0,
        3725.0,
        3730.0,
        3735.0,
        3740.0,
        3745.0,
        3750.0,
        3755.0,
        3760.0,
        3765.0,
        3770.0,
        3775.0,
        3780.0,
        3785.0,
        3790.0,
        3795.0,
        3800.0,
        3805.0,
        3810.0,
        3815.0,
        3820.0,
        3825.0,
        3830.0,
        3835.0,
        3840.0,
        3845.0,
        3850.0,
        3855.0,
        3860.0,
        3865.0,
        3870.0,
        3875.0,
        3880.0,
        3885.0,
        3890.0,
        3895.0,
        3900.0,
        3905.0,
        3910.0,
        3915.0,
        3920.0,
        3925.0,
        3930.0,
        3935.0,
        3940.0,
        3945.0,
        3950.0,
        3955.0,
        3960.0,
        3965.0,
        3970.0,
        3975.0,
        3980.0,
        3985.0,
        3990.0,
        3995.0,
        4000.0,
        4005.0,
        4010.0,
        4015.0,
        4020.0,
        4025.0,
        4030.0,
        4035.0,
        4040.0,
        4045.0,
        4050.0,
        4055.0,
        4060.0,
        4065.0,
        4070.0,
        4075.0,
        4080.0,
        4085.0,
        4090.0,
        4095.0,
        4100.0,
        4105.0,
        4110.0,
        4115.0,
        4120.0,
        4125.0,
        4130.0,
        4135.0,
        4140.0,
        4145.0,
        4150.0,
        4155.0,
        4160.0,
        4165.0,
        4170.0,
        4175.0,
        4180.0,
        4185.0,
        4190.0,
        4195.0,
        4200.0,
        4205.0,
        4210.0,
        4215.0,
        4220.0,
        4225.0,
        4230.0,
        4235.0,
        4240.0,
        4245.0,
        4250.0,
        4255.0,
        4260.0,
        4265.0,
        4270.0,
        4275.0,
        4280.0,
        4285.0,
        4290.0,
        4295.0,
        4300.0,
        4305.0,
        4310.0,
        4315.0,
        4320.0,
        4325.0,
        4330.0,
        4335.0,
        4340.0,
        4345.0,
        4350.0,
        4355.0,
        4360.0,
        4365.0,
        4370.0,
        4375.0,
        4380.0,
        4385.0,
        4390.0,
        4395.0,
        4400.0,
        4405.0,
        4410.0,
        4415.0,
        4420.0,
        4425.0,
        4430.0,
        4435.0,
        4440.0,
        4445.0,
        4450.0,
        4455.0,
        4460.0,
        4465.0,
        4470.0,
        4475.0,
        4480.0,
        4485.0,
        4490.0,
        4495.0,
        4500.0,
        4505.0,
        4510.0,
        4515.0,
        4520.0,
        4525.0,
        4530.0,
        4535.0,
        4540.0,
        4545.0,
        4550.0,
        4555.0,
        4560.0,
        4565.0,
        4570.0,
        4575.0,
        4580.0,
        4585.0,
        4590.0,
        4595.0,
        4600.0,
        4605.0,
        4610.0,
        4615.0,
        4620.0,
        4625.0,
        4630.0,
        4635.0,
        4640.0,
        4645.0,
        4650.0,
        4655.0,
        4660.0,
        4665.0,
        4670.0,
        4675.0,
        4680.0,
        4685.0,
        4690.0,
        4695.0,
        4700.0,
        4705.0,
        4710.0,
        4715.0,
        4720.0,
        4725.0,
        4730.0,
        4735.0,
        4740.0,
        4745.0,
        4750.0,
        4755.0,
        4760.0,
        4765.0,
        4770.0,
        4775.0,
        4780.0,
        4785.0,
        4790.0,
        4795.0,
        4800.0,
        4805.0,
        4810.0,
        4815.0,
        4820.0,
        4825.0,
        4830.0,
        4835.0,
        4840.0,
        4845.0,
        4850.0,
        4855.0,
        4860.0,
        4865.0,
        4870.0,
        4875.0,
        4880.0,
        4885.0,
        4890.0,
        4895.0,
        4900.0,
        4905.0,
        4910.0,
        4915.0,
        4920.0,
        4925.0,
        4930.0,
        4935.0,
        4940.0,
        4945.0,
        4950.0,
        4955.0,
        4960.0,
        4965.0,
        4970.0,
        4975.0,
        4980.0,
        4985.0,
        4990.0,
        4995.0,
        5000.0,
        5005.0,
        5010.0,
        5015.0,
        5020.0,
        5025.0,
        5030.0,
        5035.0,
        5040.0,
        5045.0,
        5050.0,
        5055.0,
        5060.0,
        5065.0,
        5070.0,
        5075.0,
        5080.0,
        5085.0,
        5090.0,
        5095.0,
        5100.0,
        5105.0,
        5110.0,
        5115.0,
        5120.0,
        5125.0,
        5130.0,
        5135.0,
        5140.0,
        5145.0,
        5150.0,
        5155.0,
        5160.0,
        5165.0,
        5170.0,
        5175.0,
        5180.0,
        5185.0,
        5190.0,
        5195.0,
        5200.0,
        5205.0,
        5210.0,
        5215.0,
        5220.0,
        5225.0,
        5230.0,
        5235.0,
        5240.0,
        5245.0,
        5250.0,
        5255.0,
        5260.0,
        5265.0,
        5270.0,
        5275.0,
        5280.0,
        5285.0,
        5290.0,
        5295.0,
        5300.0,
        5305.0,
        5310.0,
        5315.0,
        5320.0,
        5325.0,
        5330.0,
        5335.0,
        5340.0,
        5345.0,
        5350.0,
        5355.0,
        5360.0,
        5365.0,
        5370.0,
        5375.0,
        5380.0,
        5385.0,
        5390.0,
        5395.0,
        5400.0,
        5405.0,
        5410.0,
        5415.0,
        5420.0,
        5425.0,
        5430.0,
        5435.0,
        5440.0,
        5445.0,
        5450.0,
        5455.0,
        5460.0,
        5465.0,
        5470.0,
        5475.0,
        5480.0,
        5485.0,
        5490.0,
        5495.0,
        5500.0,
        5505.0,
        5510.0,
        5515.0,
        5520.0,
        5525.0,
        5530.0,
        5535.0,
        5540.0,
        5545.0,
        5550.0,
        5555.0,
        5560.0,
        5565.0,
        5570.0,
        5575.0,
        5580.0,
        5585.0,
        5590.0,
        5595.0,
        5600.0,
        5605.0,
        5610.0,
        5615.0,
        5620.0,
        5625.0,
        5630.0,
        5635.0,
        5640.0,
        5645.0,
        5650.0,
        5655.0,
        5660.0,
        5665.0,
        5670.0,
        5675.0,
        5680.0,
        5685.0,
        5690.0,
        5695.0,
        5700.0,
        5705.0,
        5710.0,
        5715.0,
        5720.0,
        5725.0,
        5730.0,
        5735.0,
        5740.0,
        5745.0,
        5750.0,
        5755.0,
        5760.0,
        5765.0,
        5770.0,
        5775.0,
        5780.0,
        5785.0,
        5790.0,
        5795.0,
        5800.0,
        5805.0,
        5810.0,
        5815.0,
        5820.0,
        5825.0,
        5830.0,
        5835.0,
        5840.0,
        5845.0,
        5850.0,
        5855.0,
        5860.0,
        5865.0,
        5870.0,
        5875.0,
        5880.0,
        5885.0,
        5890.0,
        5895.0,
        5900.0,
        5905.0,
        5910.0,
        5915.0,
        5920.0,
        5925.0,
        5930.0,
        5935.0,
        5940.0,
        5945.0,
        5950.0,
        5955.0,
        5960.0,
        5965.0,
        5970.0,
        5975.0,
        5980.0,
        5985.0,
        5990.0,
        5995.0,
        6000.0,
        6005.0,
        6010.0,
        6015.0,
        6020.0,
        6025.0,
        6030.0,
        6035.0,
        6040.0,
        6045.0,
        6050.0,
        6055.0,
        6060.0,
        6065.0,
        6070.0,
        6075.0,
        6080.0,
        6085.0,
        6090.0,
        6095.0,
        6100.0,
        6105.0,
        6110.0,
        6115.0,
        6120.0,
        6125.0,
        6130.0,
        6135.0,
        6140.0,
        6145.0,
        6150.0,
        6155.0,
        6160.0,
        6165.0,
        6170.0,
        6175.0,
        6180.0,
        6185.0,
        6190.0,
        6195.0,
        6200.0,
        6205.0,
        6210.0,
        6215.0,
        6220.0,
        6225.0,
        6230.0,
        6235.0,
        6240.0,
        6245.0,
        6250.0,
        6255.0,
        6260.0,
        6265.0,
        6270.0,
        6275.0,
        6280.0,
        6285.0,
        6290.0,
        6295.0,
        6300.0,
        6305.0,
        6310.0,
        6315.0,
        6320.0,
        6325.0,
        6330.0,
        6335.0,
        6340.0,
        6345.0,
        6350.0,
        6355.0,
        6360.0,
        6365.0,
        6370.0,
        6375.0,
        6380.0,
        6385.0,
        6390.0,
        6395.0,
        6400.0,
        6405.0,
        6410.0,
        6415.0,
        6420.0,
        6425.0,
        6430.0,
        6435.0,
        6440.0,
        6445.0,
        6450.0,
        6455.0,
        6460.0,
        6465.0,
        6470.0,
        6475.0,
        6480.0,
        6485.0,
        6490.0,
        6495.0,
        6500.0,
        6505.0,
        6510.0,
        6515.0,
        6520.0,
        6525.0,
        6530.0,
        6535.0,
        6540.0,
        6545.0,
        6550.0,
        6555.0,
        6560.0,
        6565.0,
        6570.0,
        6575.0,
        6580.0,
        6585.0,
        6590.0,
        6595.0,
        6600.0,
        6605.0,
        6610.0,
        6615.0,
        6620.0,
        6625.0,
        6630.0,
        6635.0,
        6640.0,
        6645.0,
        6650.0,
        6655.0,
        6660.0,
        6665.0,
        6670.0,
        6675.0,
        6680.0,
        6685.0,
        6690.0,
        6695.0,
        6700.0,
        6705.0,
        6710.0,
        6715.0,
        6720.0,
        6725.0,
        6730.0,
        6735.0,
        6740.0,
        6745.0,
        6750.0,
        6755.0,
        6760.0,
        6765.0,
        6770.0,
        6775.0,
        6780.0,
        6785.0,
        6790.0,
        6795.0,
        6800.0,
        6805.0,
        6810.0,
        6815.0,
        6820.0,
        6825.0,
        6830.0,
        6835.0,
        6840.0,
        6845.0,
        6850.0,
        6855.0,
        6860.0,
        6865.0,
        6870.0,
        6875.0,
        6880.0,
        6885.0,
        6890.0,
        6895.0,
        6900.0,
        6905.0,
        6910.0,
        6915.0,
        6920.0,
        6925.0,
        6930.0,
        6935.0,
        6940.0,
        6945.0,
        6950.0,
        6955.0,
        6960.0,
        6965.0,
        6970.0,
        6975.0,
        6980.0,
        6985.0,
        6990.0,
        6995.0,
        7000.0,
        7005.0,
        7010.0,
        7015.0,
        7020.0,
        7025.0,
        7030.0,
        7035.0,
        7040.0,
        7045.0,
        7050.0,
        7055.0,
        7060.0,
        7065.0,
        7070.0,
        7075.0,
        7080.0,
        7085.0,
        7090.0,
        7095.0,
        7100.0,
        7105.0,
        7110.0,
        7115.0,
        7120.0,
        7125.0,
        7130.0,
        7135.0,
        7140.0,
        7145.0,
        7150.0,
        7155.0,
        7160.0,
        7165.0,
        7170.0,
        7175.0,
        7180.0,
        7185.0,
        7190.0,
        7195.0,
        7200.0,
        7205.0,
        7210.0,
        7215.0,
        7220.0,
        7225.0,
        7230.0,
        7235.0,
        7240.0,
        7245.0,
        7250.0,
        7255.0,
        7260.0,
        7265.0,
        7270.0,
        7275.0,
        7280.0,
        7285.0,
        7290.0,
        7295.0,
        7300.0,
        7305.0,
        7310.0,
        7315.0,
        7320.0,
        7325.0,
        7330.0,
        7335.0,
        7340.0,
        7345.0,
        7350.0,
        7355.0,
        7360.0,
        7365.0,
        7370.0,
        7375.0,
        7380.0,
        7385.0,
        7390.0,
        7395.0,
        7400.0,
        7405.0,
        7410.0,
        7415.0,
        7420.0,
        7425.0,
        7430.0,
        7435.0,
        7440.0,
        7445.0,
        7450.0,
        7455.0,
        7460.0,
        7465.0,
        7470.0,
        7475.0,
        7480.0,
        7485.0,
        7490.0,
        7495.0,
        7500.0,
        7505.0,
        7510.0,
        7515.0,
        7520.0,
        7525.0,
        7530.0,
        7535.0,
        7540.0,
        7545.0,
        7550.0,
        7555.0,
        7560.0,
        7565.0,
        7570.0,
        7575.0,
        7580.0,
        7585.0,
        7590.0,
        7595.0,
        7600.0,
        7605.0,
        7610.0,
        7615.0,
        7620.0,
        7625.0,
        7630.0,
        7635.0,
        7640.0,
        7645.0,
        7650.0,
        7655.0,
        7660.0,
        7665.0,
        7670.0,
        7675.0,
        7680.0,
        7685.0,
        7690.0,
        7695.0,
        7700.0,
        7705.0,
        7710.0,
        7715.0,
        7720.0,
        7725.0,
        7730.0,
        7735.0,
        7740.0,
        7745.0,
        7750.0,
        7755.0,
        7760.0,
        7765.0,
        7770.0,
        7775.0,
        7780.0,
        7785.0,
        7790.0,
        7795.0,
        7800.0,
        7805.0,
        7810.0,
        7815.0,
        7820.0,
        7825.0,
        7830.0,
        7835.0,
        7840.0,
        7845.0,
        7850.0,
        7855.0,
        7860.0,
        7865.0,
        7870.0,
        7875.0,
        7880.0,
        7885.0,
        7890.0,
        7895.0,
        7900.0,
        7905.0,
        7910.0,
        7915.0,
        7920.0,
        7925.0,
        7930.0,
        7935.0,
        7940.0,
        7945.0,
        7950.0,
        7955.0,
        7960.0,
        7965.0,
        7970.0,
        7975.0,
        7980.0,
        7985.0,
        7990.0,
        7995.0,
        8000.0,
        8005.0,
        8010.0,
        8015.0,
        8020.0,
        8025.0,
        8030.0,
        8035.0,
        8040.0,
        8045.0,
        8050.0,
        8055.0,
        8060.0,
        8065.0,
        8070.0,
        8075.0,
        8080.0,
        8085.0,
        8090.0,
        8095.0,
        8100.0,
        8105.0,
        8110.0,
        8115.0,
        8120.0,
        8125.0,
        8130.0,
        8135.0,
        8140.0,
        8145.0,
        8150.0,
        8155.0,
        8160.0,
        8165.0,
        8170.0,
        8175.0,
        8180.0,
        8185.0,
        8190.0,
        8195.0,
        8200.0,
        8205.0,
        8210.0,
        8215.0,
        8220.0,
        8225.0,
        8230.0,
        8235.0,
        8240.0,
        8245.0,
        8250.0,
        8255.0,
        8260.0,
        8265.0,
        8270.0,
        8275.0,
        8280.0,
        8285.0,
        8290.0,
        8295.0,
        8300.0,
        8305.0,
        8310.0,
        8315.0,
        8320.0,
        8325.0,
        8330.0,
        8335.0,
        8340.0,
        8345.0,
        8350.0,
        8355.0,
        8360.0,
        8365.0,
        8370.0,
        8375.0,
        8380.0,
        8385.0,
        8390.0,
        8395.0,
        8400.0,
        8405.0,
        8410.0,
        8415.0,
        8420.0,
        8425.0,
        8430.0,
        8435.0,
        8440.0,
        8445.0,
        8450.0,
        8455.0,
        8460.0,
        8465.0,
        8470.0,
        8475.0,
        8480.0,
        8485.0,
        8490.0,
        8495.0,
        8500.0,
        8505.0,
        8510.0,
        8515.0,
        8520.0,
        8525.0,
        8530.0,
        8535.0,
        8540.0,
        8545.0,
        8550.0,
        8555.0,
        8560.0,
        8565.0,
        8570.0,
        8575.0,
        8580.0,
        8585.0,
        8590.0,
        8595.0,
        8600.0,
        8605.0,
        8610.0,
        8615.0,
        8620.0,
        8625.0,
        8630.0,
        8635.0,
        8640.0,
        8645.0,
        8650.0,
        8655.0,
        8660.0,
        8665.0,
        8670.0,
        8675.0,
        8680.0,
        8685.0,
        8690.0,
        8695.0,
        8700.0,
        8705.0,
        8710.0,
        8715.0,
        8720.0,
        8725.0,
        8730.0,
        8735.0,
        8740.0,
        8745.0,
        8750.0,
        8755.0,
        8760.0,
        8765.0,
        8770.0,
        8775.0,
        8780.0,
        8785.0,
        8790.0,
        8795.0,
        8800.0,
        8805.0,
        8810.0,
        8815.0,
        8820.0,
        8825.0,
        8830.0,
        8835.0,
        8840.0,
        8845.0,
        8850.0,
        8855.0,
        8860.0,
        8865.0,
        8870.0,
        8875.0,
        8880.0,
        8885.0,
        8890.0,
        8895.0,
        8900.0,
        8905.0,
        8910.0,
        8915.0,
        8920.0,
        8925.0,
        8930.0,
        8935.0,
        8940.0,
        8945.0,
        8950.0,
        8955.0,
        8960.0,
        8965.0,
        8970.0,
        8975.0,
        8980.0,
        8985.0,
        8990.0,
        8995.0,
        9000.0,
        9005.0,
        9010.0,
        9015.0,
        9020.0,
        9025.0,
        9030.0,
        9035.0,
        9040.0,
        9045.0,
        9050.0,
        9055.0,
        9060.0,
        9065.0,
        9070.0,
        9075.0,
        9080.0,
        9085.0,
        9090.0,
        9095.0,
        9100.0,
        9105.0,
        9110.0,
        9115.0,
        9120.0,
        9125.0,
        9130.0,
        9135.0,
        9140.0,
        9145.0,
        9150.0,
        9155.0,
        9160.0,
        9165.0,
        9170.0,
        9175.0,
        9180.0,
        9185.0,
        9190.0,
        9195.0,
        9200.0,
        9205.0,
        9210.0,
        9215.0,
        9220.0,
        9225.0,
        9230.0,
        9235.0,
        9240.0,
        9245.0,
        9250.0,
        9255.0,
        9260.0,
        9265.0,
        9270.0,
        9275.0,
        9280.0,
        9285.0,
        9290.0,
        9295.0,
        9300.0,
        9305.0,
        9310.0,
        9315.0,
        9320.0,
        9325.0,
        9330.0,
        9335.0,
        9340.0,
        9345.0,
        9350.0,
        9355.0,
        9360.0,
        9365.0,
        9370.0,
        9375.0,
        9380.0,
        9385.0,
        9390.0,
        9395.0,
        9400.0,
        9405.0,
        9410.0,
        9415.0,
        9420.0,
        9425.0,
        9430.0,
        9435.0,
        9440.0,
        9445.0,
        9450.0,
        9455.0,
        9460.0,
        9465.0,
        9470.0,
        9475.0,
        9480.0,
        9485.0,
        9490.0,
        9495.0,
        9500.0,
        9505.0,
        9510.0,
        9515.0,
        9520.0,
        9525.0,
        9530.0,
        9535.0,
        9540.0,
        9545.0,
        9550.0,
        9555.0,
        9560.0,
        9565.0,
        9570.0,
        9575.0,
        9580.0,
        9585.0,
        9590.0,
        9595.0,
        9600.0,
        9605.0,
        9610.0,
        9615.0,
        9620.0,
        9625.0,
        9630.0,
        9635.0,
        9640.0,
        9645.0,
        9650.0,
        9655.0,
        9660.0,
        9665.0,
        9670.0,
        9675.0,
        9680.0,
        9685.0,
        9690.0,
        9695.0,
        9700.0,
        9705.0,
        9710.0,
        9715.0,
        9720.0,
        9725.0,
        9730.0,
        9735.0,
        9740.0,
        9745.0,
        9750.0,
        9755.0,
        9760.0,
        9765.0,
        9770.0,
        9775.0,
        9780.0,
        9785.0,
        9790.0,
        9795.0,
        9800.0,
        9805.0,
        9810.0,
        9815.0,
        9820.0,
        9825.0,
        9830.0,
        9835.0,
        9840.0,
        9845.0,
        9850.0,
        9855.0,
        9860.0,
        9865.0,
        9870.0,
        9875.0,
        9880.0,
        9885.0,
        9890.0,
        9895.0,
        9900.0,
        9905.0,
        9910.0,
        9915.0,
        9920.0,
        9925.0,
        9930.0,
        9935.0,
        9940.0,
        9945.0,
        9950.0,
        9955.0,
        9960.0,
        9965.0,
        9970.0,
        9975.0,
        9980.0,
        9985.0,
        9990.0,
        9995.0,
        10000.0,
        10005.0,
        10010.0,
        10015.0,
        10020.0,
        10025.0,
        10030.0,
        10035.0,
        10040.0,
        10045.0,
        10050.0,
        10055.0,
        10060.0,
        10065.0,
        10070.0,
        10075.0,
        10080.0,
        10085.0,
        10090.0,
        10095.0,
        10100.0,
        10105.0,
        10110.0,
        10115.0,
        10120.0,
        10125.0,
        10130.0,
        10135.0,
        10140.0,
        10145.0,
        10150.0,
        10155.0,
        10160.0,
        10165.0,
        10170.0,
        10175.0,
        10180.0,
        10185.0,
        10190.0,
        10195.0,
        10200.0,
        10205.0,
        10210.0,
        10215.0,
        10220.0,
        10225.0,
        10230.0,
        10235.0,
        10240.0,
        10245.0,
        10250.0,
        10255.0,
        10260.0,
        10265.0,
        10270.0,
        10275.0,
        10280.0,
        10285.0,
        10290.0,
        10295.0,
        10300.0,
        10305.0,
        10310.0,
        10315.0,
        10320.0,
        10325.0,
        10330.0,
        10335.0,
        10340.0,
        10345.0,
        10350.0,
        10355.0,
        10360.0,
        10365.0,
        10370.0,
        10375.0,
        10380.0,
        10385.0,
        10390.0,
        10395.0,
        10400.0,
        10405.0,
        10410.0,
        10415.0,
        10420.0,
        10425.0,
        10430.0,
        10435.0,
        10440.0,
        10445.0,
        10450.0,
        10455.0,
        10460.0,
        10465.0,
        10470.0,
        10475.0,
        10480.0,
        10485.0,
        10490.0,
        10495.0,
        10500.0
      ],
      "units":"angstrom"
    },
    "values":{
      "value":[
        0.155273,
        0.060456,
        0.015629,
        0.0,
        0.0,
        0.0,
        0.0,
        0.0,
        0.0,
        0.0,
        0.006906,
        0.002796,
        0.01117,
        0.055758,
        0.031068,
        0.0,
        0.0,
        0.0,
        0.0,
        0.0,
        0.005534,
        0.002671,
        0.003873,
        0.0,
        0.0,
        0.0,
        0.0,
        0.0,
        0.0,
        0.0,
        0.0,
        6.4e-05,
        0.005193,
        0.002668,
        0.009086,
        0.005034,
        0.0,
        0.0,
        0.006048,
        0.009883,
        0.0,
        0.0,
        0.0,
        0.000489,
        0.002639,
        0.00056,
        0.004366,
        0.004102,
        0.000572,
        0.0,
        0.0,
        0.000374,
        0.001805,
        0.000664,
        0.0,
        0.000949,
        0.007529,
        0.0041,
        0.004928,
        0.003202,
        0.0,
        0.000572,
        0.0,
        0.008049,
        0.003624,
        0.000278,
        0.0,
        0.0,
        0.000655,
        0.002635,
        0.005762,
        0.00392,
        0.002654,
        0.010903,
        0.010828,
        0.005791,
        0.002104,
        0.002806,
        0.005471,
        0.005565,
        0.003168,
        0.006524,
        0.015137,
        0.012023,
        0.009738,
        0.01154,
        0.011176,
        0.0,
        0.002329,
        0.01358,
        0.00679,
        0.008143,
        0.008003,
        0.001259,
        0.0,
        0.0,
        0.0,
        0.0,
        0.0,
        0.006994,
        0.006042,
        0.006977,
        0.003162,
        0.0,
        0.0,
        0.001058,
        0.009058,
        0.014565,
        0.019235,
        0.022901,
        0.036778,
        0.048759,
        0.052253,
        0.059039,
        0.060008,
        0.06039,
        0.073334,
        0.074254,
        0.072537,
        0.072844,
        0.094292,
        0.097863,
        0.082209,
        0.078339,
        0.094537,
        0.119003,
        0.1241,
        0.115718,
        0.124379,
        0.136562,
        0.133966,
        0.112071,
        0.113217,
        0.123495,
        0.122382,
        0.121373,
        0.107612,
        0.105202,
        0.107567,
        0.10006,
        0.087687,
        0.091471,
        0.10309,
        0.111854,
        0.126878,
        0.117772,
        0.123976,
        0.137166,
        0.129673,
        0.126398,
        0.1145,
        0.117301,
        0.127418,
        0.141804,
        0.148618,
        0.124289,
        0.091822,
        0.087969,
        0.125956,
        0.159535,
        0.168363,
        0.171779,
        0.177179,
        0.182835,
        0.17331,
        0.20243,
        0.196343,
        0.203956,
        0.178365,
        0.162483,
        0.178009,
        0.178972,
        0.163519,
        0.171125,
        0.173487,
        0.170985,
        0.170303,
        0.18426,
        0.187735,
        0.183156,
        0.201306,
        0.214298,
        0.209785,
        0.200006,
        0.206961,
        0.22289,
        0.254245,
        0.26133,
        0.243933,
        0.236469,
        0.234318,
        0.225546,
        0.22045,
        0.222267,
        0.221835,
        0.243951,
        0.231987,
        0.180482,
        0.165563,
        0.193043,
        0.213829,
        0.21392,
        0.213589,
        0.200789,
        0.188325,
        0.174942,
        0.180457,
        0.207277,
        0.233655,
        0.246379,
        0.265633,
        0.265504,
        0.233927,
        0.202645,
        0.195662,
        0.191827,
        0.192036,
        0.209879,
        0.231935,
        0.207815,
        0.185895,
        0.188065,
        0.18537,
        0.183042,
        0.179161,
        0.174691,
        0.186447,
        0.200287,
        0.231545,
        0.21212,
        0.180881,
        0.172576,
        0.193626,
        0.198911,
        0.190104,
        0.199783,
        0.193309,
        0.175267,
        0.146816,
        0.130755,
        0.109265,
        0.152861,
        0.206938,
        0.186814,
        0.198928,
        0.232841,
        0.200946,
        0.144948,
        0.133857,
        0.165043,
        0.157649,
        0.135851,
        0.137259,
        0.159395,
        0.190899,
        0.253539,
        0.303532,
        0.281281,
        0.294555,
        0.292729,
        0.255118,
        0.21467,
        0.222159,
        0.264165,
        0.255879,
        0.218031,
        0.21742,
        0.214006,
        0.206663,
        0.218694,
        0.299997,
        0.334928,
        0.284453,
        0.242822,
        0.219848,
        0.212304,
        0.199558,
        0.207887,
        0.214523,
        0.211236,
        0.214211,
        0.246157,
        0.249991,
        0.24736,
        0.286345,
        0.295214,
        0.259969,
        0.258879,
        0.269643,
        0.27347,
        0.230738,
        0.224644,
        0.208337,
        0.194656,
        0.242496,
        0.257744,
        0.238986,
        0.253042,
        0.377737,
        0.452441,
        0.46131,
        0.47329,
        0.463916,
        0.397803,
        0.380224,
        0.377725,
        0.385324,
        0.380211,
        0.367031,
        0.335646,
        0.330186,
        0.359599,
        0.381818,
        0.390101,
        0.363522,
        0.351142,
        0.36395,
        0.372407,
        0.322865,
        0.262579,
        0.251522,
        0.251722,
        0.278273,
        0.299193,
        0.329113,
        0.36745,
        0.352016,
        0.335818,
        0.314986,
        0.234809,
        0.146213,
        0.161028,
        0.244433,
        0.340934,
        0.405444,
        0.436884,
        0.443542,
        0.428913,
        0.407119,
        0.375978,
        0.372039,
        0.345919,
        0.386577,
        0.422949,
        0.404282,
        0.394936,
        0.39952,
        0.423212,
        0.411192,
        0.400215,
        0.4425,
        0.495314,
        0.504099,
        0.506726,
        0.516541,
        0.485889,
        0.458755,
        0.48286,
        0.500196,
        0.492553,
        0.474056,
        0.488831,
        0.53928,
        0.523705,
        0.476745,
        0.467799,
        0.481679,
        0.45579,
        0.485117,
        0.5115,
        0.520033,
        0.499767,
        0.54379,
        0.55003,
        0.517847,
        0.51359,
        0.518901,
        0.514175,
        0.507045,
        0.531095,
        0.524205,
        0.529956,
        0.501254,
        0.50946,
        0.53726,
        0.535526,
        0.530509,
        0.552774,
        0.540887,
        0.525318,
        0.534742,
        0.547385,
        0.559673,
        0.559737,
        0.506391,
        0.474748,
        0.501925,
        0.52711,
        0.566224,
        0.567986,
        0.546839,
        0.547426,
        0.615788,
        0.577414,
        0.574376,
        0.5976,
        0.567678,
        0.533919,
        0.566103,
        0.576435,
        0.591837,
        0.6073,
        0.615074,
        0.59938,
        0.569008,
        0.539046,
        0.525189,
        0.538621,
        0.571865,
        0.610346,
        0.62976,
        0.614027,
        0.589674,
        0.584271,
        0.586931,
        0.583399,
        0.584391,
        0.602075,
        0.629461,
        0.654952,
        0.667697,
        0.661201,
        0.645639,
        0.632529,
        0.622084,
        0.612504,
        0.605243,
        0.602116,
        0.603106,
        0.607547,
        0.613987,
        0.619349,
        0.614821,
        0.596575,
        0.586435,
        0.603112,
        0.627204,
        0.635888,
        0.630773,
        0.621524,
        0.625607,
        0.670143,
        0.637982,
        0.625378,
        0.632653,
        0.641419,
        0.644185,
        0.638399,
        0.63037,
        0.626874,
        0.627733,
        0.631483,
        0.63849,
        0.64713,
        0.646009,
        0.627844,
        0.611562,
        0.614621,
        0.622379,
        0.618934,
        0.615417,
        0.624736,
        0.655236,
        0.667794,
        0.655703,
        0.645628,
        0.648346,
        0.676728,
        0.699791,
        0.70142,
        0.695787,
        0.689643,
        0.680563,
        0.656729,
        0.638844,
        0.637423,
        0.624615,
        0.61464,
        0.629536,
        0.654596,
        0.668173,
        0.654551,
        0.637639,
        0.648172,
        0.674743,
        0.696184,
        0.6736,
        0.660791,
        0.685144,
        0.698729,
        0.707427,
        0.733443,
        0.741872,
        0.731766,
        0.726008,
        0.714625,
        0.707571,
        0.708233,
        0.719534,
        0.74861,
        0.769888,
        0.722596,
        0.727386,
        0.791551,
        0.800871,
        0.821612,
        0.825471,
        0.782869,
        0.87234,
        0.833534,
        0.751963,
        0.903019,
        0.994855,
        0.923746,
        0.810948,
        0.960276,
        1.188401,
        1.210436,
        1.081229,
        0.886093,
        0.862544,
        1.08865,
        1.295795,
        1.34684,
        1.311658,
        1.157727,
        0.938298,
        0.77772,
        0.913786,
        1.18413,
        1.385601,
        1.455094,
        1.477191,
        1.50436,
        1.486832,
        1.389809,
        1.230825,
        0.989497,
        0.851956,
        1.041702,
        1.266377,
        1.330357,
        1.433837,
        1.479887,
        1.450682,
        1.287212,
        1.014509,
        0.947993,
        1.169466,
        1.32097,
        1.390165,
        1.357232,
        1.193472,
        0.898501,
        0.743957,
        0.942064,
        1.210814,
        1.386253,
        1.485722,
        1.530989,
        1.546224,
        1.557601,
        1.583576,
        1.619276,
        1.642678,
        1.624909,
        1.595752,
        1.61052,
        1.641999,
        1.632719,
        1.63085,
        1.605025,
        1.584885,
        1.557667,
        1.531538,
        1.478976,
        1.446144,
        1.430088,
        1.350525,
        1.151092,
        0.963214,
        1.012154,
        1.198041,
        1.344349,
        1.4275,
        1.465577,
        1.493655,
        1.535491,
        1.584291,
        1.594865,
        1.592951,
        1.583692,
        1.586972,
        1.581641,
        1.541813,
        1.502851,
        1.515809,
        1.55218,
        1.580234,
        1.568078,
        1.545445,
        1.561884,
        1.581401,
        1.577959,
        1.56756,
        1.527322,
        1.521574,
        1.51416,
        1.527305,
        1.525024,
        1.522791,
        1.539834,
        1.543771,
        1.545503,
        1.515569,
        1.510574,
        1.52697,
        1.492777,
        1.449934,
        1.417877,
        1.371403,
        1.359778,
        1.36865,
        1.375914,
        1.373699,
        1.335059,
        1.241431,
        1.049747,
        0.883291,
        0.959148,
        1.140002,
        1.290404,
        1.398192,
        1.452105,
        1.453773,
        1.455251,
        1.459758,
        1.440051,
        1.444752,
        1.433944,
        1.437537,
        1.464398,
        1.474883,
        1.460417,
        1.465128,
        1.482165,
        1.494717,
        1.487239,
        1.483911,
        1.475385,
        1.479772,
        1.448605,
        1.434871,
        1.432891,
        1.447723,
        1.461709,
        1.441973,
        1.450687,
        1.463301,
        1.478634,
        1.49907,
        1.516518,
        1.513195,
        1.496672,
        1.454342,
        1.425696,
        1.410287,
        1.441908,
        1.459334,
        1.430087,
        1.389855,
        1.393807,
        1.412708,
        1.431776,
        1.443067,
        1.438448,
        1.417248,
        1.39756,
        1.406261,
        1.426599,
        1.437684,
        1.448545,
        1.454419,
        1.442,
        1.433541,
        1.432301,
        1.430055,
        1.435143,
        1.441032,
        1.425339,
        1.41501,
        1.430215,
        1.428381,
        1.401579,
        1.388299,
        1.404053,
        1.418022,
        1.423547,
        1.421606,
        1.408192,
        1.382732,
        1.369241,
        1.369905,
        1.382369,
        1.397341,
        1.393192,
        1.366943,
        1.358304,
        1.36725,
        1.375699,
        1.36387,
        1.345583,
        1.33648,
        1.323778,
        1.329997,
        1.342147,
        1.346446,
        1.341522,
        1.337318,
        1.340682,
        1.331227,
        1.315555,
        1.310223,
        1.309266,
        1.293525,
        1.283521,
        1.271548,
        1.261733,
        1.245173,
        1.205922,
        1.118211,
        0.955203,
        0.823393,
        0.866198,
        0.981313,
        1.074297,
        1.146288,
        1.178333,
        1.195898,
        1.22893,
        1.249106,
        1.256125,
        1.240417,
        1.232934,
        1.213113,
        1.217875,
        1.239514,
        1.23802,
        1.244322,
        1.263142,
        1.261562,
        1.24841,
        1.24682,
        1.253026,
        1.250561,
        1.243967,
        1.219369,
        1.213566,
        1.227435,
        1.222439,
        1.216767,
        1.198437,
        1.189213,
        1.170925,
        1.165247,
        1.187673,
        1.206031,
        1.197739,
        1.178103,
        1.184849,
        1.193327,
        1.206711,
        1.227538,
        1.2155,
        1.189878,
        1.172505,
        1.160761,
        1.169052,
        1.189496,
        1.189145,
        1.173689,
        1.181452,
        1.180523,
        1.186515,
        1.182712,
        1.16812,
        1.149947,
        1.141276,
        1.139469,
        1.151461,
        1.154447,
        1.148319,
        1.142006,
        1.097586,
        1.065534,
        1.095265,
        1.118098,
        1.10314,
        1.086193,
        1.088863,
        1.099304,
        1.093631,
        1.105799,
        1.122454,
        1.120976,
        1.091394,
        1.079719,
        1.086982,
        1.101723,
        1.115324,
        1.117921,
        1.107076,
        1.083965,
        1.040002,
        1.023968,
        1.038908,
        1.063572,
        1.086045,
        1.111176,
        1.106347,
        1.096831,
        1.096113,
        1.091685,
        1.08391,
        1.076672,
        1.056289,
        1.049182,
        1.049033,
        1.050538,
        1.066242,
        1.079029,
        1.08899,
        1.081592,
        1.058259,
        1.041493,
        1.048594,
        1.054473,
        1.063268,
        1.0606,
        1.043107,
        1.034249,
        1.024641,
        1.027131,
        1.036361,
        1.044165,
        1.043245,
        1.033424,
        1.035346,
        1.05022,
        1.040983,
        1.04297,
        1.040904,
        1.039282,
        1.033701,
        1.030613,
        1.024558,
        1.023493,
        1.029172,
        1.027081,
        1.026698,
        1.028615,
        1.017575,
        1.010376,
        1.020002,
        1.029076,
        1.010095,
        0.99984,
        1.006093,
        1.014212,
        1.015789,
        1.02098,
        1.014307,
        1.001474,
        1.00057,
        0.99752,
        1.000151,
        0.99207,
        0.975951,
        0.96075,
        0.959899,
        0.959867,
        0.977698,
        0.988763,
        0.976372,
        0.972415,
        0.976118,
        0.980605,
        0.979438,
        0.976003,
        0.973266,
        0.975764,
        0.960596,
        0.947352,
        0.947701,
        0.952743,
        0.962196,
        0.957504,
        0.948926,
        0.951541,
        0.954665,
        0.952144,
        0.942798,
        0.933097,
        0.936117,
        0.938902,
        0.951985,
        0.954182,
        0.947492,
        0.943713,
        0.939133,
        0.93177,
        0.922975,
        0.921161,
        0.925238,
        0.932095,
        0.930698,
        0.922881,
        0.918594,
        0.920442,
        0.916841,
        0.91931,
        0.921301,
        0.922055,
        0.92529,
        0.925652,
        0.924688,
        0.919929,
        0.913982,
        0.913037,
        0.91276,
        0.910597,
        0.897703,
        0.89882,
        0.908434,
        0.913256,
        0.910606,
        0.897495,
        0.876012,
        0.852105,
        0.853852,
        0.873698,
        0.888947,
        0.885635,
        0.88236,
        0.886082,
        0.88019,
        0.871118,
        0.872825,
        0.875912,
        0.864703,
        0.857914,
        0.85816,
        0.862877,
        0.864036,
        0.864301,
        0.857279,
        0.861758,
        0.857889,
        0.853855,
        0.859922,
        0.852928,
        0.842308,
        0.838217,
        0.834566,
        0.83481,
        0.835427,
        0.843375,
        0.849408,
        0.840499,
        0.838217,
        0.836939,
        0.83459,
        0.834354,
        0.833142,
        0.833498,
        0.828241,
        0.827071,
        0.827132,
        0.824422,
        0.819051,
        0.813906,
        0.816764,
        0.820418,
        0.817382,
        0.807863,
        0.809087,
        0.81056,
        0.798713,
        0.793036,
        0.793866,
        0.795137,
        0.793037,
        0.785679,
        0.785846,
        0.789007,
        0.796151,
        0.802699,
        0.800233,
        0.795634,
        0.801533,
        0.804756,
        0.803208,
        0.796444,
        0.791271,
        0.788884,
        0.787946,
        0.782681,
        0.77531,
        0.771442,
        0.766885,
        0.768247,
        0.770891,
        0.774205,
        0.775169,
        0.77303,
        0.76036,
        0.747812,
        0.759685,
        0.766063,
        0.763057,
        0.753267,
        0.756766,
        0.75935,
        0.756103,
        0.753498,
        0.759937,
        0.760002,
        0.755165,
        0.753621,
        0.743909,
        0.746363,
        0.751975,
        0.75239,
        0.748998,
        0.745522,
        0.748658,
        0.746874,
        0.747578,
        0.743519,
        0.736862,
        0.735946,
        0.732365,
        0.729519,
        0.725669,
        0.727183,
        0.728653,
        0.724452,
        0.72689,
        0.728689,
        0.728682,
        0.722432,
        0.710486,
        0.705822,
        0.710575,
        0.71314,
        0.712933,
        0.71076,
        0.704481,
        0.690682,
        0.685831,
        0.700499,
        0.708323,
        0.709309,
        0.702078,
        0.700235,
        0.695731,
        0.688687,
        0.683324,
        0.677884,
        0.66064,
        0.621565,
        0.554536,
        0.47752,
        0.498679,
        0.572874,
        0.619304,
        0.647138,
        0.658832,
        0.663887,
        0.671577,
        0.681941,
        0.686088,
        0.690487,
        0.691413,
        0.687842,
        0.687909,
        0.682278,
        0.678256,
        0.678183,
        0.676521,
        0.678755,
        0.677396,
        0.673963,
        0.673219,
        0.676724,
        0.673365,
        0.668425,
        0.670551,
        0.672543,
        0.67248,
        0.668064,
        0.668075,
        0.670579,
        0.664077,
        0.659663,
        0.660965,
        0.661367,
        0.661332,
        0.66093,
        0.657605,
        0.652204,
        0.649613,
        0.650267,
        0.652124,
        0.650679,
        0.651624,
        0.649936,
        0.647103,
        0.646753,
        0.645446,
        0.644963,
        0.642233,
        0.642857,
        0.644654,
        0.644006,
        0.640594,
        0.637696,
        0.634645,
        0.634348,
        0.631844,
        0.631141,
        0.631901,
        0.632912,
        0.632649,
        0.63033,
        0.626647,
        0.623046,
        0.620913,
        0.620512,
        0.621117,
        0.62151,
        0.620945,
        0.619569,
        0.618164,
        0.617353,
        0.617106,
        0.616954,
        0.61633,
        0.615231,
        0.613997,
        0.612782,
        0.611744,
        0.610748,
        0.609651,
        0.608039,
        0.607894,
        0.602768,
        0.602558,
        0.598386,
        0.598595,
        0.596021,
        0.59241,
        0.595156,
        0.595418,
        0.59862,
        0.595825,
        0.59384,
        0.588782,
        0.585905,
        0.585604,
        0.588403,
        0.59154,
        0.590688,
        0.588127,
        0.587314,
        0.58693,
        0.586982,
        0.586929,
        0.585068,
        0.587506,
        0.583808,
        0.581722,
        0.578017,
        0.572065,
        0.572968,
        0.577879,
        0.580713,
        0.58371,
        0.583286,
        0.577311,
        0.578169,
        0.582931,
        0.578465,
        0.566996,
        0.557998,
        0.55159,
        0.546185,
        0.53639,
        0.538377,
        0.543725,
        0.54434,
        0.549485,
        0.563401,
        0.569517,
        0.566416,
        0.564588,
        0.553939,
        0.544823,
        0.5431,
        0.540714,
        0.542059,
        0.549474,
        0.556047,
        0.558394,
        0.554803,
        0.543043,
        0.545052,
        0.536221,
        0.526293,
        0.534507,
        0.538046,
        0.536287,
        0.533614,
        0.534072,
        0.535761,
        0.537084,
        0.538353,
        0.542806,
        0.543449,
        0.54157,
        0.536787,
        0.536572,
        0.531438,
        0.529261,
        0.528953,
        0.529279,
        0.528589,
        0.520483,
        0.519895,
        0.52669,
        0.529411,
        0.524056,
        0.519299,
        0.520743,
        0.522267,
        0.523238,
        0.521719,
        0.519286,
        0.517094,
        0.515069,
        0.517529,
        0.521026,
        0.519809,
        0.519811,
        0.519326,
        0.517755,
        0.516809,
        0.516209,
        0.514503,
        0.512472,
        0.511107,
        0.507549,
        0.504973,
        0.506376,
        0.508344,
        0.506287,
        0.503956,
        0.504963,
        0.507281,
        0.508617,
        0.508545,
        0.507141,
        0.503757,
        0.500263,
        0.498839,
        0.500393,
        0.50377,
        0.506374,
        0.506065,
        0.502809,
        0.498587,
        0.49581,
        0.495734,
        0.497588,
        0.499051,
        0.497982,
        0.493912,
        0.488167,
        0.482959,
        0.479997,
        0.479531,
        0.480481,
        0.481398,
        0.481454,
        0.480846,
        0.480373,
        0.480617,
        0.481356,
        0.4817,
        0.480863,
        0.478914,
        0.476869,
        0.476264,
        0.477687,
        0.480302,
        0.482921,
        0.484369,
        0.483537,
        0.480328,
        0.47689,
        0.477306,
        0.48033,
        0.481626,
        0.477296,
        0.464432,
        0.458188,
        0.462855,
        0.464943,
        0.466472,
        0.468445,
        0.470904,
        0.472716,
        0.471689,
        0.470352,
        0.468321,
        0.466153,
        0.46378,
        0.464147,
        0.467139,
        0.468913,
        0.468499,
        0.467517,
        0.466607,
        0.464997,
        0.463545,
        0.46057,
        0.458892,
        0.460534,
        0.462452,
        0.464553,
        0.466002,
        0.465248,
        0.460586,
        0.453234,
        0.447505,
        0.448217,
        0.451094,
        0.454303,
        0.453754,
        0.449421,
        0.447022,
        0.44752,
        0.452288,
        0.456828,
        0.459999,
        0.458691,
        0.45331,
        0.447492,
        0.44364,
        0.443154,
        0.441914,
        0.442052,
        0.441228,
        0.442843,
        0.444041,
        0.441735,
        0.439958,
        0.440354,
        0.440068,
        0.435929,
        0.435413,
        0.436653,
        0.438483,
        0.439414,
        0.439731,
        0.436896,
        0.436414,
        0.436832,
        0.437935,
        0.435107,
        0.434288,
        0.436771,
        0.43801,
        0.436019,
        0.433904,
        0.432308,
        0.428573,
        0.42562,
        0.423784,
        0.421251,
        0.418625,
        0.415319,
        0.409866,
        0.407494,
        0.412742,
        0.40753,
        0.403069,
        0.407483,
        0.408419,
        0.402067,
        0.402991,
        0.418613,
        0.427317,
        0.425435,
        0.414088,
        0.39139,
        0.378538,
        0.400423,
        0.418009,
        0.418357,
        0.414525,
        0.410866,
        0.415824,
        0.421884,
        0.420013,
        0.410823,
        0.405688,
        0.405717,
        0.407738,
        0.410874,
        0.410728,
        0.408231,
        0.407057,
        0.407519,
        0.406543,
        0.408777,
        0.40387,
        0.39897,
        0.400266,
        0.404403,
        0.408472,
        0.409243,
        0.410781,
        0.41257,
        0.411651,
        0.410785,
        0.410354,
        0.407435,
        0.406137,
        0.410206,
        0.414735,
        0.412422,
        0.406585,
        0.404332,
        0.407791,
        0.4088,
        0.406601,
        0.402623,
        0.400125,
        0.39325,
        0.397052,
        0.404081,
        0.405278,
        0.39826,
        0.396441,
        0.402443,
        0.410023,
        0.412046,
        0.403861,
        0.377072,
        0.359811,
        0.377314,
        0.394275,
        0.39896,
        0.400084,
        0.400542,
        0.397838,
        0.384644,
        0.347359,
        0.337041,
        0.351836,
        0.373369,
        0.391544,
        0.399622,
        0.399128,
        0.398824,
        0.398237,
        0.393252,
        0.38543,
        0.372118,
        0.370975,
        0.379473,
        0.387404,
        0.39785,
        0.40598,
        0.411209,
        0.410949,
        0.412141,
        0.40914,
        0.402866,
        0.392312,
        0.378771,
        0.352006,
        0.335952,
        0.349292,
        0.368111,
        0.384273,
        0.388478,
        0.386311,
        0.393045,
        0.401688,
        0.402161,
        0.398526,
        0.393098,
        0.388889,
        0.385204,
        0.380801,
        0.370391,
        0.357183,
        0.343138,
        0.334261,
        0.342699,
        0.35357,
        0.359553,
        0.36407,
        0.366125,
        0.369417,
        0.373263,
        0.376021,
        0.375463,
        0.374343,
        0.38883,
        0.389643,
        0.394695,
        0.387765,
        0.385309,
        0.384649,
        0.379414,
        0.374832,
        0.369148,
        0.356944,
        0.341496,
        0.318149,
        0.319367,
        0.341214,
        0.356028,
        0.361901,
        0.369963,
        0.373264,
        0.376822,
        0.379028,
        0.378714,
        0.374698,
        0.378,
        0.377754,
        0.368574,
        0.373386,
        0.378751,
        0.379555,
        0.376972,
        0.375542,
        0.375728,
        0.375153,
        0.364838,
        0.368863,
        0.37022,
        0.364694,
        0.348163,
        0.335996,
        0.345498,
        0.335873,
        0.32389,
        0.303674,
        0.292848,
        0.319165,
        0.337101,
        0.362799,
        0.375739,
        0.383127,
        0.388712,
        0.383638,
        0.377449,
        0.352716,
        0.358875,
        0.355875,
        0.346664,
        0.3439,
        0.340619,
        0.336899,
        0.34231,
        0.35217,
        0.358265,
        0.355374,
        0.358506,
        0.364817,
        0.360123,
        0.351046,
        0.347434,
        0.359633,
        0.359522,
        0.34657,
        0.341513,
        0.355164,
        0.357955,
        0.349359,
        0.344108,
        0.353493,
        0.355229,
        0.358765,
        0.356886,
        0.355547,
        0.352148,
        0.333876,
        0.317802,
        0.316231,
        0.292929,
        0.287159,
        0.306734,
        0.325386,
        0.332563,
        0.348173,
        0.35356,
        0.348964,
        0.357136,
        0.372428,
        0.368824,
        0.367817,
        0.370177,
        0.369555,
        0.35887,
        0.34898,
        0.350241,
        0.340942,
        0.325877,
        0.327848,
        0.332301,
        0.34038,
        0.337914,
        0.337303,
        0.336643,
        0.346642,
        0.325942,
        0.329957,
        0.324912,
        0.314176,
        0.320051,
        0.322885,
        0.338934,
        0.358208,
        0.368466,
        0.358402,
        0.34313,
        0.336839,
        0.332006,
        0.32382,
        0.30504,
        0.303178,
        0.308893,
        0.292865,
        0.309037,
        0.323289,
        0.313402,
        0.313091,
        0.327393,
        0.327616,
        0.322008,
        0.315405,
        0.32581,
        0.318382,
        0.302724,
        0.299989,
        0.323286,
        0.331251,
        0.314526,
        0.30691,
        0.307178,
        0.304242,
        0.302227,
        0.288032,
        0.274797,
        0.284972,
        0.290864,
        0.306588,
        0.299983,
        0.318483,
        0.320687,
        0.31426,
        0.307712,
        0.298112,
        0.304332,
        0.305247,
        0.301836,
        0.307015,
        0.303918,
        0.299592,
        0.302895,
        0.306212,
        0.30386,
        0.304574,
        0.308723,
        0.30093,
        0.297213,
        0.294203,
        0.298545,
        0.306872,
        0.305142,
        0.302023,
        0.304489,
        0.303257,
        0.304605,
        0.301037,
        0.308041,
        0.305182,
        0.3057,
        0.304824,
        0.296344,
        0.295402,
        0.291384,
        0.2909,
        0.293823,
        0.288342,
        0.28813,
        0.293899,
        0.292775,
        0.297277,
        0.293207,
        0.296324,
        0.287183,
        0.288613,
        0.287396,
        0.289426,
        0.294744,
        0.296089,
        0.295281,
        0.295566,
        0.288502,
        0.293489,
        0.286687,
        0.282794,
        0.284324,
        0.282569,
        0.282846,
        0.283424,
        0.290922,
        0.285973,
        0.287687,
        0.292002,
        0.287493,
        0.286155,
        0.285514,
        0.288437,
        0.287203,
        0.286592,
        0.288268,
        0.288309,
        0.283462,
        0.287183,
        0.288298,
        0.275994,
        0.280991,
        0.284268,
        0.273868,
        0.279508,
        0.280035,
        0.284188,
        0.282293,
        0.28338,
        0.274437,
        0.278136,
        0.275537,
        0.274541,
        0.275703,
        0.272833,
        0.266735,
        0.269682,
        0.255256,
        0.24876,
        0.260635,
        0.253779,
        0.230798,
        0.224703,
        0.222638,
        0.252643,
        0.253835,
        0.253524,
        0.25795,
        0.257588,
        0.266342,
        0.269446,
        0.263463,
        0.260292,
        0.260109,
        0.259768,
        0.259539,
        0.259696,
        0.260424,
        0.261561,
        0.262856,
        0.26406,
        0.264982,
        0.265666,
        0.266216,
        0.266735,
        0.267242,
        0.267423,
        0.26688,
        0.265215,
        0.26226,
        0.258776,
        0.255751,
        0.254177,
        0.254694,
        0.25654,
        0.258604,
        0.259772,
        0.259242,
        0.257444,
        0.255116,
        0.252996,
        0.251693,
        0.251293,
        0.25175,
        0.25302,
        0.25496,
        0.25703,
        0.258592,
        0.25901,
        0.257893,
        0.255843,
        0.253712,
        0.25235,
        0.251946,
        0.25221,
        0.252502,
        0.252427,
        0.251722,
        0.250622,
        0.249491,
        0.24869,
        0.248481,
        0.248721,
        0.249163,
        0.249561,
        0.249716,
        0.249619,
        0.249305,
        0.248811,
        0.248188,
        0.247545,
        0.247006,
        0.246695,
        0.246665,
        0.246685,
        0.246453,
        0.245667,
        0.244159,
        0.242299,
        0.240592,
        0.23954,
        0.239483,
        0.240093,
        0.240877,
        0.241343,
        0.241148,
        0.240552,
        0.239968,
        0.239808,
        0.240337,
        0.241231,
        0.242021,
        0.242237
      ],
      "range":1
    }
  }
]
