[
  {
    "model":"Star, type A47(iv)",
    "name":"Star, type A47(iv)",
    "type":"WB_REF",
    "dataQualityMarker":3,
    "dataSource":"https://www.eso.org/sci/facilities/paranal/decommissioned/isaac/tools/lib.html",
    "manufacturer":"A. Pickles (A.J. Pickles, PASP 110,863, 1998)",
    "version":1,
    "wavelength":{
      "value":[
        1150.0,
        1155.0,
        1160.0,
        1165.0,
        1170.0,
        1175.0,
        1180.0,
        1185.0,
        1190.0,
        1195.0,
        1200.0,
        1205.0,
        1210.0,
        1215.0,
        1220.0,
        1225.0,
        1230.0,
        1235.0,
        1240.0,
        1245.0,
        1250.0,
        1255.0,
        1260.0,
        1265.0,
        1270.0,
        1275.0,
        1280.0,
        1285.0,
        1290.0,
        1295.0,
        1300.0,
        1305.0,
        1310.0,
        1315.0,
        1320.0,
        1325.0,
        1330.0,
        1335.0,
        1340.0,
        1345.0,
        1350.0,
        1355.0,
        1360.0,
        1365.0,
        1370.0,
        1375.0,
        1380.0,
        1385.0,
        1390.0,
        1395.0,
        1400.0,
        1405.0,
        1410.0,
        1415.0,
        1420.0,
        1425.0,
        1430.0,
        1435.0,
        1440.0,
        1445.0,
        1450.0,
        1455.0,
        1460.0,
        1465.0,
        1470.0,
        1475.0,
        1480.0,
        1485.0,
        1490.0,
        1495.0,
        1500.0,
        1505.0,
        1510.0,
        1515.0,
        1520.0,
        1525.0,
        1530.0,
        1535.0,
        1540.0,
        1545.0,
        1550.0,
        1555.0,
        1560.0,
        1565.0,
        1570.0,
        1575.0,
        1580.0,
        1585.0,
        1590.0,
        1595.0,
        1600.0,
        1605.0,
        1610.0,
        1615.0,
        1620.0,
        1625.0,
        1630.0,
        1635.0,
        1640.0,
        1645.0,
        1650.0,
        1655.0,
        1660.0,
        1665.0,
        1670.0,
        1675.0,
        1680.0,
        1685.0,
        1690.0,
        1695.0,
        1700.0,
        1705.0,
        1710.0,
        1715.0,
        1720.0,
        1725.0,
        1730.0,
        1735.0,
        1740.0,
        1745.0,
        1750.0,
        1755.0,
        1760.0,
        1765.0,
        1770.0,
        1775.0,
        1780.0,
        1785.0,
        1790.0,
        1795.0,
        1800.0,
        1805.0,
        1810.0,
        1815.0,
        1820.0,
        1825.0,
        1830.0,
        1835.0,
        1840.0,
        1845.0,
        1850.0,
        1855.0,
        1860.0,
        1865.0,
        1870.0,
        1875.0,
        1880.0,
        1885.0,
        1890.0,
        1895.0,
        1900.0,
        1905.0,
        1910.0,
        1915.0,
        1920.0,
        1925.0,
        1930.0,
        1935.0,
        1940.0,
        1945.0,
        1950.0,
        1955.0,
        1960.0,
        1965.0,
        1970.0,
        1975.0,
        1980.0,
        1985.0,
        1990.0,
        1995.0,
        2000.0,
        2005.0,
        2010.0,
        2015.0,
        2020.0,
        2025.0,
        2030.0,
        2035.0,
        2040.0,
        2045.0,
        2050.0,
        2055.0,
        2060.0,
        2065.0,
        2070.0,
        2075.0,
        2080.0,
        2085.0,
        2090.0,
        2095.0,
        2100.0,
        2105.0,
        2110.0,
        2115.0,
        2120.0,
        2125.0,
        2130.0,
        2135.0,
        2140.0,
        2145.0,
        2150.0,
        2155.0,
        2160.0,
        2165.0,
        2170.0,
        2175.0,
        2180.0,
        2185.0,
        2190.0,
        2195.0,
        2200.0,
        2205.0,
        2210.0,
        2215.0,
        2220.0,
        2225.0,
        2230.0,
        2235.0,
        2240.0,
        2245.0,
        2250.0,
        2255.0,
        2260.0,
        2265.0,
        2270.0,
        2275.0,
        2280.0,
        2285.0,
        2290.0,
        2295.0,
        2300.0,
        2305.0,
        2310.0,
        2315.0,
        2320.0,
        2325.0,
        2330.0,
        2335.0,
        2340.0,
        2345.0,
        2350.0,
        2355.0,
        2360.0,
        2365.0,
        2370.0,
        2375.0,
        2380.0,
        2385.0,
        2390.0,
        2395.0,
        2400.0,
        2405.0,
        2410.0,
        2415.0,
        2420.0,
        2425.0,
        2430.0,
        2435.0,
        2440.0,
        2445.0,
        2450.0,
        2455.0,
        2460.0,
        2465.0,
        2470.0,
        2475.0,
        2480.0,
        2485.0,
        2490.0,
        2495.0,
        2500.0,
        2505.0,
        2510.0,
        2515.0,
        2520.0,
        2525.0,
        2530.0,
        2535.0,
        2540.0,
        2545.0,
        2550.0,
        2555.0,
        2560.0,
        2565.0,
        2570.0,
        2575.0,
        2580.0,
        2585.0,
        2590.0,
        2595.0,
        2600.0,
        2605.0,
        2610.0,
        2615.0,
        2620.0,
        2625.0,
        2630.0,
        2635.0,
        2640.0,
        2645.0,
        2650.0,
        2655.0,
        2660.0,
        2665.0,
        2670.0,
        2675.0,
        2680.0,
        2685.0,
        2690.0,
        2695.0,
        2700.0,
        2705.0,
        2710.0,
        2715.0,
        2720.0,
        2725.0,
        2730.0,
        2735.0,
        2740.0,
        2745.0,
        2750.0,
        2755.0,
        2760.0,
        2765.0,
        2770.0,
        2775.0,
        2780.0,
        2785.0,
        2790.0,
        2795.0,
        2800.0,
        2805.0,
        2810.0,
        2815.0,
        2820.0,
        2825.0,
        2830.0,
        2835.0,
        2840.0,
        2845.0,
        2850.0,
        2855.0,
        2860.0,
        2865.0,
        2870.0,
        2875.0,
        2880.0,
        2885.0,
        2890.0,
        2895.0,
        2900.0,
        2905.0,
        2910.0,
        2915.0,
        2920.0,
        2925.0,
        2930.0,
        2935.0,
        2940.0,
        2945.0,
        2950.0,
        2955.0,
        2960.0,
        2965.0,
        2970.0,
        2975.0,
        2980.0,
        2985.0,
        2990.0,
        2995.0,
        3000.0,
        3005.0,
        3010.0,
        3015.0,
        3020.0,
        3025.0,
        3030.0,
        3035.0,
        3040.0,
        3045.0,
        3050.0,
        3055.0,
        3060.0,
        3065.0,
        3070.0,
        3075.0,
        3080.0,
        3085.0,
        3090.0,
        3095.0,
        3100.0,
        3105.0,
        3110.0,
        3115.0,
        3120.0,
        3125.0,
        3130.0,
        3135.0,
        3140.0,
        3145.0,
        3150.0,
        3155.0,
        3160.0,
        3165.0,
        3170.0,
        3175.0,
        3180.0,
        3185.0,
        3190.0,
        3195.0,
        3200.0,
        3205.0,
        3210.0,
        3215.0,
        3220.0,
        3225.0,
        3230.0,
        3235.0,
        3240.0,
        3245.0,
        3250.0,
        3255.0,
        3260.0,
        3265.0,
        3270.0,
        3275.0,
        3280.0,
        3285.0,
        3290.0,
        3295.0,
        3300.0,
        3305.0,
        3310.0,
        3315.0,
        3320.0,
        3325.0,
        3330.0,
        3335.0,
        3340.0,
        3345.0,
        3350.0,
        3355.0,
        3360.0,
        3365.0,
        3370.0,
        3375.0,
        3380.0,
        3385.0,
        3390.0,
        3395.0,
        3400.0,
        3405.0,
        3410.0,
        3415.0,
        3420.0,
        3425.0,
        3430.0,
        3435.0,
        3440.0,
        3445.0,
        3450.0,
        3455.0,
        3460.0,
        3465.0,
        3470.0,
        3475.0,
        3480.0,
        3485.0,
        3490.0,
        3495.0,
        3500.0,
        3505.0,
        3510.0,
        3515.0,
        3520.0,
        3525.0,
        3530.0,
        3535.0,
        3540.0,
        3545.0,
        3550.0,
        3555.0,
        3560.0,
        3565.0,
        3570.0,
        3575.0,
        3580.0,
        3585.0,
        3590.0,
        3595.0,
        3600.0,
        3605.0,
        3610.0,
        3615.0,
        3620.0,
        3625.0,
        3630.0,
        3635.0,
        3640.0,
        3645.0,
        3650.0,
        3655.0,
        3660.0,
        3665.0,
        3670.0,
        3675.0,
        3680.0,
        3685.0,
        3690.0,
        3695.0,
        3700.0,
        3705.0,
        3710.0,
        3715.0,
        3720.0,
        3725.0,
        3730.0,
        3735.0,
        3740.0,
        3745.0,
        3750.0,
        3755.0,
        3760.0,
        3765.0,
        3770.0,
        3775.0,
        3780.0,
        3785.0,
        3790.0,
        3795.0,
        3800.0,
        3805.0,
        3810.0,
        3815.0,
        3820.0,
        3825.0,
        3830.0,
        3835.0,
        3840.0,
        3845.0,
        3850.0,
        3855.0,
        3860.0,
        3865.0,
        3870.0,
        3875.0,
        3880.0,
        3885.0,
        3890.0,
        3895.0,
        3900.0,
        3905.0,
        3910.0,
        3915.0,
        3920.0,
        3925.0,
        3930.0,
        3935.0,
        3940.0,
        3945.0,
        3950.0,
        3955.0,
        3960.0,
        3965.0,
        3970.0,
        3975.0,
        3980.0,
        3985.0,
        3990.0,
        3995.0,
        4000.0,
        4005.0,
        4010.0,
        4015.0,
        4020.0,
        4025.0,
        4030.0,
        4035.0,
        4040.0,
        4045.0,
        4050.0,
        4055.0,
        4060.0,
        4065.0,
        4070.0,
        4075.0,
        4080.0,
        4085.0,
        4090.0,
        4095.0,
        4100.0,
        4105.0,
        4110.0,
        4115.0,
        4120.0,
        4125.0,
        4130.0,
        4135.0,
        4140.0,
        4145.0,
        4150.0,
        4155.0,
        4160.0,
        4165.0,
        4170.0,
        4175.0,
        4180.0,
        4185.0,
        4190.0,
        4195.0,
        4200.0,
        4205.0,
        4210.0,
        4215.0,
        4220.0,
        4225.0,
        4230.0,
        4235.0,
        4240.0,
        4245.0,
        4250.0,
        4255.0,
        4260.0,
        4265.0,
        4270.0,
        4275.0,
        4280.0,
        4285.0,
        4290.0,
        4295.0,
        4300.0,
        4305.0,
        4310.0,
        4315.0,
        4320.0,
        4325.0,
        4330.0,
        4335.0,
        4340.0,
        4345.0,
        4350.0,
        4355.0,
        4360.0,
        4365.0,
        4370.0,
        4375.0,
        4380.0,
        4385.0,
        4390.0,
        4395.0,
        4400.0,
        4405.0,
        4410.0,
        4415.0,
        4420.0,
        4425.0,
        4430.0,
        4435.0,
        4440.0,
        4445.0,
        4450.0,
        4455.0,
        4460.0,
        4465.0,
        4470.0,
        4475.0,
        4480.0,
        4485.0,
        4490.0,
        4495.0,
        4500.0,
        4505.0,
        4510.0,
        4515.0,
        4520.0,
        4525.0,
        4530.0,
        4535.0,
        4540.0,
        4545.0,
        4550.0,
        4555.0,
        4560.0,
        4565.0,
        4570.0,
        4575.0,
        4580.0,
        4585.0,
        4590.0,
        4595.0,
        4600.0,
        4605.0,
        4610.0,
        4615.0,
        4620.0,
        4625.0,
        4630.0,
        4635.0,
        4640.0,
        4645.0,
        4650.0,
        4655.0,
        4660.0,
        4665.0,
        4670.0,
        4675.0,
        4680.0,
        4685.0,
        4690.0,
        4695.0,
        4700.0,
        4705.0,
        4710.0,
        4715.0,
        4720.0,
        4725.0,
        4730.0,
        4735.0,
        4740.0,
        4745.0,
        4750.0,
        4755.0,
        4760.0,
        4765.0,
        4770.0,
        4775.0,
        4780.0,
        4785.0,
        4790.0,
        4795.0,
        4800.0,
        4805.0,
        4810.0,
        4815.0,
        4820.0,
        4825.0,
        4830.0,
        4835.0,
        4840.0,
        4845.0,
        4850.0,
        4855.0,
        4860.0,
        4865.0,
        4870.0,
        4875.0,
        4880.0,
        4885.0,
        4890.0,
        4895.0,
        4900.0,
        4905.0,
        4910.0,
        4915.0,
        4920.0,
        4925.0,
        4930.0,
        4935.0,
        4940.0,
        4945.0,
        4950.0,
        4955.0,
        4960.0,
        4965.0,
        4970.0,
        4975.0,
        4980.0,
        4985.0,
        4990.0,
        4995.0,
        5000.0,
        5005.0,
        5010.0,
        5015.0,
        5020.0,
        5025.0,
        5030.0,
        5035.0,
        5040.0,
        5045.0,
        5050.0,
        5055.0,
        5060.0,
        5065.0,
        5070.0,
        5075.0,
        5080.0,
        5085.0,
        5090.0,
        5095.0,
        5100.0,
        5105.0,
        5110.0,
        5115.0,
        5120.0,
        5125.0,
        5130.0,
        5135.0,
        5140.0,
        5145.0,
        5150.0,
        5155.0,
        5160.0,
        5165.0,
        5170.0,
        5175.0,
        5180.0,
        5185.0,
        5190.0,
        5195.0,
        5200.0,
        5205.0,
        5210.0,
        5215.0,
        5220.0,
        5225.0,
        5230.0,
        5235.0,
        5240.0,
        5245.0,
        5250.0,
        5255.0,
        5260.0,
        5265.0,
        5270.0,
        5275.0,
        5280.0,
        5285.0,
        5290.0,
        5295.0,
        5300.0,
        5305.0,
        5310.0,
        5315.0,
        5320.0,
        5325.0,
        5330.0,
        5335.0,
        5340.0,
        5345.0,
        5350.0,
        5355.0,
        5360.0,
        5365.0,
        5370.0,
        5375.0,
        5380.0,
        5385.0,
        5390.0,
        5395.0,
        5400.0,
        5405.0,
        5410.0,
        5415.0,
        5420.0,
        5425.0,
        5430.0,
        5435.0,
        5440.0,
        5445.0,
        5450.0,
        5455.0,
        5460.0,
        5465.0,
        5470.0,
        5475.0,
        5480.0,
        5485.0,
        5490.0,
        5495.0,
        5500.0,
        5505.0,
        5510.0,
        5515.0,
        5520.0,
        5525.0,
        5530.0,
        5535.0,
        5540.0,
        5545.0,
        5550.0,
        5555.0,
        5560.0,
        5565.0,
        5570.0,
        5575.0,
        5580.0,
        5585.0,
        5590.0,
        5595.0,
        5600.0,
        5605.0,
        5610.0,
        5615.0,
        5620.0,
        5625.0,
        5630.0,
        5635.0,
        5640.0,
        5645.0,
        5650.0,
        5655.0,
        5660.0,
        5665.0,
        5670.0,
        5675.0,
        5680.0,
        5685.0,
        5690.0,
        5695.0,
        5700.0,
        5705.0,
        5710.0,
        5715.0,
        5720.0,
        5725.0,
        5730.0,
        5735.0,
        5740.0,
        5745.0,
        5750.0,
        5755.0,
        5760.0,
        5765.0,
        5770.0,
        5775.0,
        5780.0,
        5785.0,
        5790.0,
        5795.0,
        5800.0,
        5805.0,
        5810.0,
        5815.0,
        5820.0,
        5825.0,
        5830.0,
        5835.0,
        5840.0,
        5845.0,
        5850.0,
        5855.0,
        5860.0,
        5865.0,
        5870.0,
        5875.0,
        5880.0,
        5885.0,
        5890.0,
        5895.0,
        5900.0,
        5905.0,
        5910.0,
        5915.0,
        5920.0,
        5925.0,
        5930.0,
        5935.0,
        5940.0,
        5945.0,
        5950.0,
        5955.0,
        5960.0,
        5965.0,
        5970.0,
        5975.0,
        5980.0,
        5985.0,
        5990.0,
        5995.0,
        6000.0,
        6005.0,
        6010.0,
        6015.0,
        6020.0,
        6025.0,
        6030.0,
        6035.0,
        6040.0,
        6045.0,
        6050.0,
        6055.0,
        6060.0,
        6065.0,
        6070.0,
        6075.0,
        6080.0,
        6085.0,
        6090.0,
        6095.0,
        6100.0,
        6105.0,
        6110.0,
        6115.0,
        6120.0,
        6125.0,
        6130.0,
        6135.0,
        6140.0,
        6145.0,
        6150.0,
        6155.0,
        6160.0,
        6165.0,
        6170.0,
        6175.0,
        6180.0,
        6185.0,
        6190.0,
        6195.0,
        6200.0,
        6205.0,
        6210.0,
        6215.0,
        6220.0,
        6225.0,
        6230.0,
        6235.0,
        6240.0,
        6245.0,
        6250.0,
        6255.0,
        6260.0,
        6265.0,
        6270.0,
        6275.0,
        6280.0,
        6285.0,
        6290.0,
        6295.0,
        6300.0,
        6305.0,
        6310.0,
        6315.0,
        6320.0,
        6325.0,
        6330.0,
        6335.0,
        6340.0,
        6345.0,
        6350.0,
        6355.0,
        6360.0,
        6365.0,
        6370.0,
        6375.0,
        6380.0,
        6385.0,
        6390.0,
        6395.0,
        6400.0,
        6405.0,
        6410.0,
        6415.0,
        6420.0,
        6425.0,
        6430.0,
        6435.0,
        6440.0,
        6445.0,
        6450.0,
        6455.0,
        6460.0,
        6465.0,
        6470.0,
        6475.0,
        6480.0,
        6485.0,
        6490.0,
        6495.0,
        6500.0,
        6505.0,
        6510.0,
        6515.0,
        6520.0,
        6525.0,
        6530.0,
        6535.0,
        6540.0,
        6545.0,
        6550.0,
        6555.0,
        6560.0,
        6565.0,
        6570.0,
        6575.0,
        6580.0,
        6585.0,
        6590.0,
        6595.0,
        6600.0,
        6605.0,
        6610.0,
        6615.0,
        6620.0,
        6625.0,
        6630.0,
        6635.0,
        6640.0,
        6645.0,
        6650.0,
        6655.0,
        6660.0,
        6665.0,
        6670.0,
        6675.0,
        6680.0,
        6685.0,
        6690.0,
        6695.0,
        6700.0,
        6705.0,
        6710.0,
        6715.0,
        6720.0,
        6725.0,
        6730.0,
        6735.0,
        6740.0,
        6745.0,
        6750.0,
        6755.0,
        6760.0,
        6765.0,
        6770.0,
        6775.0,
        6780.0,
        6785.0,
        6790.0,
        6795.0,
        6800.0,
        6805.0,
        6810.0,
        6815.0,
        6820.0,
        6825.0,
        6830.0,
        6835.0,
        6840.0,
        6845.0,
        6850.0,
        6855.0,
        6860.0,
        6865.0,
        6870.0,
        6875.0,
        6880.0,
        6885.0,
        6890.0,
        6895.0,
        6900.0,
        6905.0,
        6910.0,
        6915.0,
        6920.0,
        6925.0,
        6930.0,
        6935.0,
        6940.0,
        6945.0,
        6950.0,
        6955.0,
        6960.0,
        6965.0,
        6970.0,
        6975.0,
        6980.0,
        6985.0,
        6990.0,
        6995.0,
        7000.0,
        7005.0,
        7010.0,
        7015.0,
        7020.0,
        7025.0,
        7030.0,
        7035.0,
        7040.0,
        7045.0,
        7050.0,
        7055.0,
        7060.0,
        7065.0,
        7070.0,
        7075.0,
        7080.0,
        7085.0,
        7090.0,
        7095.0,
        7100.0,
        7105.0,
        7110.0,
        7115.0,
        7120.0,
        7125.0,
        7130.0,
        7135.0,
        7140.0,
        7145.0,
        7150.0,
        7155.0,
        7160.0,
        7165.0,
        7170.0,
        7175.0,
        7180.0,
        7185.0,
        7190.0,
        7195.0,
        7200.0,
        7205.0,
        7210.0,
        7215.0,
        7220.0,
        7225.0,
        7230.0,
        7235.0,
        7240.0,
        7245.0,
        7250.0,
        7255.0,
        7260.0,
        7265.0,
        7270.0,
        7275.0,
        7280.0,
        7285.0,
        7290.0,
        7295.0,
        7300.0,
        7305.0,
        7310.0,
        7315.0,
        7320.0,
        7325.0,
        7330.0,
        7335.0,
        7340.0,
        7345.0,
        7350.0,
        7355.0,
        7360.0,
        7365.0,
        7370.0,
        7375.0,
        7380.0,
        7385.0,
        7390.0,
        7395.0,
        7400.0,
        7405.0,
        7410.0,
        7415.0,
        7420.0,
        7425.0,
        7430.0,
        7435.0,
        7440.0,
        7445.0,
        7450.0,
        7455.0,
        7460.0,
        7465.0,
        7470.0,
        7475.0,
        7480.0,
        7485.0,
        7490.0,
        7495.0,
        7500.0,
        7505.0,
        7510.0,
        7515.0,
        7520.0,
        7525.0,
        7530.0,
        7535.0,
        7540.0,
        7545.0,
        7550.0,
        7555.0,
        7560.0,
        7565.0,
        7570.0,
        7575.0,
        7580.0,
        7585.0,
        7590.0,
        7595.0,
        7600.0,
        7605.0,
        7610.0,
        7615.0,
        7620.0,
        7625.0,
        7630.0,
        7635.0,
        7640.0,
        7645.0,
        7650.0,
        7655.0,
        7660.0,
        7665.0,
        7670.0,
        7675.0,
        7680.0,
        7685.0,
        7690.0,
        7695.0,
        7700.0,
        7705.0,
        7710.0,
        7715.0,
        7720.0,
        7725.0,
        7730.0,
        7735.0,
        7740.0,
        7745.0,
        7750.0,
        7755.0,
        7760.0,
        7765.0,
        7770.0,
        7775.0,
        7780.0,
        7785.0,
        7790.0,
        7795.0,
        7800.0,
        7805.0,
        7810.0,
        7815.0,
        7820.0,
        7825.0,
        7830.0,
        7835.0,
        7840.0,
        7845.0,
        7850.0,
        7855.0,
        7860.0,
        7865.0,
        7870.0,
        7875.0,
        7880.0,
        7885.0,
        7890.0,
        7895.0,
        7900.0,
        7905.0,
        7910.0,
        7915.0,
        7920.0,
        7925.0,
        7930.0,
        7935.0,
        7940.0,
        7945.0,
        7950.0,
        7955.0,
        7960.0,
        7965.0,
        7970.0,
        7975.0,
        7980.0,
        7985.0,
        7990.0,
        7995.0,
        8000.0,
        8005.0,
        8010.0,
        8015.0,
        8020.0,
        8025.0,
        8030.0,
        8035.0,
        8040.0,
        8045.0,
        8050.0,
        8055.0,
        8060.0,
        8065.0,
        8070.0,
        8075.0,
        8080.0,
        8085.0,
        8090.0,
        8095.0,
        8100.0,
        8105.0,
        8110.0,
        8115.0,
        8120.0,
        8125.0,
        8130.0,
        8135.0,
        8140.0,
        8145.0,
        8150.0,
        8155.0,
        8160.0,
        8165.0,
        8170.0,
        8175.0,
        8180.0,
        8185.0,
        8190.0,
        8195.0,
        8200.0,
        8205.0,
        8210.0,
        8215.0,
        8220.0,
        8225.0,
        8230.0,
        8235.0,
        8240.0,
        8245.0,
        8250.0,
        8255.0,
        8260.0,
        8265.0,
        8270.0,
        8275.0,
        8280.0,
        8285.0,
        8290.0,
        8295.0,
        8300.0,
        8305.0,
        8310.0,
        8315.0,
        8320.0,
        8325.0,
        8330.0,
        8335.0,
        8340.0,
        8345.0,
        8350.0,
        8355.0,
        8360.0,
        8365.0,
        8370.0,
        8375.0,
        8380.0,
        8385.0,
        8390.0,
        8395.0,
        8400.0,
        8405.0,
        8410.0,
        8415.0,
        8420.0,
        8425.0,
        8430.0,
        8435.0,
        8440.0,
        8445.0,
        8450.0,
        8455.0,
        8460.0,
        8465.0,
        8470.0,
        8475.0,
        8480.0,
        8485.0,
        8490.0,
        8495.0,
        8500.0,
        8505.0,
        8510.0,
        8515.0,
        8520.0,
        8525.0,
        8530.0,
        8535.0,
        8540.0,
        8545.0,
        8550.0,
        8555.0,
        8560.0,
        8565.0,
        8570.0,
        8575.0,
        8580.0,
        8585.0,
        8590.0,
        8595.0,
        8600.0,
        8605.0,
        8610.0,
        8615.0,
        8620.0,
        8625.0,
        8630.0,
        8635.0,
        8640.0,
        8645.0,
        8650.0,
        8655.0,
        8660.0,
        8665.0,
        8670.0,
        8675.0,
        8680.0,
        8685.0,
        8690.0,
        8695.0,
        8700.0,
        8705.0,
        8710.0,
        8715.0,
        8720.0,
        8725.0,
        8730.0,
        8735.0,
        8740.0,
        8745.0,
        8750.0,
        8755.0,
        8760.0,
        8765.0,
        8770.0,
        8775.0,
        8780.0,
        8785.0,
        8790.0,
        8795.0,
        8800.0,
        8805.0,
        8810.0,
        8815.0,
        8820.0,
        8825.0,
        8830.0,
        8835.0,
        8840.0,
        8845.0,
        8850.0,
        8855.0,
        8860.0,
        8865.0,
        8870.0,
        8875.0,
        8880.0,
        8885.0,
        8890.0,
        8895.0,
        8900.0,
        8905.0,
        8910.0,
        8915.0,
        8920.0,
        8925.0,
        8930.0,
        8935.0,
        8940.0,
        8945.0,
        8950.0,
        8955.0,
        8960.0,
        8965.0,
        8970.0,
        8975.0,
        8980.0,
        8985.0,
        8990.0,
        8995.0,
        9000.0,
        9005.0,
        9010.0,
        9015.0,
        9020.0,
        9025.0,
        9030.0,
        9035.0,
        9040.0,
        9045.0,
        9050.0,
        9055.0,
        9060.0,
        9065.0,
        9070.0,
        9075.0,
        9080.0,
        9085.0,
        9090.0,
        9095.0,
        9100.0,
        9105.0,
        9110.0,
        9115.0,
        9120.0,
        9125.0,
        9130.0,
        9135.0,
        9140.0,
        9145.0,
        9150.0,
        9155.0,
        9160.0,
        9165.0,
        9170.0,
        9175.0,
        9180.0,
        9185.0,
        9190.0,
        9195.0,
        9200.0,
        9205.0,
        9210.0,
        9215.0,
        9220.0,
        9225.0,
        9230.0,
        9235.0,
        9240.0,
        9245.0,
        9250.0,
        9255.0,
        9260.0,
        9265.0,
        9270.0,
        9275.0,
        9280.0,
        9285.0,
        9290.0,
        9295.0,
        9300.0,
        9305.0,
        9310.0,
        9315.0,
        9320.0,
        9325.0,
        9330.0,
        9335.0,
        9340.0,
        9345.0,
        9350.0,
        9355.0,
        9360.0,
        9365.0,
        9370.0,
        9375.0,
        9380.0,
        9385.0,
        9390.0,
        9395.0,
        9400.0,
        9405.0,
        9410.0,
        9415.0,
        9420.0,
        9425.0,
        9430.0,
        9435.0,
        9440.0,
        9445.0,
        9450.0,
        9455.0,
        9460.0,
        9465.0,
        9470.0,
        9475.0,
        9480.0,
        9485.0,
        9490.0,
        9495.0,
        9500.0,
        9505.0,
        9510.0,
        9515.0,
        9520.0,
        9525.0,
        9530.0,
        9535.0,
        9540.0,
        9545.0,
        9550.0,
        9555.0,
        9560.0,
        9565.0,
        9570.0,
        9575.0,
        9580.0,
        9585.0,
        9590.0,
        9595.0,
        9600.0,
        9605.0,
        9610.0,
        9615.0,
        9620.0,
        9625.0,
        9630.0,
        9635.0,
        9640.0,
        9645.0,
        9650.0,
        9655.0,
        9660.0,
        9665.0,
        9670.0,
        9675.0,
        9680.0,
        9685.0,
        9690.0,
        9695.0,
        9700.0,
        9705.0,
        9710.0,
        9715.0,
        9720.0,
        9725.0,
        9730.0,
        9735.0,
        9740.0,
        9745.0,
        9750.0,
        9755.0,
        9760.0,
        9765.0,
        9770.0,
        9775.0,
        9780.0,
        9785.0,
        9790.0,
        9795.0,
        9800.0,
        9805.0,
        9810.0,
        9815.0,
        9820.0,
        9825.0,
        9830.0,
        9835.0,
        9840.0,
        9845.0,
        9850.0,
        9855.0,
        9860.0,
        9865.0,
        9870.0,
        9875.0,
        9880.0,
        9885.0,
        9890.0,
        9895.0,
        9900.0,
        9905.0,
        9910.0,
        9915.0,
        9920.0,
        9925.0,
        9930.0,
        9935.0,
        9940.0,
        9945.0,
        9950.0,
        9955.0,
        9960.0,
        9965.0,
        9970.0,
        9975.0,
        9980.0,
        9985.0,
        9990.0,
        9995.0,
        10000.0,
        10005.0,
        10010.0,
        10015.0,
        10020.0,
        10025.0,
        10030.0,
        10035.0,
        10040.0,
        10045.0,
        10050.0,
        10055.0,
        10060.0,
        10065.0,
        10070.0,
        10075.0,
        10080.0,
        10085.0,
        10090.0,
        10095.0,
        10100.0,
        10105.0,
        10110.0,
        10115.0,
        10120.0,
        10125.0,
        10130.0,
        10135.0,
        10140.0,
        10145.0,
        10150.0,
        10155.0,
        10160.0,
        10165.0,
        10170.0,
        10175.0,
        10180.0,
        10185.0,
        10190.0,
        10195.0,
        10200.0,
        10205.0,
        10210.0,
        10215.0,
        10220.0,
        10225.0,
        10230.0,
        10235.0,
        10240.0,
        10245.0,
        10250.0,
        10255.0,
        10260.0,
        10265.0,
        10270.0,
        10275.0,
        10280.0,
        10285.0,
        10290.0,
        10295.0,
        10300.0,
        10305.0,
        10310.0,
        10315.0,
        10320.0,
        10325.0,
        10330.0,
        10335.0,
        10340.0,
        10345.0,
        10350.0,
        10355.0,
        10360.0,
        10365.0,
        10370.0,
        10375.0,
        10380.0,
        10385.0,
        10390.0,
        10395.0,
        10400.0,
        10405.0,
        10410.0,
        10415.0,
        10420.0,
        10425.0,
        10430.0,
        10435.0,
        10440.0,
        10445.0,
        10450.0,
        10455.0,
        10460.0,
        10465.0,
        10470.0,
        10475.0,
        10480.0,
        10485.0,
        10490.0,
        10495.0,
        10500.0
      ],
      "units":"angstrom"
    },
    "values":{
      "value":[
        0.016382,
        0.0111,
        0.007573,
        0.0,
        0.0,
        0.002963,
        0.004812,
        0.0,
        0.0,
        0.0,
        0.0,
        0.003479,
        0.01213,
        0.021089,
        0.012803,
        0.004961,
        0.001935,
        0.004621,
        0.006628,
        0.003106,
        0.004505,
        0.002873,
        0.002064,
        0.000741,
        0.001831,
        0.002796,
        0.002645,
        0.00101,
        0.002057,
        0.001795,
        0.002932,
        0.001859,
        0.002227,
        0.001077,
        0.002648,
        0.003148,
        0.002297,
        0.004517,
        0.004731,
        0.005058,
        0.00337,
        0.003829,
        0.004222,
        0.004849,
        0.00421,
        0.004876,
        0.006149,
        0.004759,
        0.00393,
        0.004567,
        0.005385,
        0.005748,
        0.006051,
        0.006528,
        0.004609,
        0.003372,
        0.003379,
        0.007166,
        0.006992,
        0.00925,
        0.009611,
        0.009496,
        0.006863,
        0.008684,
        0.010911,
        0.009583,
        0.006998,
        0.009806,
        0.010642,
        0.013559,
        0.013711,
        0.014259,
        0.013468,
        0.014177,
        0.010663,
        0.01169,
        0.013568,
        0.021825,
        0.030646,
        0.03875,
        0.042383,
        0.047347,
        0.057935,
        0.073745,
        0.070103,
        0.09047,
        0.122939,
        0.121194,
        0.11247,
        0.10632,
        0.119975,
        0.12945,
        0.13492,
        0.137452,
        0.138071,
        0.141383,
        0.145804,
        0.161444,
        0.182946,
        0.205567,
        0.191799,
        0.157693,
        0.185694,
        0.216082,
        0.176549,
        0.203912,
        0.237828,
        0.236163,
        0.246538,
        0.247526,
        0.271555,
        0.316251,
        0.355732,
        0.376832,
        0.380919,
        0.380016,
        0.430696,
        0.422711,
        0.422597,
        0.450348,
        0.501676,
        0.537023,
        0.49652,
        0.457194,
        0.50228,
        0.56655,
        0.595272,
        0.568423,
        0.577942,
        0.65338,
        0.674116,
        0.616599,
        0.587915,
        0.620148,
        0.629086,
        0.625034,
        0.58501,
        0.557814,
        0.507068,
        0.479302,
        0.486542,
        0.503049,
        0.523835,
        0.538898,
        0.566329,
        0.576139,
        0.594562,
        0.614176,
        0.610741,
        0.577491,
        0.539039,
        0.549594,
        0.563032,
        0.599681,
        0.609278,
        0.570285,
        0.510519,
        0.516215,
        0.591867,
        0.637304,
        0.641735,
        0.652557,
        0.652335,
        0.674956,
        0.675386,
        0.695299,
        0.685882,
        0.696605,
        0.657706,
        0.636015,
        0.661366,
        0.671639,
        0.630867,
        0.61952,
        0.590454,
        0.602243,
        0.635184,
        0.653488,
        0.65187,
        0.657735,
        0.703315,
        0.711501,
        0.642001,
        0.643708,
        0.658566,
        0.674572,
        0.749345,
        0.762347,
        0.762263,
        0.728748,
        0.692135,
        0.684651,
        0.670524,
        0.664218,
        0.661068,
        0.698594,
        0.704376,
        0.591538,
        0.512454,
        0.553709,
        0.59982,
        0.619639,
        0.637378,
        0.587188,
        0.555201,
        0.531257,
        0.53166,
        0.586407,
        0.62423,
        0.646017,
        0.67127,
        0.665746,
        0.604872,
        0.532949,
        0.529511,
        0.530988,
        0.504361,
        0.531269,
        0.59776,
        0.562575,
        0.500791,
        0.497488,
        0.519429,
        0.50574,
        0.497855,
        0.515324,
        0.544213,
        0.565133,
        0.589644,
        0.591845,
        0.531217,
        0.486424,
        0.511795,
        0.518541,
        0.497423,
        0.501377,
        0.492795,
        0.474905,
        0.442517,
        0.398605,
        0.373456,
        0.417445,
        0.471844,
        0.445641,
        0.441501,
        0.464739,
        0.461305,
        0.416578,
        0.370862,
        0.404889,
        0.406194,
        0.407708,
        0.376096,
        0.366305,
        0.419363,
        0.474721,
        0.499513,
        0.488697,
        0.471622,
        0.49104,
        0.502497,
        0.486109,
        0.495487,
        0.49976,
        0.464131,
        0.449812,
        0.462096,
        0.466203,
        0.474873,
        0.44927,
        0.513576,
        0.546905,
        0.52985,
        0.494456,
        0.461011,
        0.426592,
        0.400738,
        0.408144,
        0.407826,
        0.405126,
        0.404299,
        0.424048,
        0.483142,
        0.484678,
        0.519129,
        0.566191,
        0.47903,
        0.455142,
        0.516019,
        0.541934,
        0.510919,
        0.483738,
        0.467167,
        0.445285,
        0.503303,
        0.567676,
        0.525477,
        0.513575,
        0.623356,
        0.711776,
        0.748743,
        0.752497,
        0.730342,
        0.646397,
        0.599221,
        0.620744,
        0.642845,
        0.632015,
        0.628941,
        0.586541,
        0.578184,
        0.624539,
        0.631699,
        0.579139,
        0.57063,
        0.564592,
        0.616796,
        0.674879,
        0.625613,
        0.529316,
        0.48446,
        0.487808,
        0.527083,
        0.559248,
        0.572393,
        0.593362,
        0.602848,
        0.559252,
        0.559207,
        0.469136,
        0.322893,
        0.324502,
        0.462907,
        0.618013,
        0.705272,
        0.750932,
        0.714564,
        0.680412,
        0.648579,
        0.60681,
        0.602007,
        0.587734,
        0.614672,
        0.673776,
        0.644822,
        0.64704,
        0.666249,
        0.659092,
        0.657828,
        0.628293,
        0.657097,
        0.736851,
        0.770486,
        0.769654,
        0.759356,
        0.727337,
        0.68468,
        0.698377,
        0.7089,
        0.714218,
        0.697644,
        0.705223,
        0.750084,
        0.757906,
        0.731502,
        0.727376,
        0.743443,
        0.715645,
        0.717548,
        0.766089,
        0.765578,
        0.737537,
        0.743398,
        0.759601,
        0.727332,
        0.710387,
        0.733132,
        0.738586,
        0.718057,
        0.717215,
        0.717095,
        0.735924,
        0.717102,
        0.703975,
        0.724367,
        0.749578,
        0.753549,
        0.767716,
        0.764635,
        0.735291,
        0.716197,
        0.720831,
        0.741649,
        0.760519,
        0.732121,
        0.73006,
        0.741604,
        0.740655,
        0.762693,
        0.790123,
        0.793181,
        0.775653,
        0.770386,
        0.779878,
        0.807942,
        0.837328,
        0.811483,
        0.775028,
        0.781433,
        0.799417,
        0.797935,
        0.765024,
        0.732139,
        0.736421,
        0.752676,
        0.750702,
        0.742601,
        0.747286,
        0.768616,
        0.801686,
        0.821597,
        0.809158,
        0.78798,
        0.782766,
        0.779793,
        0.7637,
        0.751015,
        0.759366,
        0.778865,
        0.795158,
        0.803535,
        0.802609,
        0.794658,
        0.784108,
        0.780315,
        0.787955,
        0.788059,
        0.766254,
        0.750205,
        0.765362,
        0.786283,
        0.784682,
        0.771797,
        0.764077,
        0.759278,
        0.75277,
        0.749062,
        0.752666,
        0.758977,
        0.763204,
        0.768916,
        0.779321,
        0.787815,
        0.787935,
        0.783599,
        0.77911,
        0.76993,
        0.753522,
        0.744202,
        0.753377,
        0.763949,
        0.758478,
        0.746644,
        0.741655,
        0.743718,
        0.748771,
        0.748676,
        0.738377,
        0.729209,
        0.732526,
        0.743361,
        0.753585,
        0.78171,
        0.784512,
        0.783512,
        0.783372,
        0.791654,
        0.798493,
        0.804158,
        0.811355,
        0.813693,
        0.806216,
        0.796437,
        0.785492,
        0.774543,
        0.768548,
        0.761431,
        0.75399,
        0.767759,
        0.789487,
        0.789367,
        0.774385,
        0.777436,
        0.785498,
        0.810973,
        0.832639,
        0.829821,
        0.837842,
        0.850484,
        0.847529,
        0.86319,
        0.890639,
        0.896781,
        0.889172,
        0.882618,
        0.870197,
        0.857354,
        0.860288,
        0.879706,
        0.899303,
        0.903545,
        0.892443,
        0.911418,
        0.963476,
        0.985184,
        1.009118,
        0.998037,
        0.994534,
        1.07307,
        1.040978,
        1.009308,
        1.131175,
        1.202599,
        1.123809,
        1.06295,
        1.237761,
        1.473887,
        1.495046,
        1.31177,
        1.108518,
        1.154128,
        1.421522,
        1.619604,
        1.6636,
        1.606307,
        1.422113,
        1.151479,
        1.015123,
        1.190135,
        1.491089,
        1.711522,
        1.848522,
        1.941537,
        1.974505,
        1.888317,
        1.702931,
        1.446132,
        1.156703,
        1.065588,
        1.252937,
        1.502454,
        1.704556,
        1.84391,
        1.892106,
        1.904559,
        1.778903,
        1.463239,
        1.401883,
        1.659537,
        1.801666,
        1.770534,
        1.658345,
        1.427453,
        1.09635,
        0.974779,
        1.219832,
        1.540635,
        1.761891,
        1.892855,
        1.950454,
        1.996033,
        2.061325,
        2.132927,
        2.177936,
        2.181525,
        2.140315,
        2.094525,
        2.113626,
        2.133487,
        2.104898,
        2.092689,
        2.096287,
        2.078611,
        2.029898,
        1.953293,
        1.856521,
        1.802658,
        1.754367,
        1.618306,
        1.361296,
        1.139122,
        1.198008,
        1.457709,
        1.676696,
        1.777204,
        1.811385,
        1.855402,
        1.957947,
        2.032293,
        2.029982,
        2.008222,
        1.99942,
        2.024927,
        2.044978,
        1.997035,
        1.9332,
        1.935722,
        1.980034,
        2.018585,
        2.007726,
        1.97327,
        1.989479,
        2.030869,
        2.042488,
        2.01716,
        1.978726,
        1.967719,
        1.968837,
        1.981659,
        1.978462,
        1.967856,
        1.983506,
        2.00914,
        2.018796,
        1.982651,
        1.965176,
        1.96602,
        1.923459,
        1.86681,
        1.809739,
        1.746104,
        1.727182,
        1.737556,
        1.730538,
        1.689455,
        1.588789,
        1.41537,
        1.173651,
        1.026457,
        1.13985,
        1.371079,
        1.563409,
        1.700029,
        1.776444,
        1.799323,
        1.810457,
        1.804716,
        1.784834,
        1.792158,
        1.792865,
        1.793772,
        1.817453,
        1.820925,
        1.796812,
        1.807998,
        1.837958,
        1.840111,
        1.828619,
        1.803333,
        1.780718,
        1.776571,
        1.755697,
        1.73229,
        1.728575,
        1.75194,
        1.777331,
        1.763337,
        1.757005,
        1.769785,
        1.790079,
        1.820419,
        1.843319,
        1.832903,
        1.788823,
        1.730496,
        1.693771,
        1.695101,
        1.738178,
        1.762472,
        1.719373,
        1.648034,
        1.638452,
        1.684748,
        1.720006,
        1.735593,
        1.7176,
        1.67162,
        1.650947,
        1.665869,
        1.691196,
        1.692336,
        1.706097,
        1.707121,
        1.662365,
        1.6636,
        1.6617,
        1.638674,
        1.658081,
        1.672433,
        1.640858,
        1.639676,
        1.640826,
        1.634748,
        1.56134,
        1.583945,
        1.625683,
        1.619963,
        1.632521,
        1.632679,
        1.614823,
        1.571524,
        1.561055,
        1.564717,
        1.575978,
        1.603933,
        1.581866,
        1.542619,
        1.55083,
        1.570543,
        1.570458,
        1.553689,
        1.536752,
        1.516469,
        1.504945,
        1.535992,
        1.548719,
        1.534757,
        1.511498,
        1.519139,
        1.532594,
        1.502665,
        1.477296,
        1.473317,
        1.483142,
        1.445394,
        1.402537,
        1.397968,
        1.366784,
        1.318989,
        1.237192,
        1.099833,
        0.876835,
        0.71647,
        0.848184,
        1.04484,
        1.157357,
        1.237909,
        1.260113,
        1.302167,
        1.346669,
        1.355091,
        1.366414,
        1.370836,
        1.339747,
        1.289419,
        1.332127,
        1.362942,
        1.333774,
        1.368388,
        1.400374,
        1.382265,
        1.35259,
        1.365496,
        1.380904,
        1.373379,
        1.36691,
        1.307802,
        1.293302,
        1.333584,
        1.328254,
        1.297545,
        1.27895,
        1.277927,
        1.249096,
        1.261094,
        1.309966,
        1.312382,
        1.287825,
        1.275447,
        1.291002,
        1.292047,
        1.307591,
        1.322693,
        1.300869,
        1.27627,
        1.254108,
        1.233488,
        1.250615,
        1.278,
        1.264144,
        1.241825,
        1.261284,
        1.268028,
        1.267321,
        1.244378,
        1.213701,
        1.20912,
        1.207759,
        1.202957,
        1.209057,
        1.209743,
        1.212107,
        1.204224,
        1.142594,
        1.1179,
        1.185323,
        1.192816,
        1.143755,
        1.130584,
        1.131661,
        1.135133,
        1.135713,
        1.161315,
        1.176955,
        1.174031,
        1.134331,
        1.110671,
        1.131661,
        1.169937,
        1.182769,
        1.168481,
        1.16027,
        1.124179,
        1.068026,
        1.059256,
        1.080436,
        1.106576,
        1.136146,
        1.156883,
        1.147775,
        1.135513,
        1.134489,
        1.125698,
        1.106059,
        1.100899,
        1.07823,
        1.08394,
        1.08852,
        1.092899,
        1.107821,
        1.117583,
        1.12573,
        1.103864,
        1.068226,
        1.066242,
        1.091485,
        1.091285,
        1.089839,
        1.088066,
        1.069397,
        1.04483,
        1.034319,
        1.043384,
        1.057388,
        1.05742,
        1.044714,
        1.043352,
        1.061651,
        1.069514,
        1.055309,
        1.051816,
        1.053093,
        1.050328,
        1.049737,
        1.042192,
        1.016052,
        1.023724,
        1.0477,
        1.045516,
        1.03606,
        1.02289,
        1.015651,
        1.017476,
        1.035469,
        1.032852,
        1.010701,
        1.003736,
        1.009889,
        1.015355,
        1.010891,
        1.018194,
        1.016358,
        1.008095,
        0.995357,
        0.986957,
        0.992349,
        0.994555,
        0.970462,
        0.961788,
        0.965977,
        0.968911,
        0.984625,
        0.983738,
        0.969597,
        0.966874,
        0.972204,
        0.975929,
        0.969734,
        0.964764,
        0.968426,
        0.962326,
        0.940534,
        0.926635,
        0.937779,
        0.954073,
        0.954042,
        0.941104,
        0.930223,
        0.936239,
        0.942212,
        0.93569,
        0.922562,
        0.917138,
        0.927838,
        0.934993,
        0.932735,
        0.928028,
        0.928334,
        0.927057,
        0.921929,
        0.913106,
        0.910289,
        0.90898,
        0.910753,
        0.910711,
        0.908516,
        0.900063,
        0.898997,
        0.899957,
        0.898448,
        0.896475,
        0.893984,
        0.893488,
        0.892507,
        0.894121,
        0.894638,
        0.891367,
        0.890174,
        0.889636,
        0.886555,
        0.869775,
        0.855011,
        0.862726,
        0.876339,
        0.878239,
        0.875474,
        0.868382,
        0.845123,
        0.813675,
        0.817706,
        0.844289,
        0.855391,
        0.852215,
        0.849239,
        0.851634,
        0.846273,
        0.839847,
        0.844078,
        0.844508,
        0.838412,
        0.832938,
        0.831262,
        0.831231,
        0.831218,
        0.829186,
        0.822143,
        0.813157,
        0.807819,
        0.807662,
        0.811696,
        0.809173,
        0.804132,
        0.799218,
        0.796296,
        0.788349,
        0.790283,
        0.79858,
        0.799199,
        0.792682,
        0.788988,
        0.785,
        0.783791,
        0.784974,
        0.782187,
        0.784842,
        0.780465,
        0.774217,
        0.772549,
        0.775068,
        0.773711,
        0.762444,
        0.761382,
        0.766852,
        0.762567,
        0.756948,
        0.75622,
        0.755458,
        0.738799,
        0.723426,
        0.728523,
        0.738115,
        0.738518,
        0.730212,
        0.73651,
        0.738248,
        0.738975,
        0.74605,
        0.743846,
        0.737628,
        0.74131,
        0.743213,
        0.744794,
        0.740687,
        0.734189,
        0.731822,
        0.727497,
        0.719741,
        0.712574,
        0.706666,
        0.700773,
        0.701814,
        0.711211,
        0.717359,
        0.717878,
        0.715016,
        0.700527,
        0.689586,
        0.702372,
        0.700812,
        0.69496,
        0.689065,
        0.694912,
        0.695979,
        0.686132,
        0.690735,
        0.696567,
        0.691964,
        0.686651,
        0.682545,
        0.675846,
        0.681818,
        0.689402,
        0.684165,
        0.675906,
        0.669976,
        0.676157,
        0.678923,
        0.676052,
        0.67397,
        0.66907,
        0.668444,
        0.66716,
        0.661145,
        0.655368,
        0.661246,
        0.665537,
        0.657116,
        0.651825,
        0.65419,
        0.655735,
        0.644022,
        0.628672,
        0.631755,
        0.640381,
        0.641793,
        0.641026,
        0.641066,
        0.642897,
        0.628168,
        0.613156,
        0.636294,
        0.648349,
        0.640924,
        0.628077,
        0.63083,
        0.630039,
        0.623788,
        0.612186,
        0.597407,
        0.573734,
        0.540068,
        0.470378,
        0.386352,
        0.418395,
        0.50552,
        0.555034,
        0.579345,
        0.592277,
        0.59982,
        0.608878,
        0.616996,
        0.621295,
        0.62395,
        0.627092,
        0.631617,
        0.631898,
        0.627802,
        0.623838,
        0.618556,
        0.613945,
        0.613545,
        0.612352,
        0.6103,
        0.610174,
        0.609606,
        0.605305,
        0.605785,
        0.609014,
        0.608562,
        0.60636,
        0.604601,
        0.60349,
        0.60164,
        0.597678,
        0.597155,
        0.597984,
        0.598418,
        0.597249,
        0.594107,
        0.589811,
        0.588532,
        0.589809,
        0.592044,
        0.590775,
        0.589486,
        0.589924,
        0.589236,
        0.588027,
        0.586232,
        0.585032,
        0.576609,
        0.578048,
        0.577114,
        0.576865,
        0.576428,
        0.573708,
        0.572564,
        0.571384,
        0.570422,
        0.569461,
        0.568499,
        0.567537,
        0.566575,
        0.565614,
        0.564652,
        0.56369,
        0.562728,
        0.561767,
        0.560805,
        0.559843,
        0.558882,
        0.55792,
        0.556958,
        0.555996,
        0.555035,
        0.554073,
        0.553111,
        0.552149,
        0.551188,
        0.550226,
        0.549264,
        0.548303,
        0.547341,
        0.546379,
        0.545417,
        0.544456,
        0.543792,
        0.542533,
        0.540353,
        0.538302,
        0.53384,
        0.53065,
        0.533618,
        0.53246,
        0.530748,
        0.529802,
        0.529656,
        0.531468,
        0.530791,
        0.533911,
        0.532029,
        0.52953,
        0.529643,
        0.525645,
        0.528268,
        0.527828,
        0.526167,
        0.523186,
        0.522347,
        0.523047,
        0.522931,
        0.522543,
        0.516448,
        0.510298,
        0.510668,
        0.514545,
        0.514305,
        0.513263,
        0.512221,
        0.511179,
        0.510137,
        0.509095,
        0.508053,
        0.507011,
        0.505969,
        0.504927,
        0.503885,
        0.502843,
        0.501801,
        0.500759,
        0.499717,
        0.498675,
        0.497633,
        0.496591,
        0.495549,
        0.494507,
        0.493465,
        0.492423,
        0.491381,
        0.490339,
        0.489297,
        0.488255,
        0.487213,
        0.486171,
        0.485129,
        0.484087,
        0.483045,
        0.482003,
        0.480961,
        0.479919,
        0.478877,
        0.477835,
        0.476793,
        0.475751,
        0.474709,
        0.473667,
        0.472625,
        0.471583,
        0.470541,
        0.469499,
        0.468457,
        0.468177,
        0.468236,
        0.467417,
        0.467083,
        0.468118,
        0.465577,
        0.45798,
        0.456027,
        0.458465,
        0.460217,
        0.456492,
        0.450639,
        0.451327,
        0.45012,
        0.451767,
        0.455367,
        0.455397,
        0.45159,
        0.445585,
        0.447214,
        0.451439,
        0.447219,
        0.446919,
        0.448608,
        0.447518,
        0.445126,
        0.445081,
        0.442187,
        0.437733,
        0.441851,
        0.439235,
        0.432214,
        0.43276,
        0.435247,
        0.433932,
        0.432857,
        0.433549,
        0.435563,
        0.433595,
        0.432035,
        0.431186,
        0.430337,
        0.429489,
        0.42864,
        0.427792,
        0.426943,
        0.426094,
        0.425246,
        0.424397,
        0.423548,
        0.4227,
        0.421851,
        0.421002,
        0.420154,
        0.419305,
        0.418456,
        0.417608,
        0.416759,
        0.41591,
        0.415062,
        0.414213,
        0.413364,
        0.412516,
        0.411667,
        0.410818,
        0.40997,
        0.409121,
        0.408272,
        0.407424,
        0.406575,
        0.405726,
        0.404878,
        0.404029,
        0.40318,
        0.402332,
        0.401483,
        0.403387,
        0.399425,
        0.395284,
        0.395795,
        0.39861,
        0.39998,
        0.395324,
        0.373625,
        0.367599,
        0.38686,
        0.392482,
        0.39166,
        0.391044,
        0.389272,
        0.390671,
        0.390582,
        0.390686,
        0.389103,
        0.388637,
        0.383921,
        0.382548,
        0.385682,
        0.384831,
        0.383083,
        0.381891,
        0.38082,
        0.381065,
        0.379433,
        0.374636,
        0.374221,
        0.375874,
        0.374873,
        0.368078,
        0.371503,
        0.374613,
        0.372929,
        0.371226,
        0.36968,
        0.367155,
        0.362936,
        0.36383,
        0.364443,
        0.363165,
        0.365817,
        0.366689,
        0.364679,
        0.363938,
        0.365383,
        0.365047,
        0.363908,
        0.364119,
        0.361796,
        0.359054,
        0.356186,
        0.358019,
        0.35848,
        0.357013,
        0.355497,
        0.35352,
        0.353552,
        0.355156,
        0.352672,
        0.350702,
        0.352757,
        0.352803,
        0.352365,
        0.352665,
        0.351073,
        0.350439,
        0.34808,
        0.346542,
        0.347137,
        0.346618,
        0.346082,
        0.345546,
        0.34501,
        0.344474,
        0.343937,
        0.343401,
        0.342865,
        0.342329,
        0.341793,
        0.341257,
        0.340721,
        0.340184,
        0.339648,
        0.339112,
        0.338576,
        0.33804,
        0.337504,
        0.336968,
        0.336431,
        0.335895,
        0.335359,
        0.334823,
        0.334287,
        0.333751,
        0.333215,
        0.332678,
        0.332142,
        0.331606,
        0.33107,
        0.330534,
        0.329998,
        0.329462,
        0.328925,
        0.328389,
        0.327853,
        0.327317,
        0.326781,
        0.326245,
        0.325709,
        0.325173,
        0.324636,
        0.3241,
        0.323564,
        0.323028,
        0.322492,
        0.321956,
        0.32142,
        0.320883,
        0.320347,
        0.319811,
        0.319275,
        0.318739,
        0.318203,
        0.317667,
        0.31713,
        0.316594,
        0.316058,
        0.315522,
        0.314986,
        0.31445,
        0.313914,
        0.313377,
        0.310303,
        0.311211,
        0.313471,
        0.315526,
        0.315762,
        0.307387,
        0.302213,
        0.299882,
        0.309337,
        0.3135,
        0.309117,
        0.3018,
        0.304355,
        0.315491,
        0.318129,
        0.317743,
        0.311309,
        0.287488,
        0.277317,
        0.293326,
        0.305287,
        0.312188,
        0.317122,
        0.316992,
        0.313711,
        0.293239,
        0.255474,
        0.256563,
        0.285792,
        0.300841,
        0.307958,
        0.311612,
        0.311693,
        0.309541,
        0.303983,
        0.297269,
        0.285951,
        0.268553,
        0.270506,
        0.287456,
        0.299355,
        0.307503,
        0.309949,
        0.310005,
        0.309291,
        0.308181,
        0.306403,
        0.298809,
        0.290574,
        0.273296,
        0.236479,
        0.232013,
        0.259587,
        0.279513,
        0.288648,
        0.294698,
        0.298004,
        0.304625,
        0.308268,
        0.309505,
        0.310441,
        0.3103,
        0.31045,
        0.305257,
        0.301149,
        0.291395,
        0.276273,
        0.252005,
        0.23608,
        0.251548,
        0.273827,
        0.286278,
        0.293589,
        0.298799,
        0.305529,
        0.308379,
        0.309255,
        0.312987,
        0.314487,
        0.307629,
        0.310549,
        0.315037,
        0.310768,
        0.307134,
        0.304156,
        0.298505,
        0.294394,
        0.287167,
        0.275687,
        0.255597,
        0.229052,
        0.232316,
        0.257536,
        0.275699,
        0.285529,
        0.294955,
        0.299949,
        0.30276,
        0.305484,
        0.305631,
        0.299606,
        0.303864,
        0.305902,
        0.291137,
        0.288821,
        0.292448,
        0.296531,
        0.300032,
        0.302402,
        0.303209,
        0.302021,
        0.298561,
        0.293166,
        0.286324,
        0.278525,
        0.270276,
        0.262158,
        0.25477,
        0.248712,
        0.244556,
        0.242772,
        0.243805,
        0.248098,
        0.255666,
        0.264807,
        0.273389,
        0.27928,
        0.281002,
        0.279698,
        0.277162,
        0.275192,
        0.275147,
        0.27665,
        0.278888,
        0.281048,
        0.282452,
        0.282961,
        0.282572,
        0.28128,
        0.279224,
        0.277112,
        0.275791,
        0.276113,
        0.278563,
        0.282183,
        0.285652,
        0.287649,
        0.287231,
        0.284972,
        0.281823,
        0.278738,
        0.276423,
        0.274615,
        0.272803,
        0.270481,
        0.267221,
        0.262931,
        0.2576,
        0.251219,
        0.243949,
        0.236644,
        0.23033,
        0.226032,
        0.224499,
        0.225371,
        0.228009,
        0.231775,
        0.236083,
        0.240557,
        0.24487,
        0.248696,
        0.25185,
        0.254704,
        0.257772,
        0.261566,
        0.266297,
        0.27097,
        0.274287,
        0.27495,
        0.272227,
        0.267642,
        0.263287,
        0.26125,
        0.262939,
        0.267024,
        0.271493,
        0.274333,
        0.274106,
        0.271661,
        0.268422,
        0.265811,
        0.264954,
        0.26579,
        0.267959,
        0.271103,
        0.274706,
        0.27763,
        0.278579,
        0.276257,
        0.269971,
        0.26143,
        0.252944,
        0.246823,
        0.244788,
        0.246206,
        0.24985,
        0.254499,
        0.259001,
        0.262498,
        0.264203,
        0.263333,
        0.259495,
        0.253879,
        0.248068,
        0.243645,
        0.241759,
        0.24182,
        0.242803,
        0.243683,
        0.243553,
        0.241977,
        0.238635,
        0.233208,
        0.225708,
        0.217473,
        0.210175,
        0.205482,
        0.204606,
        0.206927,
        0.211363,
        0.216833,
        0.222374,
        0.227492,
        0.231808,
        0.234944,
        0.236686,
        0.237468,
        0.23789,
        0.23855,
        0.239842,
        0.241341,
        0.242418,
        0.242442,
        0.241035,
        0.238815,
        0.236652,
        0.235415,
        0.235695,
        0.236965,
        0.23842,
        0.239256,
        0.238906,
        0.23776,
        0.236444,
        0.235586,
        0.235614,
        0.236164,
        0.236671,
        0.23657,
        0.235507,
        0.233967,
        0.232645,
        0.232236,
        0.23321,
        0.235139,
        0.237374,
        0.239261,
        0.240307,
        0.240654,
        0.240601,
        0.240448,
        0.240348,
        0.239879,
        0.238469,
        0.235549,
        0.230903,
        0.225728,
        0.221573,
        0.219988,
        0.22195,
        0.226145,
        0.230686,
        0.233686,
        0.233782,
        0.2317,
        0.228692,
        0.226009,
        0.224606,
        0.224264,
        0.22447,
        0.224708,
        0.224543,
        0.223847,
        0.222571,
        0.220663,
        0.218179,
        0.215587,
        0.213458,
        0.212364,
        0.212686,
        0.214035,
        0.215834,
        0.2175,
        0.218565,
        0.218988,
        0.218839,
        0.218188,
        0.217126,
        0.215834,
        0.214512,
        0.213364,
        0.212556,
        0.212114,
        0.212028,
        0.212287,
        0.212824,
        0.21334,
        0.213476,
        0.212874,
        0.211224,
        0.208398,
        0.204319,
        0.198905,
        0.192294,
        0.185481,
        0.179681,
        0.176105,
        0.175592,
        0.17749,
        0.180771,
        0.184411,
        0.187607,
        0.190463,
        0.193305,
        0.196461,
        0.2001,
        0.203757,
        0.206811,
        0.208639,
        0.208824,
        0.20777,
        0.206089,
        0.204392,
        0.203186,
        0.20257,
        0.202541,
        0.203094,
        0.204161,
        0.205412,
        0.20645,
        0.20688,
        0.206446,
        0.205451,
        0.20434,
        0.203557,
        0.203415,
        0.203716,
        0.204131,
        0.204331,
        0.204066,
        0.203401,
        0.202477,
        0.201436,
        0.200398,
        0.199398,
        0.198448,
        0.19756,
        0.196742,
        0.195974,
        0.195231,
        0.194488,
        0.193738,
        0.193045,
        0.192492,
        0.19216,
        0.192108,
        0.192291,
        0.192641,
        0.193087,
        0.191335,
        0.19137,
        0.191199,
        0.190711,
        0.189862,
        0.188875,
        0.188038,
        0.187642,
        0.187855,
        0.188384,
        0.188815,
        0.188735,
        0.187876,
        0.186563,
        0.185267,
        0.184456,
        0.184465,
        0.185078,
        0.18594,
        0.186699,
        0.187079,
        0.187121,
        0.186944,
        0.186669,
        0.186349,
        0.185786,
        0.184719,
        0.182883,
        0.180219,
        0.177481,
        0.175624,
        0.175605,
        0.177978,
        0.181684,
        0.185262,
        0.187253,
        0.186633,
        0.184128,
        0.180904,
        0.178126
      ],
      "range":1
    }
  }
]
