[
  {
    "model": "Baader UHC-S",
    "name": "Baader UHC-S",
    "type": "OSC_FILTER",
    "dataQualityMarker": 2,
    "dataSource": "Downloaded from searchlight.idex-hs.com",
    "manufacturer": "Baader",
    "version": 1,
    "wavelength": { 
       "value":  [400.0,401.0,402.0,403.0,404.0,405.0,406.0,407.0,408.0,409.0,410.0,411.0,412.0,413.0,414.0,415.0,416.0,417.0,418.0,419.0,420.0,421.0,422.0,423.0,424.0,425.0,426.0,427.0,428.0,429.0,430.0,431.0,432.0,433.0,434.0,435.0,436.0,437.0,438.0,439.0,440.0,441.0,442.0,443.0,444.0,445.0,446.0,447.0,448.0,449.0,450.0,451.0,452.0,453.0,454.0,455.0,456.0,457.0,458.0,459.0,460.0,461.0,462.0,463.0,464.0,465.0,466.0,467.0,468.0,469.0,470.0,471.0,472.0,473.0,474.0,475.0,476.0,477.0,478.0,479.0,480.0,481.0,482.0,483.0,484.0,485.0,486.0,487.0,488.0,489.0,490.0,491.0,492.0,493.0,494.0,495.0,496.0,497.0,498.0,499.0,500.0,501.0,502.0,503.0,504.0,505.0,506.0,507.0,508.0,509.0,510.0,511.0,512.0,513.0,514.0,515.0,516.0,517.0,518.0,519.0,520.0,521.0,522.0,523.0,524.0,525.0,526.0,527.0,528.0,529.0,530.0,531.0,532.0,533.0,534.0,535.0,536.0,537.0,538.0,539.0,540.0,541.0,542.0,543.0,544.0,545.0,546.0,547.0,548.0,549.0,550.0,551.0,552.0,553.0,554.0,555.0,556.0,557.0,558.0,559.0,560.0,561.0,562.0,563.0,564.0,565.0,566.0,567.0,568.0,569.0,570.0,571.0,572.0,573.0,574.0,575.0,576.0,577.0,578.0,579.0,580.0,581.0,582.0,583.0,584.0,585.0,586.0,587.0,588.0,589.0,590.0,591.0,592.0,593.0,594.0,595.0,596.0,597.0,598.0,599.0,600.0,601.0,602.0,603.0,604.0,605.0,606.0,607.0,608.0,609.0,610.0,611.0,612.0,613.0,614.0,615.0,616.0,617.0,618.0,619.0,620.0,621.0,622.0,623.0,624.0,625.0,626.0,627.0,628.0,629.0,630.0,631.0,632.0,633.0,634.0,635.0,636.0,637.0,638.0,639.0,640.0,641.0,642.0,643.0,644.0,645.0,646.0,647.0,648.0,649.0,650.0,651.0,652.0,653.0,654.0,655.0,656.0,657.0,658.0,659.0,660.0,661.0,662.0,663.0,664.0,665.0,666.0,667.0,668.0,669.0,670.0,671.0,672.0,673.0,674.0,675.0,676.0,677.0,678.0,679.0,680.0,681.0,682.0,683.0,684.0,685.0,686.0,687.0,688.0,689.0,690.0,691.0,692.0,693.0,694.0,695.0,696.0,697.0,698.0,699.0,700.0],
       "units": "nm"
    },
    "values": {
      "value": [0.00090810005,0.00037313586,0.00090585148,0.001385755,0.00068504501,0.00065436308,0.00049442387,0.00028848267,0.00083497466,0.00060115037,0.00029001628,0.00040936087,0.00027140067,0.00045730539,0.00096812704,0.0010036287,0.001307457,0.0013237578,0.0016778546,0.00055802426,0.0018166834,0.0016894934,0.00070069048,0.00069719877,0.00034843777,0.0013932778,0.0019217405,0.0010748958,0.0010737033,0.0023154656,0.0011980633,0.0015172611,0.0016355922,0.0014920743,0.0015348322,0.001610827,0.0028618535,0.0022653308,0.0027891891,0.0017371074,0.0019571262,0.0024444342,0.0021671185,0.003345443,0.0032935151,0.0034993261,0.0049297764,0.0063794376,0.0082613102,0.011573307,0.011374393,0.016675223,0.022378752,0.028886523,0.036064371,0.049239829,0.064210595,0.086707366,0.1130883,0.1479734,0.19609678,0.26242655,0.34733199,0.450967,0.55413932,0.65436883,0.74979871,0.82938104,0.87409733,0.91001341,0.93060065,0.93623939,0.92067039,0.90271304,0.90405803,0.89581542,0.89454162,0.90102868,0.9116485,0.92205124,0.92120731,0.92954475,0.93211818,0.93440835,0.93388116,0.92759337,0.93252047,0.94052648,0.94558769,0.93720411,0.93726173,0.94607993,0.94561364,0.9360143,0.94779647,0.95409445,0.94180372,0.94905544,0.94555447,0.95087969,0.96375435,0.94992384,0.9470995,0.94604254,0.94159382,0.94612668,0.96084985,0.959017,0.95782999,0.954871,0.93956144,0.93697466,0.9348496,0.93919117,0.9424078,0.94030759,0.93633705,0.92337942,0.89967141,0.87877694,0.86166225,0.82761176,0.78693329,0.73828031,0.67191875,0.59679414,0.5151465,0.44204193,0.37250507,0.30657618,0.25094033,0.20298375,0.16055528,0.12975195,0.10395131,0.082095981,0.0707446,0.054344379,0.045086303,0.038943547,0.032080902,0.026589973,0.02284664,0.019317446,0.016993852,0.015558406,0.012887041,0.010441516,0.0089842863,0.010012755,0.0065587503,0.0079591292,0.0076340046,0.0061345966,0.0066880976,0.0065958621,0.0058316752,0.005544844,0.0060437336,0.0048732161,0.0051025697,0.0045656238,0.0050862815,0.003631418,0.0035807709,0.0039085721,0.0048208338,0.0027207585,0.0034459554,0.0023652526,0.0022817811,0.0012704293,0.0024727401,0.0020298152,0.0019979289,0.0012979198,0.0014389502,0.0016861225,0.0012508443,0.001344173,0.0015605334,0.0014740925,0.0019634216,0.0017818208,0.0017619173,0.0017894984,0.0018236521,0.0019613618,0.0019553027,0.0022269654,0.0023699109,0.0021977948,0.0026325191,0.0022957053,0.0025392253,0.0023543989,0.0033328385,0.0037397338,0.0028346372,0.0022725178,0.0032208099,0.003129286,0.0041827175,0.003080189,0.0038852706,0.0043796071,0.0047385591,0.0046080784,0.0054805227,0.0059805355,0.0068232314,0.0069360716,0.0084638779,0.0078546583,0.0081892522,0.0089434128,0.0096891927,0.010792228,0.014952723,0.016886329,0.018453671,0.021491032,0.024488908,0.026805658,0.031517368,0.03531501,0.046054988,0.05435327,0.062448803,0.074855006,0.088672841,0.11501634,0.13725056,0.17212961,0.21462452,0.2670223,0.32481014,0.38665588,0.48464034,0.58588483,0.67801488,0.77027752,0.86440643,0.90647431,0.95765333,0.97487582,0.96964614,0.96239451,0.95745042,0.92420099,0.91865089,0.88214398,0.90664153,0.89072424,0.89799371,0.85575641,0.87099909,0.91463221,0.90121865,0.90184621,0.92652053,0.9150802,0.94019299,0.93910765,0.90684164,0.91503399,0.91170256,0.93313909,0.90319487,0.85749923,0.82320913,0.77363221,0.74263957,0.68170536,0.58123256,0.49590101,0.41758299,0.35073769,0.29415481,0.22693039,0.18547638,0.16297877,0.13290997,0.11064857,0.089018554,0.072183434,0.071119672,0.060949385,0.049142017,0.040019095,0.04608468,0.033374488,0.022431864,0.023957803,0.024279706,0.023950859,0.021339514,0.012139195,0.020365032,0.016301152,0.012461356],
      "range": 1
    }
  }
]
