[
  {
    "model":"Nikon D40x",
    "name":"Nikon D40x LPF",
    "type":"OSC_LPF",
    "dataQualityMarker":3,
    "dataSource":"SVO Filter Profile Service",
    "manufacturer":"Nikon",
    "version":1,
    "wavelength":{
      "value":[
        3176.2965,
        3203.7286,
        3231.1608,
        3258.593,
        3286.0251,
        3313.4573,
        3340.8894,
        3368.3216,
        3395.7538,
        3423.1859,
        3450.6181,
        3478.0503,
        3505.4824,
        3532.9146,
        3560.3467,
        3587.7789,
        3615.2111,
        3642.6432,
        3670.0754,
        3697.5075,
        3724.9397,
        3752.3719,
        3779.804,
        3807.2362,
        3834.6683,
        3862.1005,
        3889.5327,
        3916.9648,
        3944.397,
        3971.8291,
        3999.2613,
        4026.6935,
        4054.1256,
        4081.5578,
        4108.9899,
        4136.4221,
        4163.8543,
        4191.2864,
        4218.7186,
        4246.1508,
        4273.5829,
        4301.0151,
        4328.4472,
        4355.8794,
        4383.3116,
        4410.7437,
        4438.1759,
        4465.608,
        4493.0402,
        4520.4724,
        4547.9045,
        4575.3367,
        4602.7688,
        4630.201,
        4657.6332,
        4685.0653,
        4712.4975,
        4739.9296,
        4767.3618,
        4794.794,
        4822.2261,
        4849.6583,
        4877.0905,
        4904.5226,
        4931.9548,
        4959.3869,
        4986.8191,
        5014.2513,
        5041.6834,
        5069.1156,
        5096.5477,
        5123.9799,
        5151.4121,
        5178.8442,
        5206.2764,
        5233.7085,
        5261.1407,
        5288.5729,
        5316.005,
        5343.4372,
        5370.8693,
        5398.3015,
        5425.7337,
        5453.1658,
        5480.598,
        5508.0302,
        5535.4623,
        5562.8945,
        5590.3266,
        5617.7588,
        5645.191,
        5672.6231,
        5700.0553,
        5727.4874,
        5754.9196,
        5782.3518,
        5809.7839,
        5837.2161,
        5864.6482,
        5892.0804,
        5919.5126,
        5946.9447,
        5974.3769,
        6001.809,
        6029.2412,
        6056.6734,
        6084.1055,
        6111.5377,
        6138.9698,
        6166.402,
        6193.8342,
        6221.2663,
        6248.6985,
        6276.1307,
        6303.5628,
        6330.995,
        6358.4271,
        6385.8593,
        6413.2915,
        6440.7236,
        6468.1558,
        6495.5879,
        6523.0201,
        6550.4523,
        6577.8844,
        6605.3166,
        6632.7487,
        6660.1809,
        6687.6131,
        6715.0452,
        6742.4774,
        6769.9095,
        6797.3417,
        6824.7739,
        6852.206,
        6879.6382,
        6907.0704,
        6934.5025,
        6961.9347,
        6989.3668,
        7016.799,
        7044.2312,
        7071.6633,
        7099.0955,
        7126.5276,
        7153.9598,
        7181.392,
        7208.8241,
        7236.2563,
        7263.6884,
        7291.1206,
        7318.5528,
        7345.9849,
        7373.4171,
        7400.8492,
        7428.2814,
        7455.7136,
        7483.1457,
        7510.5779,
        7538.0101,
        7565.4422,
        7592.8744,
        7620.3065,
        7647.7387,
        7675.1709,
        7702.603,
        7730.0352,
        7757.4673,
        7784.8995,
        7812.3317,
        7839.7638,
        7867.196,
        7894.6281,
        7922.0603,
        7949.4925,
        7976.9246,
        8004.3568,
        8031.7889,
        8059.2211,
        8086.6533,
        8114.0854,
        8141.5176,
        8168.9497,
        8196.3819,
        8223.8141,
        8251.2462,
        8278.6784,
        8306.1106,
        8333.5427,
        8360.9749,
        8388.407,
        8415.8392,
        8443.2714,
        8470.7035,
        8498.1357,
        8525.5678,
        8553.0
      ],
      "units":"angstrom"
    },
    "values":{
      "value":[
        0.0094858471,
        0.011399807,
        0.011400008,
        0.011400969,
        0.011408434,
        0.011430421,
        0.011462693,
        0.01148802,
        0.011498235,
        0.01149996,
        0.0115,
        0.0115,
        0.0115,
        0.0115,
        0.0115,
        0.0115,
        0.0115,
        0.0115,
        0.0115,
        0.0115,
        0.0115,
        0.0115,
        0.0115,
        0.0115,
        0.0115,
        0.011500001,
        0.011505183,
        0.011585908,
        0.011983148,
        0.013035378,
        0.015397886,
        0.021683162,
        0.036630699,
        0.062859778,
        0.10241961,
        0.16666206,
        0.26999285,
        0.40818238,
        0.5554765,
        0.68211752,
        0.77241298,
        0.83163995,
        0.87230057,
        0.89857365,
        0.91125931,
        0.91577034,
        0.91812633,
        0.92067444,
        0.92353793,
        0.92648976,
        0.92939634,
        0.9322561,
        0.93510287,
        0.93790735,
        0.94057025,
        0.94303249,
        0.94533858,
        0.94742155,
        0.94897549,
        0.94979477,
        0.95005819,
        0.95009833,
        0.95007968,
        0.94993455,
        0.94940686,
        0.94821284,
        0.94639506,
        0.94456214,
        0.94358653,
        0.94392587,
        0.94527994,
        0.94674894,
        0.94730936,
        0.94652853,
        0.94474961,
        0.94246599,
        0.93989235,
        0.93705295,
        0.93374369,
        0.92938162,
        0.92343595,
        0.91618108,
        0.90878252,
        0.90257121,
        0.8980207,
        0.89425246,
        0.88956817,
        0.88262957,
        0.87337911,
        0.86265123,
        0.85105646,
        0.83875039,
        0.82589219,
        0.81269081,
        0.79917612,
        0.78531522,
        0.77095259,
        0.7553042,
        0.737366,
        0.71721716,
        0.69621723,
        0.67591354,
        0.65706771,
        0.63935593,
        0.62167704,
        0.60288568,
        0.58249289,
        0.56075314,
        0.53834057,
        0.516016,
        0.49419243,
        0.47285358,
        0.45193734,
        0.4314901,
        0.41141154,
        0.39130152,
        0.37077841,
        0.34985977,
        0.32909974,
        0.30953621,
        0.292018,
        0.27623592,
        0.26069233,
        0.24372083,
        0.22466563,
        0.20401187,
        0.18229649,
        0.1595943,
        0.13618435,
        0.11318781,
        0.092458921,
        0.075414173,
        0.061869112,
        0.050779312,
        0.041513872,
        0.033504091,
        0.026047296,
        0.019399294,
        0.014717304,
        0.012453951,
        0.011796423,
        0.011713754,
        0.011735077,
        0.01176747,
        0.011790546,
        0.011798822,
        0.011799987,
        0.0118,
        0.0118,
        0.0118,
        0.0118,
        0.0118,
        0.0118,
        0.0118,
        0.0118,
        0.0118,
        0.0118,
        0.0118,
        0.0118,
        0.0118,
        0.0118,
        0.0118,
        0.0118,
        0.0118,
        0.0118,
        0.0118,
        0.0118,
        0.0118,
        0.0118,
        0.0118,
        0.0118,
        0.0118,
        0.0118,
        0.0118,
        0.0118,
        0.0118,
        0.0118,
        0.0118,
        0.0118,
        0.0118,
        0.0118,
        0.0118,
        0.0118,
        0.0118,
        0.0118,
        0.011800148,
        0.011803132,
        0.011816899,
        0.011845448,
        0.011876552,
        0.011894585,
        0.011899565,
        0.011899967,
        0.011888522,
        0.011784734,
        0.011488393,
        0.011103123
      ],
      "range":1
    }
  }
]
