[
  {
    "model":"Nikon D3000",
    "name":"Nikon D3000 LPF",
    "type":"OSC_LPF",
    "dataQualityMarker":3,
    "dataSource":"SVO Filter Profile Service",
    "manufacturer":"Nikon",
    "version":1,
    "wavelength":{
      "value":[
        3052.0,
        3079.6633,
        3107.3266,
        3134.9899,
        3162.6533,
        3190.3166,
        3217.9799,
        3245.6432,
        3273.3065,
        3300.9698,
        3328.6332,
        3356.2965,
        3383.9598,
        3411.6231,
        3439.2864,
        3466.9497,
        3494.6131,
        3522.2764,
        3549.9397,
        3577.603,
        3605.2663,
        3632.9296,
        3660.593,
        3688.2563,
        3715.9196,
        3743.5829,
        3771.2462,
        3798.9095,
        3826.5729,
        3854.2362,
        3881.8995,
        3909.5628,
        3937.2261,
        3964.8894,
        3992.5528,
        4020.2161,
        4047.8794,
        4075.5427,
        4103.206,
        4130.8693,
        4158.5327,
        4186.196,
        4213.8593,
        4241.5226,
        4269.1859,
        4296.8492,
        4324.5126,
        4352.1759,
        4379.8392,
        4407.5025,
        4435.1658,
        4462.8291,
        4490.4925,
        4518.1558,
        4545.8191,
        4573.4824,
        4601.1457,
        4628.809,
        4656.4724,
        4684.1357,
        4711.799,
        4739.4623,
        4767.1256,
        4794.7889,
        4822.4523,
        4850.1156,
        4877.7789,
        4905.4422,
        4933.1055,
        4960.7688,
        4988.4322,
        5016.0955,
        5043.7588,
        5071.4221,
        5099.0854,
        5126.7487,
        5154.4121,
        5182.0754,
        5209.7387,
        5237.402,
        5265.0653,
        5292.7286,
        5320.392,
        5348.0553,
        5375.7186,
        5403.3819,
        5431.0452,
        5458.7085,
        5486.3719,
        5514.0352,
        5541.6985,
        5569.3618,
        5597.0251,
        5624.6884,
        5652.3518,
        5680.0151,
        5707.6784,
        5735.3417,
        5763.005,
        5790.6683,
        5818.3317,
        5845.995,
        5873.6583,
        5901.3216,
        5928.9849,
        5956.6482,
        5984.3116,
        6011.9749,
        6039.6382,
        6067.3015,
        6094.9648,
        6122.6281,
        6150.2915,
        6177.9548,
        6205.6181,
        6233.2814,
        6260.9447,
        6288.608,
        6316.2714,
        6343.9347,
        6371.598,
        6399.2613,
        6426.9246,
        6454.5879,
        6482.2513,
        6509.9146,
        6537.5779,
        6565.2412,
        6592.9045,
        6620.5678,
        6648.2312,
        6675.8945,
        6703.5578,
        6731.2211,
        6758.8844,
        6786.5477,
        6814.2111,
        6841.8744,
        6869.5377,
        6897.201,
        6924.8643,
        6952.5276,
        6980.191,
        7007.8543,
        7035.5176,
        7063.1809,
        7090.8442,
        7118.5075,
        7146.1709,
        7173.8342,
        7201.4975,
        7229.1608,
        7256.8241,
        7284.4874,
        7312.1508,
        7339.8141,
        7367.4774,
        7395.1407,
        7422.804,
        7450.4673,
        7478.1307,
        7505.794,
        7533.4573,
        7561.1206,
        7588.7839,
        7616.4472,
        7644.1106,
        7671.7739,
        7699.4372,
        7727.1005,
        7754.7638,
        7782.4271,
        7810.0905,
        7837.7538,
        7865.4171,
        7893.0804,
        7920.7437,
        7948.407,
        7976.0704,
        8003.7337,
        8031.397,
        8059.0603,
        8086.7236,
        8114.3869,
        8142.0503,
        8169.7136,
        8197.3769,
        8225.0402,
        8252.7035,
        8280.3668,
        8308.0302,
        8335.6935,
        8363.3568,
        8391.0201,
        8418.6834,
        8446.3467,
        8474.0101,
        8501.6734,
        8529.3367,
        8557.0
      ],
      "units":"angstrom"
    },
    "values":{
      "value":[
        0.0084875831,
        0.0086268253,
        0.0087215507,
        0.0087300155,
        0.0087085019,
        0.0087018872,
        0.0087317451,
        0.0087826279,
        0.0088101625,
        0.0088019988,
        0.0087784688,
        0.0087552806,
        0.0087646017,
        0.0089481561,
        0.0096093494,
        0.011040627,
        0.013192798,
        0.015459859,
        0.016896277,
        0.016992905,
        0.016214206,
        0.01550244,
        0.015468437,
        0.016175463,
        0.017357195,
        0.018623283,
        0.019578436,
        0.020068863,
        0.020428285,
        0.021308361,
        0.023104911,
        0.025573262,
        0.02808047,
        0.030170133,
        0.032284903,
        0.037329847,
        0.051039747,
        0.077667194,
        0.11902233,
        0.18423881,
        0.28936028,
        0.43557825,
        0.5974118,
        0.73719416,
        0.82962922,
        0.8774168,
        0.9003798,
        0.91222776,
        0.91698395,
        0.91761963,
        0.91764122,
        0.91902638,
        0.92205486,
        0.92608363,
        0.93041601,
        0.9347245,
        0.93887193,
        0.94258365,
        0.9454402,
        0.94729039,
        0.94832061,
        0.94850939,
        0.94763647,
        0.94602521,
        0.94481636,
        0.94533168,
        0.94803119,
        0.95201894,
        0.95550275,
        0.9568821,
        0.95595234,
        0.95403158,
        0.95268278,
        0.95251327,
        0.95308633,
        0.95345574,
        0.95267064,
        0.95036661,
        0.94712815,
        0.94406837,
        0.94204647,
        0.94110455,
        0.9403812,
        0.93860862,
        0.93504024,
        0.93003278,
        0.92448328,
        0.91893646,
        0.91347462,
        0.9078458,
        0.90130619,
        0.89299965,
        0.88288329,
        0.87165964,
        0.85983374,
        0.84753165,
        0.8348022,
        0.82149907,
        0.80741868,
        0.79270416,
        0.77741431,
        0.76100079,
        0.74302919,
        0.72389888,
        0.70428533,
        0.68446059,
        0.66438576,
        0.6440814,
        0.62361506,
        0.60275289,
        0.58100409,
        0.55807987,
        0.53432747,
        0.51052569,
        0.48714845,
        0.46443098,
        0.44272876,
        0.42199093,
        0.40165883,
        0.38158684,
        0.36210705,
        0.3432644,
        0.32495564,
        0.30727707,
        0.29008676,
        0.27280418,
        0.25489543,
        0.2361528,
        0.21632762,
        0.19452028,
        0.16941991,
        0.14083591,
        0.11082065,
        0.083098164,
        0.06099194,
        0.045117102,
        0.033758506,
        0.025439352,
        0.019667363,
        0.015850949,
        0.013156095,
        0.011225739,
        0.010127247,
        0.0097298506,
        0.0096608995,
        0.009663452,
        0.0096700157,
        0.0096765795,
        0.0096831434,
        0.0096897072,
        0.0096962708,
        0.0097028344,
        0.0097093981,
        0.009715962,
        0.0097225258,
        0.0097290896,
        0.0097356534,
        0.0097422171,
        0.0097487807,
        0.0097553444,
        0.0097619082,
        0.009768472,
        0.0097750359,
        0.0097815997,
        0.0097881634,
        0.0097947269,
        0.0098012906,
        0.0098078544,
        0.0098144183,
        0.0098209821,
        0.0098275459,
        0.0098341091,
        0.0098406699,
        0.0098472279,
        0.0098537854,
        0.0098603456,
        0.0098669083,
        0.0098734719,
        0.0098800357,
        0.0098865995,
        0.0098931633,
        0.0098997271,
        0.0099062909,
        0.0099128545,
        0.0099194182,
        0.0099259819,
        0.0099325457,
        0.0099391096,
        0.0099456734,
        0.0099522372,
        0.0099588008,
        0.0099653644,
        0.0099719282,
        0.0099784912,
        0.0099850027,
        0.00999114,
        0.010007392,
        0.010113857,
        0.010411012,
        0.010796532
      ],
      "range":1
    }
  }
]
