[
  {
    "model":"Nikon D70",
    "name":"Nikon D70 LPF",
    "type":"OSC_LPF",
    "dataQualityMarker":3,
    "dataSource":"SVO Filter Profile Service",
    "manufacturer":"Nikon",
    "version":1,
    "wavelength":{
      "value":[
        3043.0,
        3070.6834,
        3098.3668,
        3126.0503,
        3153.7337,
        3181.4171,
        3209.1005,
        3236.7839,
        3264.4673,
        3292.1508,
        3319.8342,
        3347.5176,
        3375.201,
        3402.8844,
        3430.5678,
        3458.2513,
        3485.9347,
        3513.6181,
        3541.3015,
        3568.9849,
        3596.6683,
        3624.3518,
        3652.0352,
        3679.7186,
        3707.402,
        3735.0854,
        3762.7688,
        3790.4523,
        3818.1357,
        3845.8191,
        3873.5025,
        3901.1859,
        3928.8693,
        3956.5528,
        3984.2362,
        4011.9196,
        4039.603,
        4067.2864,
        4094.9698,
        4122.6533,
        4150.3367,
        4178.0201,
        4205.7035,
        4233.3869,
        4261.0704,
        4288.7538,
        4316.4372,
        4344.1206,
        4371.804,
        4399.4874,
        4427.1709,
        4454.8543,
        4482.5377,
        4510.2211,
        4537.9045,
        4565.5879,
        4593.2714,
        4620.9548,
        4648.6382,
        4676.3216,
        4704.005,
        4731.6884,
        4759.3719,
        4787.0553,
        4814.7387,
        4842.4221,
        4870.1055,
        4897.7889,
        4925.4724,
        4953.1558,
        4980.8392,
        5008.5226,
        5036.206,
        5063.8894,
        5091.5729,
        5119.2563,
        5146.9397,
        5174.6231,
        5202.3065,
        5229.9899,
        5257.6734,
        5285.3568,
        5313.0402,
        5340.7236,
        5368.407,
        5396.0905,
        5423.7739,
        5451.4573,
        5479.1407,
        5506.8241,
        5534.5075,
        5562.191,
        5589.8744,
        5617.5578,
        5645.2412,
        5672.9246,
        5700.608,
        5728.2915,
        5755.9749,
        5783.6583,
        5811.3417,
        5839.0251,
        5866.7085,
        5894.392,
        5922.0754,
        5949.7588,
        5977.4422,
        6005.1256,
        6032.809,
        6060.4925,
        6088.1759,
        6115.8593,
        6143.5427,
        6171.2261,
        6198.9095,
        6226.593,
        6254.2764,
        6281.9598,
        6309.6432,
        6337.3266,
        6365.0101,
        6392.6935,
        6420.3769,
        6448.0603,
        6475.7437,
        6503.4271,
        6531.1106,
        6558.794,
        6586.4774,
        6614.1608,
        6641.8442,
        6669.5276,
        6697.2111,
        6724.8945,
        6752.5779,
        6780.2613,
        6807.9447,
        6835.6281,
        6863.3116,
        6890.995,
        6918.6784,
        6946.3618,
        6974.0452,
        7001.7286,
        7029.4121,
        7057.0955,
        7084.7789,
        7112.4623,
        7140.1457,
        7167.8291,
        7195.5126,
        7223.196,
        7250.8794,
        7278.5628,
        7306.2462,
        7333.9296,
        7361.6131,
        7389.2965,
        7416.9799,
        7444.6633,
        7472.3467,
        7500.0302,
        7527.7136,
        7555.397,
        7583.0804,
        7610.7638,
        7638.4472,
        7666.1307,
        7693.8141,
        7721.4975,
        7749.1809,
        7776.8643,
        7804.5477,
        7832.2312,
        7859.9146,
        7887.598,
        7915.2814,
        7942.9648,
        7970.6482,
        7998.3317,
        8026.0151,
        8053.6985,
        8081.3819,
        8109.0653,
        8136.7487,
        8164.4322,
        8192.1156,
        8219.799,
        8247.4824,
        8275.1658,
        8302.8492,
        8330.5327,
        8358.2161,
        8385.8995,
        8413.5829,
        8441.2663,
        8468.9497,
        8496.6332,
        8524.3166,
        8552.0
      ],
      "units":"angstrom"
    },
    "values":{
      "value":[
        0.010720209,
        0.013292818,
        0.016015621,
        0.019238529,
        0.023195652,
        0.028074287,
        0.034814301,
        0.046220347,
        0.065211798,
        0.091376916,
        0.12171629,
        0.15425788,
        0.18861599,
        0.22466947,
        0.26271704,
        0.30341844,
        0.34630345,
        0.38888331,
        0.42768884,
        0.46084269,
        0.48970566,
        0.51745253,
        0.54662946,
        0.57797054,
        0.61018159,
        0.64057257,
        0.66688196,
        0.68903187,
        0.70829851,
        0.72513877,
        0.73935971,
        0.75156425,
        0.76291262,
        0.77412212,
        0.78532163,
        0.79614912,
        0.80575643,
        0.81348264,
        0.8197137,
        0.82564292,
        0.83231584,
        0.84002269,
        0.84826789,
        0.856195,
        0.86317645,
        0.8691807,
        0.87449772,
        0.87912039,
        0.88286806,
        0.8859307,
        0.88872051,
        0.8914892,
        0.89434257,
        0.89725868,
        0.90006306,
        0.90265057,
        0.90513272,
        0.90766254,
        0.91030632,
        0.91307334,
        0.91592865,
        0.91883496,
        0.92179105,
        0.92477836,
        0.92771838,
        0.93051904,
        0.9331268,
        0.93550759,
        0.93754102,
        0.93898071,
        0.93970115,
        0.93990652,
        0.93991438,
        0.93988641,
        0.93980207,
        0.93944641,
        0.93849918,
        0.93688759,
        0.93486016,
        0.93259294,
        0.93006712,
        0.92729304,
        0.92424713,
        0.92064766,
        0.91617966,
        0.91095948,
        0.90524925,
        0.89871741,
        0.89084612,
        0.88189459,
        0.87247646,
        0.86264025,
        0.85212886,
        0.84086797,
        0.8288033,
        0.81591308,
        0.80218609,
        0.7869684,
        0.76919314,
        0.74888637,
        0.72743182,
        0.70617965,
        0.68563895,
        0.66567466,
        0.64580077,
        0.62550185,
        0.60460738,
        0.58317252,
        0.56095631,
        0.53766496,
        0.51354403,
        0.48896407,
        0.46400611,
        0.43880009,
        0.41362394,
        0.38896042,
        0.36566005,
        0.34427794,
        0.32433161,
        0.30463028,
        0.28409616,
        0.26262909,
        0.24154194,
        0.22258454,
        0.20623253,
        0.1915814,
        0.17795854,
        0.16548802,
        0.15424248,
        0.14372703,
        0.13305603,
        0.12182205,
        0.11069092,
        0.10070099,
        0.092395831,
        0.085616613,
        0.079726896,
        0.074144602,
        0.068657113,
        0.063276943,
        0.05814068,
        0.053526809,
        0.049641513,
        0.046367419,
        0.043385747,
        0.040468243,
        0.037553358,
        0.034673631,
        0.031903504,
        0.029292911,
        0.026834253,
        0.024613707,
        0.022936488,
        0.022036634,
        0.021745465,
        0.021701281,
        0.0217,
        0.0217,
        0.0217,
        0.0217,
        0.021699909,
        0.021682789,
        0.021542872,
        0.021067328,
        0.020137757,
        0.018883373,
        0.017510482,
        0.016112914,
        0.014692778,
        0.013307667,
        0.012186781,
        0.011550366,
        0.011334788,
        0.01130093,
        0.0113,
        0.0113,
        0.0113,
        0.0113,
        0.0113,
        0.0113,
        0.0113,
        0.0113,
        0.0113,
        0.0113,
        0.0113,
        0.0113,
        0.0113,
        0.0113,
        0.0113,
        0.0113,
        0.0113,
        0.0113,
        0.0113,
        0.0113,
        0.011300005,
        0.011300843,
        0.011307793,
        0.011329903,
        0.011368684,
        0.011413078
      ],
      "range":1
    }
  }
]
