[
  {
    "model": "Lumicon UHC",
    "name": "Lumicon UHC",
    "type": "OSC_FILTER",
    "dataQualityMarker": 2,
    "dataSource": "Downloaded from searchlight.idex-hs.com",
    "manufacturer": "Lumicon",
    "version": 1,
    "wavelength": { 
       "value":  [400.0,401.0,402.0,403.0,404.0,405.0,406.0,407.0,408.0,409.0,410.0,411.0,412.0,413.0,414.0,415.0,416.0,417.0,418.0,419.0,420.0,421.0,422.0,423.0,424.0,425.0,426.0,427.0,428.0,429.0,430.0,431.0,432.0,433.0,434.0,435.0,436.0,437.0,438.0,439.0,440.0,441.0,442.0,443.0,444.0,445.0,446.0,447.0,448.0,449.0,450.0,451.0,452.0,453.0,454.0,455.0,456.0,457.0,458.0,459.0,460.0,461.0,462.0,463.0,464.0,465.0,466.0,467.0,468.0,469.0,470.0,471.0,472.0,473.0,474.0,475.0,476.0,477.0,478.0,479.0,480.0,481.0,482.0,483.0,484.0,485.0,486.0,487.0,488.0,489.0,490.0,491.0,492.0,493.0,494.0,495.0,496.0,497.0,498.0,499.0,500.0,501.0,502.0,503.0,504.0,505.0,506.0,507.0,508.0,509.0,510.0,511.0,512.0,513.0,514.0,515.0,516.0,517.0,518.0,519.0,520.0,521.0,522.0,523.0,524.0,525.0,526.0,527.0,528.0,529.0,530.0,531.0,532.0,533.0,534.0,535.0,536.0,537.0,538.0,539.0,540.0,541.0,542.0,543.0,544.0,545.0,546.0,547.0,548.0,549.0,550.0,551.0,552.0,553.0,554.0,555.0,556.0,557.0,558.0,559.0,560.0,561.0,562.0,563.0,564.0,565.0,566.0,567.0,568.0,569.0,570.0,571.0,572.0,573.0,574.0,575.0,576.0,577.0,578.0,579.0,580.0,581.0,582.0,583.0,584.0,585.0,586.0,587.0,588.0,589.0,590.0,591.0,592.0,593.0,594.0,595.0,596.0,597.0,598.0,599.0,600.0,601.0,602.0,603.0,604.0,605.0,606.0,607.0,608.0,609.0,610.0,611.0,612.0,613.0,614.0,615.0,616.0,617.0,618.0,619.0,620.0,621.0,622.0,623.0,624.0,625.0,626.0,627.0,628.0,629.0,630.0,631.0,632.0,633.0,634.0,635.0,636.0,637.0,638.0,639.0,640.0,641.0,642.0,643.0,644.0,645.0,646.0,647.0,648.0,649.0,650.0,651.0,652.0,653.0,654.0,655.0,656.0,657.0,658.0,659.0,660.0,661.0,662.0,663.0,664.0,665.0,666.0,667.0,668.0,669.0,670.0,671.0,672.0,673.0,674.0,675.0,676.0,677.0,678.0,679.0,680.0,681.0,682.0,683.0,684.0,685.0,686.0,687.0,688.0,689.0,690.0,691.0,692.0,693.0,694.0,695.0,696.0,697.0,698.0,699.0,700.0],
       "units": "nm"
    },
    "values": {
      "value": [0.0007693444,0.00040586291,0.0009393964,0.00071073616,0.0001873481,0.00020201481,0.00020932808,0.0002129633,0.00044822092,0.00045062103,0.00032778728,0.00063049849,0.00029634035,0.00022046223,0.00026006333,0.00025352138,0.00055178245,0.00029491218,0.0002977081,0.00059099206,0.0002681181,0.00023588572,0.00028044509,0.0013228831,0.00090277846,0.00021218259,0.0006237281,0.0005346168,0.00027171284,0.00023644295,0.00081382235,0.00036347168,0.00079188843,0.0010203653,0.00067968073,0.00034770554,0.00033548448,0.00038555367,0.00093921283,0.00030788433,0.00034659637,0.00040040236,0.00049402828,0.00029498439,0.00027091925,0.00079060788,0.0011153434,0.0012711535,0.001062211,0.0014715957,0.00039058051,0.0003822411,0.0003967561,0.0008618723,0.001399438,0.0018665965,0.00055803774,0.0006257894,0.0011153103,0.0010395085,0.0014271731,0.00041033105,0.0013477389,0.0023950307,0.00081186606,0.00057747256,0.0021729798,0.0003910435,0.00045454266,0.0017565514,0.00064014481,0.0038898933,0.0038770632,0.0032023082,0.0037182716,0.0076351363,0.01374712,0.032688518,0.080025128,0.22495621,0.50297697,0.78950015,0.93739861,0.97550005,0.97887005,0.9892575,0.99777363,0.98637686,0.98306088,0.97168919,0.97396857,0.98781613,0.98571753,0.97980769,0.9925606,0.99539701,0.99527242,0.98485533,0.98275978,0.98600654,0.99878969,0.99263035,0.99292683,0.98101223,0.94396739,0.86175213,0.72804752,0.52331635,0.33674216,0.20149844,0.1149305,0.069254561,0.044248041,0.029394399,0.019539077,0.014736216,0.013472818,0.0095161602,0.0084780616,0.0065122162,0.010007139,0.0044032812,0.0036087979,0.0028620137,0.0023164242,0.0055134884,0.0029575137,0.004237354,0.0033574574,0.0041495225,0.0016157814,0.0022212195,0.00077549042,0.0030141681,0.0012628347,0.0017056155,0.00062245015,0.00065464262,0.00071591309,0.0028474765,0.0013549364,0.00050551485,0.00052419965,0.00088452111,0.0010580718,0.0017973927,0.00067254834,0.0010316789,0.00093309504,0.00054538227,0.00063241897,0.00059306564,0.00088515551,0.0015046596,0.0015900622,0.00089384455,0.00053414859,0.00061689493,0.00060359681,0.0019459669,0.0010532536,0.0004973427,0.00092028634,0.0018263151,0.0012322145,0.0021062929,0.00073016011,0.0006750459,0.00033538062,0.0007088323,0.0008041037,0.00019673858,0.000772399,0.00015843462,0.00014046812,0.00034855753,0.00084818696,0.00023079298,0.00016324185,0.00013255875,0.00013039103,0.00026796683,0.00022168072,0.00018783459,0.0003144889,0.00010766793,0.00031442227,0.00075312044,0.00018794352,0.00037336003,0.00034918841,0.00027738733,0.00046834932,0.00037575513,0.00021829348,0.00023021696,0.00069083382,0.00059225875,0.00022292993,0.00024002958,0.00024093576,0.00021202679,0.00067594925,0.00066691568,0.00050306037,0.00027992919,0.00061422596,0.00044667192,0.00027323949,0.00051715776,0.00041639445,0.00027020095,0.00067735266,0.00037086005,0.0003600372,0.0010860029,0.00082713393,0.00083579649,0.00043487965,0.0011682118,0.0039699708,0.001011893,0.00047734622,0.0008839716,0.00099013443,0.0012234398,0.0019837057,0.0010833899,0.00064840984,0.0012029667,0.0010959967,0.0009665753,0.001168825,0.0011749961,0.0013479535,0.0012752116,0.0010532941,0.0011243324,0.0011215004,0.0022055617,0.0031696748,0.0046465791,0.011003784,0.0056800117,0.0079128873,0.0023615108,0.0096190118,0.0073389023,0.010291504,0.0034662605,0.0017029808,0.0043106991,0.0018603868,0.0056114664,0.0015539883,0.00036437512,0.00019977907,0.00038673825,0.0020731346,0.0037091258,0.001893104,0.01144467,0.012490369,0.0021479214,0.0037611877,0.0019075591,0.0065994768,0.0040408256,0.0022411579,0.0019278417,0.0037489427,0.0034126259,0.0030032667,0.0016195148,0.0047861256,0.0024724089,0.0027756769,0.0023270159,0.0012127285,0.006427937,0.0011554047,0.0015289504,0.0016658698,0.0050888231,0.0020440143,0.00072270349,0.00096550826,0.0011174222,0.0013168459,0.0029022524,0.0031191119,0.0030436795,0.00090291922,0.0011413775,0.0013735578,0.0023711446,0.003448851,0.0015730725,0.0010388981,0.00131875,0.0015345121],
      "range": 1
    }
  }
]
