[
  {
    "model": "Canon EOS 40D",
    "name": "Canon EOS 40D R",
    "type": "OSC_SENSOR",
    "is_dslr": true,
    "dataQualityMarker": 3,
    "dataSource": "SVO Filter Profile Service",
    "manufacturer": "Canon",
    "channel": "RED",
    "version": 1,
    "wavelength": { 
       "value":  [4000,4100,4200,4300,4400,4500,4600,4700,4800,4900,5000,5100,5200,5300,5400,5500,5600,5700,5800,5900,6000,6100,6200,6300,6400,6500,6600,6700,6800,6900,7000,7100,7200],
       "units": "angstrom"
    },
    "values": {
      "value": [0.00061338,0.00054295,0.0017657,0.0025753,0.0019556,0.0020464,0.0025927,0.0046451,0.0096604,0.013702,0.02004,0.03468,0.058077,0.1147,0.12768,0.11141,0.1335,0.24922,0.37219,0.50684,0.51487,0.49491,0.39493,0.36069,0.28328,0.23648,0.17385,0.13989,0.093123,0.027774,0.0050271,0.0012686,0.0005405],
      "range": 1
    }
  },
  {
    "model": "Canon EOS 40D",
    "name": "Canon EOS 40D G",
    "type": "OSC_SENSOR",
    "dataQualityMarker": 3,
    "dataSource": "SVO Filter Profile Service",
    "manufacturer": "Canon",
    "channel": "GREEN",
    "version": 1,
    "wavelength": { 
       "value":  [4000,4100,4200,4300,4400,4500,4600,4700,4800,4900,5000,5100,5200,5300,5400,5500,5600,5700,5800,5900,6000,6100,6200,6300,6400,6500,6600,6700,6800,6900,7000],
       "units": "angstrom"
    },
    "values": {
      "value": [0.0022326,0.0025282,0.015147,0.039169,0.05659,0.070041,0.086096,0.18752,0.44622,0.63039,0.76014,0.93533,0.91804,1,0.86269,0.86491,0.7561,0.67191,0.52369,0.4122,0.24592,0.12807,0.05879,0.037918,0.024125,0.016853,0.011789,0.012027,0.011431,0.0048331,0.00118],
      "range": 1
    }
  },
  {
    "model": "Canon EOS 40D",
    "name": "Canon EOS 40D B",
    "type": "OSC_SENSOR",
    "dataQualityMarker": 3,
    "dataSource": "SVO Filter Profile Service",
    "manufacturer": "Canon",
    "channel": "BLUE",
    "version": 1,
"wavelength": { 
       "value":  [4000,4100,4200,4300,4400,4500,4600,4700,4800,4900,5000,5100,5200,5300,5400,5500,5600,5700,5800,5900,6000,6100,6200,6300,6400,6500,6600,6700,6800,6900],
       "units": "angstrom"
    },
    "values": {
      "value": [0.0095762,0.019397,0.20048,0.63618,0.74402,0.8273,0.89143,0.86181,0.84141,0.72815,0.55543,0.42602,0.23653,0.14648,0.089427,0.065516,0.040818,0.031477,0.025019,0.020957,0.01404,0.0093475,0.0060651,0.0057769,0.0054316,0.0060976,0.0059716,0.0060196,0.004393,0.0014347],
      "range": 1
    }
  }
]
