[
  {
    "model": "Canon EOS 300D",
    "name": "Canon EOS 300D R",
    "type": "OSC_SENSOR",
    "is_dslr": true,
    "dataQualityMarker": 3,
    "dataSource": "SVO Filter Profile Service",
    "manufacturer": "Canon",
    "channel": "RED",
    "version": 1,
    "wavelength": { 
       "value":  [4000,4100,4200,4300,4400,4500,4600,4700,4800,4900,5000,5100,5200,5300,5400,5500,5600,5700,5800,5900,6000,6100,6200,6300,6400,6500,6600,6700,6800,6900,7000,7100],
       "units": "angstrom"
    },
    "values": {
      "value": [0.0074301,0.0075795,0.0083043,0.0098831,0.010432,0.011028,0.01193,0.013319,0.01075,0.0071592,0.007603,0.0095502,0.013374,0.011634,0.010348,0.016463,0.1081,0.39461,0.5796,0.70646,0.65966,0.64128,0.48616,0.40497,0.32996,0.26965,0.19645,0.068429,0.015261,0.0062609,0.002577,0.00073993],
      "range": 1
    }
  },
  {
    "model": "Canon EOS 300D",
    "name": "Canon EOS 300D G",
    "type": "OSC_SENSOR",
    "dataQualityMarker": 3,
    "dataSource": "SVO Filter Profile Service",
    "manufacturer": "Canon",
    "channel": "GREEN",
    "version": 1,
    "wavelength": { 
       "value":  [4000,4100,4200,4300,4400,4500,4600,4700,4800,4900,5000,5100,5200,5300,5400,5500,5600,5700,5800,5900,6000,6100,6200,6300,6400,6500,6600,6700,6800,6900,7000],
       "units": "angstrom"
    },
    "values": {
      "value": [0.041477,0.058,0.072545,0.10017,0.1198,0.16235,0.23092,0.36946,0.45982,0.50908,0.69947,0.84752,0.99131,0.99574,0.93826,0.88043,0.67937,0.57855,0.4181,0.29859,0.15914,0.083305,0.039898,0.025915,0.018503,0.012969,0.010731,0.0048377,0.0016101,0.00095847,0.00056323],
      "range": 1
    }
  },
  {
    "model": "Canon EOS 300D",
    "name": "Canon EOS 300D B",
    "type": "OSC_SENSOR",
    "dataQualityMarker": 3,
    "dataSource": "SVO Filter Profile Service",
    "manufacturer": "Canon",
    "channel": "BLUE",
    "version": 1,
"wavelength": { 
       "value":  [4000,4100,4200,4300,4400,4500,4600,4700,4800,4900,5000,5100,5200,5300,5400,5500,5600,5700,5800,5900,6000,6100,6200,6300,6400,6500,6600,6700],
       "units": "angstrom"
    },
    "values": {
      "value": [0.26332,0.42981,0.53966,0.69805,0.77811,0.95757,0.97645,1,0.94768,0.84684,0.7179,0.49589,0.31392,0.17227,0.09118,0.041019,0.014928,0.0090299,0.0055769,0.0046034,0.0024248,0.0020683,0.0016975,0.0013351,0.0017914,0.0012195,0.0018138,0.00064544],
      "range": 1
    }
  }
]
