[
  {
    "model":"Nikon D5100",
    "name":"Nikon D5100 R",
    "type":"OSC_SENSOR",
    "is_dslr": true,
    "dataQualityMarker":3,
    "dataSource":"SVO Filter Profile Service",
    "manufacturer":"Nikon",
    "version":1,
    "channel": "RED",
    "wavelength":{
      "value":[
        4000.0,
        4100.0,
        4200.0,
        4300.0,
        4400.0,
        4500.0,
        4600.0,
        4700.0,
        4800.0,
        4900.0,
        5000.0,
        5100.0,
        5200.0,
        5300.0,
        5400.0,
        5500.0,
        5600.0,
        5700.0,
        5800.0,
        5900.0,
        6000.0,
        6100.0,
        6200.0,
        6300.0,
        6400.0,
        6500.0,
        6600.0,
        6700.0,
        6800.0,
        6900.0,
        7000.0,
        7100.0
      ],
      "units":"angstrom"
    },
    "values":{
      "value":[
        0.00097089,
        0.00134,
        0.0048558,
        0.048817,
        0.044511,
        0.035356,
        0.030637,
        0.036642,
        0.041505,
        0.04001,
        0.043407,
        0.056477,
        0.08949,
        0.10403,
        0.055194,
        0.032069,
        0.035018,
        0.099778,
        0.47462,
        0.73781,
        0.68091,
        0.54974,
        0.45754,
        0.37341,
        0.28683,
        0.20456,
        0.14802,
        0.086178,
        0.028748,
        0.0062384,
        0.0016265,
        0.00057043
      ],
      "range":1
    }
  },
  {
    "model":"Nikon D5100",
    "name":"Nikon D5100 G",
    "type":"OSC_SENSOR",
    "dataQualityMarker":3,
    "dataSource":"SVO Filter Profile Service",
    "manufacturer":"Nikon",
    "version":1,
    "channel": "GREEN",
    "wavelength":{
      "value":[
        4000.0,
        4100.0,
        4200.0,
        4300.0,
        4400.0,
        4500.0,
        4600.0,
        4700.0,
        4800.0,
        4900.0,
        5000.0,
        5100.0,
        5200.0,
        5300.0,
        5400.0,
        5500.0,
        5600.0,
        5700.0,
        5800.0,
        5900.0,
        6000.0,
        6100.0,
        6200.0,
        6300.0,
        6400.0,
        6500.0,
        6600.0,
        6700.0,
        6800.0,
        6900.0,
        7000.0
      ],
      "units":"angstrom"
    },
    "values":{
      "value":[
        0.0019946,
        0.0023647,
        0.0090914,
        0.11687,
        0.15689,
        0.18795,
        0.2367,
        0.35642,
        0.43339,
        0.49941,
        0.64847,
        0.83476,
        0.94407,
        1.0,
        0.89984,
        0.82235,
        0.66898,
        0.56147,
        0.43028,
        0.31399,
        0.18273,
        0.09276,
        0.055687,
        0.039461,
        0.028244,
        0.019985,
        0.016292,
        0.012224,
        0.0056229,
        0.001666,
        0.00055689
      ],
      "range":1
    }
  },
  {
    "model":"Nikon D5100",
    "name":"Nikon D5100 B",
    "type":"OSC_SENSOR",
    "dataQualityMarker":3,
    "dataSource":"SVO Filter Profile Service",
    "manufacturer":"Nikon",
    "version":1,
    "channel": "BLUE",
    "wavelength":{
      "value":[
        4000.0,
        4100.0,
        4200.0,
        4300.0,
        4400.0,
        4500.0,
        4600.0,
        4700.0,
        4800.0,
        4900.0,
        5000.0,
        5100.0,
        5200.0,
        5300.0,
        5400.0,
        5500.0,
        5600.0,
        5700.0,
        5800.0,
        5900.0,
        6000.0,
        6100.0,
        6200.0,
        6300.0,
        6400.0,
        6500.0,
        6600.0,
        6700.0,
        6800.0
      ],
      "units":"angstrom"
    },
    "values":{
      "value":[
        0.0039847,
        0.00756,
        0.047137,
        0.64213,
        0.80799,
        0.90724,
        0.87403,
        0.89336,
        0.81728,
        0.71421,
        0.52892,
        0.36156,
        0.21874,
        0.14699,
        0.09114,
        0.052706,
        0.025948,
        0.01619,
        0.011749,
        0.0083959,
        0.0051847,
        0.0032014,
        0.0027784,
        0.0031136,
        0.004006,
        0.0046745,
        0.004914,
        0.0035581,
        0.0013669
      ],
      "range":1
    }
  }
]
