[
    {
        "model": "Sony IMX455C",
        "name": "Sony IMX455C Red",
        "type": "OSC_SENSOR",
        "dataQualityMarker": 2,
        "dataSource": "https://player-one-astronomy.com/product/zeus-455c-pro-imx455-usb3-0-color-cooled-camera/",
        "manufacturer": "Sony",
        "channel": "RED",
        "comment": "Covers all cameras using this chip",
        "version": 1,
        "wavelength": {
            "value": [
                401.1190162875556,
                404.15190471370244,
                407.1847931398493,
                410.21768156599614,
                413.250569992143,
                416.28345841828985,
                419.31634684443674,
                422.34923527058356,
                425.38212369673045,
                428.4150121228773,
                431.44790054902415,
                434.480788975171,
                437.51367740131786,
                440.5465658274647,
                443.5794542536116,
                446.6123426797584,
                449.6452311059053,
                452.6781195320521,
                455.71100795819893,
                458.7438963843458,
                461.7767848104927,
                464.8096732366395,
                467.84256166278635,
                470.87545008893323,
                473.9083385150801,
                476.94122694122694,
                479.97411536737377,
                483.00700379352065,
                486.03989221966754,
                489.07278064581436,
                492.1056690719612,
                495.13855749810807,
                498.17144592425495,
                501.2043343504018,
                504.2372227765486,
                507.2701112026955,
                510.3029996288424,
                513.3358880549893,
                516.368776481136,
                519.4016649072829,
                522.4345533334297,
                525.4674417595766,
                528.5003301857234,
                531.5332186118703,
                534.5661070380172,
                537.598995464164,
                540.6318838903109,
                543.6647723164577,
                546.6976607426045,
                549.7305491687514,
                552.7634375948983,
                556.0107726774394,
                558.829214447192,
                561.8621028733388,
                564.8949912994857,
                567.9278797256326,
                570.2714753276551,
                571.6500609759037,
                572.7529294945025,
                573.9936565779262,
                574.7105211150156,
                575.4825290780348,
                576.0615350502991,
                576.6129693095985,
                577.164403568898,
                577.7158378281974,
                578.2672720874968,
                578.8187063467963,
                579.3701406060957,
                579.9215748653951,
                580.4730091246945,
                581.0244433839939,
                581.5758776432933,
                582.1273119025929,
                582.6787461618923,
                583.3680389860165,
                584.1951903749657,
                584.9120549120549,
                585.711634588039,
                586.814503106638,
                588.0552301900617,
                589.5716744031351,
                591.6395528755079,
                594.3967241720051,
                597.429612598152,
                600.4625010242988,
                603.4953894504456,
                606.5282778765925,
                609.5611663027394,
                612.5940547288862,
                615.6269431550331,
                618.6598315811799,
                621.6927200073268,
                624.7256084334736,
                627.7584968596204,
                630.7913852857673,
                633.8242737119142,
                636.8571621380611,
                639.890050564208,
                642.9229389903547,
                645.9558274165016,
                648.9887158426484,
                652.0216042687953,
                655.0544926949422,
                658.087381121089,
                661.1202695472359,
                664.1531579733827,
                667.1860463995296,
                670.2189348256763,
                673.2518232518232,
                676.2847116779701,
                679.317600104117,
                682.3504885302639,
                685.3833769564108,
                688.4162653825575,
                691.4491538087044,
                694.4820422348512,
                697.5149306609981,
                699.7206676981958
            ],
            "units": "nm"
        },
        "values": {
            "value": [
                0.059516054406439034,
                0.05236119811377615,
                0.04525998391282471,
                0.037536521448020554,
                0.03166907535643282,
                0.026402420692013928,
                0.02207986684171659,
                0.017928967684896158,
                0.01437885995524435,
                0.011944507733191001,
                0.00993929224482959,
                0.007848249409729613,
                0.006958789428966883,
                0.005382710674296742,
                0.005008214773964292,
                0.003432136019294152,
                0.003400949505914852,
                0.00336976299253533,
                0.00333857647915603,
                0.0033073899657765082,
                0.0032762034523972083,
                0.0037599810194479666,
                0.005102032053882155,
                0.005070845540502855,
                0.006241241881460358,
                0.006896674141987802,
                0.00686548762860828,
                0.008550848049996063,
                0.008691316230093449,
                0.008831784410190835,
                0.010517144831578396,
                0.010743440358414125,
                0.012342973433063342,
                0.01308423304032913,
                0.014512111421501883,
                0.016712435923319724,
                0.01908441511861425,
                0.021456394313908556,
                0.02400002820267999,
                0.026372007397974295,
                0.028486504553053793,
                0.03008603762770301,
                0.030913124581707363,
                0.03088193806832784,
                0.029906650740826768,
                0.02893136341332525,
                0.02890017689994595,
                0.02886899038656665,
                0.0291811132601405,
                0.030694818988051598,
                0.03143607859531716,
                0.03524584483443749,
                0.03755327453371993,
                0.042156764744211817,
                0.050107521477499306,
                0.0642378471759486,
                0.0855561487287897,
                0.10646954108725892,
                0.1272284184476209,
                0.1518566915770927,
                0.1718642574787692,
                0.19432591846964642,
                0.2173560245453029,
                0.2395367234020077,
                0.2633695986834257,
                0.2874384991683743,
                0.31197945006038386,
                0.33628437574886283,
                0.3596452006232199,
                0.38206192468345523,
                0.40353454792956844,
                0.42595127198980376,
                0.44860402125356946,
                0.47102074531380467,
                0.492493368559918,
                0.5165608514760766,
                0.5471097424137489,
                0.5684705194823334,
                0.593008918750521,
                0.6163640733497181,
                0.6379240188332939,
                0.6588989336772477,
                0.6801199384631409,
                0.6959982553495164,
                0.7065238324849547,
                0.7099257398411094,
                0.7083496610864397,
                0.7057436541709096,
                0.7036526113358097,
                0.6991584027920359,
                0.695179158328692,
                0.6930022881468539,
                0.6915120367389225,
                0.6889918571701308,
                0.6859567135209089,
                0.6835223612988557,
                0.6831478653985228,
                0.6811426499101613,
                0.6760476499392188,
                0.6658030091639754,
                0.6569316059365454,
                0.6538106349405852,
                0.6489731170098579,
                0.6419899154106719,
                0.6317452746354283,
                0.6221014252873532,
                0.6149465689946904,
                0.6044444461792318,
                0.5902517474540238,
                0.5703944438440846,
                0.5514812410482671,
                0.5345420672274319,
                0.5197485770750555,
                0.5064141518172312,
                0.4932513812528835,
                0.4831783951711166,
                0.47877001397408103,
                0.48208609398349744,
                0.48779667964497997
            ],
            "range": 1
        }
    },
    {
        "model": "Sony IMX455C",
        "name": "Sony IMX455C Green",
        "type": "OSC_SENSOR",
        "dataQualityMarker": 2,
        "dataSource": "https://player-one-astronomy.com/product/zeus-455c-pro-imx455-usb3-0-color-cooled-camera/",
        "manufacturer": "Sony",
        "channel": "GREEN",
        "comment": "Covers all cameras using this chip",
        "version": 1,
        "wavelength": {
            "value": [
                401.1190162875556,
                404.15190471370244,
                407.1847931398493,
                410.21768156599614,
                413.250569992143,
                416.28345841828985,
                419.31634684443674,
                422.34923527058356,
                425.38212369673045,
                428.4150121228773,
                431.44790054902415,
                434.480788975171,
                437.51367740131786,
                440.5465658274647,
                443.5794542536116,
                446.6123426797584,
                449.6452311059053,
                452.6781195320521,
                455.71100795819893,
                458.7438963843458,
                461.6389262456678,
                463.9825218476904,
                465.7746831904135,
                467.29112740348694,
                468.6697130517355,
                469.9104401351592,
                471.15116721858294,
                472.2540357371818,
                473.35690425578065,
                474.420384613001,
                475.33287701827027,
                476.3438398269859,
                477.3548026357015,
                478.4300994413354,
                479.5605396728992,
                480.6634081914981,
                481.7662767100969,
                483.00700379352065,
                484.3855894417692,
                486.2762211879387,
                486.4258962011771,
                488.3834878216901,
                490.03779059958833,
                491.8299519423115,
                493.7599718498595,
                495.6899917574075,
                497.75787022978034,
                499.96360726697804,
                502.30720286900066,
                505.0643741654977,
                508.0972625916446,
                511.1301510177915,
                514.1630394439383,
                517.1959278700851,
                520.228816296232,
                523.2617047223789,
                526.2945931485258,
                529.3274815746726,
                532.3603700008194,
                535.3932584269663,
                538.4261468531131,
                541.45903527926,
                544.4919237054069,
                547.5248121315537,
                550.5577005577006,
                553.5905889838474,
                556.6234774099943,
                559.6563658361412,
                562.6892542622879,
                565.7221426884348,
                568.7550311145817,
                571.7879195407286,
                574.6829494020506,
                577.3022621337228,
                579.7837163005702,
                582.1273119025929,
                584.1951903749657,
                586.1252102825136,
                587.9173716252368,
                589.5716744031351,
                591.2259771810334,
                592.8802799589316,
                594.53458273683,
                596.0510269499034,
                597.429612598152,
                598.9460568112254,
                600.4625010242988,
                601.8410866725474,
                603.3575308856208,
                605.011833663519,
                606.6661364414174,
                608.4582977841405,
                610.3883176916885,
                612.5940547288862,
                615.2133674605585,
                618.1083973218805,
                621.1412857480274,
                624.1741741741741,
                627.207062600321,
                630.2399510264679,
                636.3057278787617,
                639.3386163049084,
                642.3715047310553,
                645.4043931572021,
                648.437281583349,
                651.4701700094959,
                654.5030584356427,
                657.5359468617896,
                660.5688352879365,
                663.6017237140833,
                666.6346121402302,
                669.6675005663769,
                672.7003889925238,
                675.7332774186707,
                678.7661658448176,
                681.7990542709645,
                684.8319426971113,
                687.8648311232581,
                690.897719549405,
                693.9306079755518,
                696.9634964016986,
                699.4449505685461
            ],
            "units": "nm"
        },
        "values": {
            "value": [
                0.0469852617826394,
                0.04583831976166142,
                0.04537799651458996,
                0.044746018574042035,
                0.04437152267370936,
                0.043825372079900005,
                0.04250677536544489,
                0.04075904191729851,
                0.03909713581589047,
                0.03829350318186586,
                0.04015051829673033,
                0.044410699120268626,
                0.049872462798143946,
                0.05567753586297264,
                0.06010937137998762,
                0.06196638649485209,
                0.06150606324778085,
                0.060187466533326184,
                0.06178699960797562,
                0.06905113756735615,
                0.08531998176838029,
                0.10575589645642114,
                0.12612554992902214,
                0.1467228244473271,
                0.16823414732140662,
                0.19036055329345558,
                0.212455489238367,
                0.23659739451599904,
                0.2629028641593273,
                0.2869159225594422,
                0.3109136745917893,
                0.3338763988976291,
                0.3568391232034688,
                0.38225584809392354,
                0.4081125863367857,
                0.4302876149183307,
                0.45128251748222314,
                0.473408923454272,
                0.4964308076309466,
                0.5257016127615843,
                0.5290607785220884,
                0.5497943341881995,
                0.5692887401879058,
                0.5899281367502557,
                0.6112179948773762,
                0.6318334952801238,
                0.6532736663264381,
                0.673903190534715,
                0.6944657346176658,
                0.71511223743395,
                0.7331906210823633,
                0.7482650475949344,
                0.7609363083988314,
                0.7717193675744848,
                0.7820732900164462,
                0.7916547663377625,
                0.7978031487895446,
                0.7993168545174556,
                0.7977407757627859,
                0.794705632113564,
                0.7905547329567437,
                0.784429804824941,
                0.7764166750648946,
                0.7678027538776798,
                0.757729767795913,
                0.7453394433522105,
                0.7304601258530957,
                0.7130918152985687,
                0.6946935765831815,
                0.6753512370536723,
                0.656008897524163,
                0.6364090759544389,
                0.6160639740368808,
                0.5949835920749531,
                0.5733486572023878,
                0.5509152767088704,
                0.5300395005507925,
                0.5083053358629291,
                0.4869322461968546,
                0.46614501746069303,
                0.44504308845315776,
                0.4229970586315004,
                0.40079367867415605,
                0.3801022775881968,
                0.36007316464091277,
                0.33890971314789253,
                0.3166133406779259,
                0.29733950838193945,
                0.27466549558632425,
                0.2524621156289799,
                0.23136018662144442,
                0.21041419018080598,
                0.19016361248656288,
                0.1697753281098653,
                0.1487893562293494,
                0.12998056381840817,
                0.11458628223886325,
                0.10314005860928255,
                0.09358203660794606,
                0.08599804358159124,
                0.0753789069060149,
                0.07045556162854916,
                0.06587552573803701,
                0.061638799234478236,
                0.058088691504826206,
                0.05556851193603474,
                0.05407826052810316,
                0.05318880054734043,
                0.054187542194821026,
                0.05724614016402252,
                0.06116301160060744,
                0.06559484711762242,
                0.07079912875528271,
                0.07729082059401815,
                0.08524157732730586,
                0.09413643487471535,
                0.10328877446233964,
                0.1119261499695341,
                0.1208210075169438,
                0.13048831118499815,
                0.14127137036065163,
                0.15053972966924256
            ],
            "range": 1
        }
    },
    {
        "model": "Sony IMX455C",
        "name": "Sony IMX455C Blue",
        "type": "OSC_SENSOR",
        "dataQualityMarker": 2,
        "dataSource": "https://player-one-astronomy.com/product/zeus-455c-pro-imx455-usb3-0-color-cooled-camera/",
        "manufacturer": "Sony",
        "channel": "BLUE",
        "comment": "Covers all cameras using this chip",
        "version": 1,
        "wavelength": {
            "value": [
                400.5675820282562,
                402.4976019358042,
                404.56548040817705,
                406.9090760101996,
                409.66624730669673,
                412.6991357328436,
                415.73202415899044,
                418.76491258513727,
                421.52208388163444,
                424.1413966133067,
                427.03642647462874,
                430.06931490077557,
                432.96434476209754,
                435.7215160585947,
                438.340828790267,
                441.09800008676416,
                444.130888512911,
                447.1637769390578,
                450.1966653652047,
                453.2295537913516,
                456.2624422174984,
                459.29533064364523,
                462.3282190697921,
                465.36110749593894,
                468.3939959220858,
                471.42688434823265,
                474.45977277437953,
                476.8033683764021,
                478.4576711543004,
                480.3876910618484,
                483.00700379352065,
                485.9020336548426,
                488.9349220809895,
                491.1406591181872,
                493.3463961553849,
                495.55213319258263,
                497.6200116649555,
                499.5500315725035,
                499.8257487021532,
                501.4800514800515,
                503.4100713875995,
                505.3400912951475,
                507.2701112026955,
                509.20013111024343,
                511.1301510177915,
                513.0601709253394,
                514.9901908328875,
                517.0580693052603,
                519.263806342458,
                521.7452605093055,
                524.6402903706274,
                527.6731787967743,
                530.7060672229212,
                533.738955649068,
                536.7718440752149,
                539.8047325013617,
                542.8376209275086,
                545.8705093536554,
                548.9033977798023,
                551.8443804960659,
                551.706521931241,
                554.9691746320959,
                558.0020630582428,
                561.0349514843897,
                564.0678399105366,
                567.1007283366835,
                570.1336167628302,
                573.1665051889771,
                576.199393615124,
                579.2322820412708,
                582.2651704674176,
                585.2980588935645,
                588.3309473197114,
                591.3638357458583,
                594.3967241720051,
                597.429612598152,
                600.4625010242988,
                603.4953894504456,
                606.5282778765925,
                609.5611663027394,
                612.5940547288862,
                615.6269431550331,
                618.6598315811799,
                621.6927200073268,
                624.7256084334736,
                627.7584968596204,
                630.7913852857673,
                633.8242737119142,
                636.8571621380611,
                639.890050564208,
                642.9229389903547,
                645.9558274165016,
                648.9887158426484,
                652.0216042687953,
                655.0544926949422,
                658.087381121089,
                661.1202695472359,
                664.1531579733827,
                667.1860463995296,
                670.2189348256763,
                673.2518232518232,
                676.2847116779701,
                679.317600104117,
                682.3504885302639,
                685.3833769564108,
                688.4162653825575,
                691.4491538087044,
                694.4820422348512,
                697.5149306609981,
                699.7206676981958
            ],
            "units": "nm"
        },
        "values": {
            "value": [
                0.2849779035137222,
                0.3069421193652154,
                0.32946126277052623,
                0.3507449949753757,
                0.37192553461580946,
                0.3904330549979147,
                0.40799647456589794,
                0.4271906137219099,
                0.44783711653819425,
                0.4685384406056833,
                0.4885579398591735,
                0.5080095610554005,
                0.5278316574113925,
                0.5489511642719237,
                0.5698727785293746,
                0.5905478904612381,
                0.6086262741096515,
                0.6214691896070252,
                0.6292482916468362,
                0.634109263897543,
                0.6358804516656691,
                0.6352484737251212,
                0.6350456325182651,
                0.6364735108994377,
                0.6403903823360225,
                0.6409599872498116,
                0.6326035481028118,
                0.6109652626131067,
                0.5886045325200754,
                0.567657118510647,
                0.5478040676070777,
                0.5263566973364084,
                0.5005380714430138,
                0.48092529844934484,
                0.46048643724331917,
                0.4391034752231716,
                0.4183119937806402,
                0.398061416086397,
                0.39213648066778106,
                0.37713648066778105,
                0.3552674444350433,
                0.3332635366574307,
                0.3112596288798183,
                0.2896603357368296,
                0.26819591413871535,
                0.24740585026497397,
                0.2270204010258563,
                0.206397509014418,
                0.1856046100030968,
                0.16495049097631376,
                0.14467405093614638,
                0.127219913034881,
                0.1128555596161962,
                0.10115185394640092,
                0.09039224909072696,
                0.0797184715817918,
                0.06870138468590281,
                0.058628398604136045,
                0.04889872190932243,
                0.03728178863212528,
                0.04153165986446372,
                0.033387426469659864,
                0.027005016297642292,
                0.022253325713653682,
                0.018789045330739773,
                0.016011383721733274,
                0.01374868619315639,
                0.012687571518916974,
                0.01154062949793877,
                0.010822824210652504,
                0.009847536883151209,
                0.00955886832955688,
                0.00849775365531702,
                0.0076082936745542895,
                0.006375524306837743,
                0.005657719019551477,
                0.005626532506172177,
                0.004737072525409225,
                0.004190921931599645,
                0.003644771337790065,
                0.003613584824410765,
                0.003582398311031243,
                0.003551211797651943,
                0.003520025284272421,
                0.0034888387708931212,
                0.0037151342977286284,
                0.004370566558256295,
                0.005025998818783517,
                0.005509776385834497,
                0.006680172726792,
                0.007335604987319444,
                0.008591828675015512,
                0.009933879709449478,
                0.011275930743883888,
                0.012789636471794763,
                0.014217514852967517,
                0.01573122058087817,
                0.01707327161531258,
                0.01850114999648511,
                0.01984320103091952,
                0.02006949655775503,
                0.02089658351175938,
                0.021466188425548705,
                0.02194996599259924,
                0.022948707640080057,
                0.0236041399006075,
                0.0235729533872282,
                0.024400040341232332,
                0.025312954641974805,
                0.025564921050897915
            ],
            "range": 1
        }
    }
]
