[
    {
        "model": "Sony IMX585C",
        "name": "Sony IMX585C Red",
        "type": "OSC_SENSOR",
        "dataQualityMarker": 2,
        "dataSource": "https://player-one-astronomy.com/product/uranus-c-usb3-0-color-camera-imx585/",
        "manufacturer": "Sony",
        "channel": "RED",
        "comment": "Covers all cameras using this chip",
        "version": 1,
        "wavelength": {
            "value": [
                403.7056878306878,
                410.55886243386243,
                417.41203703703707,
                423.3306878306878,
                431.1183862433862,
                437.97156084656086,
                444.82473544973544,
                451.6779100529101,
                458.53108465608466,
                465.38425925925924,
                472.2374338624338,
                479.09060846560845,
                485.9437830687831,
                492.79695767195767,
                499.65013227513225,
                506.5033068783069,
                513.3564814814815,
                520.2096560846561,
                527.0628306878307,
                533.9160052910053,
                540.7691798941798,
                547.6223544973545,
                554.4755291005291,
                560.830291005291,
                564.5060846560847,
                566.0013227513227,
                567.4031084656085,
                568.6491402116402,
                570.2378306878306,
                571.2346560846561,
                572.0757275132275,
                572.9583333333334,
                573.4775132275132,
                574.9727513227513,
                575.569066515495,
                576.1920823885109,
                576.8150982615268,
                577.4381141345427,
                578.0611300075586,
                578.6841458805744,
                579.3071617535903,
                579.9301776266061,
                580.553193499622,
                580.9537037037037,
                581.7992252456538,
                582.4333664021165,
                583.0452569916856,
                583.6682728647014,
                584.2912887377173,
                584.9143046107331,
                585.3148148148148,
                585.9378306878307,
                588.1183862433862,
                589.2086640211639,
                590.1431878306878,
                590.2989417989418,
                591.5449735449736,
                593.0332892416226,
                594.2862433862433,
                595.505574452003,
                597.4636243386244,
                600.3521524771525,
                604.0052910052909,
                609.9239417989418,
                616.7771164021165,
                623.6302910052909,
                630.4834656084656,
                637.3366402116402,
                644.1898148148148,
                651.0429894179895,
                657.8961640211639,
                664.7493386243386,
                670.3564814814815,
                674.4060846560847,
                679.3618927368927,
                685.9318783068784,
                692.7850529100529,
                699.3267195767196,
                704.6223544973545,
                708.9834656084656,
                713.3445767195767,
                718.0171957671957,
                723.9358465608466,
                730.7890211640212,
                737.6421957671957,
                744.4953703703704,
                751.3485449735449,
                758.2017195767196,
                765.0548941798942,
                771.9080687830688,
                778.7612433862435,
                785.6144179894179,
                792.4675925925926,
                799.3207671957672,
                805.5509259259259,
                810.8465608465608,
                815.5191798941798,
                820.1917989417989,
                825.7989417989418,
                832.3406084656085,
                839.193783068783,
                846.0469576719577,
                852.9001322751324,
                859.7533068783068,
                866.2949735449736,
                873.459656084656,
                880.0013227513227,
                885.9199735449736,
                891.5271164021165,
                896.8227513227514,
                902.1183862433863,
                907.4140211640213,
                912.709656084656,
                918.0052910052909,
                922.9894179894179,
                946.0410052910054
            ],
            "units": "nm"
        },
        "values": {
            "value": [
                0.06915689343768827,
                0.05471402769416023,
                0.04397639975918133,
                0.037274834437086124,
                0.02272799518362456,
                0.021744972907886906,
                0.019400842865743728,
                0.016527393136664736,
                0.016376158940397456,
                0.016905478627333048,
                0.019627694160144538,
                0.02076195063214925,
                0.021669355809753155,
                0.023786634557495523,
                0.02643323299217326,
                0.03384370860927155,
                0.04495942203491876,
                0.053957856712823604,
                0.05773871161950628,
                0.054260325105358165,
                0.04420325105358236,
                0.03573413606261289,
                0.03195328115593021,
                0.03778083885209749,
                0.06046092715231799,
                0.07973068432671093,
                0.09945099337748342,
                0.12357284768211918,
                0.1468005298013244,
                0.17666172185430473,
                0.2011266887417218,
                0.22885180279617368,
                0.25066313465783674,
                0.274230463576159,
                0.2991841059602649,
                0.3192658467360454,
                0.3398228949858091,
                0.36037994323557254,
                0.3809369914853358,
                0.4017316934720909,
                0.4227640491958373,
                0.44415288552507093,
                0.465422894985809,
                0.4859205298013246,
                0.5067746452223275,
                0.5295894039735101,
                0.5519288552507097,
                0.5727235572374646,
                0.5928528287606434,
                0.6142535477767267,
                0.6346719646799118,
                0.6533871964679913,
                0.7172992940834002,
                0.747517880794702,
                0.7716397350993378,
                0.7904935982339957,
                0.8125013245033114,
                0.837813097866078,
                0.864134569536424,
                0.8874959318826869,
                0.9086768211920531,
                0.931343046357616,
                0.9526576158940399,
                0.9666562311860327,
                0.9731593016255269,
                0.9747472606863337,
                0.9794355207706202,
                0.9844262492474414,
                0.9876777844671886,
                0.9904000000000002,
                0.98646791089705,
                0.9731593016255269,
                0.9560590350047304,
                0.9352247240618102,
                0.912968091511138,
                0.892853943407586,
                0.8851409993979532,
                0.8957425165562916,
                0.9147072847682121,
                0.9333631031220436,
                0.9521377483443709,
                0.9712688741721855,
                0.9891901264298616,
                0.9974323901264299,
                0.995012642986153,
                0.9804185430463577,
                0.9622704394942806,
                0.9476007224563516,
                0.9382998193859122,
                0.9304356411800121,
                0.9278646598434679,
                0.9247643588199881,
                0.9215128236002409,
                0.9131949428055389,
                0.8955761589403974,
                0.8775887417218544,
                0.8604034058656576,
                0.8423417218543048,
                0.8236264900662252,
                0.8062723660445515,
                0.7916026490066226,
                0.7786721252257678,
                0.7697493076459965,
                0.7605996387718243,
                0.751510463576159,
                0.7258157736303432,
                0.7102537748344372,
                0.6917880794701987,
                0.6734887417218544,
                0.6546695364238412,
                0.6356885945548197,
                0.6173430463576159,
                0.5984429727740987,
                0.5805364238410596,
                0.5641086092715233,
                0.5121218543046359
            ],
            "range": 1
        }
    },
    {
        "model": "Sony IMX585C",
        "name": "Sony IMX585C Green",
        "type": "OSC_SENSOR",
        "dataQualityMarker": 2,
        "dataSource": "https://player-one-astronomy.com/product/uranus-c-usb3-0-color-camera-imx585/",
        "manufacturer": "Sony",
        "channel": "GREEN",
        "comment": "Covers all cameras using this chip",
        "version": 1,
        "wavelength": {
            "value": [
                403.7056878306878,
                410.55886243386243,
                417.41203703703707,
                424.26521164021165,
                431.1183862433862,
                437.97156084656086,
                444.82473544973544,
                451.6779100529101,
                457.1717772967773,
                460.40013227513225,
                462.2691798941799,
                464.2074514991182,
                465.7303791887125,
                467.0975529100529,
                468.6862433862434,
                469.9011243386243,
                470.5241402116402,
                471.9259259259259,
                473.17195767195767,
                474.4179894179894,
                475.66402116402116,
                477.2215608465608,
                478.0003306878307,
                479.4021164021164,
                480.7897426647427,
                482.2056878306878,
                482.98445767195767,
                485.2728428978429,
                487.1275132275132,
                488.57429453262785,
                489.75975529100526,
                490.9279100529101,
                492.79695767195767,
                494.66600529100526,
                496.5350529100529,
                499.0271164021164,
                501.8306878306878,
                505.25727513227514,
                508.44157848324517,
                513.0449735449736,
                518.9636243386243,
                525.8167989417989,
                532.6699735449736,
                539.5231481481482,
                546.3763227513227,
                553.2294973544973,
                559.1481481481482,
                563.8207671957672,
                568.1818783068783,
                571.9766113516114,
                575.3465608465608,
                578.4616402116402,
                583.7572751322751,
                585.9378306878307,
                587.4953703703704,
                589.2398148148148,
                593.0246362433862,
                594.7638888888889,
                596.7713844797179,
                597.9828042328043,
                599.6441798941798,
                600.9525132275132,
                601.9137377173092,
                603.3822751322751,
                604.6283068783068,
                606.1079695767196,
                607.930291005291,
                609.8460648148148,
                611.5853174603175,
                613.4543650793651,
                615.8772045855379,
                618.379157218443,
                621.0690035273369,
                623.9417989417989,
                627.5760582010582,
                632.8370811287479,
                639.2056878306878,
                646.0588624338625,
                652.912037037037,
                659.7652116402116,
                666.1338183421517,
                670.9794973544974,
                674.6609547859548,
                677.5557760141094,
                680.6362433862435,
                683.7167107583774,
                686.2779982363315,
                689.3584656084656,
                692.4735449735449,
                695.5886243386244,
                698.9585738335738,
                701.7149470899471,
                705.8683862433862,
                712.0985449735449,
                718.9517195767196,
                725.8048941798942,
                732.6580687830688,
                738.8882275132275,
                744.4953703703704,
                748.482671957672,
                752.5945767195767,
                756.9556878306878,
                761.6283068783068,
                766.6124338624338,
                772.04651675485,
                776.2691798941798,
                780.0072751322751,
                783.7453703703704,
                787.4834656084656,
                791.2215608465608,
                794.4750881834215,
                798.3862433862435,
                804.3048941798942,
                809.9120370370371,
                818.6342592592592,
                825.4874338624338,
                832.3406084656085,
                839.193783068783,
                846.0469576719577,
                852.9001322751324,
                859.7533068783068,
                866.6064814814815,
                873.459656084656,
                879.3783068783068,
                884.6739417989418,
                889.9695767195767,
                894.9537037037037,
                899.9378306878307,
                905.2334656084656,
                911.1521164021165,
                917.0707671957673,
                923.3009259259259,
                929.8425925925926,
                935.7612433862435,
                941.991402116402,
                947.9100529100529,
                953.2056878306878,
                959.1243386243386,
                964.4199735449736,
                969.0925925925926,
                974.0767195767196,
                978.7493386243386,
                983.1104497354497,
                987.4715608465608,
                991.8326719576719,
                996.5052910052909,
                999.9318783068784
            ],
            "units": "nm"
        },
        "values": {
            "value": [
                0.05547019867549663,
                0.04420325105358236,
                0.03573413606261289,
                0.03059217338952447,
                0.029987236604455125,
                0.032104515352197494,
                0.034751113786875454,
                0.043068994581577424,
                0.05796556291390731,
                0.07912994849153776,
                0.10140338484179545,
                0.12487829286239882,
                0.14927740986019145,
                0.17379205298013245,
                0.19820503311258286,
                0.22245165562913916,
                0.2451178807947021,
                0.27148556291390746,
                0.3007645033112585,
                0.3311247682119207,
                0.3615682119205299,
                0.39435452538631366,
                0.42405629139072865,
                0.45073589403973524,
                0.4814213124623721,
                0.5126511739915715,
                0.5395708609271525,
                0.5879425369332654,
                0.6194849006622518,
                0.6444685798381163,
                0.6680821192052981,
                0.6888174077578052,
                0.7095328918322297,
                0.7318987490802061,
                0.7545286660359509,
                0.7739271523178809,
                0.7933494039735101,
                0.813298454746137,
                0.831620897718911,
                0.8522192052980133,
                0.8687320891029502,
                0.8811332931968695,
                0.8893755568934377,
                0.8914172185430465,
                0.8895267910897051,
                0.8770499698976522,
                0.8587695364238411,
                0.8402028382213814,
                0.8164453863134659,
                0.7953078868151717,
                0.7766304635761591,
                0.7563348344370862,
                0.7152860927152319,
                0.6962242825607066,
                0.6762960264900663,
                0.65518940397351,
                0.6098569536423842,
                0.5868903605592348,
                0.5620291390728478,
                0.5409571743929361,
                0.5205437086092716,
                0.5014749668874173,
                0.48360340586565764,
                0.46595761589403983,
                0.4479355408388521,
                0.4272794701986755,
                0.4021594701986755,
                0.377164238410596,
                0.3551911699779249,
                0.33337983811626204,
                0.31221545253863137,
                0.29039091769158,
                0.270071523178808,
                0.25060768211920537,
                0.2319479028697573,
                0.21230846210448884,
                0.1952862131246238,
                0.18159951836243238,
                0.17517206502107174,
                0.18107019867549679,
                0.19807564385577625,
                0.21614392935982352,
                0.23438025285972297,
                0.25288123620309055,
                0.27206781456953655,
                0.2928070640176601,
                0.31221545253863137,
                0.3326219867549669,
                0.35358304635761595,
                0.37362913907284767,
                0.39294930764599645,
                0.4098119205298014,
                0.42958999264164843,
                0.4437639975918122,
                0.447091149909693,
                0.44588127633955443,
                0.4529136664659844,
                0.469423399558499,
                0.48892420897718913,
                0.5061329801324503,
                0.5261434247871335,
                0.5443239356669821,
                0.5631728476821193,
                0.5806403973509935,
                0.5988126563649743,
                0.6156416616496088,
                0.6341174392935983,
                0.6539417218543048,
                0.6739046357615895,
                0.6931743929359824,
                0.7109192052980133,
                0.7308821192052981,
                0.7488033714629742,
                0.7591629139072849,
                0.758255508729681,
                0.7550039735099339,
                0.7518280553883203,
                0.7474422636965684,
                0.7450225165562915,
                0.7439638771824203,
                0.7398805538832031,
                0.7314114388922337,
                0.7158343166767008,
                0.6986503311258279,
                0.680143046357616,
                0.6618437086092717,
                0.6438562913907285,
                0.6258688741721855,
                0.6081471670345844,
                0.5903931125827816,
                0.5732120676968359,
                0.5549211318482843,
                0.5372418543046359,
                0.5199776306107432,
                0.5021403973509935,
                0.4838410596026491,
                0.46498719646799114,
                0.44790781456953643,
                0.43001248817407767,
                0.41033178807947035,
                0.39380000000000015,
                0.3760650898770104,
                0.3570527909176917,
                0.33970406811731335,
                0.3218800378429518,
                0.30365496688741733,
                0.29363885209713025
            ],
            "range": 1
        }
    },
    {
        "model": "Sony IMX585C",
        "name": "Sony IMX585C Blue",
        "type": "OSC_SENSOR",
        "dataQualityMarker": 2,
        "dataSource": "https://player-one-astronomy.com/product/uranus-c-usb3-0-color-camera-imx585/",
        "manufacturer": "Sony",
        "channel": "BLUE",
        "comment": "Covers all cameras using this chip",
        "version": 1,
        "wavelength": {
            "value": [
                402.11982924482925,
                405.2632275132275,
                408.3783068783069,
                412.04451566951565,
                414.9199735449736,
                419.28108465608466,
                424.40365961199296,
                428.15906084656086,
                432.364417989418,
                437.03703703703707,
                442.33267195767195,
                448.5628306878307,
                455.41600529100526,
                462.2691798941799,
                469.12235449735454,
                474.7294973544973,
                477.8445767195767,
                481.27116402116405,
                484.07473544973544,
                486.56679894179894,
                488.74735449735454,
                490.9279100529101,
                492.4854497354497,
                494.55272967772964,
                496.5350529100529,
                498.40410052910056,
                500.27314814814815,
                502.14219576719574,
                503.9333664021164,
                505.67261904761904,
                507.5416666666667,
                509.49378306878305,
                512.3774565381708,
                514.2910052910053,
                516.2045540438397,
                518.8944003527337,
                521.4556878306878,
                524.2592592592592,
                527.6858465608466,
                531.7354497354497,
                537.3425925925926,
                542.6382275132275,
                548.5568783068783,
                554.7870370370371,
                561.3287037037037,
                568.1818783068783,
                575.0350529100529,
                581.8882275132275,
                588.7414021164021,
                595.5945767195767,
                602.4477513227514,
                609.3009259259259,
                623.0072751322751,
                629.8604497354497,
                636.7136243386244,
                643.5667989417989,
                657.2731481481482,
                664.1263227513227,
                670.9794973544974,
                677.8326719576719,
                684.6858465608466,
                691.5390211640212,
                698.3921957671957,
                705.2453703703704,
                712.0985449735449,
                718.9517195767196,
                725.8048941798942,
                732.6580687830688,
                739.5112433862435,
                746.3644179894179,
                753.2175925925926,
                760.0707671957672,
                766.7162698412699,
                770.0390211640212,
                772.2640778533636,
                775.0231481481482,
                776.8921957671957,
                778.5276124338625,
                780.8171957671957,
                782.0320767195767,
                783.1223544973545,
                784.1013794406651,
                785.4364134542706,
                786.5835537918872,
                787.9507275132275,
                789.1745086923659,
                790.2870370370371,
                791.5330687830688,
                792.7791005291006,
                794.0597442680776,
                795.6518959435625,
                796.8287037037037,
                798.2131834215168,
                799.2317649281936,
                800.3887944066515,
                801.6348261526832,
                803.751102292769,
                805.0836640211639,
                807.2330687830688,
                808.6660052910054,
                810.8811728395062,
                813.9616402116402,
                817.0767195767196,
                822.9953703703704,
                829.8485449735449,
                836.7017195767196,
                843.5548941798943,
                850.4080687830688,
                857.2612433862435,
                864.1144179894179,
                870.9675925925926,
                877.8207671957673,
                884.6739417989418,
                891.2156084656085,
                896.8227513227514,
                901.8068783068784,
                906.4794973544974,
                910.8406084656085,
                915.2017195767196,
                919.8743386243386,
                925.1699735449736,
                931.0886243386244,
                937.007275132275,
                942.9259259259259,
                948.8445767195767,
                954.4517195767196,
                960.3703703703704,
                965.6660052910054,
                969.5910052910053,
                975.6342592592594,
                980.6183862433863,
                984.1695767195768,
                989.3406084656085,
                993.7017195767196,
                998.3743386243386
            ],
            "units": "nm"
        },
        "values": {
            "value": [
                0.42780878988561133,
                0.45298172185430474,
                0.47302781456953646,
                0.49267080998471724,
                0.5115277199621571,
                0.5295894039735101,
                0.5484432671081679,
                0.5661880794701988,
                0.5861509933774836,
                0.6043463576158942,
                0.6221951434878589,
                0.6412758579169175,
                0.6511060806742927,
                0.6517866345574955,
                0.6425613485851898,
                0.6231061494796595,
                0.6025788079470199,
                0.5818256953642384,
                0.5607814569536425,
                0.5406105960264902,
                0.5214101545253864,
                0.5022592242194892,
                0.48300927152317885,
                0.4597948223961469,
                0.437260927152318,
                0.41729801324503324,
                0.39641089036055943,
                0.3755237674760854,
                0.35584966887417235,
                0.3357827814569536,
                0.31508050036791757,
                0.2938606622516555,
                0.2719727530747398,
                0.25246534216335537,
                0.23371050141911076,
                0.21258572479764548,
                0.19250728476821188,
                0.17441589403973512,
                0.15507682119205302,
                0.13681907284768213,
                0.11702251655629148,
                0.09918528329654164,
                0.08025748344370864,
                0.062124503311258295,
                0.04677423239012635,
                0.03686839253461782,
                0.03134834437086087,
                0.027340638169777387,
                0.02507212522576774,
                0.022652378085490588,
                0.020459482239614912,
                0.01970331125827829,
                0.021366887417218594,
                0.026130764599638923,
                0.032633835039133086,
                0.04163226971703793,
                0.06446863335340147,
                0.07460132450331125,
                0.08329729078868153,
                0.09048091511137857,
                0.09728645394340751,
                0.10295773630343175,
                0.10636050571944611,
                0.1054531005418422,
                0.10046237206502107,
                0.09252257676098741,
                0.08609512341962677,
                0.0835997591812161,
                0.08450716435882,
                0.08874172185430473,
                0.09547164358819993,
                0.10719229379891648,
                0.12443929359823414,
                0.14218410596026487,
                0.16086963103122054,
                0.18060809418690216,
                0.20260426784400298,
                0.2260907284768212,
                0.2488609271523179,
                0.2721509933774835,
                0.29252980132450346,
                0.3117797540208136,
                0.3318614947965941,
                0.3555608535688006,
                0.3803874172185431,
                0.4026823084200568,
                0.42530397350993376,
                0.44942582781456963,
                0.47344370860927165,
                0.498535982339956,
                0.5238593083149375,
                0.5476807947019868,
                0.5699773362766742,
                0.5909040681173132,
                0.6121740775780512,
                0.6327311258278147,
                0.6548197203826344,
                0.6767119205298014,
                0.696861986754967,
                0.7172170293282877,
                0.7383682119205299,
                0.7582479470198676,
                0.7775662251655631,
                0.7930393738711621,
                0.7957615894039736,
                0.7866875376279351,
                0.7735301625526791,
                0.7640024081878388,
                0.7547015051173992,
                0.7463836243226972,
                0.7381413606261289,
                0.7267987959060808,
                0.710994822396147,
                0.6931189403973511,
                0.6752562913907285,
                0.6563331125827816,
                0.6377218543046358,
                0.6202543046357617,
                0.6027867549668875,
                0.5844874172185431,
                0.5661880794701988,
                0.5475560264900662,
                0.5299590875643856,
                0.5121218543046359,
                0.4937300956585726,
                0.47413686534216337,
                0.45705748344370867,
                0.4395186376537372,
                0.42120741721854316,
                0.4023258278145696,
                0.383194701986755,
                0.3645626490066225,
                0.3456454115421004,
                0.32710842005676466,
                0.3087496688741722
            ],
            "range": 1
        }
    }
]
